,num_PILs,sum_PIL_length,sum_RoPI_Area,sum_mag_field_strength,fra_dim,eige_vals,convexity,Hu1,Hu2,Hu3,Hu4,Hu5,Hu6,Hu7,patch_shape,detection_flag
2012-08-30 00:24:00,1,42,149,17611.6,0.6670536362793887,"(30.315620464794243, 6.020035748910753)",1.2292242142373695,0.4222681135946442,0.07971962950994368,0.005359485051937506,0.0007081340426613426,1.2586249171047612e-06,0.0001430279835115889,-5.647989218233874e-07,"(182, 348)",detected
2012-08-30 00:36:00,1,15,85,10937.4,0.46755794218857955,"(16.923823224929546, 2.028557727451405)",1.7980375165651428,0.5896296296296295,0.21474721536351168,0.06066901200020471,0.009443279337499756,-0.00010268460214633805,-0.0023067819054442946,-0.0002013599193658462,"(182, 348)",detected
2012-08-30 00:48:00,1,23,90,10370.3,0.5887003574107154,"(29.487406076066833, 3.24381922037586)",1.751490054237474,0.6806114900961617,0.2977970632513309,0.0598196874425326,0.009798991649416798,-1.7403052757920316e-05,-0.0033413597613531384,-0.000236604242636366,"(182, 348)",detected
2012-08-30 01:00:00,1,16,58,4760.4,0.5051342858791216,"(18.058419838045623, 2.4040801619543792)",1.8321067811865475,0.399658203125,0.09348234203126693,0.02103770603813852,0.0034731115684499617,-1.0980595335917672e-05,-0.000405724623294961,2.7582404939662535e-05,"(182, 348)",detected
2012-08-30 01:12:00,1,15,39,2263.2,0.48676498886537234,"(10.638705208814082, 3.3517709816621064)",1.5380711874576984,0.14508641975308642,0.0057105538789818605,0.0007654186520949688,0.00014781399517162079,-4.4872889136093474e-08,-1.0787918819775125e-05,-2.1410467447121404e-08,"(182, 348)",detected
2012-08-30 01:24:00,2,36,107,8206.3,0.7509575773937478,"(91.23524099355603, 5.643330435015384)",1.8777216596235182,1.0336142440305887,0.8399131018892956,0.12726642756785458,0.10618171696046304,0.012335738120007864,0.08975118562082204,-0.0004322044385791559,"(182, 348)",detected
2012-08-30 01:36:00,0,nan,nan,nan,nan,"(nan, nan)",nan,nan,nan,nan,nan,nan,nan,nan,"(182, 348)",no pil E/W
2012-08-30 01:48:00,0,nan,nan,nan,nan,"(nan, nan)",nan,nan,nan,nan,nan,nan,nan,nan,"(182, 348)",no pil E/W
2012-08-30 02:00:00,0,nan,nan,nan,nan,"(nan, nan)",nan,nan,nan,nan,nan,nan,nan,nan,"(182, 348)",no pil E/W
2012-08-30 02:12:00,0,nan,nan,nan,nan,"(nan, nan)",nan,nan,nan,nan,nan,nan,nan,nan,"(182, 348)",no pil E/W
2012-08-30 02:24:00,1,17,49,4264.2,0.41741829926962337,"(2.490060966787029, 11.215821386154142)",1.6310542389034033,0.12646719587488975,0.006482586912082527,0.0012289154792903194,0.00016507555623884151,3.6231143543468546e-08,4.6861436570657765e-06,6.49255986817202e-08,"(182, 348)",detected
2012-08-30 02:36:00,0,nan,nan,nan,nan,"(nan, nan)",nan,nan,nan,nan,nan,nan,nan,nan,"(182, 348)",no pil E/W
2012-08-30 02:48:00,0,nan,nan,nan,nan,"(nan, nan)",nan,nan,nan,nan,nan,nan,nan,nan,"(182, 348)",no pil E/W
2012-08-30 03:00:00,0,nan,nan,nan,nan,"(nan, nan)",nan,nan,nan,nan,nan,nan,nan,nan,"(182, 348)",no pil E/W
2012-08-30 03:12:00,0,nan,nan,nan,nan,"(nan, nan)",nan,nan,nan,nan,nan,nan,nan,nan,"(182, 348)",no pil E/W
2012-08-30 03:24:00,0,nan,nan,nan,nan,"(nan, nan)",nan,nan,nan,nan,nan,nan,nan,nan,"(182, 348)",no pil E/W
2012-08-30 03:36:00,0,nan,nan,nan,nan,"(nan, nan)",nan,nan,nan,nan,nan,nan,nan,nan,"(182, 348)",no pil E/W
2012-08-30 03:48:00,0,nan,nan,nan,nan,"(nan, nan)",nan,nan,nan,nan,nan,nan,nan,nan,"(182, 348)",no pil E/W
2012-08-30 04:00:00,0,nan,nan,nan,nan,"(nan, nan)",nan,nan,nan,nan,nan,nan,nan,nan,"(182, 348)",no pil E/W
2012-08-30 04:12:00,0,nan,nan,nan,nan,"(nan, nan)",nan,nan,nan,nan,nan,nan,nan,nan,"(182, 348)",no pil E/W
2012-08-30 04:24:00,0,nan,nan,nan,nan,"(nan, nan)",nan,nan,nan,nan,nan,nan,nan,nan,"(182, 348)",no pil E/W
2012-08-30 04:36:00,0,nan,nan,nan,nan,"(nan, nan)",nan,nan,nan,nan,nan,nan,nan,nan,"(182, 348)",no pil E/W
2012-08-30 04:48:00,0,nan,nan,nan,nan,"(nan, nan)",nan,nan,nan,nan,nan,nan,nan,nan,"(182, 348)",no pil E/W
2012-08-30 05:00:00,0,nan,nan,nan,nan,"(nan, nan)",nan,nan,nan,nan,nan,nan,nan,nan,"(182, 348)",no pil E/W
2012-08-30 05:12:00,0,nan,nan,nan,nan,"(nan, nan)",nan,nan,nan,nan,nan,nan,nan,nan,"(182, 348)",no pil E/W
2012-08-30 05:24:00,0,nan,nan,nan,nan,"(nan, nan)",nan,nan,nan,nan,nan,nan,nan,nan,"(182, 348)",no pil E/W
2012-08-30 05:36:00,0,nan,nan,nan,nan,"(nan, nan)",nan,nan,nan,nan,nan,nan,nan,nan,"(182, 348)",no pil E/W
2012-08-30 05:48:00,0,nan,nan,nan,nan,"(nan, nan)",nan,nan,nan,nan,nan,nan,nan,nan,"(182, 348)",no pil E/W
2012-08-30 06:00:00,1,14,35,2818.1,0.49612937076000824,"(13.862215229909765, 0.8465759788814444)",1.7514868057265218,0.1083981211532232,0.009200693192420348,7.646588773876377e-05,1.8437051815714127e-05,5.746991470840333e-10,1.3140467641588825e-06,-3.8593894199787366e-10,"(182, 348)",detected
2012-08-30 06:12:00,0,nan,nan,nan,nan,"(nan, nan)",nan,nan,nan,nan,nan,nan,nan,nan,"(182, 348)",no pil E/W
2012-08-30 06:24:00,0,nan,nan,nan,nan,"(nan, nan)",nan,nan,nan,nan,nan,nan,nan,nan,"(182, 348)",no pil E/W
2012-08-30 06:36:00,0,nan,nan,nan,nan,"(nan, nan)",nan,nan,nan,nan,nan,nan,nan,nan,"(182, 348)",no pil E/W
2012-08-30 06:48:00,1,21,79,5413.5,0.5407089286744512,"(4.174350949569364, 12.01612524090683)",1.59961348057318,0.10489456553596495,0.002581162864187507,0.0006063716292035779,9.732721878697876e-06,4.964542932195879e-10,4.215347818288198e-07,5.590811721177997e-10,"(182, 348)",detected
2012-08-30 07:00:00,1,23,72,5994.3,0.5724792745796579,"(2.077422708759478, 19.00953381297965)",1.5114546072735042,0.12528032500088057,0.01011952567523566,0.00011035855172166723,5.4864862186549154e-05,3.056278517767325e-09,1.975097502888122e-06,2.9807812550826056e-09,"(182, 348)",detected
2012-08-30 07:12:00,0,nan,nan,nan,nan,"(nan, nan)",nan,nan,nan,nan,nan,nan,nan,nan,"(182, 348)",no pil E/W
2012-08-30 07:24:00,0,nan,nan,nan,nan,"(nan, nan)",nan,nan,nan,nan,nan,nan,nan,nan,"(182, 348)",no pil E/W
2012-08-30 07:36:00,0,nan,nan,nan,nan,"(nan, nan)",nan,nan,nan,nan,nan,nan,nan,nan,"(182, 348)",no pil E/W
2012-08-30 07:48:00,0,nan,nan,nan,nan,"(nan, nan)",nan,nan,nan,nan,nan,nan,nan,nan,"(182, 348)",no pil E/W
2012-08-30 08:00:00,0,nan,nan,nan,nan,"(nan, nan)",nan,nan,nan,nan,nan,nan,nan,nan,"(182, 348)",no pil E/W
2012-08-30 08:12:00,0,nan,nan,nan,nan,"(nan, nan)",nan,nan,nan,nan,nan,nan,nan,nan,"(182, 348)",no pil E/W
2012-08-30 08:24:00,0,nan,nan,nan,nan,"(nan, nan)",nan,nan,nan,nan,nan,nan,nan,nan,"(182, 348)",no pil E/W
2012-08-30 08:36:00,1,15,50,4196.2,0.4549946429601654,"(8.162903913902499, 2.1704294194308345)",1.4461592103616745,0.642962962962963,0.13902836762688617,0.09129246915612496,0.015915081562770175,0.0005287708389819001,0.005479480626261089,0.0002973433088071195,"(182, 348)",detected
2012-08-30 08:48:00,0,nan,nan,nan,nan,"(nan, nan)",nan,nan,nan,nan,nan,nan,nan,nan,"(182, 348)",no pil E/W
2012-08-30 09:00:00,0,nan,nan,nan,nan,"(nan, nan)",nan,nan,nan,nan,nan,nan,nan,nan,"(182, 348)",no pil E/W
2012-08-30 09:12:00,0,nan,nan,nan,nan,"(nan, nan)",nan,nan,nan,nan,nan,nan,nan,nan,"(182, 348)",no pil E/W
2012-08-30 09:24:00,1,19,54,3665.1,0.5051342858791218,"(13.550172418414792, 5.438131675152459)",1.5864281907226816,0.31559508188754437,0.01817809394289894,0.009709135392818898,0.0017977576918288556,-1.8391308727255477e-06,2.4253446818306133e-05,7.2821649153697225e-06,"(182, 348)",detected
2012-08-30 09:36:00,0,nan,nan,nan,nan,"(nan, nan)",nan,nan,nan,nan,nan,nan,nan,nan,"(182, 348)",no pil E/W
2012-08-30 09:48:00,1,14,29,1940.3,0.3714285714285716,"(0.11168231492605685, 17.696009992766253)",1.6576504843704676,0.19685374149659865,0.03778536286963765,0.0,0.0,0.0,0.0,0.0,"(182, 348)",detected
2012-08-30 10:00:00,0,nan,nan,nan,nan,"(nan, nan)",nan,nan,nan,nan,nan,nan,nan,nan,"(182, 348)",no pil E/W
2012-08-30 10:12:00,0,nan,nan,nan,nan,"(nan, nan)",nan,nan,nan,nan,nan,nan,nan,nan,"(182, 348)",no pil E/W
2012-08-30 10:24:00,0,nan,nan,nan,nan,"(nan, nan)",nan,nan,nan,nan,nan,nan,nan,nan,"(182, 348)",no pil E/W
2012-08-30 10:36:00,2,36,120,16420.2,0.7859778816456984,"(10.737708077812272, 79.02022843012422)",1.9265371960924271,0.2798395455936778,0.04029481644153466,0.015582222795038455,0.005480780501693485,4.942669977368424e-05,0.0005021410677324026,1.1063927489561047e-05,"(182, 348)",detected
2012-08-30 10:48:00,1,15,24,1286.1,0.46755794218857955,"(0.24808249581196407, 20.161441313711844)",1.7885618083164128,0.21165432098765433,0.04264592836457856,0.00010804830802289352,1.2243002824395067e-05,-4.2148226863064086e-10,-2.380034996272397e-06,-1.4364548542297835e-10,"(182, 348)",detected
2012-08-30 11:00:00,3,62,139,8424.8,0.7844411499863342,"(793.2199025242561, 59.19707262116955)",2.923088603206872,2.7316836699104865,5.219235641846889,10.489454615119431,11.593149237961732,126.3751740248155,23.11801613094442,-19.32023600373924,"(182, 348)",detected
2012-08-30 11:12:00,1,20,63,7765.1,0.5309989285920333,"(32.6163801300078, 2.7415146068343024)",1.9692388155425118,0.16795,0.020137202500000007,0.0012539136104999884,0.00016931681049999817,-7.690729681013207e-08,-2.3972703201524727e-05,-1.310613879716806e-08,"(182, 348)",detected
2012-08-30 11:24:00,0,nan,nan,nan,nan,"(nan, nan)",nan,nan,nan,nan,nan,nan,nan,nan,"(182, 348)",no pil E/W
2012-08-30 11:36:00,0,nan,nan,nan,nan,"(nan, nan)",nan,nan,nan,nan,nan,nan,nan,nan,"(182, 348)",no pil E/W
2012-08-30 11:48:00,1,22,64,7124.7,0.5309989285920333,"(43.21696921399013, 0.7527277557068293)",1.6928473039599674,0.13626972201352366,0.017319627057200755,0.0001528556184451988,1.89134203216037e-05,-5.879985515917492e-10,-1.7583681817009202e-06,8.297149957897057e-10,"(182, 348)",detected
2012-08-30 12:00:00,1,15,54,6633.7,0.5337057144505503,"(22.85134457294789, 0.27246495086163103)",1.9932996624407775,0.1308013468013468,0.01631212125746806,5.120881994641634e-07,1.0291929608717569e-07,1.085757037971618e-14,8.148993392203423e-09,-2.0985029585345015e-14,"(182, 348)",detected
2012-08-30 12:12:00,0,nan,nan,nan,nan,"(nan, nan)",nan,nan,nan,nan,nan,nan,nan,nan,"(182, 348)",no pil E/W
2012-08-30 12:24:00,2,30,89,10404.1,0.6314712448790428,"(312.94769177042417, 6.670699034173493)",3.332555313429567,1.2078697936691016,1.3416706310707756,0.03781951395085421,0.016512490979910532,0.00039308076966999036,0.010188450467401302,-0.0001255532546851746,"(182, 348)",detected
2012-08-30 12:36:00,1,15,31,2006.0,0.3714285714285716,"(1.5913828972070814, 15.770521864697681)",1.712825877028341,0.18004938271604937,0.021621621094345376,0.002174558257236435,0.00028322597387856255,-1.52165641505126e-07,-2.878596074592865e-05,-1.6202020552102799e-07,"(182, 348)",detected
2012-08-30 12:48:00,2,34,95,9718.5,0.6511146054147479,"(338.6146897577441, 9.244490277906552)",3.182920590882538,1.0917330550201767,1.0705326003035152,0.059623971165070386,0.03894571825716718,0.0018670673267254783,0.03124050751083165,-0.0001901219883480083,"(182, 348)",detected
2012-08-30 13:00:00,3,46,141,13785.5,0.5874926406920308,"(2073.8163528656237, 98.20925099910949)",5.698897354318856,2.4942995617022703,3.293825058406167,56.69868446310579,38.49245162931401,1771.6683910620875,49.26726460987273,308.0436940611665,"(182, 348)",detected
2012-08-30 13:12:00,1,16,57,9456.0,0.49612937076000824,"(23.70558701767568, 0.40691298232432094)",1.7307742597140698,0.1284401633522727,0.015402088973147807,0.00016098976777068806,2.133419862643982e-05,-6.376933039871548e-10,-2.0482663645165104e-06,1.0754501713805932e-09,"(182, 348)",detected
2012-08-30 13:24:00,1,15,45,7482.3,0.5337057144505503,"(22.537216615659446, 0.29135481291198007)",1.6299831645537222,0.12913131313131315,0.015834491990613205,0.00016714286089546023,3.611526136170492e-05,1.5098158341613321e-09,3.5356803663026534e-07,2.3651250071718992e-09,"(182, 348)",detected
2012-08-30 13:36:00,2,31,110,13380.0,0.7121375001030223,"(312.0866297548254, 7.612294976357399)",3.315146858764531,1.0534307873734898,1.0076911407847584,0.0013651053939023297,0.0001553777406146363,-3.1269987976017385e-08,-0.0001397899877194603,-6.436556716996588e-08,"(182, 348)",detected
2012-08-30 13:48:00,0,nan,nan,nan,nan,"(nan, nan)",nan,nan,nan,nan,nan,nan,nan,nan,"(182, 348)",no pil E/W
2012-08-30 14:00:00,2,29,101,7446.8,0.605413571717034,"(234.11241904428763, 3.562457803002964)",2.980220926592857,0.9189458133940791,0.7969116872037156,0.05503702998777195,0.05603970220387713,0.00311213678853572,0.04851588866509858,2.365555891279238e-05,"(182, 348)",detected
2012-08-30 14:12:00,0,nan,nan,nan,nan,"(nan, nan)",nan,nan,nan,nan,nan,nan,nan,nan,"(182, 348)",no pil E/W
2012-08-30 14:24:00,1,15,84,10380.7,0.46755794218857966,"(4.096900067905272, 7.369766598761393)",1.7542472332656507,0.08918518518518517,0.0006479890260631005,0.0009288896810445541,3.435097901742281e-06,-1.610337938644376e-10,-3.895337375926285e-08,1.0825686587176949e-10,"(182, 348)",detected
2012-08-30 14:36:00,0,nan,nan,nan,nan,"(nan, nan)",nan,nan,nan,nan,nan,nan,nan,nan,"(182, 348)",no pil E/W
2012-08-30 14:48:00,1,24,92,9428.5,0.5142857142857145,"(27.65150707012031, 3.084000176256495)",1.7172168098165177,0.15341073495370375,0.015036712785153075,0.0008593827637875508,0.00014509155700266724,5.121995779848757e-08,1.6378923185801616e-05,-1.190686802727684e-09,"(182, 348)",detected
2012-08-30 15:36:00,1,15,45,6041.7,0.381843656474294,"(20.511731667843918, 0.69779214167989)",1.9932996624407777,0.16496296296296298,0.02374940466392318,0.00048174031113144003,5.118911466748046e-05,-7.918474877745764e-09,-7.235517591273653e-06,1.3836960246843566e-09,"(182, 348)",detected
2012-08-30 15:48:00,1,25,64,5385.8,0.5143588255700032,"(47.79504358933528, 1.2749564106647089)",1.8594112549695427,0.1884288,0.03191122591743999,0.0004422882395679687,0.00012340105746789644,2.640582396936883e-08,1.9058889188286145e-05,1.1569322009679842e-08,"(182, 348)",detected
2012-08-30 16:00:00,0,nan,nan,nan,nan,"(nan, nan)",nan,nan,nan,nan,nan,nan,nan,nan,"(182, 348)",no pil E/W
2012-08-30 16:12:00,0,nan,nan,nan,nan,"(nan, nan)",nan,nan,nan,nan,nan,nan,nan,nan,"(182, 348)",no pil E/W
2012-08-30 16:24:00,1,21,66,5222.7,0.5142857142857145,"(27.465687402134172, 3.4771697407229762)",1.8934979032043142,0.11694201490119858,0.008219154507407421,0.0007940828605917569,7.52433952700386e-05,-9.127562570850557e-09,-4.030550459361e-06,1.5967574550936935e-08,"(182, 348)",detected
2012-08-30 16:36:00,1,15,59,5414.9,0.381843656474294,"(19.758067013344494, 0.7657425104650291)",1.8990187582825715,0.12770370370370374,0.013965203840877924,0.00011530270304323569,1.13502684753344e-05,6.364886010782782e-11,3.0150535965791744e-07,4.056463327877549e-10,"(182, 348)",detected
2012-08-30 16:48:00,2,37,88,5147.9,0.6658338674308705,"(70.28137664934717, 7.434839566869057)",1.6702429695465764,0.2000855869717068,0.026767977414252006,0.002779140827750409,0.001129369137824098,2.0000265258405797e-06,0.00018476876783539287,5.652799703972937e-08,"(182, 348)",detected
2012-08-30 17:00:00,1,14,39,2619.1,0.41741829926962337,"(17.505656796502358, 0.7635739727284128)",1.933647700847534,0.12117346938775511,0.012330864743856725,0.00031870091330993034,3.951664485035997e-05,-2.6636693091902987e-09,-3.8646248776627336e-06,-3.545589349582271e-09,"(182, 348)",detected
2012-08-30 17:12:00,1,14,45,4289.3,0.41741829926962337,"(17.629908308547865, 1.056904878265321)",1.8351705825303652,0.15492893586005832,0.01887978430875422,0.0010537359751834872,0.00014319264953898978,-1.6100372336715252e-08,-1.3725214534522168e-05,-5.324087206929373e-08,"(182, 348)",detected
2012-08-30 17:24:00,2,29,76,5500.3,0.6172717859821443,"(117.34680663023747, 3.9167401677920806)",2.3580957348569047,0.36780673282617843,0.11737237154595273,0.002955974842254265,0.0007097568490848711,8.690261107317271e-07,0.00015058355045445283,-5.492567161679785e-07,"(182, 348)",detected
2012-08-30 17:36:00,1,15,35,2452.0,0.33585392863324215,"(18.28346732949512, 0.7260564800286907)",1.643790283299492,0.11828148148148147,0.011934712976680383,0.00023765430640126508,2.8823133202053857e-05,-1.4023080421582811e-09,-1.7729175051114158e-06,1.929839072886693e-09,"(182, 348)",detected
2012-08-30 17:48:00,2,39,128,11795.9,0.6837668505857075,"(11.636812496942124, 42.12702016162738)",1.5669922659540536,0.14144685814258637,0.0068187414565793756,0.0007693944302421355,0.00010359930406468742,1.747165481155812e-08,3.7971563338553573e-06,-2.345720291362601e-08,"(182, 348)",detected
2012-08-30 18:00:00,1,23,88,8832.9,0.48676498886537234,"(18.11212591397578, 4.271273295510382)",1.617965366765062,0.1034309562295097,0.00409048389443648,0.0002246048617088588,3.120192547447116e-06,2.6684284597660064e-11,1.9118415155204813e-07,7.81713496896872e-11,"(182, 348)",detected
2012-08-30 18:12:00,0,nan,nan,nan,nan,"(nan, nan)",nan,nan,nan,nan,nan,nan,nan,nan,"(182, 348)",no pil E/W
2012-08-30 18:24:00,0,nan,nan,nan,nan,"(nan, nan)",nan,nan,nan,nan,nan,nan,nan,nan,"(182, 348)",no pil E/W
2012-08-30 18:36:00,0,nan,nan,nan,nan,"(nan, nan)",nan,nan,nan,nan,nan,nan,nan,nan,"(182, 348)",no pil E/W
2012-08-30 18:48:00,0,nan,nan,nan,nan,"(nan, nan)",nan,nan,nan,nan,nan,nan,nan,nan,"(182, 348)",no pil E/W
2012-08-30 19:00:00,0,nan,nan,nan,nan,"(nan, nan)",nan,nan,nan,nan,nan,nan,nan,nan,"(182, 348)",no pil E/W
2012-08-30 19:12:00,0,nan,nan,nan,nan,"(nan, nan)",nan,nan,nan,nan,nan,nan,nan,nan,"(182, 348)",no pil E/W
2012-08-30 19:24:00,0,nan,nan,nan,nan,"(nan, nan)",nan,nan,nan,nan,nan,nan,nan,nan,"(182, 348)",no pil E/W
2012-08-30 19:36:00,0,nan,nan,nan,nan,"(nan, nan)",nan,nan,nan,nan,nan,nan,nan,nan,"(182, 348)",no pil E/W
2012-08-30 19:48:00,0,nan,nan,nan,nan,"(nan, nan)",nan,nan,nan,nan,nan,nan,nan,nan,"(182, 348)",no pil E/W
2012-08-30 20:00:00,0,nan,nan,nan,nan,"(nan, nan)",nan,nan,nan,nan,nan,nan,nan,nan,"(182, 348)",no pil E/W
2012-08-30 20:12:00,0,nan,nan,nan,nan,"(nan, nan)",nan,nan,nan,nan,nan,nan,nan,nan,"(182, 348)",no pil E/W
2012-08-30 20:24:00,0,nan,nan,nan,nan,"(nan, nan)",nan,nan,nan,nan,nan,nan,nan,nan,"(182, 348)",no pil E/W
2012-08-30 20:36:00,0,nan,nan,nan,nan,"(nan, nan)",nan,nan,nan,nan,nan,nan,nan,nan,"(182, 348)",no pil E/W
2012-08-30 20:48:00,0,nan,nan,nan,nan,"(nan, nan)",nan,nan,nan,nan,nan,nan,nan,nan,"(182, 348)",no pil E/W
2012-08-30 21:00:00,0,nan,nan,nan,nan,"(nan, nan)",nan,nan,nan,nan,nan,nan,nan,nan,"(182, 348)",no pil E/W
2012-08-30 21:12:00,0,nan,nan,nan,nan,"(nan, nan)",nan,nan,nan,nan,nan,nan,nan,nan,"(182, 348)",no pil E/W
2012-08-30 21:24:00,0,nan,nan,nan,nan,"(nan, nan)",nan,nan,nan,nan,nan,nan,nan,nan,"(182, 348)",no pil E/W
2012-08-30 21:36:00,0,nan,nan,nan,nan,"(nan, nan)",nan,nan,nan,nan,nan,nan,nan,nan,"(182, 348)",no pil E/W
2012-08-30 21:48:00,0,nan,nan,nan,nan,"(nan, nan)",nan,nan,nan,nan,nan,nan,nan,nan,"(182, 348)",no pil E/W
2012-08-30 22:00:00,0,nan,nan,nan,nan,"(nan, nan)",nan,nan,nan,nan,nan,nan,nan,nan,"(182, 348)",no pil E/W
2012-08-30 22:12:00,0,nan,nan,nan,nan,"(nan, nan)",nan,nan,nan,nan,nan,nan,nan,nan,"(182, 348)",no pil E/W
2012-08-30 22:24:00,0,nan,nan,nan,nan,"(nan, nan)",nan,nan,nan,nan,nan,nan,nan,nan,"(182, 348)",no pil E/W
2012-08-30 22:36:00,0,nan,nan,nan,nan,"(nan, nan)",nan,nan,nan,nan,nan,nan,nan,nan,"(182, 348)",no pil E/W
2012-08-30 22:48:00,0,nan,nan,nan,nan,"(nan, nan)",nan,nan,nan,nan,nan,nan,nan,nan,"(182, 348)",no pil E/W
2012-08-30 23:00:00,1,22,65,3880.8,0.5891924888859768,"(0.9924541283840824, 38.57680994087999)",1.8843565510325322,1.716848234410218,2.6592678804878873,0.30032287801979374,0.15787783045491155,0.03436400741194421,0.25619737726129505,-0.0009676981540767474,"(182, 348)",detected
2012-08-30 23:12:00,0,nan,nan,nan,nan,"(nan, nan)",nan,nan,nan,nan,nan,nan,nan,nan,"(182, 348)",no pil E/W
2012-08-30 23:24:00,0,nan,nan,nan,nan,"(nan, nan)",nan,nan,nan,nan,nan,nan,nan,nan,"(182, 348)",no pil E/W
2012-08-30 23:36:00,0,nan,nan,nan,nan,"(nan, nan)",nan,nan,nan,nan,nan,nan,nan,nan,"(182, 348)",no pil E/W
2012-08-30 23:48:00,0,nan,nan,nan,nan,"(nan, nan)",nan,nan,nan,nan,nan,nan,nan,nan,"(182, 348)",no pil E/W
2012-08-31 00:00:00,0,nan,nan,nan,nan,"(nan, nan)",nan,nan,nan,nan,nan,nan,nan,nan,"(182, 348)",no pil E/W
2012-08-31 00:12:00,0,nan,nan,nan,nan,"(nan, nan)",nan,nan,nan,nan,nan,nan,nan,nan,"(182, 348)",no pil E/W
2012-08-31 00:24:00,0,nan,nan,nan,nan,"(nan, nan)",nan,nan,nan,nan,nan,nan,nan,nan,"(182, 348)",no pil E/W
2012-08-31 00:36:00,0,nan,nan,nan,nan,"(nan, nan)",nan,nan,nan,nan,nan,nan,nan,nan,"(182, 348)",no pil E/W
2012-08-31 00:48:00,0,nan,nan,nan,nan,"(nan, nan)",nan,nan,nan,nan,nan,nan,nan,nan,"(182, 348)",no pil E/W
2012-08-31 01:00:00,0,nan,nan,nan,nan,"(nan, nan)",nan,nan,nan,nan,nan,nan,nan,nan,"(182, 348)",no pil E/W
2012-08-31 01:12:00,0,nan,nan,nan,nan,"(nan, nan)",nan,nan,nan,nan,nan,nan,nan,nan,"(182, 348)",no pil E/W
2012-08-31 01:24:00,0,nan,nan,nan,nan,"(nan, nan)",nan,nan,nan,nan,nan,nan,nan,nan,"(182, 348)",no pil E/W
2012-08-31 01:36:00,0,nan,nan,nan,nan,"(nan, nan)",nan,nan,nan,nan,nan,nan,nan,nan,"(182, 348)",no pil E/W
2012-08-31 01:48:00,0,nan,nan,nan,nan,"(nan, nan)",nan,nan,nan,nan,nan,nan,nan,nan,"(182, 348)",no pil E/W
2012-08-31 02:00:00,0,nan,nan,nan,nan,"(nan, nan)",nan,nan,nan,nan,nan,nan,nan,nan,"(182, 348)",no pil E/W
2012-08-31 02:12:00,0,nan,nan,nan,nan,"(nan, nan)",nan,nan,nan,nan,nan,nan,nan,nan,"(182, 348)",no pil E/W
2012-08-31 02:24:00,0,nan,nan,nan,nan,"(nan, nan)",nan,nan,nan,nan,nan,nan,nan,nan,"(182, 348)",no pil E/W
2012-08-31 02:36:00,1,16,61,7612.5,0.5821892746620759,"(3.3091909151109267, 12.215809084889072)",1.6963834764831844,0.10107421875,0.003362352465405876,0.0005688076827353166,7.117995021376755e-05,-4.302673617025429e-09,-5.03215494374552e-07,-1.3660944285083675e-08,"(182, 348)",detected
2012-08-31 02:48:00,1,22,76,8878.3,0.5504189287568692,"(21.81689880378002, 7.051066564185345)",1.7165207257859358,0.2087559479088405,0.011401479881694421,0.00625189648458927,0.0007122031021768364,-1.4190990803925809e-06,-7.229602171666862e-05,4.946461245419903e-07,"(182, 348)",detected
2012-08-31 03:00:00,1,19,66,8432.0,0.5128425850663271,"(11.268663313103625, 5.5032665114577775)",1.533796611775313,0.13937891820965156,0.0022955487030014614,0.0018337909641102498,0.00031941240634741626,-2.4401177916618333e-07,-1.4986538125185681e-05,-1.4748085874281029e-08,"(182, 348)",detected
2012-08-31 03:12:00,1,19,82,10923.1,0.5978517858173084,"(12.26978546844854, 6.56647184149298)",1.63905976967005,0.18784079311853039,0.0032347826582310116,0.004562737330161146,0.0006095719220591921,-4.4643588734327284e-07,-1.219518950754534e-05,9.133295379991895e-07,"(182, 348)",detected
2012-08-31 03:24:00,1,18,74,8184.0,0.5978517858173084,"(9.527042048097801, 6.446814161052525)",1.6305134669398609,0.20953360768175583,0.0016325013030609227,0.006801927149451348,0.0007245046815472324,-1.234210069862975e-06,-2.2119576111389537e-05,1.0312526827041517e-06,"(182, 348)",detected
2012-08-31 03:36:00,0,nan,nan,nan,nan,"(nan, nan)",nan,nan,nan,nan,nan,nan,nan,nan,"(182, 348)",no pil E/W
2012-08-31 03:48:00,0,nan,nan,nan,nan,"(nan, nan)",nan,nan,nan,nan,nan,nan,nan,nan,"(182, 348)",no pil E/W
2012-08-31 04:00:00,0,nan,nan,nan,nan,"(nan, nan)",nan,nan,nan,nan,nan,nan,nan,nan,"(182, 348)",no pil E/W
2012-08-31 04:12:00,0,nan,nan,nan,nan,"(nan, nan)",nan,nan,nan,nan,nan,nan,nan,nan,"(182, 348)",no pil E/W
2012-08-31 04:24:00,0,nan,nan,nan,nan,"(nan, nan)",nan,nan,nan,nan,nan,nan,nan,nan,"(182, 348)",no pil E/W
2012-08-31 04:36:00,1,20,104,14929.3,0.5504189287568692,"(19.68934757061095, 4.42381032412589)",1.6571067811865476,0.14317187499999998,0.008215451416015622,0.0015899505876617605,0.0002214203777008135,-7.778894727816553e-09,1.297952385726382e-06,1.3114615453310052e-07,"(182, 348)",detected
2012-08-31 04:48:00,1,15,72,8725.1,0.5128425850663271,"(2.2877528131978417, 8.959866234421204)",1.5266329957741112,0.07776131687242799,0.002127810056055141,0.00031031036638651206,5.7572699953801595e-05,1.9929526862510603e-10,-1.3477430679699165e-07,-7.692674227341886e-09,"(182, 348)",detected
2012-08-31 05:00:00,0,nan,nan,nan,nan,"(nan, nan)",nan,nan,nan,nan,nan,nan,nan,nan,"(182, 348)",no pil E/W
2012-08-31 05:12:00,1,14,65,8125.2,0.445989727841052,"(3.3853350525583457, 9.257522090298798)",1.6948515758112754,0.11979383590170761,0.003095838108722226,0.0007045933582351692,0.00013418446957128678,2.316797728006167e-09,8.137982029341312e-07,-4.1194277976130606e-08,"(182, 348)",detected
2012-08-31 05:24:00,1,15,56,6836.3,0.445989727841052,"(2.6032204957623932, 11.387255694713792)",1.6599663291074445,0.1741037037037037,0.01194920910836763,0.0020385313731703597,0.0006120013401144146,4.0536155951866095e-07,4.110447526786606e-05,-5.504172315596514e-07,"(182, 348)",detected
2012-08-31 05:36:00,1,17,68,7433.8,0.4835660715315941,"(2.7611245104598954, 16.547699018951867)",1.6411467609771566,0.1781667684374788,0.016182831925709764,0.002149858441387845,0.000769389485286612,7.318819493700115e-07,6.296125539509659e-05,-6.659560096990096e-07,"(182, 348)",detected
2012-08-31 05:48:00,1,17,67,6322.6,0.5654760603557573,"(2.0925476506710083, 19.436864114034876)",1.7587938198006863,0.23838795033584373,0.036882355468357254,0.004371676273173806,0.001574333687075697,3.1508105715625107e-06,0.00015715647748210354,-2.670354907689392e-06,"(182, 348)",detected
2012-08-31 06:00:00,0,nan,nan,nan,nan,"(nan, nan)",nan,nan,nan,nan,nan,nan,nan,nan,"(182, 348)",no pil E/W
2012-08-31 06:12:00,0,nan,nan,nan,nan,"(nan, nan)",nan,nan,nan,nan,nan,nan,nan,nan,"(182, 348)",no pil E/W
2012-08-31 06:24:00,0,nan,nan,nan,nan,"(nan, nan)",nan,nan,nan,nan,nan,nan,nan,nan,"(182, 348)",no pil E/W
2012-08-31 06:36:00,0,nan,nan,nan,nan,"(nan, nan)",nan,nan,nan,nan,nan,nan,nan,nan,"(182, 348)",no pil E/W
2012-08-31 06:48:00,0,nan,nan,nan,nan,"(nan, nan)",nan,nan,nan,nan,nan,nan,nan,nan,"(182, 348)",no pil E/W
2012-08-31 07:00:00,0,nan,nan,nan,nan,"(nan, nan)",nan,nan,nan,nan,nan,nan,nan,nan,"(182, 348)",no pil E/W
2012-08-31 07:12:00,0,nan,nan,nan,nan,"(nan, nan)",nan,nan,nan,nan,nan,nan,nan,nan,"(182, 348)",no pil E/W
2012-08-31 07:24:00,0,nan,nan,nan,nan,"(nan, nan)",nan,nan,nan,nan,nan,nan,nan,nan,"(182, 348)",no pil E/W
2012-08-31 07:36:00,0,nan,nan,nan,nan,"(nan, nan)",nan,nan,nan,nan,nan,nan,nan,nan,"(182, 348)",no pil E/W
2012-08-31 07:48:00,0,nan,nan,nan,nan,"(nan, nan)",nan,nan,nan,nan,nan,nan,nan,nan,"(182, 348)",no pil E/W
2012-08-31 08:00:00,0,nan,nan,nan,nan,"(nan, nan)",nan,nan,nan,nan,nan,nan,nan,nan,"(182, 348)",no pil E/W
2012-08-31 08:12:00,0,nan,nan,nan,nan,"(nan, nan)",nan,nan,nan,nan,nan,nan,nan,nan,"(182, 348)",no pil E/W
2012-08-31 08:24:00,0,nan,nan,nan,nan,"(nan, nan)",nan,nan,nan,nan,nan,nan,nan,nan,"(182, 348)",no pil E/W
2012-08-31 08:36:00,0,nan,nan,nan,nan,"(nan, nan)",nan,nan,nan,nan,nan,nan,nan,nan,"(182, 348)",no pil E/W
2012-08-31 08:48:00,0,nan,nan,nan,nan,"(nan, nan)",nan,nan,nan,nan,nan,nan,nan,nan,"(182, 348)",no pil E/W
2012-08-31 09:00:00,0,nan,nan,nan,nan,"(nan, nan)",nan,nan,nan,nan,nan,nan,nan,nan,"(182, 348)",no pil E/W
2012-08-31 09:12:00,0,nan,nan,nan,nan,"(nan, nan)",nan,nan,nan,nan,nan,nan,nan,nan,"(182, 348)",no pil E/W
2012-08-31 09:24:00,0,nan,nan,nan,nan,"(nan, nan)",nan,nan,nan,nan,nan,nan,nan,nan,"(182, 348)",no pil E/W
2012-08-31 09:36:00,0,nan,nan,nan,nan,"(nan, nan)",nan,nan,nan,nan,nan,nan,nan,nan,"(182, 348)",no pil E/W
2012-08-31 09:48:00,0,nan,nan,nan,nan,"(nan, nan)",nan,nan,nan,nan,nan,nan,nan,nan,"(182, 348)",no pil E/W
2012-08-31 10:00:00,0,nan,nan,nan,nan,"(nan, nan)",nan,nan,nan,nan,nan,nan,nan,nan,"(182, 348)",no pil E/W
2012-08-31 10:12:00,0,nan,nan,nan,nan,"(nan, nan)",nan,nan,nan,nan,nan,nan,nan,nan,"(182, 348)",no pil E/W
2012-08-31 10:24:00,0,nan,nan,nan,nan,"(nan, nan)",nan,nan,nan,nan,nan,nan,nan,nan,"(182, 348)",no pil E/W
2012-08-31 10:36:00,0,nan,nan,nan,nan,"(nan, nan)",nan,nan,nan,nan,nan,nan,nan,nan,"(182, 348)",no pil E/W
2012-08-31 10:48:00,0,nan,nan,nan,nan,"(nan, nan)",nan,nan,nan,nan,nan,nan,nan,nan,"(182, 348)",no pil E/W
2012-08-31 11:00:00,0,nan,nan,nan,nan,"(nan, nan)",nan,nan,nan,nan,nan,nan,nan,nan,"(182, 348)",no pil E/W
2012-08-31 11:12:00,0,nan,nan,nan,nan,"(nan, nan)",nan,nan,nan,nan,nan,nan,nan,nan,"(182, 348)",no pil E/W
2012-08-31 11:24:00,0,nan,nan,nan,nan,"(nan, nan)",nan,nan,nan,nan,nan,nan,nan,nan,"(182, 348)",no pil E/W
2012-08-31 11:36:00,0,nan,nan,nan,nan,"(nan, nan)",nan,nan,nan,nan,nan,nan,nan,nan,"(182, 348)",no pil E/W
2012-08-31 11:48:00,0,nan,nan,nan,nan,"(nan, nan)",nan,nan,nan,nan,nan,nan,nan,nan,"(182, 348)",no pil E/W
2012-08-31 12:00:00,0,nan,nan,nan,nan,"(nan, nan)",nan,nan,nan,nan,nan,nan,nan,nan,"(182, 348)",no pil E/W
2012-08-31 12:12:00,0,nan,nan,nan,nan,"(nan, nan)",nan,nan,nan,nan,nan,nan,nan,nan,"(182, 348)",no pil E/W
2012-08-31 12:24:00,0,nan,nan,nan,nan,"(nan, nan)",nan,nan,nan,nan,nan,nan,nan,nan,"(182, 348)",no pil E/W
2012-08-31 12:36:00,0,nan,nan,nan,nan,"(nan, nan)",nan,nan,nan,nan,nan,nan,nan,nan,"(182, 348)",no pil E/W
2012-08-31 12:48:00,0,nan,nan,nan,nan,"(nan, nan)",nan,nan,nan,nan,nan,nan,nan,nan,"(182, 348)",no pil E/W
2012-08-31 13:00:00,0,nan,nan,nan,nan,"(nan, nan)",nan,nan,nan,nan,nan,nan,nan,nan,"(182, 348)",no pil E/W
2012-08-31 13:12:00,0,nan,nan,nan,nan,"(nan, nan)",nan,nan,nan,nan,nan,nan,nan,nan,"(182, 348)",no pil E/W
2012-08-31 13:24:00,1,14,64,5177.6,0.49612937076000824,"(5.671784973113045, 3.0150282137001425)",1.3622191294189625,0.14404154518950435,0.0019406989354988143,0.0004486747499734048,0.0001052462647576972,3.614004331174369e-09,2.587670031111261e-06,2.2583162019197575e-08,"(182, 348)",detected
2012-08-31 13:36:00,1,19,73,6467.3,0.5692803572458797,"(5.077281689407579, 8.928566263808793)",1.3104997335058772,0.17458813238081355,0.0023047394946222825,0.0008105299759068526,7.034053687969349e-05,-2.517744916857445e-09,3.199424535278647e-06,1.6605720054301496e-08,"(182, 348)",detected
2012-08-31 13:48:00,0,nan,nan,nan,nan,"(nan, nan)",nan,nan,nan,nan,nan,nan,nan,nan,"(182, 348)",no pil E/W
2012-08-31 14:00:00,0,nan,nan,nan,nan,"(nan, nan)",nan,nan,nan,nan,nan,nan,nan,nan,"(182, 348)",no pil E/W
2012-08-31 14:12:00,0,nan,nan,nan,nan,"(nan, nan)",nan,nan,nan,nan,nan,nan,nan,nan,"(182, 348)",no pil E/W
2012-08-31 14:24:00,0,nan,nan,nan,nan,"(nan, nan)",nan,nan,nan,nan,nan,nan,nan,nan,"(182, 348)",no pil E/W
2012-08-31 14:36:00,0,nan,nan,nan,nan,"(nan, nan)",nan,nan,nan,nan,nan,nan,nan,nan,"(182, 348)",no pil E/W
2012-08-31 14:48:00,0,nan,nan,nan,nan,"(nan, nan)",nan,nan,nan,nan,nan,nan,nan,nan,"(182, 348)",no pil E/W
2012-08-31 15:00:00,0,nan,nan,nan,nan,"(nan, nan)",nan,nan,nan,nan,nan,nan,nan,nan,"(182, 348)",no pil E/W
2012-08-31 15:12:00,0,nan,nan,nan,nan,"(nan, nan)",nan,nan,nan,nan,nan,nan,nan,nan,"(182, 348)",no pil E/W
2012-08-31 15:24:00,0,nan,nan,nan,nan,"(nan, nan)",nan,nan,nan,nan,nan,nan,nan,nan,"(182, 348)",no pil E/W
2012-08-31 15:36:00,0,nan,nan,nan,nan,"(nan, nan)",nan,nan,nan,nan,nan,nan,nan,nan,"(182, 348)",no pil E/W
2012-08-31 15:48:00,0,nan,nan,nan,nan,"(nan, nan)",nan,nan,nan,nan,nan,nan,nan,nan,"(182, 348)",no pil E/W
2012-08-31 16:00:00,0,nan,nan,nan,nan,"(nan, nan)",nan,nan,nan,nan,nan,nan,nan,nan,"(182, 348)",no pil E/W
2012-08-31 16:12:00,0,nan,nan,nan,nan,"(nan, nan)",nan,nan,nan,nan,nan,nan,nan,nan,"(182, 348)",no pil E/W
2012-08-31 16:24:00,0,nan,nan,nan,nan,"(nan, nan)",nan,nan,nan,nan,nan,nan,nan,nan,"(182, 348)",no pil E/W
2012-08-31 16:36:00,0,nan,nan,nan,nan,"(nan, nan)",nan,nan,nan,nan,nan,nan,nan,nan,"(182, 348)",no pil E/W
2012-08-31 16:48:00,0,nan,nan,nan,nan,"(nan, nan)",nan,nan,nan,nan,nan,nan,nan,nan,"(182, 348)",no pil E/W
2012-08-31 17:00:00,0,nan,nan,nan,nan,"(nan, nan)",nan,nan,nan,nan,nan,nan,nan,nan,"(182, 348)",no pil E/W
2012-08-31 17:12:00,0,nan,nan,nan,nan,"(nan, nan)",nan,nan,nan,nan,nan,nan,nan,nan,"(182, 348)",no pil E/W
2012-08-31 17:24:00,0,nan,nan,nan,nan,"(nan, nan)",nan,nan,nan,nan,nan,nan,nan,nan,"(182, 348)",no pil E/W
2012-08-31 17:36:00,0,nan,nan,nan,nan,"(nan, nan)",nan,nan,nan,nan,nan,nan,nan,nan,"(182, 348)",no pil E/W
2012-08-31 17:48:00,0,nan,nan,nan,nan,"(nan, nan)",nan,nan,nan,nan,nan,nan,nan,nan,"(182, 348)",no pil E/W
2012-08-31 18:00:00,0,nan,nan,nan,nan,"(nan, nan)",nan,nan,nan,nan,nan,nan,nan,nan,"(182, 348)",no pil E/W
2012-08-31 18:12:00,0,nan,nan,nan,nan,"(nan, nan)",nan,nan,nan,nan,nan,nan,nan,nan,"(182, 348)",no pil E/W
2012-08-31 18:24:00,0,nan,nan,nan,nan,"(nan, nan)",nan,nan,nan,nan,nan,nan,nan,nan,"(182, 348)",no pil E/W
2012-08-31 18:36:00,0,nan,nan,nan,nan,"(nan, nan)",nan,nan,nan,nan,nan,nan,nan,nan,"(182, 348)",no pil E/W
2012-08-31 18:48:00,0,nan,nan,nan,nan,"(nan, nan)",nan,nan,nan,nan,nan,nan,nan,nan,"(182, 348)",no pil E/W
2012-08-31 19:00:00,0,nan,nan,nan,nan,"(nan, nan)",nan,nan,nan,nan,nan,nan,nan,nan,"(182, 348)",no pil E/W
2012-08-31 19:12:00,0,nan,nan,nan,nan,"(nan, nan)",nan,nan,nan,nan,nan,nan,nan,nan,"(182, 348)",no pil E/W
2012-08-31 19:24:00,0,nan,nan,nan,nan,"(nan, nan)",nan,nan,nan,nan,nan,nan,nan,nan,"(182, 348)",no pil E/W
2012-08-31 19:36:00,0,nan,nan,nan,nan,"(nan, nan)",nan,nan,nan,nan,nan,nan,nan,nan,"(182, 348)",no pil E/W
2012-08-31 19:48:00,0,nan,nan,nan,nan,"(nan, nan)",nan,nan,nan,nan,nan,nan,nan,nan,"(182, 348)",no pil E/W
2012-08-31 20:00:00,0,nan,nan,nan,nan,"(nan, nan)",nan,nan,nan,nan,nan,nan,nan,nan,"(182, 348)",no pil E/W
2012-08-31 20:12:00,0,nan,nan,nan,nan,"(nan, nan)",nan,nan,nan,nan,nan,nan,nan,nan,"(182, 348)",no pil E/W
2012-08-31 20:24:00,0,nan,nan,nan,nan,"(nan, nan)",nan,nan,nan,nan,nan,nan,nan,nan,"(182, 348)",no pil E/W
2012-08-31 20:36:00,0,nan,nan,nan,nan,"(nan, nan)",nan,nan,nan,nan,nan,nan,nan,nan,"(182, 348)",no pil E/W
2012-08-31 20:48:00,0,nan,nan,nan,nan,"(nan, nan)",nan,nan,nan,nan,nan,nan,nan,nan,"(182, 348)",no pil E/W
2012-08-31 21:00:00,0,nan,nan,nan,nan,"(nan, nan)",nan,nan,nan,nan,nan,nan,nan,nan,"(182, 348)",no pil E/W
2012-08-31 21:12:00,0,nan,nan,nan,nan,"(nan, nan)",nan,nan,nan,nan,nan,nan,nan,nan,"(182, 348)",no pil E/W
2012-08-31 21:24:00,0,nan,nan,nan,nan,"(nan, nan)",nan,nan,nan,nan,nan,nan,nan,nan,"(182, 348)",no pil E/W
2012-08-31 21:36:00,0,nan,nan,nan,nan,"(nan, nan)",nan,nan,nan,nan,nan,nan,nan,nan,"(182, 348)",no pil E/W
2012-08-31 21:48:00,0,nan,nan,nan,nan,"(nan, nan)",nan,nan,nan,nan,nan,nan,nan,nan,"(182, 348)",no pil E/W
2012-08-31 22:00:00,0,nan,nan,nan,nan,"(nan, nan)",nan,nan,nan,nan,nan,nan,nan,nan,"(182, 348)",no pil E/W
2012-08-31 22:12:00,0,nan,nan,nan,nan,"(nan, nan)",nan,nan,nan,nan,nan,nan,nan,nan,"(182, 348)",no pil E/W
2012-08-31 22:24:00,0,nan,nan,nan,nan,"(nan, nan)",nan,nan,nan,nan,nan,nan,nan,nan,"(182, 348)",no pil E/W
2012-08-31 22:36:00,0,nan,nan,nan,nan,"(nan, nan)",nan,nan,nan,nan,nan,nan,nan,nan,"(182, 348)",no pil E/W
2012-08-31 22:48:00,0,nan,nan,nan,nan,"(nan, nan)",nan,nan,nan,nan,nan,nan,nan,nan,"(182, 348)",no pil E/W
2012-08-31 23:00:00,0,nan,nan,nan,nan,"(nan, nan)",nan,nan,nan,nan,nan,nan,nan,nan,"(182, 348)",no pil E/W
2012-08-31 23:12:00,0,nan,nan,nan,nan,"(nan, nan)",nan,nan,nan,nan,nan,nan,nan,nan,"(182, 348)",no pil E/W
2012-08-31 23:24:00,0,nan,nan,nan,nan,"(nan, nan)",nan,nan,nan,nan,nan,nan,nan,nan,"(182, 348)",no pil E/W
2012-08-31 23:36:00,0,nan,nan,nan,nan,"(nan, nan)",nan,nan,nan,nan,nan,nan,nan,nan,"(182, 348)",no pil E/W
2012-08-31 23:48:00,0,nan,nan,nan,nan,"(nan, nan)",nan,nan,nan,nan,nan,nan,nan,nan,"(182, 348)",no pil E/W
2012-09-01 00:00:00,0,nan,nan,nan,nan,"(nan, nan)",nan,nan,nan,nan,nan,nan,nan,nan,"(182, 348)",no pil E/W
2012-09-01 00:12:00,0,nan,nan,nan,nan,"(nan, nan)",nan,nan,nan,nan,nan,nan,nan,nan,"(182, 348)",no pil E/W
2012-09-01 00:24:00,0,nan,nan,nan,nan,"(nan, nan)",nan,nan,nan,nan,nan,nan,nan,nan,"(182, 348)",no pil E/W
2012-09-01 00:36:00,0,nan,nan,nan,nan,"(nan, nan)",nan,nan,nan,nan,nan,nan,nan,nan,"(182, 348)",no pil E/W
2012-09-01 00:48:00,0,nan,nan,nan,nan,"(nan, nan)",nan,nan,nan,nan,nan,nan,nan,nan,"(182, 348)",no pil E/W
2012-09-01 01:00:00,0,nan,nan,nan,nan,"(nan, nan)",nan,nan,nan,nan,nan,nan,nan,nan,"(182, 348)",no pil E/W
2012-09-01 01:12:00,0,nan,nan,nan,nan,"(nan, nan)",nan,nan,nan,nan,nan,nan,nan,nan,"(182, 348)",no pil E/W
2012-09-01 01:24:00,0,nan,nan,nan,nan,"(nan, nan)",nan,nan,nan,nan,nan,nan,nan,nan,"(182, 348)",no pil E/W
2012-09-01 01:36:00,0,nan,nan,nan,nan,"(nan, nan)",nan,nan,nan,nan,nan,nan,nan,nan,"(182, 348)",no pil E/W
2012-09-01 01:48:00,0,nan,nan,nan,nan,"(nan, nan)",nan,nan,nan,nan,nan,nan,nan,nan,"(182, 348)",no pil E/W
2012-09-01 02:00:00,0,nan,nan,nan,nan,"(nan, nan)",nan,nan,nan,nan,nan,nan,nan,nan,"(182, 348)",no pil E/W
2012-09-01 02:12:00,0,nan,nan,nan,nan,"(nan, nan)",nan,nan,nan,nan,nan,nan,nan,nan,"(182, 348)",no pil E/W
2012-09-01 02:24:00,0,nan,nan,nan,nan,"(nan, nan)",nan,nan,nan,nan,nan,nan,nan,nan,"(182, 348)",no pil E/W
2012-09-01 02:36:00,0,nan,nan,nan,nan,"(nan, nan)",nan,nan,nan,nan,nan,nan,nan,nan,"(182, 348)",no pil E/W
2012-09-01 02:48:00,0,nan,nan,nan,nan,"(nan, nan)",nan,nan,nan,nan,nan,nan,nan,nan,"(182, 348)",no pil E/W
2012-09-01 03:00:00,0,nan,nan,nan,nan,"(nan, nan)",nan,nan,nan,nan,nan,nan,nan,nan,"(182, 348)",no pil E/W
2012-09-01 03:12:00,0,nan,nan,nan,nan,"(nan, nan)",nan,nan,nan,nan,nan,nan,nan,nan,"(182, 348)",no pil E/W
2012-09-01 03:24:00,0,nan,nan,nan,nan,"(nan, nan)",nan,nan,nan,nan,nan,nan,nan,nan,"(182, 348)",no pil E/W
2012-09-01 03:36:00,0,nan,nan,nan,nan,"(nan, nan)",nan,nan,nan,nan,nan,nan,nan,nan,"(182, 348)",no pil E/W
2012-09-01 03:48:00,0,nan,nan,nan,nan,"(nan, nan)",nan,nan,nan,nan,nan,nan,nan,nan,"(182, 348)",no pil E/W
2012-09-01 04:00:00,0,nan,nan,nan,nan,"(nan, nan)",nan,nan,nan,nan,nan,nan,nan,nan,"(182, 348)",no pil E/W
2012-09-01 04:12:00,0,nan,nan,nan,nan,"(nan, nan)",nan,nan,nan,nan,nan,nan,nan,nan,"(182, 348)",no pil E/W
2012-09-01 04:24:00,0,nan,nan,nan,nan,"(nan, nan)",nan,nan,nan,nan,nan,nan,nan,nan,"(182, 348)",no pil E/W
2012-09-01 04:36:00,0,nan,nan,nan,nan,"(nan, nan)",nan,nan,nan,nan,nan,nan,nan,nan,"(182, 348)",no pil E/W
2012-09-01 04:48:00,0,nan,nan,nan,nan,"(nan, nan)",nan,nan,nan,nan,nan,nan,nan,nan,"(182, 348)",no pil E/W
2012-09-01 05:00:00,0,nan,nan,nan,nan,"(nan, nan)",nan,nan,nan,nan,nan,nan,nan,nan,"(182, 348)",no pil E/W
2012-09-01 05:12:00,0,nan,nan,nan,nan,"(nan, nan)",nan,nan,nan,nan,nan,nan,nan,nan,"(182, 348)",no pil E/W
2012-09-01 05:24:00,0,nan,nan,nan,nan,"(nan, nan)",nan,nan,nan,nan,nan,nan,nan,nan,"(182, 348)",no pil E/W
2012-09-01 05:36:00,0,nan,nan,nan,nan,"(nan, nan)",nan,nan,nan,nan,nan,nan,nan,nan,"(182, 348)",no pil E/W
2012-09-01 05:48:00,0,nan,nan,nan,nan,"(nan, nan)",nan,nan,nan,nan,nan,nan,nan,nan,"(182, 348)",no pil E/W
2012-09-01 06:00:00,0,nan,nan,nan,nan,"(nan, nan)",nan,nan,nan,nan,nan,nan,nan,nan,"(182, 348)",no pil E/W
2012-09-01 06:12:00,0,nan,nan,nan,nan,"(nan, nan)",nan,nan,nan,nan,nan,nan,nan,nan,"(182, 348)",no pil E/W
2012-09-01 06:24:00,0,nan,nan,nan,nan,"(nan, nan)",nan,nan,nan,nan,nan,nan,nan,nan,"(182, 348)",no pil E/W
2012-09-01 06:36:00,0,nan,nan,nan,nan,"(nan, nan)",nan,nan,nan,nan,nan,nan,nan,nan,"(182, 348)",no pil E/W
2012-09-01 06:48:00,0,nan,nan,nan,nan,"(nan, nan)",nan,nan,nan,nan,nan,nan,nan,nan,"(182, 348)",no pil E/W
2012-09-01 07:00:00,0,nan,nan,nan,nan,"(nan, nan)",nan,nan,nan,nan,nan,nan,nan,nan,"(182, 348)",no pil E/W
2012-09-01 07:12:00,0,nan,nan,nan,nan,"(nan, nan)",nan,nan,nan,nan,nan,nan,nan,nan,"(182, 348)",no pil E/W
2012-09-01 07:24:00,0,nan,nan,nan,nan,"(nan, nan)",nan,nan,nan,nan,nan,nan,nan,nan,"(182, 348)",no pil E/W
2012-09-01 07:36:00,0,nan,nan,nan,nan,"(nan, nan)",nan,nan,nan,nan,nan,nan,nan,nan,"(182, 348)",no pil E/W
2012-09-01 07:48:00,0,nan,nan,nan,nan,"(nan, nan)",nan,nan,nan,nan,nan,nan,nan,nan,"(182, 348)",no pil E/W
2012-09-01 08:00:00,0,nan,nan,nan,nan,"(nan, nan)",nan,nan,nan,nan,nan,nan,nan,nan,"(182, 348)",no pil E/W
2012-09-01 08:12:00,0,nan,nan,nan,nan,"(nan, nan)",nan,nan,nan,nan,nan,nan,nan,nan,"(182, 348)",no pil E/W
2012-09-01 08:24:00,0,nan,nan,nan,nan,"(nan, nan)",nan,nan,nan,nan,nan,nan,nan,nan,"(182, 348)",no pil E/W
2012-09-01 08:36:00,0,nan,nan,nan,nan,"(nan, nan)",nan,nan,nan,nan,nan,nan,nan,nan,"(182, 348)",no pil E/W
2012-09-01 08:48:00,0,nan,nan,nan,nan,"(nan, nan)",nan,nan,nan,nan,nan,nan,nan,nan,"(182, 348)",no pil E/W
2012-09-01 09:00:00,0,nan,nan,nan,nan,"(nan, nan)",nan,nan,nan,nan,nan,nan,nan,nan,"(182, 348)",no pil E/W
2012-09-01 09:12:00,0,nan,nan,nan,nan,"(nan, nan)",nan,nan,nan,nan,nan,nan,nan,nan,"(182, 348)",no pil E/W
2012-09-01 09:24:00,0,nan,nan,nan,nan,"(nan, nan)",nan,nan,nan,nan,nan,nan,nan,nan,"(182, 348)",no pil E/W
2012-09-01 09:36:00,0,nan,nan,nan,nan,"(nan, nan)",nan,nan,nan,nan,nan,nan,nan,nan,"(182, 348)",no pil E/W
2012-09-01 09:48:00,0,nan,nan,nan,nan,"(nan, nan)",nan,nan,nan,nan,nan,nan,nan,nan,"(182, 348)",no pil E/W
2012-09-01 10:00:00,0,nan,nan,nan,nan,"(nan, nan)",nan,nan,nan,nan,nan,nan,nan,nan,"(182, 348)",no pil E/W
2012-09-01 10:12:00,0,nan,nan,nan,nan,"(nan, nan)",nan,nan,nan,nan,nan,nan,nan,nan,"(182, 348)",no pil E/W
2012-09-01 10:24:00,0,nan,nan,nan,nan,"(nan, nan)",nan,nan,nan,nan,nan,nan,nan,nan,"(182, 348)",no pil E/W
2012-09-01 10:36:00,0,nan,nan,nan,nan,"(nan, nan)",nan,nan,nan,nan,nan,nan,nan,nan,"(182, 348)",no pil E/W
2012-09-01 10:48:00,0,nan,nan,nan,nan,"(nan, nan)",nan,nan,nan,nan,nan,nan,nan,nan,"(182, 348)",no pil E/W
2012-09-01 11:00:00,0,nan,nan,nan,nan,"(nan, nan)",nan,nan,nan,nan,nan,nan,nan,nan,"(182, 348)",no pil E/W
2012-09-01 11:12:00,0,nan,nan,nan,nan,"(nan, nan)",nan,nan,nan,nan,nan,nan,nan,nan,"(182, 348)",no pil E/W
2012-09-01 11:24:00,0,nan,nan,nan,nan,"(nan, nan)",nan,nan,nan,nan,nan,nan,nan,nan,"(182, 348)",no pil E/W
2012-09-01 11:36:00,0,nan,nan,nan,nan,"(nan, nan)",nan,nan,nan,nan,nan,nan,nan,nan,"(182, 348)",no pil E/W
2012-09-01 11:48:00,0,nan,nan,nan,nan,"(nan, nan)",nan,nan,nan,nan,nan,nan,nan,nan,"(182, 348)",no pil E/W
2012-09-01 12:00:00,0,nan,nan,nan,nan,"(nan, nan)",nan,nan,nan,nan,nan,nan,nan,nan,"(182, 348)",no pil E/W
2012-09-01 12:12:00,0,nan,nan,nan,nan,"(nan, nan)",nan,nan,nan,nan,nan,nan,nan,nan,"(182, 348)",no pil E/W
2012-09-01 12:24:00,0,nan,nan,nan,nan,"(nan, nan)",nan,nan,nan,nan,nan,nan,nan,nan,"(182, 348)",no pil E/W
2012-09-01 12:36:00,0,nan,nan,nan,nan,"(nan, nan)",nan,nan,nan,nan,nan,nan,nan,nan,"(182, 348)",no pil E/W
2012-09-01 12:48:00,0,nan,nan,nan,nan,"(nan, nan)",nan,nan,nan,nan,nan,nan,nan,nan,"(182, 348)",no pil E/W
2012-09-01 13:00:00,0,nan,nan,nan,nan,"(nan, nan)",nan,nan,nan,nan,nan,nan,nan,nan,"(182, 348)",no pil E/W
2012-09-01 13:12:00,0,nan,nan,nan,nan,"(nan, nan)",nan,nan,nan,nan,nan,nan,nan,nan,"(182, 348)",no pil E/W
2012-09-01 13:24:00,0,nan,nan,nan,nan,"(nan, nan)",nan,nan,nan,nan,nan,nan,nan,nan,"(182, 348)",no pil E/W
2012-09-01 13:36:00,0,nan,nan,nan,nan,"(nan, nan)",nan,nan,nan,nan,nan,nan,nan,nan,"(182, 348)",no pil E/W
2012-09-01 13:48:00,0,nan,nan,nan,nan,"(nan, nan)",nan,nan,nan,nan,nan,nan,nan,nan,"(182, 348)",no pil E/W
2012-09-01 14:00:00,0,nan,nan,nan,nan,"(nan, nan)",nan,nan,nan,nan,nan,nan,nan,nan,"(182, 348)",no pil E/W
2012-09-01 14:12:00,0,nan,nan,nan,nan,"(nan, nan)",nan,nan,nan,nan,nan,nan,nan,nan,"(182, 348)",no pil E/W
2012-09-01 14:24:00,0,nan,nan,nan,nan,"(nan, nan)",nan,nan,nan,nan,nan,nan,nan,nan,"(182, 348)",no pil E/W
2012-09-01 14:36:00,0,nan,nan,nan,nan,"(nan, nan)",nan,nan,nan,nan,nan,nan,nan,nan,"(182, 348)",no pil E/W
2012-09-01 14:48:00,0,nan,nan,nan,nan,"(nan, nan)",nan,nan,nan,nan,nan,nan,nan,nan,"(182, 348)",no pil E/W
2012-09-01 15:00:00,0,nan,nan,nan,nan,"(nan, nan)",nan,nan,nan,nan,nan,nan,nan,nan,"(182, 348)",no pil E/W
2012-09-01 15:12:00,0,nan,nan,nan,nan,"(nan, nan)",nan,nan,nan,nan,nan,nan,nan,nan,"(182, 348)",no pil E/W
2012-09-01 15:24:00,0,nan,nan,nan,nan,"(nan, nan)",nan,nan,nan,nan,nan,nan,nan,nan,"(182, 348)",no pil E/W
2012-09-01 15:36:00,0,nan,nan,nan,nan,"(nan, nan)",nan,nan,nan,nan,nan,nan,nan,nan,"(182, 348)",no pil E/W
2012-09-01 15:48:00,0,nan,nan,nan,nan,"(nan, nan)",nan,nan,nan,nan,nan,nan,nan,nan,"(182, 348)",no pil E/W
2012-09-01 16:00:00,0,nan,nan,nan,nan,"(nan, nan)",nan,nan,nan,nan,nan,nan,nan,nan,"(182, 348)",no pil E/W
2012-09-01 16:12:00,0,nan,nan,nan,nan,"(nan, nan)",nan,nan,nan,nan,nan,nan,nan,nan,"(182, 348)",no pil E/W
2012-09-01 16:24:00,0,nan,nan,nan,nan,"(nan, nan)",nan,nan,nan,nan,nan,nan,nan,nan,"(182, 348)",no pil E/W
2012-09-01 16:36:00,0,nan,nan,nan,nan,"(nan, nan)",nan,nan,nan,nan,nan,nan,nan,nan,"(182, 348)",no pil E/W
2012-09-01 16:48:00,0,nan,nan,nan,nan,"(nan, nan)",nan,nan,nan,nan,nan,nan,nan,nan,"(182, 348)",no pil E/W
2012-09-01 17:00:00,0,nan,nan,nan,nan,"(nan, nan)",nan,nan,nan,nan,nan,nan,nan,nan,"(182, 348)",no pil E/W
2012-09-01 17:12:00,0,nan,nan,nan,nan,"(nan, nan)",nan,nan,nan,nan,nan,nan,nan,nan,"(182, 348)",no pil E/W
2012-09-01 17:24:00,0,nan,nan,nan,nan,"(nan, nan)",nan,nan,nan,nan,nan,nan,nan,nan,"(182, 348)",no pil E/W
2012-09-01 17:36:00,0,nan,nan,nan,nan,"(nan, nan)",nan,nan,nan,nan,nan,nan,nan,nan,"(182, 348)",no pil E/W
2012-09-01 17:48:00,0,nan,nan,nan,nan,"(nan, nan)",nan,nan,nan,nan,nan,nan,nan,nan,"(182, 348)",no pil E/W
2012-09-01 18:00:00,0,nan,nan,nan,nan,"(nan, nan)",nan,nan,nan,nan,nan,nan,nan,nan,"(182, 348)",no pil E/W
2012-09-01 18:12:00,0,nan,nan,nan,nan,"(nan, nan)",nan,nan,nan,nan,nan,nan,nan,nan,"(182, 348)",no pil E/W
2012-09-01 18:24:00,0,nan,nan,nan,nan,"(nan, nan)",nan,nan,nan,nan,nan,nan,nan,nan,"(182, 348)",no pil E/W
2012-09-01 18:36:00,0,nan,nan,nan,nan,"(nan, nan)",nan,nan,nan,nan,nan,nan,nan,nan,"(182, 348)",no pil E/W
2012-09-01 18:48:00,0,nan,nan,nan,nan,"(nan, nan)",nan,nan,nan,nan,nan,nan,nan,nan,"(182, 348)",no pil E/W
2012-09-01 19:00:00,0,nan,nan,nan,nan,"(nan, nan)",nan,nan,nan,nan,nan,nan,nan,nan,"(182, 348)",no pil E/W
2012-09-01 19:12:00,0,nan,nan,nan,nan,"(nan, nan)",nan,nan,nan,nan,nan,nan,nan,nan,"(182, 348)",no pil E/W
2012-09-01 19:24:00,0,nan,nan,nan,nan,"(nan, nan)",nan,nan,nan,nan,nan,nan,nan,nan,"(182, 348)",no pil E/W
2012-09-01 19:36:00,0,nan,nan,nan,nan,"(nan, nan)",nan,nan,nan,nan,nan,nan,nan,nan,"(182, 348)",no pil E/W
2012-09-01 19:48:00,0,nan,nan,nan,nan,"(nan, nan)",nan,nan,nan,nan,nan,nan,nan,nan,"(182, 348)",no pil E/W
2012-09-01 20:00:00,0,nan,nan,nan,nan,"(nan, nan)",nan,nan,nan,nan,nan,nan,nan,nan,"(182, 348)",no pil E/W
2012-09-01 20:12:00,0,nan,nan,nan,nan,"(nan, nan)",nan,nan,nan,nan,nan,nan,nan,nan,"(182, 348)",no pil E/W
2012-09-01 20:24:00,0,nan,nan,nan,nan,"(nan, nan)",nan,nan,nan,nan,nan,nan,nan,nan,"(182, 348)",no pil E/W
2012-09-01 20:36:00,0,nan,nan,nan,nan,"(nan, nan)",nan,nan,nan,nan,nan,nan,nan,nan,"(182, 348)",no pil E/W
2012-09-01 20:48:00,0,nan,nan,nan,nan,"(nan, nan)",nan,nan,nan,nan,nan,nan,nan,nan,"(182, 348)",no pil E/W
2012-09-01 21:00:00,0,nan,nan,nan,nan,"(nan, nan)",nan,nan,nan,nan,nan,nan,nan,nan,"(182, 348)",no pil E/W
2012-09-01 21:12:00,0,nan,nan,nan,nan,"(nan, nan)",nan,nan,nan,nan,nan,nan,nan,nan,"(182, 348)",no pil E/W
2012-09-01 21:24:00,0,nan,nan,nan,nan,"(nan, nan)",nan,nan,nan,nan,nan,nan,nan,nan,"(182, 348)",no pil E/W
2012-09-01 21:36:00,0,nan,nan,nan,nan,"(nan, nan)",nan,nan,nan,nan,nan,nan,nan,nan,"(182, 348)",no pil E/W
2012-09-01 21:48:00,0,nan,nan,nan,nan,"(nan, nan)",nan,nan,nan,nan,nan,nan,nan,nan,"(182, 348)",no pil E/W
2012-09-01 22:00:00,0,nan,nan,nan,nan,"(nan, nan)",nan,nan,nan,nan,nan,nan,nan,nan,"(182, 348)",no pil E/W
2012-09-01 22:12:00,1,14,28,1563.2,0.33585392863324215,"(0.26914491801016993, 17.500085851220604)",1.729079055799039,0.5892857142857143,0.3265371199500209,0.004819420479562087,0.0005354911643957874,-8.602523614378685e-07,-0.00030599495108330713,0.0,"(182, 348)",detected
2012-09-01 22:24:00,1,14,30,1921.1,0.33585392863324215,"(0.15437934837490275, 17.592873398877842)",1.5714285714285714,1.177113702623907,1.337804082482639,0.0216920339363952,0.0025755457870220762,-1.6779215881347985e-05,-0.0027436925614569524,9.437171494165783e-06,"(182, 348)",detected
2012-09-01 22:36:00,0,nan,nan,nan,nan,"(nan, nan)",nan,nan,nan,nan,nan,nan,nan,nan,"(182, 348)",no pil E/W
2012-09-01 22:48:00,0,nan,nan,nan,nan,"(nan, nan)",nan,nan,nan,nan,nan,nan,nan,nan,"(182, 348)",no pil E/W
2012-09-01 23:00:00,0,nan,nan,nan,nan,"(nan, nan)",nan,nan,nan,nan,nan,nan,nan,nan,"(182, 348)",no pil E/W
2012-09-01 23:12:00,0,nan,nan,nan,nan,"(nan, nan)",nan,nan,nan,nan,nan,nan,nan,nan,"(182, 348)",no pil E/W
2012-09-01 23:24:00,0,nan,nan,nan,nan,"(nan, nan)",nan,nan,nan,nan,nan,nan,nan,nan,"(182, 348)",no pil E/W
2012-09-01 23:36:00,0,nan,nan,nan,nan,"(nan, nan)",nan,nan,nan,nan,nan,nan,nan,nan,"(182, 348)",no pil E/W
2012-09-01 23:48:00,0,nan,nan,nan,nan,"(nan, nan)",nan,nan,nan,nan,nan,nan,nan,nan,"(182, 348)",no pil E/W
2012-09-02 00:00:00,0,nan,nan,nan,nan,"(nan, nan)",nan,nan,nan,nan,nan,nan,nan,nan,"(182, 348)",no pil E/W
2012-09-02 00:12:00,0,nan,nan,nan,nan,"(nan, nan)",nan,nan,nan,nan,nan,nan,nan,nan,"(182, 348)",no pil E/W
2012-09-02 00:24:00,0,nan,nan,nan,nan,"(nan, nan)",nan,nan,nan,nan,nan,nan,nan,nan,"(182, 348)",no pil E/W
2012-09-02 00:36:00,0,nan,nan,nan,nan,"(nan, nan)",nan,nan,nan,nan,nan,nan,nan,nan,"(182, 348)",no pil E/W
2012-09-02 00:48:00,0,nan,nan,nan,nan,"(nan, nan)",nan,nan,nan,nan,nan,nan,nan,nan,"(182, 348)",no pil E/W
2012-09-02 01:00:00,0,nan,nan,nan,nan,"(nan, nan)",nan,nan,nan,nan,nan,nan,nan,nan,"(182, 348)",no pil E/W
2012-09-02 01:12:00,0,nan,nan,nan,nan,"(nan, nan)",nan,nan,nan,nan,nan,nan,nan,nan,"(182, 348)",no pil E/W
2012-09-02 01:24:00,0,nan,nan,nan,nan,"(nan, nan)",nan,nan,nan,nan,nan,nan,nan,nan,"(182, 348)",no pil E/W
2012-09-02 01:36:00,0,nan,nan,nan,nan,"(nan, nan)",nan,nan,nan,nan,nan,nan,nan,nan,"(182, 348)",no pil E/W
2012-09-02 01:48:00,0,nan,nan,nan,nan,"(nan, nan)",nan,nan,nan,nan,nan,nan,nan,nan,"(182, 348)",no pil E/W
2012-09-02 02:00:00,0,nan,nan,nan,nan,"(nan, nan)",nan,nan,nan,nan,nan,nan,nan,nan,"(182, 348)",no pil E/W
2012-09-02 02:12:00,0,nan,nan,nan,nan,"(nan, nan)",nan,nan,nan,nan,nan,nan,nan,nan,"(182, 348)",no pil E/W
2012-09-02 02:24:00,0,nan,nan,nan,nan,"(nan, nan)",nan,nan,nan,nan,nan,nan,nan,nan,"(182, 348)",no pil E/W
2012-09-02 02:36:00,0,nan,nan,nan,nan,"(nan, nan)",nan,nan,nan,nan,nan,nan,nan,nan,"(182, 348)",no pil E/W
2012-09-02 02:48:00,0,nan,nan,nan,nan,"(nan, nan)",nan,nan,nan,nan,nan,nan,nan,nan,"(182, 348)",no pil E/W
2012-09-02 03:00:00,0,nan,nan,nan,nan,"(nan, nan)",nan,nan,nan,nan,nan,nan,nan,nan,"(182, 348)",no pil E/W
2012-09-02 03:12:00,0,nan,nan,nan,nan,"(nan, nan)",nan,nan,nan,nan,nan,nan,nan,nan,"(182, 348)",no pil E/W
2012-09-02 03:24:00,0,nan,nan,nan,nan,"(nan, nan)",nan,nan,nan,nan,nan,nan,nan,nan,"(182, 348)",no pil E/W
2012-09-02 03:36:00,0,nan,nan,nan,nan,"(nan, nan)",nan,nan,nan,nan,nan,nan,nan,nan,"(182, 348)",no pil E/W
2012-09-02 03:48:00,0,nan,nan,nan,nan,"(nan, nan)",nan,nan,nan,nan,nan,nan,nan,nan,"(182, 348)",no pil E/W
2012-09-02 04:00:00,0,nan,nan,nan,nan,"(nan, nan)",nan,nan,nan,nan,nan,nan,nan,nan,"(182, 348)",no pil E/W
2012-09-02 04:12:00,0,nan,nan,nan,nan,"(nan, nan)",nan,nan,nan,nan,nan,nan,nan,nan,"(182, 348)",no pil E/W
2012-09-02 04:24:00,0,nan,nan,nan,nan,"(nan, nan)",nan,nan,nan,nan,nan,nan,nan,nan,"(182, 348)",no pil E/W
2012-09-02 04:36:00,0,nan,nan,nan,nan,"(nan, nan)",nan,nan,nan,nan,nan,nan,nan,nan,"(182, 348)",no pil E/W
2012-09-02 04:48:00,0,nan,nan,nan,nan,"(nan, nan)",nan,nan,nan,nan,nan,nan,nan,nan,"(182, 348)",no pil E/W
2012-09-02 05:00:00,0,nan,nan,nan,nan,"(nan, nan)",nan,nan,nan,nan,nan,nan,nan,nan,"(182, 348)",no pil E/W
2012-09-02 05:12:00,0,nan,nan,nan,nan,"(nan, nan)",nan,nan,nan,nan,nan,nan,nan,nan,"(182, 348)",no pil E/W
2012-09-02 05:24:00,0,nan,nan,nan,nan,"(nan, nan)",nan,nan,nan,nan,nan,nan,nan,nan,"(182, 348)",no pil E/W
2012-09-02 05:36:00,0,nan,nan,nan,nan,"(nan, nan)",nan,nan,nan,nan,nan,nan,nan,nan,"(182, 348)",no pil E/W
2012-09-02 05:48:00,0,nan,nan,nan,nan,"(nan, nan)",nan,nan,nan,nan,nan,nan,nan,nan,"(182, 348)",no pil E/W
2012-09-02 06:00:00,0,nan,nan,nan,nan,"(nan, nan)",nan,nan,nan,nan,nan,nan,nan,nan,"(182, 348)",no pil E/W
2012-09-02 06:12:00,0,nan,nan,nan,nan,"(nan, nan)",nan,nan,nan,nan,nan,nan,nan,nan,"(182, 348)",no pil E/W
2012-09-02 06:24:00,0,nan,nan,nan,nan,"(nan, nan)",nan,nan,nan,nan,nan,nan,nan,nan,"(182, 348)",no pil E/W
2012-09-02 06:36:00,0,nan,nan,nan,nan,"(nan, nan)",nan,nan,nan,nan,nan,nan,nan,nan,"(182, 348)",no pil E/W
2012-09-02 06:48:00,0,nan,nan,nan,nan,"(nan, nan)",nan,nan,nan,nan,nan,nan,nan,nan,"(182, 348)",no pil E/W
2012-09-02 07:00:00,0,nan,nan,nan,nan,"(nan, nan)",nan,nan,nan,nan,nan,nan,nan,nan,"(182, 348)",no pil E/W
2012-09-02 07:12:00,0,nan,nan,nan,nan,"(nan, nan)",nan,nan,nan,nan,nan,nan,nan,nan,"(182, 348)",no pil E/W
2012-09-02 07:24:00,0,nan,nan,nan,nan,"(nan, nan)",nan,nan,nan,nan,nan,nan,nan,nan,"(182, 348)",no pil E/W
2012-09-02 07:36:00,0,nan,nan,nan,nan,"(nan, nan)",nan,nan,nan,nan,nan,nan,nan,nan,"(182, 348)",no pil E/W
2012-09-02 07:48:00,0,nan,nan,nan,nan,"(nan, nan)",nan,nan,nan,nan,nan,nan,nan,nan,"(182, 348)",no pil E/W
2012-09-02 08:00:00,0,nan,nan,nan,nan,"(nan, nan)",nan,nan,nan,nan,nan,nan,nan,nan,"(182, 348)",no pil E/W
2012-09-02 08:12:00,0,nan,nan,nan,nan,"(nan, nan)",nan,nan,nan,nan,nan,nan,nan,nan,"(182, 348)",no pil E/W
2012-09-02 08:24:00,0,nan,nan,nan,nan,"(nan, nan)",nan,nan,nan,nan,nan,nan,nan,nan,"(182, 348)",no pil E/W
2012-09-02 08:36:00,0,nan,nan,nan,nan,"(nan, nan)",nan,nan,nan,nan,nan,nan,nan,nan,"(182, 348)",no pil E/W
2012-09-02 08:48:00,0,nan,nan,nan,nan,"(nan, nan)",nan,nan,nan,nan,nan,nan,nan,nan,"(182, 348)",no pil E/W
2012-09-02 09:00:00,0,nan,nan,nan,nan,"(nan, nan)",nan,nan,nan,nan,nan,nan,nan,nan,"(182, 348)",no pil E/W
2012-09-02 09:12:00,0,nan,nan,nan,nan,"(nan, nan)",nan,nan,nan,nan,nan,nan,nan,nan,"(182, 348)",no pil E/W
2012-09-02 09:24:00,0,nan,nan,nan,nan,"(nan, nan)",nan,nan,nan,nan,nan,nan,nan,nan,"(182, 348)",no pil E/W
2012-09-02 09:36:00,0,nan,nan,nan,nan,"(nan, nan)",nan,nan,nan,nan,nan,nan,nan,nan,"(182, 348)",no pil E/W
2012-09-02 09:48:00,0,nan,nan,nan,nan,"(nan, nan)",nan,nan,nan,nan,nan,nan,nan,nan,"(182, 348)",no pil E/W
2012-09-02 10:00:00,0,nan,nan,nan,nan,"(nan, nan)",nan,nan,nan,nan,nan,nan,nan,nan,"(182, 348)",no pil E/W
2012-09-02 10:12:00,0,nan,nan,nan,nan,"(nan, nan)",nan,nan,nan,nan,nan,nan,nan,nan,"(182, 348)",no pil E/W
2012-09-02 10:24:00,0,nan,nan,nan,nan,"(nan, nan)",nan,nan,nan,nan,nan,nan,nan,nan,"(182, 348)",no pil E/W
2012-09-02 10:36:00,0,nan,nan,nan,nan,"(nan, nan)",nan,nan,nan,nan,nan,nan,nan,nan,"(182, 348)",no pil E/W
2012-09-02 10:48:00,0,nan,nan,nan,nan,"(nan, nan)",nan,nan,nan,nan,nan,nan,nan,nan,"(182, 348)",no pil E/W
2012-09-02 11:00:00,0,nan,nan,nan,nan,"(nan, nan)",nan,nan,nan,nan,nan,nan,nan,nan,"(182, 348)",no pil E/W
2012-09-02 11:12:00,0,nan,nan,nan,nan,"(nan, nan)",nan,nan,nan,nan,nan,nan,nan,nan,"(182, 348)",no pil E/W
2012-09-02 11:24:00,0,nan,nan,nan,nan,"(nan, nan)",nan,nan,nan,nan,nan,nan,nan,nan,"(182, 348)",no pil E/W
2012-09-02 11:36:00,0,nan,nan,nan,nan,"(nan, nan)",nan,nan,nan,nan,nan,nan,nan,nan,"(182, 348)",no pil E/W
2012-09-02 11:48:00,0,nan,nan,nan,nan,"(nan, nan)",nan,nan,nan,nan,nan,nan,nan,nan,"(182, 348)",no pil E/W
2012-09-02 12:00:00,0,nan,nan,nan,nan,"(nan, nan)",nan,nan,nan,nan,nan,nan,nan,nan,"(182, 348)",no pil E/W
2012-09-02 12:12:00,0,nan,nan,nan,nan,"(nan, nan)",nan,nan,nan,nan,nan,nan,nan,nan,"(182, 348)",no pil E/W
2012-09-02 12:24:00,0,nan,nan,nan,nan,"(nan, nan)",nan,nan,nan,nan,nan,nan,nan,nan,"(182, 348)",no pil E/W
2012-09-02 12:36:00,1,14,45,3867.0,0.5337057144505503,"(17.635900753599483, 0.08387946618073824)",1.2857142857142858,0.29382288629737613,0.08470496223140445,0.00042906828936007665,5.150755482650799e-05,-5.177791540147478e-09,-1.2487972170861378e-05,-5.641195238992646e-09,"(182, 348)",detected
2012-09-02 12:48:00,1,15,47,4939.9,0.49612937076000824,"(20.4768900736739, 0.21834802156419242)",1.4276142374915397,0.42923456790123454,0.17654885291876238,0.0042743271006038756,0.000579226276994066,-2.7071166139186254e-07,-0.00014629136798289416,-8.702612165597348e-07,"(182, 348)",detected
2012-09-02 13:00:00,1,19,57,5347.4,0.5337057144505503,"(33.86915633966686, 0.13669161354950976)",1.5172856381445363,0.5651941488069203,0.3143288522491007,0.001446004531765172,0.00022873087711789021,7.85756546592887e-09,-3.529873762556249e-05,-1.3130940712435534e-07,"(182, 348)",detected
2012-09-02 13:12:00,0,nan,nan,nan,nan,"(nan, nan)",nan,nan,nan,nan,nan,nan,nan,nan,"(182, 348)",no pil E/W
2012-09-02 13:24:00,0,nan,nan,nan,nan,"(nan, nan)",nan,nan,nan,nan,nan,nan,nan,nan,"(182, 348)",no pil E/W
2012-09-02 13:36:00,0,nan,nan,nan,nan,"(nan, nan)",nan,nan,nan,nan,nan,nan,nan,nan,"(182, 348)",no pil E/W
2012-09-02 13:48:00,0,nan,nan,nan,nan,"(nan, nan)",nan,nan,nan,nan,nan,nan,nan,nan,"(182, 348)",no pil E/W
2012-09-02 14:00:00,0,nan,nan,nan,nan,"(nan, nan)",nan,nan,nan,nan,nan,nan,nan,nan,"(182, 348)",no pil E/W
2012-09-02 14:12:00,0,nan,nan,nan,nan,"(nan, nan)",nan,nan,nan,nan,nan,nan,nan,nan,"(182, 348)",no pil E/W
2012-09-02 14:24:00,0,nan,nan,nan,nan,"(nan, nan)",nan,nan,nan,nan,nan,nan,nan,nan,"(182, 348)",no pil E/W
2012-09-02 14:36:00,0,nan,nan,nan,nan,"(nan, nan)",nan,nan,nan,nan,nan,nan,nan,nan,"(182, 348)",no pil E/W
2012-09-02 14:48:00,0,nan,nan,nan,nan,"(nan, nan)",nan,nan,nan,nan,nan,nan,nan,nan,"(182, 348)",no pil E/W
2012-09-02 15:00:00,0,nan,nan,nan,nan,"(nan, nan)",nan,nan,nan,nan,nan,nan,nan,nan,"(182, 348)",no pil E/W
2012-09-02 15:12:00,0,nan,nan,nan,nan,"(nan, nan)",nan,nan,nan,nan,nan,nan,nan,nan,"(182, 348)",no pil E/W
2012-09-02 15:24:00,0,nan,nan,nan,nan,"(nan, nan)",nan,nan,nan,nan,nan,nan,nan,nan,"(182, 348)",no pil E/W
2012-09-02 15:36:00,0,nan,nan,nan,nan,"(nan, nan)",nan,nan,nan,nan,nan,nan,nan,nan,"(182, 348)",no pil E/W
2012-09-02 15:48:00,0,nan,nan,nan,nan,"(nan, nan)",nan,nan,nan,nan,nan,nan,nan,nan,"(182, 348)",no pil E/W
2012-09-02 16:00:00,0,nan,nan,nan,nan,"(nan, nan)",nan,nan,nan,nan,nan,nan,nan,nan,"(182, 348)",no pil E/W
2012-09-02 16:12:00,0,nan,nan,nan,nan,"(nan, nan)",nan,nan,nan,nan,nan,nan,nan,nan,"(182, 348)",no pil E/W
2012-09-02 16:24:00,0,nan,nan,nan,nan,"(nan, nan)",nan,nan,nan,nan,nan,nan,nan,nan,"(182, 348)",no pil E/W
2012-09-02 16:36:00,0,nan,nan,nan,nan,"(nan, nan)",nan,nan,nan,nan,nan,nan,nan,nan,"(182, 348)",no pil E/W
2012-09-02 16:48:00,0,nan,nan,nan,nan,"(nan, nan)",nan,nan,nan,nan,nan,nan,nan,nan,"(182, 348)",no pil E/W
2012-09-02 17:00:00,1,16,32,1811.3,0.5429302541414317,"(1.5788565899883338, 19.88781007667833)",1.8816626073623883,0.62890625,0.2877197265625,0.0905540585517883,0.0095561146736145,-0.0002741958819463262,-0.005118775647133588,6.196239958455864e-05,"(182, 348)",detected
2012-09-02 17:12:00,0,nan,nan,nan,nan,"(nan, nan)",nan,nan,nan,nan,nan,nan,nan,nan,"(182, 348)",no pil E/W
2012-09-02 17:24:00,0,nan,nan,nan,nan,"(nan, nan)",nan,nan,nan,nan,nan,nan,nan,nan,"(182, 348)",no pil E/W
2012-09-02 17:36:00,0,nan,nan,nan,nan,"(nan, nan)",nan,nan,nan,nan,nan,nan,nan,nan,"(182, 348)",no pil E/W
2012-09-02 17:48:00,1,14,37,3881.7,0.381843656474294,"(0.2771251857133876, 17.508589100000897)",1.7734590803390138,0.589832361516035,0.3265569418885839,0.014066749039311714,0.0015816693288409505,-7.277280380594462e-06,-0.0008929358183094853,-1.643436882525828e-06,"(182, 348)",detected
2012-09-02 18:00:00,1,15,39,3253.4,0.381843656474294,"(0.4441026254181395, 20.05113546981995)",1.7885618083164128,0.6376296296296297,0.3720958244170096,0.014409609084793678,0.0016180292646445797,-7.704050275169854e-06,-0.0009868183175384133,1.2989065875417767e-06,"(182, 348)",detected
2012-09-02 18:12:00,1,14,29,1905.6,0.381843656474294,"(0.08387946618073627, 17.635900753599483)",1.2857142857142858,0.5876457725947523,0.3388198489256178,0.003432546314881162,0.00041206043861213035,-3.313786585695496e-07,-0.0001998075547338151,-3.6103649529564144e-07,"(182, 348)",detected
2012-09-02 18:24:00,0,nan,nan,nan,nan,"(nan, nan)",nan,nan,nan,nan,nan,nan,nan,nan,"(182, 348)",no pil E/W
2012-09-02 18:36:00,0,nan,nan,nan,nan,"(nan, nan)",nan,nan,nan,nan,nan,nan,nan,nan,"(182, 348)",no pil E/W
2012-09-02 18:48:00,0,nan,nan,nan,nan,"(nan, nan)",nan,nan,nan,nan,nan,nan,nan,nan,"(182, 348)",no pil E/W
2012-09-02 19:00:00,0,nan,nan,nan,nan,"(nan, nan)",nan,nan,nan,nan,nan,nan,nan,nan,"(182, 348)",no pil E/W
2012-09-02 19:12:00,0,nan,nan,nan,nan,"(nan, nan)",nan,nan,nan,nan,nan,nan,nan,nan,"(182, 348)",no pil E/W
2012-09-02 19:24:00,0,nan,nan,nan,nan,"(nan, nan)",nan,nan,nan,nan,nan,nan,nan,nan,"(182, 348)",no pil E/W
2012-09-02 19:36:00,0,nan,nan,nan,nan,"(nan, nan)",nan,nan,nan,nan,nan,nan,nan,nan,"(182, 348)",no pil E/W
2012-09-02 19:48:00,0,nan,nan,nan,nan,"(nan, nan)",nan,nan,nan,nan,nan,nan,nan,nan,"(182, 348)",no pil E/W
2012-09-02 20:00:00,0,nan,nan,nan,nan,"(nan, nan)",nan,nan,nan,nan,nan,nan,nan,nan,"(182, 348)",no pil E/W
2012-09-02 20:12:00,0,nan,nan,nan,nan,"(nan, nan)",nan,nan,nan,nan,nan,nan,nan,nan,"(182, 348)",no pil E/W
2012-09-02 20:24:00,0,nan,nan,nan,nan,"(nan, nan)",nan,nan,nan,nan,nan,nan,nan,nan,"(182, 348)",no pil E/W
2012-09-02 20:36:00,0,nan,nan,nan,nan,"(nan, nan)",nan,nan,nan,nan,nan,nan,nan,nan,"(182, 348)",no pil E/W
2012-09-02 20:48:00,0,nan,nan,nan,nan,"(nan, nan)",nan,nan,nan,nan,nan,nan,nan,nan,"(182, 348)",no pil E/W
2012-09-02 21:00:00,0,nan,nan,nan,nan,"(nan, nan)",nan,nan,nan,nan,nan,nan,nan,nan,"(182, 348)",no pil E/W
2012-09-02 21:12:00,0,nan,nan,nan,nan,"(nan, nan)",nan,nan,nan,nan,nan,nan,nan,nan,"(182, 348)",no pil E/W
2012-09-02 21:24:00,0,nan,nan,nan,nan,"(nan, nan)",nan,nan,nan,nan,nan,nan,nan,nan,"(182, 348)",no pil E/W
2012-09-02 21:36:00,0,nan,nan,nan,nan,"(nan, nan)",nan,nan,nan,nan,nan,nan,nan,nan,"(182, 348)",no pil E/W
2012-09-02 21:48:00,0,nan,nan,nan,nan,"(nan, nan)",nan,nan,nan,nan,nan,nan,nan,nan,"(182, 348)",no pil E/W
2012-09-02 22:00:00,0,nan,nan,nan,nan,"(nan, nan)",nan,nan,nan,nan,nan,nan,nan,nan,"(182, 348)",no pil E/W
2012-09-02 22:12:00,0,nan,nan,nan,nan,"(nan, nan)",nan,nan,nan,nan,nan,nan,nan,nan,"(182, 348)",no pil E/W
2012-09-02 22:24:00,0,nan,nan,nan,nan,"(nan, nan)",nan,nan,nan,nan,nan,nan,nan,nan,"(182, 348)",no pil E/W
2012-09-02 22:36:00,0,nan,nan,nan,nan,"(nan, nan)",nan,nan,nan,nan,nan,nan,nan,nan,"(182, 348)",no pil E/W
2012-09-02 22:48:00,0,nan,nan,nan,nan,"(nan, nan)",nan,nan,nan,nan,nan,nan,nan,nan,"(182, 348)",no pil E/W
2012-09-02 23:00:00,0,nan,nan,nan,nan,"(nan, nan)",nan,nan,nan,nan,nan,nan,nan,nan,"(182, 348)",no pil E/W
2012-09-02 23:12:00,0,nan,nan,nan,nan,"(nan, nan)",nan,nan,nan,nan,nan,nan,nan,nan,"(182, 348)",no pil E/W
2012-09-02 23:24:00,0,nan,nan,nan,nan,"(nan, nan)",nan,nan,nan,nan,nan,nan,nan,nan,"(182, 348)",no pil E/W
2012-09-02 23:36:00,0,nan,nan,nan,nan,"(nan, nan)",nan,nan,nan,nan,nan,nan,nan,nan,"(182, 348)",no pil E/W
2012-09-02 23:48:00,0,nan,nan,nan,nan,"(nan, nan)",nan,nan,nan,nan,nan,nan,nan,nan,"(182, 348)",no pil E/W
2012-09-03 00:00:00,0,nan,nan,nan,nan,"(nan, nan)",nan,nan,nan,nan,nan,nan,nan,nan,"(182, 348)",no pil E/W
2012-09-03 00:12:00,0,nan,nan,nan,nan,"(nan, nan)",nan,nan,nan,nan,nan,nan,nan,nan,"(182, 348)",no pil E/W
2012-09-03 00:24:00,0,nan,nan,nan,nan,"(nan, nan)",nan,nan,nan,nan,nan,nan,nan,nan,"(182, 348)",no pil E/W
2012-09-03 00:36:00,0,nan,nan,nan,nan,"(nan, nan)",nan,nan,nan,nan,nan,nan,nan,nan,"(182, 348)",no pil E/W
2012-09-03 00:48:00,0,nan,nan,nan,nan,"(nan, nan)",nan,nan,nan,nan,nan,nan,nan,nan,"(182, 348)",no pil E/W
2012-09-03 01:00:00,0,nan,nan,nan,nan,"(nan, nan)",nan,nan,nan,nan,nan,nan,nan,nan,"(182, 348)",no pil E/W
2012-09-03 01:12:00,0,nan,nan,nan,nan,"(nan, nan)",nan,nan,nan,nan,nan,nan,nan,nan,"(182, 348)",no pil E/W
2012-09-03 01:24:00,0,nan,nan,nan,nan,"(nan, nan)",nan,nan,nan,nan,nan,nan,nan,nan,"(182, 348)",no pil E/W
2012-09-03 01:36:00,0,nan,nan,nan,nan,"(nan, nan)",nan,nan,nan,nan,nan,nan,nan,nan,"(182, 348)",no pil E/W
2012-09-03 01:48:00,0,nan,nan,nan,nan,"(nan, nan)",nan,nan,nan,nan,nan,nan,nan,nan,"(182, 348)",no pil E/W
2012-09-03 02:00:00,0,nan,nan,nan,nan,"(nan, nan)",nan,nan,nan,nan,nan,nan,nan,nan,"(182, 348)",no pil E/W
2012-09-03 02:12:00,0,nan,nan,nan,nan,"(nan, nan)",nan,nan,nan,nan,nan,nan,nan,nan,"(182, 348)",no pil E/W
2012-09-03 02:24:00,0,nan,nan,nan,nan,"(nan, nan)",nan,nan,nan,nan,nan,nan,nan,nan,"(182, 348)",no pil E/W
2012-09-03 02:36:00,0,nan,nan,nan,nan,"(nan, nan)",nan,nan,nan,nan,nan,nan,nan,nan,"(182, 348)",no pil E/W
2012-09-03 02:48:00,0,nan,nan,nan,nan,"(nan, nan)",nan,nan,nan,nan,nan,nan,nan,nan,"(182, 348)",no pil E/W
2012-09-03 03:00:00,0,nan,nan,nan,nan,"(nan, nan)",nan,nan,nan,nan,nan,nan,nan,nan,"(182, 348)",no pil E/W
2012-09-03 03:12:00,0,nan,nan,nan,nan,"(nan, nan)",nan,nan,nan,nan,nan,nan,nan,nan,"(182, 348)",no pil E/W
2012-09-03 03:24:00,0,nan,nan,nan,nan,"(nan, nan)",nan,nan,nan,nan,nan,nan,nan,nan,"(182, 348)",no pil E/W
2012-09-03 03:36:00,0,nan,nan,nan,nan,"(nan, nan)",nan,nan,nan,nan,nan,nan,nan,nan,"(182, 348)",no pil E/W
2012-09-03 03:48:00,0,nan,nan,nan,nan,"(nan, nan)",nan,nan,nan,nan,nan,nan,nan,nan,"(182, 348)",no pil E/W
2012-09-03 04:00:00,0,nan,nan,nan,nan,"(nan, nan)",nan,nan,nan,nan,nan,nan,nan,nan,"(182, 348)",no pil E/W
2012-09-03 04:12:00,0,nan,nan,nan,nan,"(nan, nan)",nan,nan,nan,nan,nan,nan,nan,nan,"(182, 348)",no pil E/W
2012-09-03 04:24:00,0,nan,nan,nan,nan,"(nan, nan)",nan,nan,nan,nan,nan,nan,nan,nan,"(182, 348)",no pil E/W
2012-09-03 04:36:00,0,nan,nan,nan,nan,"(nan, nan)",nan,nan,nan,nan,nan,nan,nan,nan,"(182, 348)",no pil E/W
2012-09-03 04:48:00,0,nan,nan,nan,nan,"(nan, nan)",nan,nan,nan,nan,nan,nan,nan,nan,"(182, 348)",no pil E/W
2012-09-03 05:00:00,0,nan,nan,nan,nan,"(nan, nan)",nan,nan,nan,nan,nan,nan,nan,nan,"(182, 348)",no pil E/W
2012-09-03 05:12:00,1,14,37,4054.5,0.43828142865384667,"(3.2104546820775437, 6.185149713526854)",1.6504715512713009,0.2077259475218659,0.0043253071046549935,0.007626984972289198,0.000651749818015472,-1.2062553211925327e-08,3.2100807469058035e-05,1.4530576961623288e-06,"(182, 348)",detected
2012-09-03 11:24:00,0,nan,nan,nan,nan,"(nan, nan)",nan,nan,nan,nan,nan,nan,nan,nan,"(182, 348)",no pil E/W
2012-09-03 11:36:00,0,nan,nan,nan,nan,"(nan, nan)",nan,nan,nan,nan,nan,nan,nan,nan,"(182, 348)",no pil E/W
2012-09-03 11:48:00,0,nan,nan,nan,nan,"(nan, nan)",nan,nan,nan,nan,nan,nan,nan,nan,"(182, 348)",no pil E/W
2012-09-03 12:00:00,0,nan,nan,nan,nan,"(nan, nan)",nan,nan,nan,nan,nan,nan,nan,nan,"(182, 348)",no pil E/W
2012-09-03 12:12:00,0,nan,nan,nan,nan,"(nan, nan)",nan,nan,nan,nan,nan,nan,nan,nan,"(182, 348)",no pil E/W
2012-09-03 12:24:00,0,nan,nan,nan,nan,"(nan, nan)",nan,nan,nan,nan,nan,nan,nan,nan,"(182, 348)",no pil E/W
2012-09-03 12:36:00,0,nan,nan,nan,nan,"(nan, nan)",nan,nan,nan,nan,nan,nan,nan,nan,"(182, 348)",no pil E/W
2012-09-03 12:48:00,0,nan,nan,nan,nan,"(nan, nan)",nan,nan,nan,nan,nan,nan,nan,nan,"(182, 348)",no pil E/W
2012-09-03 13:00:00,0,nan,nan,nan,nan,"(nan, nan)",nan,nan,nan,nan,nan,nan,nan,nan,"(182, 348)",no pil E/W
2012-09-03 13:12:00,0,nan,nan,nan,nan,"(nan, nan)",nan,nan,nan,nan,nan,nan,nan,nan,"(182, 348)",no pil E/W
2012-09-03 13:24:00,0,nan,nan,nan,nan,"(nan, nan)",nan,nan,nan,nan,nan,nan,nan,nan,"(182, 348)",no pil E/W
2012-09-03 13:36:00,0,nan,nan,nan,nan,"(nan, nan)",nan,nan,nan,nan,nan,nan,nan,nan,"(182, 348)",no pil E/W
2012-09-03 13:48:00,0,nan,nan,nan,nan,"(nan, nan)",nan,nan,nan,nan,nan,nan,nan,nan,"(182, 348)",no pil E/W
2012-09-03 14:00:00,0,nan,nan,nan,nan,"(nan, nan)",nan,nan,nan,nan,nan,nan,nan,nan,"(182, 348)",no pil E/W
2012-09-03 14:12:00,0,nan,nan,nan,nan,"(nan, nan)",nan,nan,nan,nan,nan,nan,nan,nan,"(182, 348)",no pil E/W
2012-09-03 14:24:00,0,nan,nan,nan,nan,"(nan, nan)",nan,nan,nan,nan,nan,nan,nan,nan,"(182, 348)",no pil E/W
2012-09-03 14:36:00,0,nan,nan,nan,nan,"(nan, nan)",nan,nan,nan,nan,nan,nan,nan,nan,"(182, 348)",no pil E/W
2012-09-03 14:48:00,0,nan,nan,nan,nan,"(nan, nan)",nan,nan,nan,nan,nan,nan,nan,nan,"(182, 348)",no pil E/W
2012-09-03 15:00:00,0,nan,nan,nan,nan,"(nan, nan)",nan,nan,nan,nan,nan,nan,nan,nan,"(182, 348)",no pil E/W
2012-09-03 15:12:00,0,nan,nan,nan,nan,"(nan, nan)",nan,nan,nan,nan,nan,nan,nan,nan,"(182, 348)",no pil E/W
2012-09-03 15:24:00,0,nan,nan,nan,nan,"(nan, nan)",nan,nan,nan,nan,nan,nan,nan,nan,"(182, 348)",no pil E/W
2012-09-03 15:36:00,0,nan,nan,nan,nan,"(nan, nan)",nan,nan,nan,nan,nan,nan,nan,nan,"(182, 348)",no pil E/W
2012-09-03 15:48:00,0,nan,nan,nan,nan,"(nan, nan)",nan,nan,nan,nan,nan,nan,nan,nan,"(182, 348)",no pil E/W
2012-09-03 16:00:00,0,nan,nan,nan,nan,"(nan, nan)",nan,nan,nan,nan,nan,nan,nan,nan,"(182, 348)",no pil E/W
2012-09-03 16:12:00,0,nan,nan,nan,nan,"(nan, nan)",nan,nan,nan,nan,nan,nan,nan,nan,"(182, 348)",no pil E/W
2012-09-03 16:24:00,0,nan,nan,nan,nan,"(nan, nan)",nan,nan,nan,nan,nan,nan,nan,nan,"(182, 348)",no pil E/W
2012-09-03 16:36:00,0,nan,nan,nan,nan,"(nan, nan)",nan,nan,nan,nan,nan,nan,nan,nan,"(182, 348)",no pil E/W
2012-09-03 16:48:00,0,nan,nan,nan,nan,"(nan, nan)",nan,nan,nan,nan,nan,nan,nan,nan,"(182, 348)",no pil E/W
2012-09-03 17:00:00,0,nan,nan,nan,nan,"(nan, nan)",nan,nan,nan,nan,nan,nan,nan,nan,"(182, 348)",no pil E/W
2012-09-03 17:12:00,0,nan,nan,nan,nan,"(nan, nan)",nan,nan,nan,nan,nan,nan,nan,nan,"(182, 348)",no pil E/W
2012-09-03 17:24:00,0,nan,nan,nan,nan,"(nan, nan)",nan,nan,nan,nan,nan,nan,nan,nan,"(182, 348)",no pil E/W
2012-09-03 17:36:00,0,nan,nan,nan,nan,"(nan, nan)",nan,nan,nan,nan,nan,nan,nan,nan,"(182, 348)",no pil E/W
2012-09-03 17:48:00,0,nan,nan,nan,nan,"(nan, nan)",nan,nan,nan,nan,nan,nan,nan,nan,"(182, 348)",no pil E/W
2012-09-03 18:00:00,0,nan,nan,nan,nan,"(nan, nan)",nan,nan,nan,nan,nan,nan,nan,nan,"(182, 348)",no pil E/W
2012-09-03 18:12:00,0,nan,nan,nan,nan,"(nan, nan)",nan,nan,nan,nan,nan,nan,nan,nan,"(182, 348)",no pil E/W
2012-09-03 18:24:00,0,nan,nan,nan,nan,"(nan, nan)",nan,nan,nan,nan,nan,nan,nan,nan,"(182, 348)",no pil E/W
2012-09-03 18:36:00,0,nan,nan,nan,nan,"(nan, nan)",nan,nan,nan,nan,nan,nan,nan,nan,"(182, 348)",no pil E/W
2012-09-03 18:48:00,0,nan,nan,nan,nan,"(nan, nan)",nan,nan,nan,nan,nan,nan,nan,nan,"(182, 348)",no pil E/W
2012-09-03 19:00:00,0,nan,nan,nan,nan,"(nan, nan)",nan,nan,nan,nan,nan,nan,nan,nan,"(182, 348)",no pil E/W
2012-09-03 19:12:00,0,nan,nan,nan,nan,"(nan, nan)",nan,nan,nan,nan,nan,nan,nan,nan,"(182, 348)",no pil E/W
2012-09-03 19:24:00,0,nan,nan,nan,nan,"(nan, nan)",nan,nan,nan,nan,nan,nan,nan,nan,"(182, 348)",no pil E/W
2012-09-03 19:36:00,0,nan,nan,nan,nan,"(nan, nan)",nan,nan,nan,nan,nan,nan,nan,nan,"(182, 348)",no pil E/W
2012-09-03 19:48:00,0,nan,nan,nan,nan,"(nan, nan)",nan,nan,nan,nan,nan,nan,nan,nan,"(182, 348)",no pil E/W
2012-09-03 20:00:00,0,nan,nan,nan,nan,"(nan, nan)",nan,nan,nan,nan,nan,nan,nan,nan,"(182, 348)",no pil E/W
2012-09-03 20:12:00,0,nan,nan,nan,nan,"(nan, nan)",nan,nan,nan,nan,nan,nan,nan,nan,"(182, 348)",no pil E/W
2012-09-03 20:24:00,0,nan,nan,nan,nan,"(nan, nan)",nan,nan,nan,nan,nan,nan,nan,nan,"(182, 348)",no pil E/W
2012-09-03 20:36:00,0,nan,nan,nan,nan,"(nan, nan)",nan,nan,nan,nan,nan,nan,nan,nan,"(182, 348)",no pil E/W
2012-09-03 20:48:00,0,nan,nan,nan,nan,"(nan, nan)",nan,nan,nan,nan,nan,nan,nan,nan,"(182, 348)",no pil E/W
2012-09-03 21:00:00,0,nan,nan,nan,nan,"(nan, nan)",nan,nan,nan,nan,nan,nan,nan,nan,"(182, 348)",no pil E/W
2012-09-03 21:12:00,0,nan,nan,nan,nan,"(nan, nan)",nan,nan,nan,nan,nan,nan,nan,nan,"(182, 348)",no pil E/W
2012-09-03 21:24:00,0,nan,nan,nan,nan,"(nan, nan)",nan,nan,nan,nan,nan,nan,nan,nan,"(182, 348)",no pil E/W
2012-09-03 21:36:00,0,nan,nan,nan,nan,"(nan, nan)",nan,nan,nan,nan,nan,nan,nan,nan,"(182, 348)",no pil E/W
2012-09-03 21:48:00,0,nan,nan,nan,nan,"(nan, nan)",nan,nan,nan,nan,nan,nan,nan,nan,"(182, 348)",no pil E/W
2012-09-03 22:00:00,0,nan,nan,nan,nan,"(nan, nan)",nan,nan,nan,nan,nan,nan,nan,nan,"(182, 348)",no pil E/W
2012-09-03 22:12:00,0,nan,nan,nan,nan,"(nan, nan)",nan,nan,nan,nan,nan,nan,nan,nan,"(182, 348)",no pil E/W
2012-09-03 22:24:00,0,nan,nan,nan,nan,"(nan, nan)",nan,nan,nan,nan,nan,nan,nan,nan,"(182, 348)",no pil E/W
2012-09-03 22:36:00,0,nan,nan,nan,nan,"(nan, nan)",nan,nan,nan,nan,nan,nan,nan,nan,"(182, 348)",no pil E/W
2012-09-03 22:48:00,0,nan,nan,nan,nan,"(nan, nan)",nan,nan,nan,nan,nan,nan,nan,nan,"(182, 348)",no pil E/W
2012-09-03 23:00:00,0,nan,nan,nan,nan,"(nan, nan)",nan,nan,nan,nan,nan,nan,nan,nan,"(182, 348)",no pil E/W
2012-09-03 23:12:00,0,nan,nan,nan,nan,"(nan, nan)",nan,nan,nan,nan,nan,nan,nan,nan,"(182, 348)",no pil E/W
2012-09-04 05:24:00,0,nan,nan,nan,nan,"(nan, nan)",nan,nan,nan,nan,nan,nan,nan,nan,"(182, 348)",no pil E/W
2012-09-04 05:36:00,0,nan,nan,nan,nan,"(nan, nan)",nan,nan,nan,nan,nan,nan,nan,nan,"(182, 348)",no pil E/W
2012-09-04 05:48:00,0,nan,nan,nan,nan,"(nan, nan)",nan,nan,nan,nan,nan,nan,nan,nan,"(182, 348)",no pil E/W
2012-09-04 06:00:00,0,nan,nan,nan,nan,"(nan, nan)",nan,nan,nan,nan,nan,nan,nan,nan,"(182, 348)",no pil E/W
2012-09-04 06:12:00,0,nan,nan,nan,nan,"(nan, nan)",nan,nan,nan,nan,nan,nan,nan,nan,"(182, 348)",no pil E/W
2012-09-04 06:24:00,0,nan,nan,nan,nan,"(nan, nan)",nan,nan,nan,nan,nan,nan,nan,nan,"(182, 348)",no pil E/W
2012-09-04 06:36:00,0,nan,nan,nan,nan,"(nan, nan)",nan,nan,nan,nan,nan,nan,nan,nan,"(182, 348)",no pil E/W
2012-09-04 06:48:00,0,nan,nan,nan,nan,"(nan, nan)",nan,nan,nan,nan,nan,nan,nan,nan,"(182, 348)",no pil E/W
2012-09-04 07:00:00,0,nan,nan,nan,nan,"(nan, nan)",nan,nan,nan,nan,nan,nan,nan,nan,"(182, 348)",no pil E/W
2012-09-04 07:12:00,0,nan,nan,nan,nan,"(nan, nan)",nan,nan,nan,nan,nan,nan,nan,nan,"(182, 348)",no pil E/W
2012-09-04 07:24:00,0,nan,nan,nan,nan,"(nan, nan)",nan,nan,nan,nan,nan,nan,nan,nan,"(182, 348)",no pil E/W
2012-09-04 07:36:00,0,nan,nan,nan,nan,"(nan, nan)",nan,nan,nan,nan,nan,nan,nan,nan,"(182, 348)",no pil E/W
2012-09-04 07:48:00,0,nan,nan,nan,nan,"(nan, nan)",nan,nan,nan,nan,nan,nan,nan,nan,"(182, 348)",no pil E/W
2012-09-04 08:00:00,0,nan,nan,nan,nan,"(nan, nan)",nan,nan,nan,nan,nan,nan,nan,nan,"(182, 348)",no pil E/W
2012-09-04 08:12:00,0,nan,nan,nan,nan,"(nan, nan)",nan,nan,nan,nan,nan,nan,nan,nan,"(182, 348)",no pil E/W
2012-09-04 08:24:00,0,nan,nan,nan,nan,"(nan, nan)",nan,nan,nan,nan,nan,nan,nan,nan,"(182, 348)",no pil E/W
2012-09-04 08:36:00,0,nan,nan,nan,nan,"(nan, nan)",nan,nan,nan,nan,nan,nan,nan,nan,"(182, 348)",no pil E/W
2012-09-04 08:48:00,0,nan,nan,nan,nan,"(nan, nan)",nan,nan,nan,nan,nan,nan,nan,nan,"(182, 348)",no pil E/W
2012-09-04 09:00:00,0,nan,nan,nan,nan,"(nan, nan)",nan,nan,nan,nan,nan,nan,nan,nan,"(182, 348)",no pil E/W
2012-09-04 09:12:00,0,nan,nan,nan,nan,"(nan, nan)",nan,nan,nan,nan,nan,nan,nan,nan,"(182, 348)",no pil E/W
2012-09-04 09:24:00,0,nan,nan,nan,nan,"(nan, nan)",nan,nan,nan,nan,nan,nan,nan,nan,"(182, 348)",no pil E/W
2012-09-04 09:36:00,0,nan,nan,nan,nan,"(nan, nan)",nan,nan,nan,nan,nan,nan,nan,nan,"(182, 348)",no pil E/W
2012-09-04 09:48:00,0,nan,nan,nan,nan,"(nan, nan)",nan,nan,nan,nan,nan,nan,nan,nan,"(182, 348)",no pil E/W
2012-09-04 10:00:00,0,nan,nan,nan,nan,"(nan, nan)",nan,nan,nan,nan,nan,nan,nan,nan,"(182, 348)",no pil E/W
2012-09-04 10:12:00,0,nan,nan,nan,nan,"(nan, nan)",nan,nan,nan,nan,nan,nan,nan,nan,"(182, 348)",no pil E/W
2012-09-04 10:24:00,0,nan,nan,nan,nan,"(nan, nan)",nan,nan,nan,nan,nan,nan,nan,nan,"(182, 348)",no pil E/W
2012-09-04 10:36:00,0,nan,nan,nan,nan,"(nan, nan)",nan,nan,nan,nan,nan,nan,nan,nan,"(182, 348)",no pil E/W
2012-09-04 10:48:00,0,nan,nan,nan,nan,"(nan, nan)",nan,nan,nan,nan,nan,nan,nan,nan,"(182, 348)",no pil E/W
2012-09-04 11:00:00,1,15,32,2410.2,0.37142857142857166,"(20.69284806364947, 0.08810431730291024)",1.4666666666666666,0.32325925925925925,0.10273193964334706,4.2214834730471965e-05,5.675038967636196e-06,-2.8722155202784948e-11,-1.025177816961658e-06,-8.301007251351221e-11,"(182, 348)",detected
2012-09-04 11:12:00,1,29,63,5034.7,0.6685820512169947,"(73.2989520509055, 0.7478459786511373)",1.7325048512799752,0.6163229324695559,0.36466338926546554,0.010216985169596555,0.0011926843449708011,-3.226399768623025e-06,-0.0006139362047384846,2.631418927652966e-06,"(182, 348)",detected
2012-09-04 11:24:00,1,15,44,3587.7,0.5574221429807698,"(22.739140534866173, 0.3941927984671576)",1.7680543520114205,0.4798024691358024,0.21478661423563467,0.007470518598120862,0.001104206196330311,-6.250120101431061e-07,-0.00025762943455788295,3.109199336430071e-06,"(182, 348)",detected
2012-09-04 11:36:00,0,nan,nan,nan,nan,"(nan, nan)",nan,nan,nan,nan,nan,nan,nan,nan,"(182, 348)",no pil E/W
2012-09-04 11:48:00,1,15,39,3019.6,0.48427115649489827,"(20.967843303303926, 0.38453764907703025)",1.7909307353785953,1.3285925925925925,1.6402924334705078,0.015671009084387247,0.0024178488953919158,2.9135225345162487e-06,-0.0008870097030485231,1.4595096558522584e-05,"(182, 348)",detected
2012-09-04 12:00:00,0,nan,nan,nan,nan,"(nan, nan)",nan,nan,nan,nan,nan,nan,nan,nan,"(182, 348)",no pil E/W
2012-09-04 12:12:00,0,nan,nan,nan,nan,"(nan, nan)",nan,nan,nan,nan,nan,nan,nan,nan,"(182, 348)",no pil E/W
2012-09-04 12:24:00,0,nan,nan,nan,nan,"(nan, nan)",nan,nan,nan,nan,nan,nan,nan,nan,"(182, 348)",no pil E/W
2012-09-04 12:36:00,0,nan,nan,nan,nan,"(nan, nan)",nan,nan,nan,nan,nan,nan,nan,nan,"(182, 348)",no pil E/W
2012-09-04 12:48:00,1,14,28,2279.8,0.48427115649489827,"(17.826634134078436, 0.0909482835039821)",1.5862219129418962,0.39613702623906705,0.15375456808434887,0.00044244289405572407,5.936455876358617e-05,-3.3483447923342235e-09,-1.5103184525020107e-05,9.019529608044081e-09,"(182, 348)",detected
2012-09-04 13:00:00,1,14,34,2499.8,0.3714285714285716,"(17.514332475909345, 0.0570960955192259)",1.3719361986561818,1.1654518950437318,1.3406812850087977,0.011602006544297667,0.0013927642825089191,-3.785802346961537e-06,-0.0014397449123580055,4.124625336855036e-06,"(182, 348)",detected
2012-09-04 13:12:00,1,14,30,2278.8,0.3714285714285716,"(17.695521229204033, 0.06821503453223074)",1.2857142857142858,0.5891034985422741,0.341732644614489,0.0005492074103809025,6.592967017793073e-05,-8.483293659377787e-09,-3.134473649016028e-05,9.242534279565665e-09,"(182, 348)",detected
2012-09-04 13:24:00,1,15,35,2778.1,0.48427115649489827,"(19.091822270803085, 0.3748443958635795)",1.6414213562373097,1.211259259259259,1.356321009602194,0.019282573740994992,0.005730625928161772,5.740724411449613e-05,0.005898160585474053,1.825585976675788e-05,"(182, 348)",detected
2012-09-04 13:36:00,1,16,35,2516.5,0.3714285714285716,"(22.705230919858987, 0.07810241347434606)",1.3125,1.3349609375,1.757767677307129,0.027443859726190567,0.0032376982271671295,-2.2734929355325284e-05,-0.003874546386214206,2.036078876699321e-05,"(182, 348)",detected
2012-09-04 13:48:00,1,17,40,3619.6,0.46755794218857955,"(25.568060375415257, 0.18929256576121478)",1.6592415753639145,1.4260126195807044,1.9741736212126417,0.03790581687423574,0.004107004057976317,-5.028651264808716e-05,-0.005770435229862324,9.858256714139842e-06,"(182, 348)",detected
2012-09-04 14:00:00,1,21,52,4141.6,0.5574221429807698,"(37.64893545316329, 0.746302642074817)",1.7833213080145633,1.741280639239823,2.800899436736797,0.061093733117032735,0.005775257799496163,-9.067512732147274e-06,0.00027003504706783787,-0.00010810180618575364,"(182, 348)",detected
2012-09-04 14:12:00,0,nan,nan,nan,nan,"(nan, nan)",nan,nan,nan,nan,nan,nan,nan,nan,"(182, 348)",no pil E/W
2012-09-04 14:24:00,1,18,57,6883.9,0.5574221429807698,"(28.81233080647935, 0.328192069337647)",1.7472081926836573,1.5289780521262,2.233644262721543,0.044927581579200564,0.011961330793222301,0.0002268921071325697,0.012168474082376876,-0.00015939488376000684,"(182, 348)",detected
2012-09-04 14:36:00,1,18,46,5391.3,0.46755794218857955,"(29.031868917977327, 0.16094153953901325)",1.5900733524199802,1.531721536351166,2.2947178343880132,0.0031168480127799184,0.00028020338193829005,-2.1252213432607008e-07,-0.0004239770596984237,1.5298560093316558e-07,"(182, 348)",detected
2012-09-04 14:48:00,0,nan,nan,nan,nan,"(nan, nan)",nan,nan,nan,nan,nan,nan,nan,nan,"(182, 348)",no pil E/W
2012-09-04 15:00:00,1,14,44,5950.8,0.5574221429807698,"(17.55018453693828, 0.521244034490292)",1.6158085959685458,1.1986151603498543,1.2757037087013068,0.2758783124393337,0.03364202362381163,-0.0025327404226907434,-0.03435385770809306,-0.002022238371823728,"(182, 348)",detected
2012-09-04 15:12:00,0,nan,nan,nan,nan,"(nan, nan)",nan,nan,nan,nan,nan,nan,nan,nan,"(182, 348)",no pil E/W
2012-09-04 15:24:00,0,nan,nan,nan,nan,"(nan, nan)",nan,nan,nan,nan,nan,nan,nan,nan,"(182, 348)",no pil E/W
2012-09-04 15:36:00,0,nan,nan,nan,nan,"(nan, nan)",nan,nan,nan,nan,nan,nan,nan,nan,"(182, 348)",no pil E/W
2012-09-04 15:48:00,0,nan,nan,nan,nan,"(nan, nan)",nan,nan,nan,nan,nan,nan,nan,nan,"(182, 348)",no pil E/W
2012-09-04 16:00:00,0,nan,nan,nan,nan,"(nan, nan)",nan,nan,nan,nan,nan,nan,nan,nan,"(182, 348)",no pil E/W
2012-09-04 16:12:00,0,nan,nan,nan,nan,"(nan, nan)",nan,nan,nan,nan,nan,nan,nan,nan,"(182, 348)",no pil E/W
2012-09-04 16:24:00,0,nan,nan,nan,nan,"(nan, nan)",nan,nan,nan,nan,nan,nan,nan,nan,"(182, 348)",no pil E/W
2012-09-04 16:36:00,0,nan,nan,nan,nan,"(nan, nan)",nan,nan,nan,nan,nan,nan,nan,nan,"(182, 348)",no pil E/W
2012-09-04 16:48:00,0,nan,nan,nan,nan,"(nan, nan)",nan,nan,nan,nan,nan,nan,nan,nan,"(182, 348)",no pil E/W
2012-09-04 17:00:00,0,nan,nan,nan,nan,"(nan, nan)",nan,nan,nan,nan,nan,nan,nan,nan,"(182, 348)",no pil E/W
2012-09-04 17:12:00,0,nan,nan,nan,nan,"(nan, nan)",nan,nan,nan,nan,nan,nan,nan,nan,"(182, 348)",no pil E/W
2012-09-04 23:24:00,0,nan,nan,nan,nan,"(nan, nan)",nan,nan,nan,nan,nan,nan,nan,nan,"(182, 348)",no pil E/W
2012-09-04 23:36:00,0,nan,nan,nan,nan,"(nan, nan)",nan,nan,nan,nan,nan,nan,nan,nan,"(182, 348)",no pil E/W
2012-09-04 23:48:00,0,nan,nan,nan,nan,"(nan, nan)",nan,nan,nan,nan,nan,nan,nan,nan,"(182, 348)",no pil E/W
2012-09-05 00:00:00,0,nan,nan,nan,nan,"(nan, nan)",nan,nan,nan,nan,nan,nan,nan,nan,"(182, 348)",no pil E/W
2012-09-05 00:12:00,0,nan,nan,nan,nan,"(nan, nan)",nan,nan,nan,nan,nan,nan,nan,nan,"(182, 348)",no pil E/W
2012-09-05 00:24:00,1,14,30,1831.3,0.23898651361715112,"(1.4213537889803547, 14.54567917805261)",1.867295401695068,0.5295189504373178,0.18943863207507078,0.054338514971535454,0.006327891968244405,-8.259398960958352e-05,-0.0019453201870057537,8.334674041808674e-05,"(182, 348)",detected
2012-09-05 00:36:00,0,nan,nan,nan,nan,"(nan, nan)",nan,nan,nan,nan,nan,nan,nan,nan,"(182, 348)",no pil E/W
2012-09-05 00:48:00,0,nan,nan,nan,nan,"(nan, nan)",nan,nan,nan,nan,nan,nan,nan,nan,"(182, 348)",no pil E/W
2012-09-05 01:00:00,0,nan,nan,nan,nan,"(nan, nan)",nan,nan,nan,nan,nan,nan,nan,nan,"(182, 348)",no pil E/W
2012-09-05 01:12:00,0,nan,nan,nan,nan,"(nan, nan)",nan,nan,nan,nan,nan,nan,nan,nan,"(182, 348)",no pil E/W
2012-09-05 01:24:00,0,nan,nan,nan,nan,"(nan, nan)",nan,nan,nan,nan,nan,nan,nan,nan,"(182, 348)",no pil E/W
2012-09-05 01:36:00,0,nan,nan,nan,nan,"(nan, nan)",nan,nan,nan,nan,nan,nan,nan,nan,"(182, 348)",no pil E/W
2012-09-05 01:48:00,0,nan,nan,nan,nan,"(nan, nan)",nan,nan,nan,nan,nan,nan,nan,nan,"(182, 348)",no pil E/W
2012-09-05 02:00:00,0,nan,nan,nan,nan,"(nan, nan)",nan,nan,nan,nan,nan,nan,nan,nan,"(182, 348)",no pil E/W
2012-09-05 02:12:00,0,nan,nan,nan,nan,"(nan, nan)",nan,nan,nan,nan,nan,nan,nan,nan,"(182, 348)",no pil E/W
2012-09-05 02:24:00,0,nan,nan,nan,nan,"(nan, nan)",nan,nan,nan,nan,nan,nan,nan,nan,"(182, 348)",no pil E/W
2012-09-05 02:36:00,0,nan,nan,nan,nan,"(nan, nan)",nan,nan,nan,nan,nan,nan,nan,nan,"(182, 348)",no pil E/W
2012-09-05 02:48:00,0,nan,nan,nan,nan,"(nan, nan)",nan,nan,nan,nan,nan,nan,nan,nan,"(182, 348)",no pil E/W
2012-09-05 03:00:00,0,nan,nan,nan,nan,"(nan, nan)",nan,nan,nan,nan,nan,nan,nan,nan,"(182, 348)",no pil E/W
2012-09-05 03:12:00,0,nan,nan,nan,nan,"(nan, nan)",nan,nan,nan,nan,nan,nan,nan,nan,"(182, 348)",no pil E/W
2012-09-05 03:24:00,0,nan,nan,nan,nan,"(nan, nan)",nan,nan,nan,nan,nan,nan,nan,nan,"(182, 348)",no pil E/W
2012-09-05 03:36:00,0,nan,nan,nan,nan,"(nan, nan)",nan,nan,nan,nan,nan,nan,nan,nan,"(182, 348)",no pil E/W
2012-09-05 03:48:00,0,nan,nan,nan,nan,"(nan, nan)",nan,nan,nan,nan,nan,nan,nan,nan,"(182, 348)",no pil E/W
2012-09-05 04:00:00,0,nan,nan,nan,nan,"(nan, nan)",nan,nan,nan,nan,nan,nan,nan,nan,"(182, 348)",no pil E/W
2012-09-05 04:12:00,0,nan,nan,nan,nan,"(nan, nan)",nan,nan,nan,nan,nan,nan,nan,nan,"(182, 348)",no pil E/W
2012-09-05 04:24:00,0,nan,nan,nan,nan,"(nan, nan)",nan,nan,nan,nan,nan,nan,nan,nan,"(182, 348)",no pil E/W
2012-09-05 04:36:00,0,nan,nan,nan,nan,"(nan, nan)",nan,nan,nan,nan,nan,nan,nan,nan,"(182, 348)",no pil E/W
2012-09-05 04:48:00,0,nan,nan,nan,nan,"(nan, nan)",nan,nan,nan,nan,nan,nan,nan,nan,"(182, 348)",no pil E/W
2012-09-05 05:00:00,0,nan,nan,nan,nan,"(nan, nan)",nan,nan,nan,nan,nan,nan,nan,nan,"(182, 348)",no pil E/W
2012-09-05 05:12:00,0,nan,nan,nan,nan,"(nan, nan)",nan,nan,nan,nan,nan,nan,nan,nan,"(182, 348)",no pil E/W
2012-09-05 05:24:00,0,nan,nan,nan,nan,"(nan, nan)",nan,nan,nan,nan,nan,nan,nan,nan,"(182, 348)",no pil E/W
2012-09-05 05:36:00,0,nan,nan,nan,nan,"(nan, nan)",nan,nan,nan,nan,nan,nan,nan,nan,"(182, 348)",no pil E/W
2012-09-05 05:48:00,0,nan,nan,nan,nan,"(nan, nan)",nan,nan,nan,nan,nan,nan,nan,nan,"(182, 348)",no pil E/W
2012-09-05 06:00:00,0,nan,nan,nan,nan,"(nan, nan)",nan,nan,nan,nan,nan,nan,nan,nan,"(182, 348)",no pil E/W
2012-09-05 06:12:00,0,nan,nan,nan,nan,"(nan, nan)",nan,nan,nan,nan,nan,nan,nan,nan,"(182, 348)",no pil E/W
2012-09-05 06:24:00,0,nan,nan,nan,nan,"(nan, nan)",nan,nan,nan,nan,nan,nan,nan,nan,"(182, 348)",no pil E/W
2012-09-05 06:36:00,0,nan,nan,nan,nan,"(nan, nan)",nan,nan,nan,nan,nan,nan,nan,nan,"(182, 348)",no pil E/W
2012-09-05 06:48:00,0,nan,nan,nan,nan,"(nan, nan)",nan,nan,nan,nan,nan,nan,nan,nan,"(182, 348)",no pil E/W
2012-09-05 07:00:00,0,nan,nan,nan,nan,"(nan, nan)",nan,nan,nan,nan,nan,nan,nan,nan,"(182, 348)",no pil E/W
2012-09-05 07:12:00,0,nan,nan,nan,nan,"(nan, nan)",nan,nan,nan,nan,nan,nan,nan,nan,"(182, 348)",no pil E/W
2012-09-05 07:24:00,0,nan,nan,nan,nan,"(nan, nan)",nan,nan,nan,nan,nan,nan,nan,nan,"(182, 348)",no pil E/W
2012-09-05 07:36:00,0,nan,nan,nan,nan,"(nan, nan)",nan,nan,nan,nan,nan,nan,nan,nan,"(182, 348)",no pil E/W
2012-09-05 07:48:00,0,nan,nan,nan,nan,"(nan, nan)",nan,nan,nan,nan,nan,nan,nan,nan,"(182, 348)",no pil E/W
2012-09-05 08:00:00,0,nan,nan,nan,nan,"(nan, nan)",nan,nan,nan,nan,nan,nan,nan,nan,"(182, 348)",no pil E/W
2012-09-05 08:12:00,0,nan,nan,nan,nan,"(nan, nan)",nan,nan,nan,nan,nan,nan,nan,nan,"(182, 348)",no pil E/W
2012-09-05 08:24:00,0,nan,nan,nan,nan,"(nan, nan)",nan,nan,nan,nan,nan,nan,nan,nan,"(182, 348)",no pil E/W
2012-09-05 08:36:00,0,nan,nan,nan,nan,"(nan, nan)",nan,nan,nan,nan,nan,nan,nan,nan,"(182, 348)",no pil E/W
2012-09-05 08:48:00,0,nan,nan,nan,nan,"(nan, nan)",nan,nan,nan,nan,nan,nan,nan,nan,"(182, 348)",no pil E/W
2012-09-05 09:00:00,0,nan,nan,nan,nan,"(nan, nan)",nan,nan,nan,nan,nan,nan,nan,nan,"(182, 348)",no pil E/W
2012-09-05 09:12:00,0,nan,nan,nan,nan,"(nan, nan)",nan,nan,nan,nan,nan,nan,nan,nan,"(182, 348)",no pil E/W
2012-09-05 09:24:00,0,nan,nan,nan,nan,"(nan, nan)",nan,nan,nan,nan,nan,nan,nan,nan,"(182, 348)",no pil E/W
2012-09-05 09:36:00,0,nan,nan,nan,nan,"(nan, nan)",nan,nan,nan,nan,nan,nan,nan,nan,"(182, 348)",no pil E/W
2012-09-05 09:48:00,0,nan,nan,nan,nan,"(nan, nan)",nan,nan,nan,nan,nan,nan,nan,nan,"(182, 348)",no pil E/W
2012-09-05 10:00:00,0,nan,nan,nan,nan,"(nan, nan)",nan,nan,nan,nan,nan,nan,nan,nan,"(182, 348)",no pil E/W
2012-09-05 10:12:00,0,nan,nan,nan,nan,"(nan, nan)",nan,nan,nan,nan,nan,nan,nan,nan,"(182, 348)",no pil E/W
2012-09-05 10:24:00,0,nan,nan,nan,nan,"(nan, nan)",nan,nan,nan,nan,nan,nan,nan,nan,"(182, 348)",no pil E/W
2012-09-05 10:36:00,0,nan,nan,nan,nan,"(nan, nan)",nan,nan,nan,nan,nan,nan,nan,nan,"(182, 348)",no pil E/W
2012-09-05 10:48:00,0,nan,nan,nan,nan,"(nan, nan)",nan,nan,nan,nan,nan,nan,nan,nan,"(182, 348)",no pil E/W
2012-09-05 11:00:00,0,nan,nan,nan,nan,"(nan, nan)",nan,nan,nan,nan,nan,nan,nan,nan,"(182, 348)",no pil E/W
2012-09-05 11:12:00,0,nan,nan,nan,nan,"(nan, nan)",nan,nan,nan,nan,nan,nan,nan,nan,"(182, 348)",no pil E/W
2012-09-05 11:24:00,0,nan,nan,nan,nan,"(nan, nan)",nan,nan,nan,nan,nan,nan,nan,nan,"(182, 348)",no pil E/W
2012-09-05 11:36:00,0,nan,nan,nan,nan,"(nan, nan)",nan,nan,nan,nan,nan,nan,nan,nan,"(182, 348)",no pil E/W
2012-09-05 11:48:00,0,nan,nan,nan,nan,"(nan, nan)",nan,nan,nan,nan,nan,nan,nan,nan,"(182, 348)",no pil E/W
2012-09-05 12:00:00,0,nan,nan,nan,nan,"(nan, nan)",nan,nan,nan,nan,nan,nan,nan,nan,"(182, 348)",no pil E/W
2012-09-05 12:12:00,0,nan,nan,nan,nan,"(nan, nan)",nan,nan,nan,nan,nan,nan,nan,nan,"(182, 348)",no pil E/W
2012-09-05 12:24:00,0,nan,nan,nan,nan,"(nan, nan)",nan,nan,nan,nan,nan,nan,nan,nan,"(182, 348)",no pil E/W
2012-09-05 12:36:00,0,nan,nan,nan,nan,"(nan, nan)",nan,nan,nan,nan,nan,nan,nan,nan,"(182, 348)",no pil E/W
2012-09-05 12:48:00,0,nan,nan,nan,nan,"(nan, nan)",nan,nan,nan,nan,nan,nan,nan,nan,"(182, 348)",no pil E/W
2012-09-05 13:00:00,0,nan,nan,nan,nan,"(nan, nan)",nan,nan,nan,nan,nan,nan,nan,nan,"(182, 348)",no pil E/W
2012-09-05 13:12:00,0,nan,nan,nan,nan,"(nan, nan)",nan,nan,nan,nan,nan,nan,nan,nan,"(182, 348)",no pil E/W
2012-09-05 13:24:00,0,nan,nan,nan,nan,"(nan, nan)",nan,nan,nan,nan,nan,nan,nan,nan,"(182, 348)",no pil E/W
2012-09-05 13:36:00,0,nan,nan,nan,nan,"(nan, nan)",nan,nan,nan,nan,nan,nan,nan,nan,"(182, 348)",no pil E/W
2012-09-05 13:48:00,0,nan,nan,nan,nan,"(nan, nan)",nan,nan,nan,nan,nan,nan,nan,nan,"(182, 348)",no pil E/W
2012-09-05 14:00:00,0,nan,nan,nan,nan,"(nan, nan)",nan,nan,nan,nan,nan,nan,nan,nan,"(182, 348)",no pil E/W
2012-09-05 14:12:00,0,nan,nan,nan,nan,"(nan, nan)",nan,nan,nan,nan,nan,nan,nan,nan,"(182, 348)",no pil E/W
2012-09-05 14:24:00,0,nan,nan,nan,nan,"(nan, nan)",nan,nan,nan,nan,nan,nan,nan,nan,"(182, 348)",no pil E/W
2012-09-05 14:36:00,0,nan,nan,nan,nan,"(nan, nan)",nan,nan,nan,nan,nan,nan,nan,nan,"(182, 348)",no pil E/W
2012-09-05 14:48:00,0,nan,nan,nan,nan,"(nan, nan)",nan,nan,nan,nan,nan,nan,nan,nan,"(182, 348)",no pil E/W
2012-09-05 15:00:00,0,nan,nan,nan,nan,"(nan, nan)",nan,nan,nan,nan,nan,nan,nan,nan,"(182, 348)",no pil E/W
2012-09-05 15:12:00,0,nan,nan,nan,nan,"(nan, nan)",nan,nan,nan,nan,nan,nan,nan,nan,"(182, 348)",no pil E/W
2012-09-05 15:24:00,0,nan,nan,nan,nan,"(nan, nan)",nan,nan,nan,nan,nan,nan,nan,nan,"(182, 348)",no pil E/W
2012-09-05 15:36:00,0,nan,nan,nan,nan,"(nan, nan)",nan,nan,nan,nan,nan,nan,nan,nan,"(182, 348)",no pil E/W
2012-09-05 15:48:00,0,nan,nan,nan,nan,"(nan, nan)",nan,nan,nan,nan,nan,nan,nan,nan,"(182, 348)",no pil E/W
2012-09-05 16:00:00,0,nan,nan,nan,nan,"(nan, nan)",nan,nan,nan,nan,nan,nan,nan,nan,"(182, 348)",no pil E/W
2012-09-05 16:12:00,0,nan,nan,nan,nan,"(nan, nan)",nan,nan,nan,nan,nan,nan,nan,nan,"(182, 348)",no pil E/W
2012-09-05 16:24:00,0,nan,nan,nan,nan,"(nan, nan)",nan,nan,nan,nan,nan,nan,nan,nan,"(182, 348)",no pil E/W
2012-09-05 16:36:00,0,nan,nan,nan,nan,"(nan, nan)",nan,nan,nan,nan,nan,nan,nan,nan,"(182, 348)",no pil E/W
2012-09-05 16:48:00,0,nan,nan,nan,nan,"(nan, nan)",nan,nan,nan,nan,nan,nan,nan,nan,"(182, 348)",no pil E/W
2012-09-05 17:00:00,0,nan,nan,nan,nan,"(nan, nan)",nan,nan,nan,nan,nan,nan,nan,nan,"(182, 348)",no pil E/W
2012-09-05 17:12:00,0,nan,nan,nan,nan,"(nan, nan)",nan,nan,nan,nan,nan,nan,nan,nan,"(182, 348)",no pil E/W
2012-09-05 17:24:00,0,nan,nan,nan,nan,"(nan, nan)",nan,nan,nan,nan,nan,nan,nan,nan,"(182, 348)",no pil E/W
2012-09-05 17:36:00,0,nan,nan,nan,nan,"(nan, nan)",nan,nan,nan,nan,nan,nan,nan,nan,"(182, 348)",no pil E/W
2012-09-05 17:48:00,0,nan,nan,nan,nan,"(nan, nan)",nan,nan,nan,nan,nan,nan,nan,nan,"(182, 348)",no pil E/W
2012-09-05 18:00:00,0,nan,nan,nan,nan,"(nan, nan)",nan,nan,nan,nan,nan,nan,nan,nan,"(182, 348)",no pil E/W
2012-09-05 18:12:00,0,nan,nan,nan,nan,"(nan, nan)",nan,nan,nan,nan,nan,nan,nan,nan,"(182, 348)",no pil E/W
2012-09-05 18:24:00,0,nan,nan,nan,nan,"(nan, nan)",nan,nan,nan,nan,nan,nan,nan,nan,"(182, 348)",no pil E/W
2012-09-05 18:36:00,0,nan,nan,nan,nan,"(nan, nan)",nan,nan,nan,nan,nan,nan,nan,nan,"(182, 348)",no pil E/W
2012-09-05 18:48:00,0,nan,nan,nan,nan,"(nan, nan)",nan,nan,nan,nan,nan,nan,nan,nan,"(182, 348)",no pil E/W
2012-09-05 19:00:00,0,nan,nan,nan,nan,"(nan, nan)",nan,nan,nan,nan,nan,nan,nan,nan,"(182, 348)",no pil E/W
2012-09-05 19:12:00,0,nan,nan,nan,nan,"(nan, nan)",nan,nan,nan,nan,nan,nan,nan,nan,"(182, 348)",no pil E/W
2012-09-05 19:24:00,0,nan,nan,nan,nan,"(nan, nan)",nan,nan,nan,nan,nan,nan,nan,nan,"(182, 348)",no pil E/W
2012-09-05 19:36:00,0,nan,nan,nan,nan,"(nan, nan)",nan,nan,nan,nan,nan,nan,nan,nan,"(182, 348)",no pil E/W
2012-09-05 19:48:00,0,nan,nan,nan,nan,"(nan, nan)",nan,nan,nan,nan,nan,nan,nan,nan,"(182, 348)",no pil E/W
2012-09-05 20:00:00,0,nan,nan,nan,nan,"(nan, nan)",nan,nan,nan,nan,nan,nan,nan,nan,"(182, 348)",no pil E/W
2012-09-05 20:12:00,0,nan,nan,nan,nan,"(nan, nan)",nan,nan,nan,nan,nan,nan,nan,nan,"(182, 348)",no pil E/W
