,num_PILs,sum_PIL_length,sum_RoPI_Area,sum_mag_field_strength,fra_dim,eige_vals,convexity,Hu1,Hu2,Hu3,Hu4,Hu5,Hu6,Hu7,patch_shape,detection_flag
2011-09-24 03:12:00,1,22,73,7153.2,0.5574221429807698,"(3.4117609442833867, 37.923736891214446)",1.9924783535980033,0.5978274480340597,0.24914088733827916,0.08558757239553016,0.011072633124130607,-0.00023119571913662087,-0.004393853448102687,0.0002504737875526189,"(190, 417)",detected
2011-09-24 03:24:00,1,28,81,7153.6,0.7646261362587843,"(5.263015706759756, 60.13910069535665)",1.941262109261692,1.126184402332362,0.8928975918967647,0.48975481478683225,0.06446630288991236,-0.009077601802122422,-0.05304064787624948,0.006986428878657388,"(190, 417)",detected
2011-09-24 03:36:00,1,16,59,4799.0,0.5031325849839091,"(21.51868959229259, 0.6104770743740762)",1.9700509550107066,0.43221028645833337,0.1667607691552904,0.0041794266435317695,0.0005941669719673143,-2.0667799439008045e-07,-0.00015974228649123453,-9.132176550330772e-07,"(190, 417)",detected
2011-09-24 03:48:00,2,41,114,9738.9,0.8177639174574055,"(10.001511621685808, 121.37287862221665)",1.9699890883341578,2.0019814814814816,2.735247979766803,4.901935683890969,2.2613897778888283,6.912628348394653,2.493044072683059,-2.9839450394208242,"(190, 417)",detected
2011-09-24 04:00:00,1,42,135,11721.7,0.8390330307787688,"(13.192113904778239, 115.1708361532937)",1.8516560148023922,2.9834926033905624,5.618102831835253,9.534619836700653,1.4279175634476424,-3.350304657052082,-2.263199827881838,-4.06632907194814,"(190, 417)",detected
2011-09-24 04:12:00,1,43,134,12640.6,0.8390330307787688,"(14.965712732748472, 115.09851761055161)",1.7893284999291692,2.95440653024262,5.173417426985691,9.481476053181625,1.4459762677849395,-2.3468134837735715,-1.8204618971632625,-4.812271981083176,"(190, 417)",detected
2011-09-24 04:24:00,1,41,120,12072.6,0.810248648719297,"(11.681466949682672, 108.01853305031736)",1.8623253429104238,2.848304580606782,5.254983874363359,8.82667485459331,1.1611368110985658,-2.927910594623849,-2.143265137430202,-2.290285362537648,"(190, 417)",detected
2011-09-24 04:36:00,0,nan,nan,nan,nan,"(nan, nan)",nan,nan,nan,nan,nan,nan,nan,nan,"(190, 417)",no pil E/W
2011-09-24 04:48:00,0,nan,nan,nan,nan,"(nan, nan)",nan,nan,nan,nan,nan,nan,nan,nan,"(190, 417)",no pil E/W
2011-09-24 05:00:00,0,nan,nan,nan,nan,"(nan, nan)",nan,nan,nan,nan,nan,nan,nan,nan,"(190, 417)",no pil E/W
2011-09-24 05:12:00,0,nan,nan,nan,nan,"(nan, nan)",nan,nan,nan,nan,nan,nan,nan,nan,"(190, 417)",no pil E/W
2011-09-24 05:24:00,0,nan,nan,nan,nan,"(nan, nan)",nan,nan,nan,nan,nan,nan,nan,nan,"(190, 417)",no pil E/W
2011-09-24 05:36:00,0,nan,nan,nan,nan,"(nan, nan)",nan,nan,nan,nan,nan,nan,nan,nan,"(190, 417)",no pil E/W
2011-09-24 05:48:00,0,nan,nan,nan,nan,"(nan, nan)",nan,nan,nan,nan,nan,nan,nan,nan,"(190, 417)",no pil E/W
2011-09-24 07:48:00,1,16,31,1555.4,0.4549946429601654,"(1.3810139304691802, 20.814819402864153)",1.922715997955662,1.300537109375,1.2966366410255432,0.7108106064260937,0.0803664224804379,-0.019206633147618505,-0.09149812996476214,-0.0002529578348232399,"(190, 417)",detected
2011-09-24 08:00:00,0,nan,nan,nan,nan,"(nan, nan)",nan,nan,nan,nan,nan,nan,nan,nan,"(190, 417)",no pil E/W
2011-09-24 08:12:00,0,nan,nan,nan,nan,"(nan, nan)",nan,nan,nan,nan,nan,nan,nan,nan,"(190, 417)",no pil E/W
2011-09-24 08:24:00,1,15,30,1772.6,0.5051342858791218,"(1.061884573671957, 19.033353521566134)",1.8532659915482224,1.2503703703703701,1.2504265569272976,0.393065301671503,0.05083672919778682,-0.0062942149295172,-0.05296324758000471,-0.003467592706891588,"(190, 417)",detected
2011-09-24 08:36:00,0,nan,nan,nan,nan,"(nan, nan)",nan,nan,nan,nan,nan,nan,nan,nan,"(190, 417)",no pil E/W
2011-09-24 08:48:00,0,nan,nan,nan,nan,"(nan, nan)",nan,nan,nan,nan,nan,nan,nan,nan,"(190, 417)",no pil E/W
2011-09-24 09:00:00,1,16,39,2544.4,0.5407089286744512,"(20.454133085838674, 0.8083669141613234)",1.8838834764831842,1.245849609375,1.3250752091407776,0.025852023682091385,0.002685262879822403,-2.1766220248653508e-05,-0.0030564714961798245,5.175935225004702e-06,"(190, 417)",detected
2011-09-24 09:12:00,0,nan,nan,nan,nan,"(nan, nan)",nan,nan,nan,nan,nan,nan,nan,nan,"(190, 417)",no pil E/W
2011-09-24 09:24:00,0,nan,nan,nan,nan,"(nan, nan)",nan,nan,nan,nan,nan,nan,nan,nan,"(190, 417)",no pil E/W
2011-09-24 09:36:00,0,nan,nan,nan,nan,"(nan, nan)",nan,nan,nan,nan,nan,nan,nan,nan,"(190, 417)",no pil E/W
2011-09-24 09:48:00,1,15,45,4479.8,0.5724792745796579,"(14.42170161877978, 1.902107905029737)",1.7037566124069363,1.0157037037037038,0.6068362359396433,0.25110579093350405,0.03559431080546953,0.000751841532845027,0.005202205488721872,-0.0032800455268480098,"(190, 417)",detected
2011-09-24 10:00:00,0,nan,nan,nan,nan,"(nan, nan)",nan,nan,nan,nan,nan,nan,nan,nan,"(190, 417)",no pil E/W
2011-09-24 10:12:00,1,14,38,2311.6,0.572479274579658,"(13.003356075196638, 1.2878527160121531)",1.7514868057265218,0.47394314868804666,0.15095116750886103,0.008408847229102569,0.0010147552647834213,-1.247072476643409e-06,-0.00032423480202450764,2.6891264475094472e-06,"(190, 417)",detected
2011-09-24 10:36:00,0,nan,nan,nan,nan,"(nan, nan)",nan,nan,nan,nan,nan,nan,nan,nan,"(190, 417)",no pil E/W
2011-09-24 10:48:00,0,nan,nan,nan,nan,"(nan, nan)",nan,nan,nan,nan,nan,nan,nan,nan,"(190, 417)",no pil E/W
2011-09-24 11:00:00,0,nan,nan,nan,nan,"(nan, nan)",nan,nan,nan,nan,nan,nan,nan,nan,"(190, 417)",no pil E/W
2011-09-24 11:12:00,0,nan,nan,nan,nan,"(nan, nan)",nan,nan,nan,nan,nan,nan,nan,nan,"(190, 417)",no pil E/W
2011-09-24 11:24:00,0,nan,nan,nan,nan,"(nan, nan)",nan,nan,nan,nan,nan,nan,nan,nan,"(190, 417)",no pil E/W
2011-09-24 11:36:00,0,nan,nan,nan,nan,"(nan, nan)",nan,nan,nan,nan,nan,nan,nan,nan,"(190, 417)",no pil E/W
2011-09-24 11:48:00,0,nan,nan,nan,nan,"(nan, nan)",nan,nan,nan,nan,nan,nan,nan,nan,"(190, 417)",no pil E/W
2011-09-24 12:00:00,0,nan,nan,nan,nan,"(nan, nan)",nan,nan,nan,nan,nan,nan,nan,nan,"(190, 417)",no pil E/W
2011-09-24 12:12:00,0,nan,nan,nan,nan,"(nan, nan)",nan,nan,nan,nan,nan,nan,nan,nan,"(190, 417)",no pil E/W
2011-09-24 12:24:00,0,nan,nan,nan,nan,"(nan, nan)",nan,nan,nan,nan,nan,nan,nan,nan,"(190, 417)",no pil E/W
2011-09-24 12:36:00,0,nan,nan,nan,nan,"(nan, nan)",nan,nan,nan,nan,nan,nan,nan,nan,"(190, 417)",no pil E/W
2011-09-24 12:48:00,0,nan,nan,nan,nan,"(nan, nan)",nan,nan,nan,nan,nan,nan,nan,nan,"(190, 417)",no pil E/W
2011-09-24 13:00:00,0,nan,nan,nan,nan,"(nan, nan)",nan,nan,nan,nan,nan,nan,nan,nan,"(190, 417)",no pil E/W
2011-09-24 13:12:00,0,nan,nan,nan,nan,"(nan, nan)",nan,nan,nan,nan,nan,nan,nan,nan,"(190, 417)",no pil E/W
2011-09-24 13:24:00,0,nan,nan,nan,nan,"(nan, nan)",nan,nan,nan,nan,nan,nan,nan,nan,"(190, 417)",no pil E/W
2011-09-24 13:36:00,0,nan,nan,nan,nan,"(nan, nan)",nan,nan,nan,nan,nan,nan,nan,nan,"(190, 417)",no pil E/W
2011-09-24 13:48:00,0,nan,nan,nan,nan,"(nan, nan)",nan,nan,nan,nan,nan,nan,nan,nan,"(190, 417)",no pil E/W
2011-09-24 14:00:00,0,nan,nan,nan,nan,"(nan, nan)",nan,nan,nan,nan,nan,nan,nan,nan,"(190, 417)",no pil E/W
2011-09-24 14:12:00,0,nan,nan,nan,nan,"(nan, nan)",nan,nan,nan,nan,nan,nan,nan,nan,"(190, 417)",no pil E/W
2011-09-24 14:24:00,0,nan,nan,nan,nan,"(nan, nan)",nan,nan,nan,nan,nan,nan,nan,nan,"(190, 417)",no pil E/W
2011-09-24 14:36:00,0,nan,nan,nan,nan,"(nan, nan)",nan,nan,nan,nan,nan,nan,nan,nan,"(190, 417)",no pil E/W
2011-09-24 14:48:00,0,nan,nan,nan,nan,"(nan, nan)",nan,nan,nan,nan,nan,nan,nan,nan,"(190, 417)",no pil E/W
2011-09-24 15:00:00,0,nan,nan,nan,nan,"(nan, nan)",nan,nan,nan,nan,nan,nan,nan,nan,"(190, 417)",no pil E/W
2011-09-24 15:12:00,0,nan,nan,nan,nan,"(nan, nan)",nan,nan,nan,nan,nan,nan,nan,nan,"(190, 417)",no pil E/W
2011-09-24 15:24:00,0,nan,nan,nan,nan,"(nan, nan)",nan,nan,nan,nan,nan,nan,nan,nan,"(190, 417)",no pil E/W
2011-09-24 15:36:00,0,nan,nan,nan,nan,"(nan, nan)",nan,nan,nan,nan,nan,nan,nan,nan,"(190, 417)",no pil E/W
2011-09-24 15:48:00,0,nan,nan,nan,nan,"(nan, nan)",nan,nan,nan,nan,nan,nan,nan,nan,"(190, 417)",no pil E/W
2011-09-24 16:00:00,0,nan,nan,nan,nan,"(nan, nan)",nan,nan,nan,nan,nan,nan,nan,nan,"(190, 417)",no pil E/W
2011-09-24 16:12:00,0,nan,nan,nan,nan,"(nan, nan)",nan,nan,nan,nan,nan,nan,nan,nan,"(190, 417)",no pil E/W
2011-09-24 16:24:00,0,nan,nan,nan,nan,"(nan, nan)",nan,nan,nan,nan,nan,nan,nan,nan,"(190, 417)",no pil E/W
2011-09-24 16:36:00,0,nan,nan,nan,nan,"(nan, nan)",nan,nan,nan,nan,nan,nan,nan,nan,"(190, 417)",no pil E/W
2011-09-24 16:48:00,0,nan,nan,nan,nan,"(nan, nan)",nan,nan,nan,nan,nan,nan,nan,nan,"(190, 417)",no pil E/W
2011-09-24 17:00:00,0,nan,nan,nan,nan,"(nan, nan)",nan,nan,nan,nan,nan,nan,nan,nan,"(190, 417)",no pil E/W
2011-09-24 17:12:00,0,nan,nan,nan,nan,"(nan, nan)",nan,nan,nan,nan,nan,nan,nan,nan,"(190, 417)",no pil E/W
2011-09-24 17:24:00,0,nan,nan,nan,nan,"(nan, nan)",nan,nan,nan,nan,nan,nan,nan,nan,"(190, 417)",no pil E/W
2011-09-24 17:36:00,0,nan,nan,nan,nan,"(nan, nan)",nan,nan,nan,nan,nan,nan,nan,nan,"(190, 417)",no pil E/W
2011-09-24 17:48:00,0,nan,nan,nan,nan,"(nan, nan)",nan,nan,nan,nan,nan,nan,nan,nan,"(190, 417)",no pil E/W
2011-09-24 18:00:00,0,nan,nan,nan,nan,"(nan, nan)",nan,nan,nan,nan,nan,nan,nan,nan,"(190, 417)",no pil E/W
2011-09-24 18:12:00,0,nan,nan,nan,nan,"(nan, nan)",nan,nan,nan,nan,nan,nan,nan,nan,"(190, 417)",no pil E/W
2011-09-24 18:24:00,0,nan,nan,nan,nan,"(nan, nan)",nan,nan,nan,nan,nan,nan,nan,nan,"(190, 417)",no pil E/W
2011-09-24 18:36:00,0,nan,nan,nan,nan,"(nan, nan)",nan,nan,nan,nan,nan,nan,nan,nan,"(190, 417)",no pil E/W
2011-09-24 18:48:00,0,nan,nan,nan,nan,"(nan, nan)",nan,nan,nan,nan,nan,nan,nan,nan,"(190, 417)",no pil E/W
2011-09-24 19:00:00,0,nan,nan,nan,nan,"(nan, nan)",nan,nan,nan,nan,nan,nan,nan,nan,"(190, 417)",no pil E/W
2011-09-24 19:12:00,0,nan,nan,nan,nan,"(nan, nan)",nan,nan,nan,nan,nan,nan,nan,nan,"(190, 417)",no pil E/W
2011-09-24 19:24:00,0,nan,nan,nan,nan,"(nan, nan)",nan,nan,nan,nan,nan,nan,nan,nan,"(190, 417)",no pil E/W
2011-09-24 19:36:00,0,nan,nan,nan,nan,"(nan, nan)",nan,nan,nan,nan,nan,nan,nan,nan,"(190, 417)",no pil E/W
2011-09-24 19:48:00,0,nan,nan,nan,nan,"(nan, nan)",nan,nan,nan,nan,nan,nan,nan,nan,"(190, 417)",no pil E/W
2011-09-24 20:00:00,0,nan,nan,nan,nan,"(nan, nan)",nan,nan,nan,nan,nan,nan,nan,nan,"(190, 417)",no pil E/W
2011-09-24 20:12:00,0,nan,nan,nan,nan,"(nan, nan)",nan,nan,nan,nan,nan,nan,nan,nan,"(190, 417)",no pil E/W
2011-09-24 20:24:00,0,nan,nan,nan,nan,"(nan, nan)",nan,nan,nan,nan,nan,nan,nan,nan,"(190, 417)",no pil E/W
2011-09-24 20:36:00,0,nan,nan,nan,nan,"(nan, nan)",nan,nan,nan,nan,nan,nan,nan,nan,"(190, 417)",no pil E/W
2011-09-24 20:48:00,0,nan,nan,nan,nan,"(nan, nan)",nan,nan,nan,nan,nan,nan,nan,nan,"(190, 417)",no pil E/W
2011-09-24 21:00:00,0,nan,nan,nan,nan,"(nan, nan)",nan,nan,nan,nan,nan,nan,nan,nan,"(190, 417)",no pil E/W
2011-09-24 21:12:00,0,nan,nan,nan,nan,"(nan, nan)",nan,nan,nan,nan,nan,nan,nan,nan,"(190, 417)",no pil E/W
2011-09-24 21:24:00,0,nan,nan,nan,nan,"(nan, nan)",nan,nan,nan,nan,nan,nan,nan,nan,"(190, 417)",no pil E/W
2011-09-24 21:36:00,0,nan,nan,nan,nan,"(nan, nan)",nan,nan,nan,nan,nan,nan,nan,nan,"(190, 417)",no pil E/W
2011-09-24 21:48:00,0,nan,nan,nan,nan,"(nan, nan)",nan,nan,nan,nan,nan,nan,nan,nan,"(190, 417)",no pil E/W
2011-09-24 22:00:00,0,nan,nan,nan,nan,"(nan, nan)",nan,nan,nan,nan,nan,nan,nan,nan,"(190, 417)",no pil E/W
2011-09-24 22:12:00,0,nan,nan,nan,nan,"(nan, nan)",nan,nan,nan,nan,nan,nan,nan,nan,"(190, 417)",no pil E/W
2011-09-24 22:24:00,0,nan,nan,nan,nan,"(nan, nan)",nan,nan,nan,nan,nan,nan,nan,nan,"(190, 417)",no pil E/W
2011-09-24 22:36:00,0,nan,nan,nan,nan,"(nan, nan)",nan,nan,nan,nan,nan,nan,nan,nan,"(190, 417)",no pil E/W
2011-09-24 22:48:00,0,nan,nan,nan,nan,"(nan, nan)",nan,nan,nan,nan,nan,nan,nan,nan,"(190, 417)",no pil E/W
2011-09-24 23:00:00,0,nan,nan,nan,nan,"(nan, nan)",nan,nan,nan,nan,nan,nan,nan,nan,"(190, 417)",no pil E/W
2011-09-24 23:12:00,0,nan,nan,nan,nan,"(nan, nan)",nan,nan,nan,nan,nan,nan,nan,nan,"(190, 417)",no pil E/W
2011-09-24 23:24:00,0,nan,nan,nan,nan,"(nan, nan)",nan,nan,nan,nan,nan,nan,nan,nan,"(190, 417)",no pil E/W
2011-09-24 23:36:00,0,nan,nan,nan,nan,"(nan, nan)",nan,nan,nan,nan,nan,nan,nan,nan,"(190, 417)",no pil E/W
2011-09-24 23:48:00,0,nan,nan,nan,nan,"(nan, nan)",nan,nan,nan,nan,nan,nan,nan,nan,"(190, 417)",no pil E/W
2011-09-25 00:00:00,0,nan,nan,nan,nan,"(nan, nan)",nan,nan,nan,nan,nan,nan,nan,nan,"(190, 417)",no pil E/W
2011-09-25 00:12:00,0,nan,nan,nan,nan,"(nan, nan)",nan,nan,nan,nan,nan,nan,nan,nan,"(190, 417)",no pil E/W
2011-09-25 00:24:00,0,nan,nan,nan,nan,"(nan, nan)",nan,nan,nan,nan,nan,nan,nan,nan,"(190, 417)",no pil E/W
2011-09-25 00:36:00,0,nan,nan,nan,nan,"(nan, nan)",nan,nan,nan,nan,nan,nan,nan,nan,"(190, 417)",no pil E/W
2011-09-25 00:48:00,0,nan,nan,nan,nan,"(nan, nan)",nan,nan,nan,nan,nan,nan,nan,nan,"(190, 417)",no pil E/W
2011-09-25 01:00:00,0,nan,nan,nan,nan,"(nan, nan)",nan,nan,nan,nan,nan,nan,nan,nan,"(190, 417)",no pil E/W
2011-09-25 01:12:00,0,nan,nan,nan,nan,"(nan, nan)",nan,nan,nan,nan,nan,nan,nan,nan,"(190, 417)",no pil E/W
2011-09-25 01:24:00,0,nan,nan,nan,nan,"(nan, nan)",nan,nan,nan,nan,nan,nan,nan,nan,"(190, 417)",no pil E/W
2011-09-25 01:36:00,0,nan,nan,nan,nan,"(nan, nan)",nan,nan,nan,nan,nan,nan,nan,nan,"(190, 417)",no pil E/W
2011-09-25 01:48:00,1,17,59,5214.7,0.31213750010302255,"(17.588311396127036, 2.669041545049425)",1.7041507499104203,0.28037858742112765,0.04264021989952675,0.00654479791000909,0.0012479127598994983,-3.9610696876165073e-07,-2.1316160348479703e-05,3.5442884552869767e-06,"(190, 417)",detected
2011-09-25 02:00:00,0,nan,nan,nan,nan,"(nan, nan)",nan,nan,nan,nan,nan,nan,nan,nan,"(190, 417)",no pil E/W
2011-09-25 02:12:00,1,20,84,7607.8,0.3439078460082293,"(26.723294218666005, 3.5503899918603112)",1.8106601717798214,0.35950000000000004,0.0757230625,0.010944645890625037,0.0018449130781250053,-5.432118538628182e-06,-0.0003407166450937541,6.262540504922041e-06,"(190, 417)",detected
2011-09-25 02:24:00,1,19,64,5487.5,0.3439078460082293,"(24.1100924670857, 2.9016034393470456)",1.7788942038538598,0.4489478544005443,0.12425319208899265,0.023611079450627338,0.003988648056927846,-1.2271282705047189e-05,-0.0005045407166392678,3.671097472146548e-05,"(190, 417)",detected
2011-09-25 02:36:00,0,nan,nan,nan,nan,"(nan, nan)",nan,nan,nan,nan,nan,nan,nan,nan,"(190, 417)",no pil E/W
2011-09-25 02:48:00,0,nan,nan,nan,nan,"(nan, nan)",nan,nan,nan,nan,nan,nan,nan,nan,"(190, 417)",no pil E/W
2011-09-25 03:00:00,0,nan,nan,nan,nan,"(nan, nan)",nan,nan,nan,nan,nan,nan,nan,nan,"(190, 417)",no pil E/W
2011-09-25 03:12:00,0,nan,nan,nan,nan,"(nan, nan)",nan,nan,nan,nan,nan,nan,nan,nan,"(190, 417)",no pil E/W
2011-09-25 03:24:00,0,nan,nan,nan,nan,"(nan, nan)",nan,nan,nan,nan,nan,nan,nan,nan,"(190, 417)",no pil E/W
2011-09-25 03:36:00,0,nan,nan,nan,nan,"(nan, nan)",nan,nan,nan,nan,nan,nan,nan,nan,"(190, 417)",no pil E/W
2011-09-25 03:48:00,0,nan,nan,nan,nan,"(nan, nan)",nan,nan,nan,nan,nan,nan,nan,nan,"(190, 417)",no pil E/W
2011-09-25 04:00:00,0,nan,nan,nan,nan,"(nan, nan)",nan,nan,nan,nan,nan,nan,nan,nan,"(190, 417)",no pil E/W
2011-09-25 04:12:00,0,nan,nan,nan,nan,"(nan, nan)",nan,nan,nan,nan,nan,nan,nan,nan,"(190, 417)",no pil E/W
2011-09-25 04:24:00,0,nan,nan,nan,nan,"(nan, nan)",nan,nan,nan,nan,nan,nan,nan,nan,"(190, 417)",no pil E/W
2011-09-25 04:36:00,0,nan,nan,nan,nan,"(nan, nan)",nan,nan,nan,nan,nan,nan,nan,nan,"(190, 417)",no pil E/W
2011-09-25 04:48:00,0,nan,nan,nan,nan,"(nan, nan)",nan,nan,nan,nan,nan,nan,nan,nan,"(190, 417)",no pil E/W
2011-09-25 05:00:00,0,nan,nan,nan,nan,"(nan, nan)",nan,nan,nan,nan,nan,nan,nan,nan,"(190, 417)",no pil E/W
2011-09-25 05:12:00,0,nan,nan,nan,nan,"(nan, nan)",nan,nan,nan,nan,nan,nan,nan,nan,"(190, 417)",no pil E/W
2011-09-25 05:24:00,0,nan,nan,nan,nan,"(nan, nan)",nan,nan,nan,nan,nan,nan,nan,nan,"(190, 417)",no pil E/W
2011-09-25 05:36:00,0,nan,nan,nan,nan,"(nan, nan)",nan,nan,nan,nan,nan,nan,nan,nan,"(190, 417)",no pil E/W
2011-09-25 05:48:00,0,nan,nan,nan,nan,"(nan, nan)",nan,nan,nan,nan,nan,nan,nan,nan,"(190, 417)",no pil E/W
2011-09-25 07:48:00,0,nan,nan,nan,nan,"(nan, nan)",nan,nan,nan,nan,nan,nan,nan,nan,"(190, 417)",no pil E/W
2011-09-25 08:00:00,0,nan,nan,nan,nan,"(nan, nan)",nan,nan,nan,nan,nan,nan,nan,nan,"(190, 417)",no pil E/W
2011-09-25 08:12:00,0,nan,nan,nan,nan,"(nan, nan)",nan,nan,nan,nan,nan,nan,nan,nan,"(190, 417)",no pil E/W
2011-09-25 08:24:00,0,nan,nan,nan,nan,"(nan, nan)",nan,nan,nan,nan,nan,nan,nan,nan,"(190, 417)",no pil E/W
2011-09-25 08:36:00,0,nan,nan,nan,nan,"(nan, nan)",nan,nan,nan,nan,nan,nan,nan,nan,"(190, 417)",no pil E/W
2011-09-25 08:48:00,0,nan,nan,nan,nan,"(nan, nan)",nan,nan,nan,nan,nan,nan,nan,nan,"(190, 417)",no pil E/W
2011-09-25 09:00:00,0,nan,nan,nan,nan,"(nan, nan)",nan,nan,nan,nan,nan,nan,nan,nan,"(190, 417)",no pil E/W
2011-09-25 09:12:00,0,nan,nan,nan,nan,"(nan, nan)",nan,nan,nan,nan,nan,nan,nan,nan,"(190, 417)",no pil E/W
2011-09-25 09:24:00,0,nan,nan,nan,nan,"(nan, nan)",nan,nan,nan,nan,nan,nan,nan,nan,"(190, 417)",no pil E/W
2011-09-25 09:36:00,0,nan,nan,nan,nan,"(nan, nan)",nan,nan,nan,nan,nan,nan,nan,nan,"(190, 417)",no pil E/W
2011-09-25 09:48:00,0,nan,nan,nan,nan,"(nan, nan)",nan,nan,nan,nan,nan,nan,nan,nan,"(190, 417)",no pil E/W
2011-09-25 10:00:00,0,nan,nan,nan,nan,"(nan, nan)",nan,nan,nan,nan,nan,nan,nan,nan,"(190, 417)",no pil E/W
2011-09-25 10:24:00,0,nan,nan,nan,nan,"(nan, nan)",nan,nan,nan,nan,nan,nan,nan,nan,"(190, 417)",no pil E/W
2011-09-25 10:36:00,0,nan,nan,nan,nan,"(nan, nan)",nan,nan,nan,nan,nan,nan,nan,nan,"(190, 417)",no pil E/W
2011-09-25 10:48:00,0,nan,nan,nan,nan,"(nan, nan)",nan,nan,nan,nan,nan,nan,nan,nan,"(190, 417)",no pil E/W
2011-09-25 11:00:00,0,nan,nan,nan,nan,"(nan, nan)",nan,nan,nan,nan,nan,nan,nan,nan,"(190, 417)",no pil E/W
2011-09-25 11:12:00,0,nan,nan,nan,nan,"(nan, nan)",nan,nan,nan,nan,nan,nan,nan,nan,"(190, 417)",no pil E/W
2011-09-25 11:24:00,0,nan,nan,nan,nan,"(nan, nan)",nan,nan,nan,nan,nan,nan,nan,nan,"(190, 417)",no pil E/W
2011-09-25 11:36:00,0,nan,nan,nan,nan,"(nan, nan)",nan,nan,nan,nan,nan,nan,nan,nan,"(190, 417)",no pil E/W
2011-09-25 11:48:00,0,nan,nan,nan,nan,"(nan, nan)",nan,nan,nan,nan,nan,nan,nan,nan,"(190, 417)",no pil E/W
2011-09-25 12:00:00,0,nan,nan,nan,nan,"(nan, nan)",nan,nan,nan,nan,nan,nan,nan,nan,"(190, 417)",no pil E/W
2011-09-25 12:12:00,0,nan,nan,nan,nan,"(nan, nan)",nan,nan,nan,nan,nan,nan,nan,nan,"(190, 417)",no pil E/W
2011-09-25 12:24:00,0,nan,nan,nan,nan,"(nan, nan)",nan,nan,nan,nan,nan,nan,nan,nan,"(190, 417)",no pil E/W
2011-09-25 12:36:00,0,nan,nan,nan,nan,"(nan, nan)",nan,nan,nan,nan,nan,nan,nan,nan,"(190, 417)",no pil E/W
2011-09-25 12:48:00,0,nan,nan,nan,nan,"(nan, nan)",nan,nan,nan,nan,nan,nan,nan,nan,"(190, 417)",no pil E/W
2011-09-25 13:00:00,0,nan,nan,nan,nan,"(nan, nan)",nan,nan,nan,nan,nan,nan,nan,nan,"(190, 417)",no pil E/W
2011-09-25 13:12:00,0,nan,nan,nan,nan,"(nan, nan)",nan,nan,nan,nan,nan,nan,nan,nan,"(190, 417)",no pil E/W
2011-09-25 13:24:00,0,nan,nan,nan,nan,"(nan, nan)",nan,nan,nan,nan,nan,nan,nan,nan,"(190, 417)",no pil E/W
2011-09-25 13:36:00,0,nan,nan,nan,nan,"(nan, nan)",nan,nan,nan,nan,nan,nan,nan,nan,"(190, 417)",no pil E/W
2011-09-25 13:48:00,0,nan,nan,nan,nan,"(nan, nan)",nan,nan,nan,nan,nan,nan,nan,nan,"(190, 417)",no pil E/W
2011-09-25 14:00:00,0,nan,nan,nan,nan,"(nan, nan)",nan,nan,nan,nan,nan,nan,nan,nan,"(190, 417)",no pil E/W
2011-09-25 14:12:00,0,nan,nan,nan,nan,"(nan, nan)",nan,nan,nan,nan,nan,nan,nan,nan,"(190, 417)",no pil E/W
2011-09-25 14:24:00,0,nan,nan,nan,nan,"(nan, nan)",nan,nan,nan,nan,nan,nan,nan,nan,"(190, 417)",no pil E/W
2011-09-25 14:36:00,0,nan,nan,nan,nan,"(nan, nan)",nan,nan,nan,nan,nan,nan,nan,nan,"(190, 417)",no pil E/W
2011-09-25 14:48:00,0,nan,nan,nan,nan,"(nan, nan)",nan,nan,nan,nan,nan,nan,nan,nan,"(190, 417)",no pil E/W
2011-09-25 15:00:00,1,14,27,1379.2,0.4174182992696235,"(7.92184256643986, 2.7869486423513488)",1.5050762722761053,0.7102769679300291,0.11599453140273187,0.06843246998960967,0.01706001151272537,-0.0002975489650103612,-0.0030021010977216945,0.0005012449126360369,"(190, 417)",detected
2011-09-25 15:12:00,0,nan,nan,nan,nan,"(nan, nan)",nan,nan,nan,nan,nan,nan,nan,nan,"(190, 417)",no pil E/W
2011-09-25 15:24:00,0,nan,nan,nan,nan,"(nan, nan)",nan,nan,nan,nan,nan,nan,nan,nan,"(190, 417)",no pil E/W
2011-09-25 15:36:00,0,nan,nan,nan,nan,"(nan, nan)",nan,nan,nan,nan,nan,nan,nan,nan,"(190, 417)",no pil E/W
2011-09-25 15:48:00,0,nan,nan,nan,nan,"(nan, nan)",nan,nan,nan,nan,nan,nan,nan,nan,"(190, 417)",no pil E/W
2011-09-25 16:00:00,1,15,24,569.0,0.4501396429189565,"(1.6591753602439994, 18.69320559213695)",1.892318420723349,0.2532740740740741,0.04493511462277088,0.004323174517887638,0.0006382203852859784,-7.520799390423156e-07,-0.00011102063263156237,7.471562168774734e-07,"(190, 417)",detected
2011-09-25 16:12:00,0,nan,nan,nan,nan,"(nan, nan)",nan,nan,nan,nan,nan,nan,nan,nan,"(190, 417)",no pil E/W
2011-09-25 16:24:00,0,nan,nan,nan,nan,"(nan, nan)",nan,nan,nan,nan,nan,nan,nan,nan,"(190, 417)",no pil E/W
2011-09-25 16:36:00,0,nan,nan,nan,nan,"(nan, nan)",nan,nan,nan,nan,nan,nan,nan,nan,"(190, 417)",no pil E/W
2011-09-25 16:48:00,0,nan,nan,nan,nan,"(nan, nan)",nan,nan,nan,nan,nan,nan,nan,nan,"(190, 417)",no pil E/W
2011-09-25 17:00:00,0,nan,nan,nan,nan,"(nan, nan)",nan,nan,nan,nan,nan,nan,nan,nan,"(190, 417)",no pil E/W
2011-09-25 17:12:00,0,nan,nan,nan,nan,"(nan, nan)",nan,nan,nan,nan,nan,nan,nan,nan,"(190, 417)",no pil E/W
2011-09-25 17:24:00,0,nan,nan,nan,nan,"(nan, nan)",nan,nan,nan,nan,nan,nan,nan,nan,"(190, 417)",no pil E/W
2011-09-25 17:36:00,0,nan,nan,nan,nan,"(nan, nan)",nan,nan,nan,nan,nan,nan,nan,nan,"(190, 417)",no pil E/W
2011-09-25 17:48:00,0,nan,nan,nan,nan,"(nan, nan)",nan,nan,nan,nan,nan,nan,nan,nan,"(190, 417)",no pil E/W
2011-09-25 18:00:00,0,nan,nan,nan,nan,"(nan, nan)",nan,nan,nan,nan,nan,nan,nan,nan,"(190, 417)",no pil E/W
2011-09-25 18:12:00,0,nan,nan,nan,nan,"(nan, nan)",nan,nan,nan,nan,nan,nan,nan,nan,"(190, 417)",no pil E/W
2011-09-25 18:24:00,0,nan,nan,nan,nan,"(nan, nan)",nan,nan,nan,nan,nan,nan,nan,nan,"(190, 417)",no pil E/W
2011-09-25 18:36:00,0,nan,nan,nan,nan,"(nan, nan)",nan,nan,nan,nan,nan,nan,nan,nan,"(190, 417)",no pil E/W
2011-09-25 18:48:00,0,nan,nan,nan,nan,"(nan, nan)",nan,nan,nan,nan,nan,nan,nan,nan,"(190, 417)",no pil E/W
2011-09-25 19:00:00,0,nan,nan,nan,nan,"(nan, nan)",nan,nan,nan,nan,nan,nan,nan,nan,"(190, 417)",no pil E/W
2011-09-25 19:12:00,0,nan,nan,nan,nan,"(nan, nan)",nan,nan,nan,nan,nan,nan,nan,nan,"(190, 417)",no pil E/W
2011-09-25 19:24:00,0,nan,nan,nan,nan,"(nan, nan)",nan,nan,nan,nan,nan,nan,nan,nan,"(190, 417)",no pil E/W
2011-09-25 19:36:00,0,nan,nan,nan,nan,"(nan, nan)",nan,nan,nan,nan,nan,nan,nan,nan,"(190, 417)",no pil E/W
2011-09-25 19:48:00,0,nan,nan,nan,nan,"(nan, nan)",nan,nan,nan,nan,nan,nan,nan,nan,"(190, 417)",no pil E/W
2011-09-25 20:00:00,0,nan,nan,nan,nan,"(nan, nan)",nan,nan,nan,nan,nan,nan,nan,nan,"(190, 417)",no pil E/W
2011-09-25 20:12:00,0,nan,nan,nan,nan,"(nan, nan)",nan,nan,nan,nan,nan,nan,nan,nan,"(190, 417)",no pil E/W
2011-09-25 20:24:00,0,nan,nan,nan,nan,"(nan, nan)",nan,nan,nan,nan,nan,nan,nan,nan,"(190, 417)",no pil E/W
2011-09-25 20:36:00,0,nan,nan,nan,nan,"(nan, nan)",nan,nan,nan,nan,nan,nan,nan,nan,"(190, 417)",no pil E/W
2011-09-25 20:48:00,0,nan,nan,nan,nan,"(nan, nan)",nan,nan,nan,nan,nan,nan,nan,nan,"(190, 417)",no pil E/W
2011-09-25 21:00:00,0,nan,nan,nan,nan,"(nan, nan)",nan,nan,nan,nan,nan,nan,nan,nan,"(190, 417)",no pil E/W
2011-09-25 21:12:00,0,nan,nan,nan,nan,"(nan, nan)",nan,nan,nan,nan,nan,nan,nan,nan,"(190, 417)",no pil E/W
2011-09-25 21:24:00,0,nan,nan,nan,nan,"(nan, nan)",nan,nan,nan,nan,nan,nan,nan,nan,"(190, 417)",no pil E/W
2011-09-25 21:36:00,0,nan,nan,nan,nan,"(nan, nan)",nan,nan,nan,nan,nan,nan,nan,nan,"(190, 417)",no pil E/W
2011-09-25 21:48:00,0,nan,nan,nan,nan,"(nan, nan)",nan,nan,nan,nan,nan,nan,nan,nan,"(190, 417)",no pil E/W
2011-09-25 22:00:00,0,nan,nan,nan,nan,"(nan, nan)",nan,nan,nan,nan,nan,nan,nan,nan,"(190, 417)",no pil E/W
2011-09-25 22:12:00,0,nan,nan,nan,nan,"(nan, nan)",nan,nan,nan,nan,nan,nan,nan,nan,"(190, 417)",no pil E/W
2011-09-25 22:24:00,0,nan,nan,nan,nan,"(nan, nan)",nan,nan,nan,nan,nan,nan,nan,nan,"(190, 417)",no pil E/W
2011-09-25 22:36:00,0,nan,nan,nan,nan,"(nan, nan)",nan,nan,nan,nan,nan,nan,nan,nan,"(190, 417)",no pil E/W
2011-09-25 22:48:00,0,nan,nan,nan,nan,"(nan, nan)",nan,nan,nan,nan,nan,nan,nan,nan,"(190, 417)",no pil E/W
2011-09-25 23:00:00,0,nan,nan,nan,nan,"(nan, nan)",nan,nan,nan,nan,nan,nan,nan,nan,"(190, 417)",no pil E/W
2011-09-25 23:12:00,0,nan,nan,nan,nan,"(nan, nan)",nan,nan,nan,nan,nan,nan,nan,nan,"(190, 417)",no pil E/W
2011-09-25 23:24:00,0,nan,nan,nan,nan,"(nan, nan)",nan,nan,nan,nan,nan,nan,nan,nan,"(190, 417)",no pil E/W
2011-09-25 23:36:00,0,nan,nan,nan,nan,"(nan, nan)",nan,nan,nan,nan,nan,nan,nan,nan,"(190, 417)",no pil E/W
2011-09-25 23:48:00,0,nan,nan,nan,nan,"(nan, nan)",nan,nan,nan,nan,nan,nan,nan,nan,"(190, 417)",no pil E/W
2011-09-26 00:00:00,0,nan,nan,nan,nan,"(nan, nan)",nan,nan,nan,nan,nan,nan,nan,nan,"(190, 417)",no pil E/W
2011-09-26 00:12:00,0,nan,nan,nan,nan,"(nan, nan)",nan,nan,nan,nan,nan,nan,nan,nan,"(190, 417)",no pil E/W
2011-09-26 00:24:00,0,nan,nan,nan,nan,"(nan, nan)",nan,nan,nan,nan,nan,nan,nan,nan,"(190, 417)",no pil E/W
2011-09-26 00:36:00,0,nan,nan,nan,nan,"(nan, nan)",nan,nan,nan,nan,nan,nan,nan,nan,"(190, 417)",no pil E/W
2011-09-26 00:48:00,0,nan,nan,nan,nan,"(nan, nan)",nan,nan,nan,nan,nan,nan,nan,nan,"(190, 417)",no pil E/W
2011-09-26 01:00:00,0,nan,nan,nan,nan,"(nan, nan)",nan,nan,nan,nan,nan,nan,nan,nan,"(190, 417)",no pil E/W
2011-09-26 01:12:00,0,nan,nan,nan,nan,"(nan, nan)",nan,nan,nan,nan,nan,nan,nan,nan,"(190, 417)",no pil E/W
2011-09-26 01:24:00,1,15,38,3008.6,0.33170401355533746,"(11.423179386888314, 3.2911063273973986)",1.60947570824873,0.22888888888888886,0.016001975308641978,0.002623007407407394,0.0005040148148148018,9.711493298211988e-08,1.5198228806580391e-05,-5.713198504910675e-07,"(190, 417)",detected
2011-09-26 01:36:00,0,nan,nan,nan,nan,"(nan, nan)",nan,nan,nan,nan,nan,nan,nan,nan,"(190, 417)",no pil E/W
2011-09-26 01:48:00,0,nan,nan,nan,nan,"(nan, nan)",nan,nan,nan,nan,nan,nan,nan,nan,"(190, 417)",no pil E/W
2011-09-26 02:00:00,0,nan,nan,nan,nan,"(nan, nan)",nan,nan,nan,nan,nan,nan,nan,nan,"(190, 417)",no pil E/W
2011-09-26 02:12:00,0,nan,nan,nan,nan,"(nan, nan)",nan,nan,nan,nan,nan,nan,nan,nan,"(190, 417)",no pil E/W
2011-09-26 02:24:00,0,nan,nan,nan,nan,"(nan, nan)",nan,nan,nan,nan,nan,nan,nan,nan,"(190, 417)",no pil E/W
2011-09-26 02:36:00,0,nan,nan,nan,nan,"(nan, nan)",nan,nan,nan,nan,nan,nan,nan,nan,"(190, 417)",no pil E/W
2011-09-26 02:48:00,0,nan,nan,nan,nan,"(nan, nan)",nan,nan,nan,nan,nan,nan,nan,nan,"(190, 417)",no pil E/W
2011-09-26 03:00:00,0,nan,nan,nan,nan,"(nan, nan)",nan,nan,nan,nan,nan,nan,nan,nan,"(190, 417)",no pil E/W
2011-09-26 03:12:00,0,nan,nan,nan,nan,"(nan, nan)",nan,nan,nan,nan,nan,nan,nan,nan,"(190, 417)",no pil E/W
2011-09-26 03:24:00,1,16,36,2983.3,0.3121375001030224,"(22.79587655113016, 0.2999567822031734)",1.4008883476483185,1.353271484375,1.7374411225318909,0.08126945846015587,0.008854851650539786,-0.00016002897379337422,-0.009835590314210663,0.00017554396681915274,"(190, 417)",detected
2011-09-26 03:36:00,0,nan,nan,nan,nan,"(nan, nan)",nan,nan,nan,nan,nan,nan,nan,nan,"(190, 417)",no pil E/W
2011-09-26 03:48:00,0,nan,nan,nan,nan,"(nan, nan)",nan,nan,nan,nan,nan,nan,nan,nan,"(190, 417)",no pil E/W
2011-09-26 04:00:00,0,nan,nan,nan,nan,"(nan, nan)",nan,nan,nan,nan,nan,nan,nan,nan,"(190, 417)",no pil E/W
2011-09-26 04:12:00,0,nan,nan,nan,nan,"(nan, nan)",nan,nan,nan,nan,nan,nan,nan,nan,"(190, 417)",no pil E/W
2011-09-26 04:24:00,0,nan,nan,nan,nan,"(nan, nan)",nan,nan,nan,nan,nan,nan,nan,nan,"(190, 417)",no pil E/W
2011-09-26 04:36:00,0,nan,nan,nan,nan,"(nan, nan)",nan,nan,nan,nan,nan,nan,nan,nan,"(190, 417)",no pil E/W
2011-09-26 04:48:00,1,15,68,6106.6,0.3715016827128605,"(21.914718105530945, 1.3043295135166737)",2.039458872802452,0.48158024691358026,0.18273464167047704,0.017696204344399988,0.0022906812098276727,-1.3803755338468906e-05,-0.0008685734288834345,4.707395082837014e-06,"(190, 417)",detected
2011-09-26 05:00:00,1,14,37,4096.1,0.19299678577609924,"(18.253277511191435, 0.14782138990746563)",1.3867295401695068,1.2204810495626823,1.4420937757652,0.01623925464704946,0.0022751993396772138,-2.7027290774879917e-06,-0.0012962736089460307,-1.3563015427000643e-05,"(190, 417)",detected
2011-09-26 05:12:00,1,17,47,3929.1,0.19299678577609924,"(23.41428920472221, 1.0048284423366125)",1.7466110679661835,0.45064115611642575,0.1710269626204325,0.002584462417688727,0.00025675626981639315,-3.515275604764146e-08,-3.2213808067383783e-06,-2.061790112145758e-07,"(190, 417)",detected
2011-09-26 05:24:00,1,22,56,5137.7,0.3083332032128998,"(28.46237569749746, 2.9597022245804623)",1.660037058189605,0.34083865514650646,0.07652428919414157,0.01360158594205885,0.0011196157452536752,-4.367439925706777e-06,-0.00030379278119312136,1.227025267241732e-07,"(190, 417)",detected
2011-09-26 05:36:00,1,18,35,2321.6,0.2765628573076929,"(27.662020727562187, 0.5373256776665771)",1.7281445398776785,0.3698988340192045,0.12659529592948704,0.0017521650503750917,0.0001864432965624676,-9.96739478273535e-08,-6.441542044972523e-05,-3.7694048848781616e-08,"(190, 417)",detected
2011-09-26 05:48:00,0,nan,nan,nan,nan,"(nan, nan)",nan,nan,nan,nan,nan,nan,nan,nan,"(190, 417)",no pil E/W
2011-09-26 07:36:00,0,nan,nan,nan,nan,"(nan, nan)",nan,nan,nan,nan,nan,nan,nan,nan,"(190, 417)",no pil E/W
2011-09-26 07:48:00,0,nan,nan,nan,nan,"(nan, nan)",nan,nan,nan,nan,nan,nan,nan,nan,"(190, 417)",no pil E/W
2011-09-26 08:00:00,1,17,34,2038.2,0.6286445398557176,"(25.616585814791097, 1.0745906557971374)",1.8642581267897127,0.7388560960716467,0.46153434092720774,0.09151104207962231,0.011808274214990496,-0.00024079046842424989,-0.0067100563893599694,-0.00030445366268491925,"(190, 417)",detected
2011-09-26 08:12:00,1,18,32,1608.9,0.6286445398557176,"(28.797527739586574, 1.1436487310016603)",1.994416385367315,0.5236625514403292,0.23392542634083557,0.03311427309411128,0.004594470157204359,-3.295798825123801e-05,-0.0017430686991306377,-4.610175284109231e-05,"(190, 417)",detected
2011-09-26 08:24:00,1,14,20,1545.7,0.49612937076000824,"(17.92523021341167, 0.4538906657092062)",1.6035533905932737,0.4063411078717201,0.14920537231274575,0.008484016734447814,0.0013757841525606077,5.516269971718267e-07,-0.00023504071069535906,-4.667825217647557e-06,"(190, 417)",detected
2011-09-26 08:36:00,0,nan,nan,nan,nan,"(nan, nan)",nan,nan,nan,nan,nan,nan,nan,nan,"(190, 417)",no pil E/W
2011-09-26 08:48:00,0,nan,nan,nan,nan,"(nan, nan)",nan,nan,nan,nan,nan,nan,nan,nan,"(190, 417)",no pil E/W
2011-09-26 09:00:00,0,nan,nan,nan,nan,"(nan, nan)",nan,nan,nan,nan,nan,nan,nan,nan,"(190, 417)",no pil E/W
2011-09-26 09:12:00,0,nan,nan,nan,nan,"(nan, nan)",nan,nan,nan,nan,nan,nan,nan,nan,"(190, 417)",no pil E/W
2011-09-26 09:24:00,0,nan,nan,nan,nan,"(nan, nan)",nan,nan,nan,nan,nan,nan,nan,nan,"(190, 417)",no pil E/W
2011-09-26 09:36:00,0,nan,nan,nan,nan,"(nan, nan)",nan,nan,nan,nan,nan,nan,nan,nan,"(190, 417)",no pil E/W
2011-09-26 09:48:00,0,nan,nan,nan,nan,"(nan, nan)",nan,nan,nan,nan,nan,nan,nan,nan,"(190, 417)",no pil E/W
2011-09-26 10:00:00,0,nan,nan,nan,nan,"(nan, nan)",nan,nan,nan,nan,nan,nan,nan,nan,"(190, 417)",no pil E/W
2011-09-26 10:12:00,0,nan,nan,nan,nan,"(nan, nan)",nan,nan,nan,nan,nan,nan,nan,nan,"(190, 417)",no pil E/W
2011-09-26 10:24:00,0,nan,nan,nan,nan,"(nan, nan)",nan,nan,nan,nan,nan,nan,nan,nan,"(190, 417)",no pil E/W
2011-09-26 10:36:00,0,nan,nan,nan,nan,"(nan, nan)",nan,nan,nan,nan,nan,nan,nan,nan,"(190, 417)",no pil E/W
2011-09-26 10:48:00,0,nan,nan,nan,nan,"(nan, nan)",nan,nan,nan,nan,nan,nan,nan,nan,"(190, 417)",no pil E/W
2011-09-26 11:00:00,0,nan,nan,nan,nan,"(nan, nan)",nan,nan,nan,nan,nan,nan,nan,nan,"(190, 417)",no pil E/W
2011-09-26 11:12:00,0,nan,nan,nan,nan,"(nan, nan)",nan,nan,nan,nan,nan,nan,nan,nan,"(190, 417)",no pil E/W
2011-09-26 11:24:00,0,nan,nan,nan,nan,"(nan, nan)",nan,nan,nan,nan,nan,nan,nan,nan,"(190, 417)",no pil E/W
2011-09-26 11:36:00,0,nan,nan,nan,nan,"(nan, nan)",nan,nan,nan,nan,nan,nan,nan,nan,"(190, 417)",no pil E/W
2011-09-26 11:48:00,0,nan,nan,nan,nan,"(nan, nan)",nan,nan,nan,nan,nan,nan,nan,nan,"(190, 417)",no pil E/W
2011-09-26 12:00:00,0,nan,nan,nan,nan,"(nan, nan)",nan,nan,nan,nan,nan,nan,nan,nan,"(190, 417)",no pil E/W
2011-09-26 12:12:00,0,nan,nan,nan,nan,"(nan, nan)",nan,nan,nan,nan,nan,nan,nan,nan,"(190, 417)",no pil E/W
2011-09-26 12:24:00,0,nan,nan,nan,nan,"(nan, nan)",nan,nan,nan,nan,nan,nan,nan,nan,"(190, 417)",no pil E/W
2011-09-26 12:36:00,0,nan,nan,nan,nan,"(nan, nan)",nan,nan,nan,nan,nan,nan,nan,nan,"(190, 417)",no pil E/W
2011-09-26 12:48:00,0,nan,nan,nan,nan,"(nan, nan)",nan,nan,nan,nan,nan,nan,nan,nan,"(190, 417)",no pil E/W
2011-09-26 13:00:00,0,nan,nan,nan,nan,"(nan, nan)",nan,nan,nan,nan,nan,nan,nan,nan,"(190, 417)",no pil E/W
2011-09-26 13:12:00,0,nan,nan,nan,nan,"(nan, nan)",nan,nan,nan,nan,nan,nan,nan,nan,"(190, 417)",no pil E/W
2011-09-26 13:24:00,0,nan,nan,nan,nan,"(nan, nan)",nan,nan,nan,nan,nan,nan,nan,nan,"(190, 417)",no pil E/W
2011-09-26 13:36:00,0,nan,nan,nan,nan,"(nan, nan)",nan,nan,nan,nan,nan,nan,nan,nan,"(190, 417)",no pil E/W
2011-09-26 13:48:00,0,nan,nan,nan,nan,"(nan, nan)",nan,nan,nan,nan,nan,nan,nan,nan,"(190, 417)",no pil E/W
2011-09-26 14:00:00,0,nan,nan,nan,nan,"(nan, nan)",nan,nan,nan,nan,nan,nan,nan,nan,"(190, 417)",no pil E/W
2011-09-26 14:12:00,0,nan,nan,nan,nan,"(nan, nan)",nan,nan,nan,nan,nan,nan,nan,nan,"(190, 417)",no pil E/W
2011-09-26 14:24:00,0,nan,nan,nan,nan,"(nan, nan)",nan,nan,nan,nan,nan,nan,nan,nan,"(190, 417)",no pil E/W
2011-09-26 14:36:00,0,nan,nan,nan,nan,"(nan, nan)",nan,nan,nan,nan,nan,nan,nan,nan,"(190, 417)",no pil E/W
2011-09-26 14:48:00,0,nan,nan,nan,nan,"(nan, nan)",nan,nan,nan,nan,nan,nan,nan,nan,"(190, 417)",no pil E/W
2011-09-26 15:00:00,0,nan,nan,nan,nan,"(nan, nan)",nan,nan,nan,nan,nan,nan,nan,nan,"(190, 417)",no pil E/W
2011-09-26 15:12:00,0,nan,nan,nan,nan,"(nan, nan)",nan,nan,nan,nan,nan,nan,nan,nan,"(190, 417)",no pil E/W
2011-09-26 15:24:00,0,nan,nan,nan,nan,"(nan, nan)",nan,nan,nan,nan,nan,nan,nan,nan,"(190, 417)",no pil E/W
2011-09-26 15:36:00,0,nan,nan,nan,nan,"(nan, nan)",nan,nan,nan,nan,nan,nan,nan,nan,"(190, 417)",no pil E/W
2011-09-26 15:48:00,0,nan,nan,nan,nan,"(nan, nan)",nan,nan,nan,nan,nan,nan,nan,nan,"(190, 417)",no pil E/W
2011-09-26 16:00:00,0,nan,nan,nan,nan,"(nan, nan)",nan,nan,nan,nan,nan,nan,nan,nan,"(190, 417)",no pil E/W
2011-09-26 16:12:00,0,nan,nan,nan,nan,"(nan, nan)",nan,nan,nan,nan,nan,nan,nan,nan,"(190, 417)",no pil E/W
2011-09-26 16:24:00,0,nan,nan,nan,nan,"(nan, nan)",nan,nan,nan,nan,nan,nan,nan,nan,"(190, 417)",no pil E/W
2011-09-26 16:36:00,0,nan,nan,nan,nan,"(nan, nan)",nan,nan,nan,nan,nan,nan,nan,nan,"(190, 417)",no pil E/W
2011-09-26 16:48:00,0,nan,nan,nan,nan,"(nan, nan)",nan,nan,nan,nan,nan,nan,nan,nan,"(190, 417)",no pil E/W
2011-09-26 17:00:00,0,nan,nan,nan,nan,"(nan, nan)",nan,nan,nan,nan,nan,nan,nan,nan,"(190, 417)",no pil E/W
2011-09-26 17:12:00,0,nan,nan,nan,nan,"(nan, nan)",nan,nan,nan,nan,nan,nan,nan,nan,"(190, 417)",no pil E/W
2011-09-26 17:24:00,0,nan,nan,nan,nan,"(nan, nan)",nan,nan,nan,nan,nan,nan,nan,nan,"(190, 417)",no pil E/W
2011-09-26 17:36:00,0,nan,nan,nan,nan,"(nan, nan)",nan,nan,nan,nan,nan,nan,nan,nan,"(190, 417)",no pil E/W
2011-09-26 17:48:00,0,nan,nan,nan,nan,"(nan, nan)",nan,nan,nan,nan,nan,nan,nan,nan,"(190, 417)",no pil E/W
2011-09-26 18:00:00,0,nan,nan,nan,nan,"(nan, nan)",nan,nan,nan,nan,nan,nan,nan,nan,"(190, 417)",no pil E/W
2011-09-26 18:12:00,0,nan,nan,nan,nan,"(nan, nan)",nan,nan,nan,nan,nan,nan,nan,nan,"(190, 417)",no pil E/W
2011-09-26 18:24:00,0,nan,nan,nan,nan,"(nan, nan)",nan,nan,nan,nan,nan,nan,nan,nan,"(190, 417)",no pil E/W
2011-09-26 18:36:00,0,nan,nan,nan,nan,"(nan, nan)",nan,nan,nan,nan,nan,nan,nan,nan,"(190, 417)",no pil E/W
2011-09-26 18:48:00,0,nan,nan,nan,nan,"(nan, nan)",nan,nan,nan,nan,nan,nan,nan,nan,"(190, 417)",no pil E/W
2011-09-26 19:00:00,0,nan,nan,nan,nan,"(nan, nan)",nan,nan,nan,nan,nan,nan,nan,nan,"(190, 417)",no pil E/W
2011-09-26 19:12:00,0,nan,nan,nan,nan,"(nan, nan)",nan,nan,nan,nan,nan,nan,nan,nan,"(190, 417)",no pil E/W
2011-09-26 19:24:00,0,nan,nan,nan,nan,"(nan, nan)",nan,nan,nan,nan,nan,nan,nan,nan,"(190, 417)",no pil E/W
2011-09-26 19:36:00,0,nan,nan,nan,nan,"(nan, nan)",nan,nan,nan,nan,nan,nan,nan,nan,"(190, 417)",no pil E/W
2011-09-26 19:48:00,0,nan,nan,nan,nan,"(nan, nan)",nan,nan,nan,nan,nan,nan,nan,nan,"(190, 417)",no pil E/W
2011-09-26 20:00:00,0,nan,nan,nan,nan,"(nan, nan)",nan,nan,nan,nan,nan,nan,nan,nan,"(190, 417)",no pil E/W
2011-09-26 20:12:00,0,nan,nan,nan,nan,"(nan, nan)",nan,nan,nan,nan,nan,nan,nan,nan,"(190, 417)",no pil E/W
2011-09-26 20:24:00,0,nan,nan,nan,nan,"(nan, nan)",nan,nan,nan,nan,nan,nan,nan,nan,"(190, 417)",no pil E/W
2011-09-26 20:36:00,0,nan,nan,nan,nan,"(nan, nan)",nan,nan,nan,nan,nan,nan,nan,nan,"(190, 417)",no pil E/W
2011-09-26 20:48:00,0,nan,nan,nan,nan,"(nan, nan)",nan,nan,nan,nan,nan,nan,nan,nan,"(190, 417)",no pil E/W
2011-09-26 21:00:00,0,nan,nan,nan,nan,"(nan, nan)",nan,nan,nan,nan,nan,nan,nan,nan,"(190, 417)",no pil E/W
2011-09-26 21:12:00,0,nan,nan,nan,nan,"(nan, nan)",nan,nan,nan,nan,nan,nan,nan,nan,"(190, 417)",no pil E/W
2011-09-26 21:24:00,0,nan,nan,nan,nan,"(nan, nan)",nan,nan,nan,nan,nan,nan,nan,nan,"(190, 417)",no pil E/W
2011-09-26 21:36:00,0,nan,nan,nan,nan,"(nan, nan)",nan,nan,nan,nan,nan,nan,nan,nan,"(190, 417)",no pil E/W
2011-09-26 21:48:00,0,nan,nan,nan,nan,"(nan, nan)",nan,nan,nan,nan,nan,nan,nan,nan,"(190, 417)",no pil E/W
2011-09-26 22:00:00,0,nan,nan,nan,nan,"(nan, nan)",nan,nan,nan,nan,nan,nan,nan,nan,"(190, 417)",no pil E/W
2011-09-26 22:12:00,0,nan,nan,nan,nan,"(nan, nan)",nan,nan,nan,nan,nan,nan,nan,nan,"(190, 417)",no pil E/W
2011-09-26 22:24:00,0,nan,nan,nan,nan,"(nan, nan)",nan,nan,nan,nan,nan,nan,nan,nan,"(190, 417)",no pil E/W
2011-09-26 22:36:00,0,nan,nan,nan,nan,"(nan, nan)",nan,nan,nan,nan,nan,nan,nan,nan,"(190, 417)",no pil E/W
2011-09-26 22:48:00,0,nan,nan,nan,nan,"(nan, nan)",nan,nan,nan,nan,nan,nan,nan,nan,"(190, 417)",no pil E/W
2011-09-26 23:00:00,0,nan,nan,nan,nan,"(nan, nan)",nan,nan,nan,nan,nan,nan,nan,nan,"(190, 417)",no pil E/W
2011-09-26 23:12:00,0,nan,nan,nan,nan,"(nan, nan)",nan,nan,nan,nan,nan,nan,nan,nan,"(190, 417)",no pil E/W
2011-09-26 23:24:00,0,nan,nan,nan,nan,"(nan, nan)",nan,nan,nan,nan,nan,nan,nan,nan,"(190, 417)",no pil E/W
2011-09-26 23:36:00,0,nan,nan,nan,nan,"(nan, nan)",nan,nan,nan,nan,nan,nan,nan,nan,"(190, 417)",no pil E/W
2011-09-26 23:48:00,0,nan,nan,nan,nan,"(nan, nan)",nan,nan,nan,nan,nan,nan,nan,nan,"(190, 417)",no pil E/W
2011-09-27 00:00:00,0,nan,nan,nan,nan,"(nan, nan)",nan,nan,nan,nan,nan,nan,nan,nan,"(190, 417)",no pil E/W
2011-09-27 00:12:00,0,nan,nan,nan,nan,"(nan, nan)",nan,nan,nan,nan,nan,nan,nan,nan,"(190, 417)",no pil E/W
2011-09-27 00:24:00,0,nan,nan,nan,nan,"(nan, nan)",nan,nan,nan,nan,nan,nan,nan,nan,"(190, 417)",no pil E/W
2011-09-27 00:36:00,0,nan,nan,nan,nan,"(nan, nan)",nan,nan,nan,nan,nan,nan,nan,nan,"(190, 417)",no pil E/W
2011-09-27 00:48:00,0,nan,nan,nan,nan,"(nan, nan)",nan,nan,nan,nan,nan,nan,nan,nan,"(190, 417)",no pil E/W
2011-09-27 01:00:00,0,nan,nan,nan,nan,"(nan, nan)",nan,nan,nan,nan,nan,nan,nan,nan,"(190, 417)",no pil E/W
2011-09-27 01:12:00,0,nan,nan,nan,nan,"(nan, nan)",nan,nan,nan,nan,nan,nan,nan,nan,"(190, 417)",no pil E/W
2011-09-27 01:24:00,0,nan,nan,nan,nan,"(nan, nan)",nan,nan,nan,nan,nan,nan,nan,nan,"(190, 417)",no pil E/W
2011-09-27 01:36:00,0,nan,nan,nan,nan,"(nan, nan)",nan,nan,nan,nan,nan,nan,nan,nan,"(190, 417)",no pil E/W
2011-09-27 01:48:00,0,nan,nan,nan,nan,"(nan, nan)",nan,nan,nan,nan,nan,nan,nan,nan,"(190, 417)",no pil E/W
2011-09-27 02:00:00,0,nan,nan,nan,nan,"(nan, nan)",nan,nan,nan,nan,nan,nan,nan,nan,"(190, 417)",no pil E/W
2011-09-27 02:12:00,0,nan,nan,nan,nan,"(nan, nan)",nan,nan,nan,nan,nan,nan,nan,nan,"(190, 417)",no pil E/W
2011-09-27 02:24:00,0,nan,nan,nan,nan,"(nan, nan)",nan,nan,nan,nan,nan,nan,nan,nan,"(190, 417)",no pil E/W
2011-09-27 02:36:00,0,nan,nan,nan,nan,"(nan, nan)",nan,nan,nan,nan,nan,nan,nan,nan,"(190, 417)",no pil E/W
2011-09-27 02:48:00,0,nan,nan,nan,nan,"(nan, nan)",nan,nan,nan,nan,nan,nan,nan,nan,"(190, 417)",no pil E/W
2011-09-27 03:00:00,0,nan,nan,nan,nan,"(nan, nan)",nan,nan,nan,nan,nan,nan,nan,nan,"(190, 417)",no pil E/W
2011-09-27 03:12:00,0,nan,nan,nan,nan,"(nan, nan)",nan,nan,nan,nan,nan,nan,nan,nan,"(190, 417)",no pil E/W
2011-09-27 03:24:00,0,nan,nan,nan,nan,"(nan, nan)",nan,nan,nan,nan,nan,nan,nan,nan,"(190, 417)",no pil E/W
2011-09-27 03:36:00,0,nan,nan,nan,nan,"(nan, nan)",nan,nan,nan,nan,nan,nan,nan,nan,"(190, 417)",no pil E/W
2011-09-27 03:48:00,0,nan,nan,nan,nan,"(nan, nan)",nan,nan,nan,nan,nan,nan,nan,nan,"(190, 417)",no pil E/W
2011-09-27 04:00:00,0,nan,nan,nan,nan,"(nan, nan)",nan,nan,nan,nan,nan,nan,nan,nan,"(190, 417)",no pil E/W
2011-09-27 04:12:00,0,nan,nan,nan,nan,"(nan, nan)",nan,nan,nan,nan,nan,nan,nan,nan,"(190, 417)",no pil E/W
2011-09-27 04:24:00,0,nan,nan,nan,nan,"(nan, nan)",nan,nan,nan,nan,nan,nan,nan,nan,"(190, 417)",no pil E/W
2011-09-27 04:36:00,0,nan,nan,nan,nan,"(nan, nan)",nan,nan,nan,nan,nan,nan,nan,nan,"(190, 417)",no pil E/W
2011-09-27 04:48:00,0,nan,nan,nan,nan,"(nan, nan)",nan,nan,nan,nan,nan,nan,nan,nan,"(190, 417)",no pil E/W
2011-09-27 05:00:00,0,nan,nan,nan,nan,"(nan, nan)",nan,nan,nan,nan,nan,nan,nan,nan,"(190, 417)",no pil E/W
2011-09-27 05:12:00,0,nan,nan,nan,nan,"(nan, nan)",nan,nan,nan,nan,nan,nan,nan,nan,"(190, 417)",no pil E/W
2011-09-27 05:24:00,0,nan,nan,nan,nan,"(nan, nan)",nan,nan,nan,nan,nan,nan,nan,nan,"(190, 417)",no pil E/W
2011-09-27 05:36:00,0,nan,nan,nan,nan,"(nan, nan)",nan,nan,nan,nan,nan,nan,nan,nan,"(190, 417)",no pil E/W
2011-09-27 05:48:00,0,nan,nan,nan,nan,"(nan, nan)",nan,nan,nan,nan,nan,nan,nan,nan,"(190, 417)",no pil E/W
2011-09-27 08:12:00,0,nan,nan,nan,nan,"(nan, nan)",nan,nan,nan,nan,nan,nan,nan,nan,"(190, 417)",no pil E/W
2011-09-27 08:24:00,0,nan,nan,nan,nan,"(nan, nan)",nan,nan,nan,nan,nan,nan,nan,nan,"(190, 417)",no pil E/W
2011-09-27 08:36:00,0,nan,nan,nan,nan,"(nan, nan)",nan,nan,nan,nan,nan,nan,nan,nan,"(190, 417)",no pil E/W
2011-09-27 08:48:00,0,nan,nan,nan,nan,"(nan, nan)",nan,nan,nan,nan,nan,nan,nan,nan,"(190, 417)",no pil E/W
2011-09-27 09:00:00,0,nan,nan,nan,nan,"(nan, nan)",nan,nan,nan,nan,nan,nan,nan,nan,"(190, 417)",no pil E/W
2011-09-27 09:12:00,0,nan,nan,nan,nan,"(nan, nan)",nan,nan,nan,nan,nan,nan,nan,nan,"(190, 417)",no pil E/W
2011-09-27 09:24:00,0,nan,nan,nan,nan,"(nan, nan)",nan,nan,nan,nan,nan,nan,nan,nan,"(190, 417)",no pil E/W
2011-09-27 09:36:00,0,nan,nan,nan,nan,"(nan, nan)",nan,nan,nan,nan,nan,nan,nan,nan,"(190, 417)",no pil E/W
2011-09-27 10:00:00,0,nan,nan,nan,nan,"(nan, nan)",nan,nan,nan,nan,nan,nan,nan,nan,"(190, 417)",no pil E/W
2011-09-27 10:12:00,0,nan,nan,nan,nan,"(nan, nan)",nan,nan,nan,nan,nan,nan,nan,nan,"(190, 417)",no pil E/W
2011-09-27 10:24:00,0,nan,nan,nan,nan,"(nan, nan)",nan,nan,nan,nan,nan,nan,nan,nan,"(190, 417)",no pil E/W
2011-09-27 10:36:00,0,nan,nan,nan,nan,"(nan, nan)",nan,nan,nan,nan,nan,nan,nan,nan,"(190, 417)",no pil E/W
2011-09-27 10:48:00,0,nan,nan,nan,nan,"(nan, nan)",nan,nan,nan,nan,nan,nan,nan,nan,"(190, 417)",no pil E/W
2011-09-27 11:00:00,0,nan,nan,nan,nan,"(nan, nan)",nan,nan,nan,nan,nan,nan,nan,nan,"(190, 417)",no pil E/W
2011-09-27 11:12:00,0,nan,nan,nan,nan,"(nan, nan)",nan,nan,nan,nan,nan,nan,nan,nan,"(190, 417)",no pil E/W
2011-09-27 11:24:00,0,nan,nan,nan,nan,"(nan, nan)",nan,nan,nan,nan,nan,nan,nan,nan,"(190, 417)",no pil E/W
2011-09-27 11:36:00,0,nan,nan,nan,nan,"(nan, nan)",nan,nan,nan,nan,nan,nan,nan,nan,"(190, 417)",no pil E/W
2011-09-27 11:48:00,0,nan,nan,nan,nan,"(nan, nan)",nan,nan,nan,nan,nan,nan,nan,nan,"(190, 417)",no pil E/W
2011-09-27 12:00:00,0,nan,nan,nan,nan,"(nan, nan)",nan,nan,nan,nan,nan,nan,nan,nan,"(190, 417)",no pil E/W
2011-09-27 12:12:00,0,nan,nan,nan,nan,"(nan, nan)",nan,nan,nan,nan,nan,nan,nan,nan,"(190, 417)",no pil E/W
2011-09-27 12:24:00,0,nan,nan,nan,nan,"(nan, nan)",nan,nan,nan,nan,nan,nan,nan,nan,"(190, 417)",no pil E/W
2011-09-27 12:36:00,0,nan,nan,nan,nan,"(nan, nan)",nan,nan,nan,nan,nan,nan,nan,nan,"(190, 417)",no pil E/W
2011-09-27 12:48:00,0,nan,nan,nan,nan,"(nan, nan)",nan,nan,nan,nan,nan,nan,nan,nan,"(190, 417)",no pil E/W
2011-09-27 13:00:00,0,nan,nan,nan,nan,"(nan, nan)",nan,nan,nan,nan,nan,nan,nan,nan,"(190, 417)",no pil E/W
2011-09-27 13:12:00,0,nan,nan,nan,nan,"(nan, nan)",nan,nan,nan,nan,nan,nan,nan,nan,"(190, 417)",no pil E/W
2011-09-27 13:24:00,0,nan,nan,nan,nan,"(nan, nan)",nan,nan,nan,nan,nan,nan,nan,nan,"(190, 417)",no pil E/W
2011-09-27 13:36:00,0,nan,nan,nan,nan,"(nan, nan)",nan,nan,nan,nan,nan,nan,nan,nan,"(190, 417)",no pil E/W
2011-09-27 13:48:00,0,nan,nan,nan,nan,"(nan, nan)",nan,nan,nan,nan,nan,nan,nan,nan,"(190, 417)",no pil E/W
2011-09-27 14:00:00,0,nan,nan,nan,nan,"(nan, nan)",nan,nan,nan,nan,nan,nan,nan,nan,"(190, 417)",no pil E/W
2011-09-27 14:12:00,0,nan,nan,nan,nan,"(nan, nan)",nan,nan,nan,nan,nan,nan,nan,nan,"(190, 417)",no pil E/W
2011-09-27 14:24:00,0,nan,nan,nan,nan,"(nan, nan)",nan,nan,nan,nan,nan,nan,nan,nan,"(190, 417)",no pil E/W
2011-09-27 14:36:00,0,nan,nan,nan,nan,"(nan, nan)",nan,nan,nan,nan,nan,nan,nan,nan,"(190, 417)",no pil E/W
2011-09-27 14:48:00,0,nan,nan,nan,nan,"(nan, nan)",nan,nan,nan,nan,nan,nan,nan,nan,"(190, 417)",no pil E/W
2011-09-27 15:00:00,0,nan,nan,nan,nan,"(nan, nan)",nan,nan,nan,nan,nan,nan,nan,nan,"(190, 417)",no pil E/W
2011-09-27 15:12:00,1,17,32,1588.5,0.5692803572458797,"(22.36352664469469, 1.3864733553053012)",1.8318903308077028,1.3148788927335642,1.3487555436920764,0.7038444753171105,0.08129000309946423,-0.013286770280926181,-0.07487530758817737,-0.014196675147136389,"(190, 417)",detected
2011-09-27 15:24:00,0,nan,nan,nan,nan,"(nan, nan)",nan,nan,nan,nan,nan,nan,nan,nan,"(190, 417)",no pil E/W
2011-09-27 15:36:00,0,nan,nan,nan,nan,"(nan, nan)",nan,nan,nan,nan,nan,nan,nan,nan,"(190, 417)",no pil E/W
2011-09-27 15:48:00,0,nan,nan,nan,nan,"(nan, nan)",nan,nan,nan,nan,nan,nan,nan,nan,"(190, 417)",no pil E/W
2011-09-27 16:00:00,0,nan,nan,nan,nan,"(nan, nan)",nan,nan,nan,nan,nan,nan,nan,nan,"(190, 417)",no pil E/W
2011-09-27 16:12:00,0,nan,nan,nan,nan,"(nan, nan)",nan,nan,nan,nan,nan,nan,nan,nan,"(190, 417)",no pil E/W
2011-09-27 16:24:00,0,nan,nan,nan,nan,"(nan, nan)",nan,nan,nan,nan,nan,nan,nan,nan,"(190, 417)",no pil E/W
2011-09-27 16:36:00,0,nan,nan,nan,nan,"(nan, nan)",nan,nan,nan,nan,nan,nan,nan,nan,"(190, 417)",no pil E/W
2011-09-27 16:48:00,0,nan,nan,nan,nan,"(nan, nan)",nan,nan,nan,nan,nan,nan,nan,nan,"(190, 417)",no pil E/W
2011-09-27 17:00:00,0,nan,nan,nan,nan,"(nan, nan)",nan,nan,nan,nan,nan,nan,nan,nan,"(190, 417)",no pil E/W
2011-09-27 17:12:00,0,nan,nan,nan,nan,"(nan, nan)",nan,nan,nan,nan,nan,nan,nan,nan,"(190, 417)",no pil E/W
2011-09-27 17:24:00,0,nan,nan,nan,nan,"(nan, nan)",nan,nan,nan,nan,nan,nan,nan,nan,"(190, 417)",no pil E/W
2011-09-27 17:36:00,0,nan,nan,nan,nan,"(nan, nan)",nan,nan,nan,nan,nan,nan,nan,nan,"(190, 417)",no pil E/W
2011-09-27 17:48:00,0,nan,nan,nan,nan,"(nan, nan)",nan,nan,nan,nan,nan,nan,nan,nan,"(190, 417)",no pil E/W
2011-09-27 18:00:00,0,nan,nan,nan,nan,"(nan, nan)",nan,nan,nan,nan,nan,nan,nan,nan,"(190, 417)",no pil E/W
2011-09-27 18:12:00,0,nan,nan,nan,nan,"(nan, nan)",nan,nan,nan,nan,nan,nan,nan,nan,"(190, 417)",no pil E/W
2011-09-27 18:24:00,0,nan,nan,nan,nan,"(nan, nan)",nan,nan,nan,nan,nan,nan,nan,nan,"(190, 417)",no pil E/W
2011-09-27 18:36:00,0,nan,nan,nan,nan,"(nan, nan)",nan,nan,nan,nan,nan,nan,nan,nan,"(190, 417)",no pil E/W
2011-09-27 18:48:00,0,nan,nan,nan,nan,"(nan, nan)",nan,nan,nan,nan,nan,nan,nan,nan,"(190, 417)",no pil E/W
2011-09-27 19:00:00,0,nan,nan,nan,nan,"(nan, nan)",nan,nan,nan,nan,nan,nan,nan,nan,"(190, 417)",no pil E/W
2011-09-27 19:12:00,0,nan,nan,nan,nan,"(nan, nan)",nan,nan,nan,nan,nan,nan,nan,nan,"(190, 417)",no pil E/W
2011-09-27 19:24:00,0,nan,nan,nan,nan,"(nan, nan)",nan,nan,nan,nan,nan,nan,nan,nan,"(190, 417)",no pil E/W
2011-09-27 19:36:00,0,nan,nan,nan,nan,"(nan, nan)",nan,nan,nan,nan,nan,nan,nan,nan,"(190, 417)",no pil E/W
2011-09-27 19:48:00,0,nan,nan,nan,nan,"(nan, nan)",nan,nan,nan,nan,nan,nan,nan,nan,"(190, 417)",no pil E/W
2011-09-27 20:00:00,0,nan,nan,nan,nan,"(nan, nan)",nan,nan,nan,nan,nan,nan,nan,nan,"(190, 417)",no pil E/W
2011-09-27 20:12:00,0,nan,nan,nan,nan,"(nan, nan)",nan,nan,nan,nan,nan,nan,nan,nan,"(190, 417)",no pil E/W
2011-09-27 20:24:00,0,nan,nan,nan,nan,"(nan, nan)",nan,nan,nan,nan,nan,nan,nan,nan,"(190, 417)",no pil E/W
2011-09-27 20:36:00,0,nan,nan,nan,nan,"(nan, nan)",nan,nan,nan,nan,nan,nan,nan,nan,"(190, 417)",no pil E/W
2011-09-27 20:48:00,0,nan,nan,nan,nan,"(nan, nan)",nan,nan,nan,nan,nan,nan,nan,nan,"(190, 417)",no pil E/W
2011-09-27 21:00:00,0,nan,nan,nan,nan,"(nan, nan)",nan,nan,nan,nan,nan,nan,nan,nan,"(190, 417)",no pil E/W
2011-09-27 21:12:00,0,nan,nan,nan,nan,"(nan, nan)",nan,nan,nan,nan,nan,nan,nan,nan,"(190, 417)",no pil E/W
2011-09-27 21:24:00,0,nan,nan,nan,nan,"(nan, nan)",nan,nan,nan,nan,nan,nan,nan,nan,"(190, 417)",no pil E/W
2011-09-27 21:36:00,0,nan,nan,nan,nan,"(nan, nan)",nan,nan,nan,nan,nan,nan,nan,nan,"(190, 417)",no pil E/W
2011-09-27 21:48:00,0,nan,nan,nan,nan,"(nan, nan)",nan,nan,nan,nan,nan,nan,nan,nan,"(190, 417)",no pil E/W
2011-09-27 22:00:00,0,nan,nan,nan,nan,"(nan, nan)",nan,nan,nan,nan,nan,nan,nan,nan,"(190, 417)",no pil E/W
2011-09-27 22:12:00,0,nan,nan,nan,nan,"(nan, nan)",nan,nan,nan,nan,nan,nan,nan,nan,"(190, 417)",no pil E/W
2011-09-27 22:24:00,0,nan,nan,nan,nan,"(nan, nan)",nan,nan,nan,nan,nan,nan,nan,nan,"(190, 417)",no pil E/W
2011-09-27 22:36:00,0,nan,nan,nan,nan,"(nan, nan)",nan,nan,nan,nan,nan,nan,nan,nan,"(190, 417)",no pil E/W
2011-09-27 22:48:00,0,nan,nan,nan,nan,"(nan, nan)",nan,nan,nan,nan,nan,nan,nan,nan,"(190, 417)",no pil E/W
2011-09-27 23:00:00,0,nan,nan,nan,nan,"(nan, nan)",nan,nan,nan,nan,nan,nan,nan,nan,"(190, 417)",no pil E/W
2011-09-27 23:12:00,0,nan,nan,nan,nan,"(nan, nan)",nan,nan,nan,nan,nan,nan,nan,nan,"(190, 417)",no pil E/W
2011-09-27 23:24:00,0,nan,nan,nan,nan,"(nan, nan)",nan,nan,nan,nan,nan,nan,nan,nan,"(190, 417)",no pil E/W
2011-09-27 23:36:00,0,nan,nan,nan,nan,"(nan, nan)",nan,nan,nan,nan,nan,nan,nan,nan,"(190, 417)",no pil E/W
2011-09-27 23:48:00,0,nan,nan,nan,nan,"(nan, nan)",nan,nan,nan,nan,nan,nan,nan,nan,"(190, 417)",no pil E/W
2011-09-28 00:00:00,0,nan,nan,nan,nan,"(nan, nan)",nan,nan,nan,nan,nan,nan,nan,nan,"(190, 417)",no pil E/W
2011-09-28 00:12:00,0,nan,nan,nan,nan,"(nan, nan)",nan,nan,nan,nan,nan,nan,nan,nan,"(190, 417)",no pil E/W
2011-09-28 00:24:00,0,nan,nan,nan,nan,"(nan, nan)",nan,nan,nan,nan,nan,nan,nan,nan,"(190, 417)",no pil E/W
2011-09-28 00:36:00,0,nan,nan,nan,nan,"(nan, nan)",nan,nan,nan,nan,nan,nan,nan,nan,"(190, 417)",no pil E/W
2011-09-28 00:48:00,0,nan,nan,nan,nan,"(nan, nan)",nan,nan,nan,nan,nan,nan,nan,nan,"(190, 417)",no pil E/W
2011-09-28 01:00:00,0,nan,nan,nan,nan,"(nan, nan)",nan,nan,nan,nan,nan,nan,nan,nan,"(190, 417)",no pil E/W
2011-09-28 01:12:00,0,nan,nan,nan,nan,"(nan, nan)",nan,nan,nan,nan,nan,nan,nan,nan,"(190, 417)",no pil E/W
2011-09-28 01:24:00,0,nan,nan,nan,nan,"(nan, nan)",nan,nan,nan,nan,nan,nan,nan,nan,"(190, 417)",no pil E/W
2011-09-28 01:36:00,0,nan,nan,nan,nan,"(nan, nan)",nan,nan,nan,nan,nan,nan,nan,nan,"(190, 417)",no pil E/W
2011-09-28 01:48:00,0,nan,nan,nan,nan,"(nan, nan)",nan,nan,nan,nan,nan,nan,nan,nan,"(190, 417)",no pil E/W
2011-09-28 02:00:00,0,nan,nan,nan,nan,"(nan, nan)",nan,nan,nan,nan,nan,nan,nan,nan,"(190, 417)",no pil E/W
2011-09-28 02:12:00,0,nan,nan,nan,nan,"(nan, nan)",nan,nan,nan,nan,nan,nan,nan,nan,"(190, 417)",no pil E/W
2011-09-28 02:24:00,0,nan,nan,nan,nan,"(nan, nan)",nan,nan,nan,nan,nan,nan,nan,nan,"(190, 417)",no pil E/W
2011-09-28 02:36:00,0,nan,nan,nan,nan,"(nan, nan)",nan,nan,nan,nan,nan,nan,nan,nan,"(190, 417)",no pil E/W
2011-09-28 02:48:00,0,nan,nan,nan,nan,"(nan, nan)",nan,nan,nan,nan,nan,nan,nan,nan,"(190, 417)",no pil E/W
2011-09-28 03:00:00,0,nan,nan,nan,nan,"(nan, nan)",nan,nan,nan,nan,nan,nan,nan,nan,"(190, 417)",no pil E/W
2011-09-28 03:12:00,0,nan,nan,nan,nan,"(nan, nan)",nan,nan,nan,nan,nan,nan,nan,nan,"(190, 417)",no pil E/W
2011-09-28 03:24:00,0,nan,nan,nan,nan,"(nan, nan)",nan,nan,nan,nan,nan,nan,nan,nan,"(190, 417)",no pil E/W
2011-09-28 03:36:00,0,nan,nan,nan,nan,"(nan, nan)",nan,nan,nan,nan,nan,nan,nan,nan,"(190, 417)",no pil E/W
2011-09-28 03:48:00,0,nan,nan,nan,nan,"(nan, nan)",nan,nan,nan,nan,nan,nan,nan,nan,"(190, 417)",no pil E/W
2011-09-28 04:00:00,0,nan,nan,nan,nan,"(nan, nan)",nan,nan,nan,nan,nan,nan,nan,nan,"(190, 417)",no pil E/W
2011-09-28 04:12:00,0,nan,nan,nan,nan,"(nan, nan)",nan,nan,nan,nan,nan,nan,nan,nan,"(190, 417)",no pil E/W
2011-09-28 04:24:00,0,nan,nan,nan,nan,"(nan, nan)",nan,nan,nan,nan,nan,nan,nan,nan,"(190, 417)",no pil E/W
2011-09-28 04:36:00,0,nan,nan,nan,nan,"(nan, nan)",nan,nan,nan,nan,nan,nan,nan,nan,"(190, 417)",no pil E/W
2011-09-28 04:48:00,0,nan,nan,nan,nan,"(nan, nan)",nan,nan,nan,nan,nan,nan,nan,nan,"(190, 417)",no pil E/W
2011-09-28 05:00:00,0,nan,nan,nan,nan,"(nan, nan)",nan,nan,nan,nan,nan,nan,nan,nan,"(190, 417)",no pil E/W
2011-09-28 05:12:00,0,nan,nan,nan,nan,"(nan, nan)",nan,nan,nan,nan,nan,nan,nan,nan,"(190, 417)",no pil E/W
2011-09-28 05:24:00,0,nan,nan,nan,nan,"(nan, nan)",nan,nan,nan,nan,nan,nan,nan,nan,"(190, 417)",no pil E/W
2011-09-28 05:36:00,0,nan,nan,nan,nan,"(nan, nan)",nan,nan,nan,nan,nan,nan,nan,nan,"(190, 417)",no pil E/W
2011-09-28 05:48:00,0,nan,nan,nan,nan,"(nan, nan)",nan,nan,nan,nan,nan,nan,nan,nan,"(190, 417)",no pil E/W
2011-09-28 17:36:00,1,22,70,11515.2,0.6695596430837922,"(1.3635998844566615, 46.57146505060827)",1.8749426064331438,0.3466378662659655,0.10687431973051513,0.0041099062215865685,0.0005318315688097748,-3.189699043140877e-07,-9.089404397754174e-05,-7.186752702331174e-07,"(190, 417)",detected
2011-09-28 17:48:00,1,22,66,11289.9,0.6695596430837922,"(0.9513037002057985, 48.98376123485913)",1.9768808194840206,0.43332081141998496,0.1737310611940543,0.004731799558186226,0.0005320528259759459,-8.027324040537372e-07,-0.0002091342641893171,-2.6133154063704003e-07,"(190, 417)",detected
2011-09-28 18:00:00,1,18,59,11467.8,0.5821892746620759,"(33.65373249150636, 0.46391456731716474)",1.7340668575331348,0.2983539094650206,0.08423936053108436,9.189288773007076e-05,4.453736441389717e-05,2.781703496429246e-09,1.0998421637141837e-05,-6.166402054736391e-10,"(190, 417)",detected
2011-09-28 18:12:00,1,16,59,11132.8,0.5821892746620759,"(27.778849420208893, 0.41698391312444194)",1.7611043456039805,0.330419921875,0.1028144097328186,0.0006499047805555165,0.00031666820542886856,1.3906661821058658e-07,7.37760189134633e-05,3.6031405052348675e-08,"(190, 417)",detected
2011-09-28 18:24:00,1,18,61,12088.8,0.5821892746620759,"(29.747155153412972, 0.6515376570445444)",1.9908068766197817,0.39874828532235945,0.14566090268016582,0.00014112758947696817,7.325284574794434e-05,7.299552187707373e-09,2.466656181004429e-05,-1.4798715537726863e-09,"(190, 417)",detected
2011-09-28 18:36:00,1,14,62,12573.8,0.5504189287568692,"(19.44241042615404, 0.41473243098881785)",1.37955060707034,0.32926384839650147,0.09954653912272952,0.0013257785428962335,0.0002893045334290414,1.1175087659203317e-07,2.35359331160162e-05,-1.400502858125903e-07,"(190, 417)",detected
2011-09-28 18:48:00,1,15,57,11008.9,0.5821892746620759,"(21.245023300954315, 0.42164336571234884)",1.6232828269944999,0.26962962962962966,0.06715115281207133,5.612389851142018e-05,1.0702186455321426e-05,1.2975960199072518e-10,2.105821494793005e-07,-2.2794471113707213e-10,"(190, 417)",detected
2011-09-28 19:00:00,1,15,36,2160.7,0.5198457992902281,"(0.17272496127129955, 23.522513133966797)",1.6414213562373094,0.4914567901234568,0.23453864715744552,0.00373522541082072,0.0009062889185290437,1.1177388724245796e-06,0.00010197785041255887,1.2373847103595916e-06,"(190, 417)",detected
2011-09-28 19:12:00,1,15,32,1814.1,0.5574221429807698,"(0.13124331352826957, 23.22113763885268)",1.682842712474619,0.48434567901234565,0.2293466581313824,6.665616263701154e-05,1.0807187492111317e-05,7.633345562466906e-11,3.3017121386954275e-07,2.7983660677419365e-10,"(190, 417)",detected
2011-09-28 19:24:00,1,14,67,12504.8,0.5821892746620759,"(22.11597438173508, 0.2576519918913007)",1.2612038749637413,0.2967930029154519,0.08407525775824694,0.00023556894182963456,2.5389266937151464e-05,-1.910016102052495e-09,-7.357827900762808e-06,4.552255067109063e-10,"(190, 417)",detected
2011-09-28 19:36:00,2,31,105,16335.8,0.6765628573076934,"(516.4447119751894, 9.544535336638688)",3.9981008224823964,2.4922088302350476,5.772552074338164,0.8137693734527868,0.7637550612623561,0.6019677619916951,1.73802639541543,-0.013463035376240634,"(190, 417)",detected
2011-09-28 19:48:00,1,14,50,6822.5,0.46755794218857955,"(17.411131580896622, 0.7756816059165654)",1.8525020601817432,0.17232403165347773,0.02484549119735443,0.000773943666288961,0.00012710532531779562,9.954517150446667e-09,1.3816677965548569e-06,3.860295607047979e-08,"(190, 417)",detected
2011-09-28 20:00:00,1,16,57,5681.9,0.5337057144505503,"(12.55484234351461, 1.736824323152058)",1.6401650429449552,0.083740234375,0.0040178894996643075,0.00016018345439806575,2.532463753595948e-05,6.738841954316759e-10,6.596597489760827e-07,1.46544228804471e-09,"(190, 417)",detected
2011-09-28 20:12:00,0,nan,nan,nan,nan,"(nan, nan)",nan,nan,nan,nan,nan,nan,nan,nan,"(190, 417)",no pil E/W
2011-09-28 20:24:00,2,29,121,16901.2,0.44598972784105195,"(1147.4315998248267, 13.602882933793794)",5.999405381286099,4.2852857177473,17.465282219303234,22.472303242918034,22.555409654638797,507.8083261310568,94.26018198428962,-0.25504601003405014,"(190, 417)",detected
2011-09-28 20:36:00,2,30,106,16237.7,0.6701768129578718,"(532.7468937045289, 5.31402583570091)",3.983045934288282,2.812690500685871,7.644558750927931,1.5386127982287494,1.966419276341253,3.419803294336549,5.407516747884766,-0.06470714381865239,"(190, 417)",detected
2011-09-28 20:48:00,0,nan,nan,nan,nan,"(nan, nan)",nan,nan,nan,nan,nan,nan,nan,nan,"(190, 417)",no pil E/W
2011-09-28 21:00:00,2,28,112,17139.1,0.650533452422167,"(532.4778057045239, 4.5856863589681005)",4.255294009933601,2.699149947383857,7.083634377904014,3.1567316027852534,3.6722208754135863,12.502403535734006,9.756772270116892,-0.11543064116982649,"(190, 417)",detected
2011-09-28 21:12:00,1,24,61,5163.0,0.6668528572252754,"(44.69369579160897, 1.5363766721591428)",1.8205161731427133,0.263713210978836,0.06060710548269952,0.002916494384957269,0.00037711148315669864,-1.6269460939469229e-07,-6.24608943312906e-05,-3.6047550377127533e-07,"(190, 417)",detected
2011-09-28 21:24:00,2,30,108,14347.2,0.7046065414584137,"(584.8112598432419, 6.988740156758034)",4.3475468957064285,3.440001335670757,11.32256670565771,0.567462064246552,0.881685204835215,0.620193555143103,2.8743664493053025,-0.06553908524446392,"(190, 417)",detected
2011-09-28 21:36:00,2,45,142,19601.1,0.5936332631181807,"(442.2717466536123, 13.999970518105105)",2.963587460305272,1.6900429701183943,2.5097929385542517,0.7711728439839445,0.9126783655688795,0.7649336719778297,1.4288199104133708,0.03400536854830333,"(190, 417)",detected
2011-09-28 21:48:00,3,62,206,22359.6,0.6779405819712151,"(767.7226832870423, 14.254313011212702)",3.0414281047568354,2.0299932673756267,3.8304701832260966,0.8843187874274214,0.7912431219027246,0.661860287160845,1.4255882793071895,-0.0024699926345329026,"(190, 417)",detected
2011-09-28 22:00:00,2,46,146,17725.4,0.7121218101965224,"(518.4395868921798, 7.178770595742467)",3.034738690140145,1.5681633932450254,2.3255278697402137,1.8782340299935485,2.102539081353703,4.178196505890927,3.2047136056884353,0.013013491219036943,"(190, 417)",detected
2011-09-28 22:12:00,2,46,131,15681.4,0.5741912972075336,"(410.6082169657394, 16.20241105358417)",2.785191196230825,1.37139042597182,1.5996776808530337,0.463106894438743,0.5270206342439988,0.2601344028577368,0.6503968337014256,0.010947772365374253,"(190, 417)",detected
2011-09-28 22:24:00,2,60,186,19884.8,0.8226654346602317,"(856.3278706407492, 25.546423144560976)",3.04350288425444,1.6426442315905152,2.0344209126086885,16.704840329618882,17.321552004623303,294.6188576241515,24.095231073701378,4.039929136895047,"(190, 417)",detected
2011-09-28 22:36:00,2,54,186,21354.0,0.8150671413362112,"(933.1261340650012, 19.518869429058867)",3.3554807313498762,1.2883061202456605,1.4292820233454129,7.285789767062182,7.6674460587494995,57.306034872552026,9.103408669025507,0.460998686695989,"(190, 417)",detected
2011-09-28 22:48:00,3,57,157,18752.4,0.8251704808275323,"(701.3512444300641, 47.29035957996055)",3.0445457060245777,2.486315685496929,4.919131245221923,12.676219510227952,15.084403287408307,208.25600694237647,33.19593248513888,-11.744789882101102,"(190, 417)",detected
2011-09-28 23:00:00,3,67,208,23933.2,0.696550826623535,"(653.1326888891866, 60.78906597286711)",2.667944905656677,1.037713772475247,0.5265881925854492,2.743661047351634,3.3783834644952693,10.285205093419593,2.4400753812925444,-0.08741965133518115,"(190, 417)",detected
2011-09-28 23:12:00,2,31,108,15701.1,0.7270497925682423,"(12.22249928743716, 171.95814587385317)",2.6068123607110674,0.739894815623105,0.3458501700707347,0.6138197692848831,0.6223815186108272,0.38467841357237775,0.35919294843139415,-0.002283471846556001,"(190, 417)",detected
2011-09-28 23:24:00,3,53,146,16780.2,0.8359302707204344,"(646.0362013238928, 44.119821898168226)",3.1233793442151128,2.811297051635193,6.047520042970691,32.000868597555936,38.583732877256466,1352.0713615335555,93.91094057443148,-100.12847263674928,"(190, 417)",detected
2011-09-28 23:36:00,2,33,109,11337.9,0.6670536362793887,"(391.8475048841914, 20.28696481277841)",3.377449821900476,7.8753888165509265,50.30733414057678,102.61093857587211,114.19029346754695,12359.72235126188,806.9010941040254,-149.80789934971926,"(190, 417)",detected
2011-09-28 23:48:00,2,36,105,14667.4,0.545252653255566,"(23.306594952477752, 145.64499234910954)",2.590412055442751,0.6722857342749695,0.11213560831524136,0.553460453047451,0.29043080898616036,0.1164337068088312,0.09719323475896736,-0.0013362841633736064,"(190, 417)",detected
2011-09-29 00:00:00,3,48,160,20637.9,0.8339850002884629,"(478.54102975736885, 62.4319312355389)",3.2016925180652476,1.7871682501825563,1.4952127007311833,9.195171624329765,12.697011370171426,135.37434847861593,15.21154709141068,-22.264881004138303,"(190, 417)",detected
2011-09-29 00:12:00,2,35,116,15211.9,0.5617650885077716,"(22.307696375025685, 159.2301187510247)",2.676258501666061,0.6360737548286348,0.10951705690199483,0.5106246574040257,0.31168508131826167,0.12434325193061761,0.10313217006594462,-0.00043790506660219136,"(190, 417)",detected
2011-09-29 00:24:00,1,15,41,5593.1,0.421568214347528,"(1.1635812823521245, 18.474513955743113)",1.7128258770283409,0.4073086419753086,0.1289108465172992,0.019333412728878674,0.002205146635746961,-1.3156483974462565e-05,-0.0007827511829739142,-5.8495521356090035e-06,"(190, 417)",detected
2011-09-29 00:36:00,0,nan,nan,nan,nan,"(nan, nan)",nan,nan,nan,nan,nan,nan,nan,nan,"(190, 417)",no pil E/W
2011-09-29 00:48:00,1,19,61,6122.0,0.36062106031454827,"(34.44556698663993, 1.0164213174536352)",1.8604864423640788,0.25259825463936847,0.056700264100719475,0.0026102729422306185,0.0003934911554169789,-3.7167403858656473e-08,-4.0081437221846955e-05,3.9705528660567523e-07,"(190, 417)",detected
2011-09-29 01:00:00,1,22,77,9217.7,0.44001062264556623,"(44.935713125508876, 0.9603907705950157)",2.02851895445316,0.24891998497370402,0.05688345352629686,0.0009479126711733152,0.00017985471994358727,2.614124001259725e-08,-6.408542881320895e-06,6.950890147990097e-08,"(190, 417)",detected
2011-09-29 01:12:00,2,31,99,14550.4,0.7324859456020321,"(12.103890978156016, 155.44234558098375)",2.615589068409201,0.7654903056162892,0.39374772631467103,0.26580376837999775,0.19505877967093654,0.04439297541530893,0.11880511252800882,-0.001395807918684877,"(190, 417)",detected
2011-09-29 01:24:00,0,nan,nan,nan,nan,"(nan, nan)",nan,nan,nan,nan,nan,nan,nan,nan,"(190, 417)",no pil E/W
2011-09-29 01:36:00,1,16,61,8094.0,0.4174182992696235,"(20.670691852552775, 0.7918081474472229)",1.8687184335382292,0.2095947265625,0.037686349617110364,0.0005149390223474863,6.23448461367473e-05,-7.664888388467744e-09,-1.0928765011680104e-05,8.126073844814948e-09,"(190, 417)",detected
2011-09-29 01:48:00,1,15,56,7139.2,0.37142857142857166,"(18.81703948495597, 0.7067700388535519)",1.9542472332656506,0.17354497354497353,0.02591461605218219,2.602310173095077e-05,5.537850735913933e-06,2.3184409924806604e-11,-2.742955104765904e-07,6.230635142536324e-11,"(190, 417)",detected
2011-09-29 02:00:00,0,nan,nan,nan,nan,"(nan, nan)",nan,nan,nan,nan,nan,nan,nan,nan,"(190, 417)",no pil E/W
2011-09-29 02:12:00,0,nan,nan,nan,nan,"(nan, nan)",nan,nan,nan,nan,nan,nan,nan,nan,"(190, 417)",no pil E/W
2011-09-29 02:24:00,0,nan,nan,nan,nan,"(nan, nan)",nan,nan,nan,nan,nan,nan,nan,nan,"(190, 417)",no pil E/W
2011-09-29 02:36:00,0,nan,nan,nan,nan,"(nan, nan)",nan,nan,nan,nan,nan,nan,nan,nan,"(190, 417)",no pil E/W
2011-09-29 02:48:00,0,nan,nan,nan,nan,"(nan, nan)",nan,nan,nan,nan,nan,nan,nan,nan,"(190, 417)",no pil E/W
2011-09-29 03:00:00,0,nan,nan,nan,nan,"(nan, nan)",nan,nan,nan,nan,nan,nan,nan,nan,"(190, 417)",no pil E/W
2011-09-29 03:12:00,1,14,22,758.1,0.445989727841052,"(2.5836086421350366, 11.048259489733095)",1.6948515758112754,0.15069241982507287,0.008755685609312447,0.001479129445190198,0.00024087077592914262,-1.28251983499116e-07,-1.9942920467315026e-05,6.497913048769145e-08,"(190, 417)",detected
2011-09-29 03:24:00,0,nan,nan,nan,nan,"(nan, nan)",nan,nan,nan,nan,nan,nan,nan,nan,"(190, 417)",no pil E/W
2011-09-29 03:36:00,0,nan,nan,nan,nan,"(nan, nan)",nan,nan,nan,nan,nan,nan,nan,nan,"(190, 417)",no pil E/W
2011-09-29 03:48:00,0,nan,nan,nan,nan,"(nan, nan)",nan,nan,nan,nan,nan,nan,nan,nan,"(190, 417)",no pil E/W
2011-09-29 04:00:00,0,nan,nan,nan,nan,"(nan, nan)",nan,nan,nan,nan,nan,nan,nan,nan,"(190, 417)",no pil E/W
2011-09-29 04:12:00,0,nan,nan,nan,nan,"(nan, nan)",nan,nan,nan,nan,nan,nan,nan,nan,"(190, 417)",no pil E/W
2011-09-29 04:24:00,0,nan,nan,nan,nan,"(nan, nan)",nan,nan,nan,nan,nan,nan,nan,nan,"(190, 417)",no pil E/W
2011-09-29 04:36:00,0,nan,nan,nan,nan,"(nan, nan)",nan,nan,nan,nan,nan,nan,nan,nan,"(190, 417)",no pil E/W
2011-09-29 04:48:00,1,14,34,2686.9,0.46755794218857955,"(26.045254337469085, 0.3723280801133342)",1.2193619865618197,1.7521865889212824,2.8995146580081435,0.2233508054187015,0.04518750021528367,0.002110972905269982,0.012587247854551621,0.004018968508770067,"(190, 417)",detected
2011-09-29 05:00:00,0,nan,nan,nan,nan,"(nan, nan)",nan,nan,nan,nan,nan,nan,nan,nan,"(190, 417)",no pil E/W
2011-09-29 05:12:00,0,nan,nan,nan,nan,"(nan, nan)",nan,nan,nan,nan,nan,nan,nan,nan,"(190, 417)",no pil E/W
2011-09-29 05:24:00,0,nan,nan,nan,nan,"(nan, nan)",nan,nan,nan,nan,nan,nan,nan,nan,"(190, 417)",no pil E/W
2011-09-29 05:36:00,0,nan,nan,nan,nan,"(nan, nan)",nan,nan,nan,nan,nan,nan,nan,nan,"(190, 417)",no pil E/W
2011-09-29 05:48:00,1,14,36,2744.8,0.4174182992696234,"(20.723165437840713, 0.8592521445768702)",1.9831039976636138,1.4314868804664724,1.7358179840032624,0.572419605823594,0.08077765669126186,-0.00592653536118346,-0.0648640784176027,0.016327436080181612,"(190, 417)",detected
2011-09-29 07:36:00,0,nan,nan,nan,nan,"(nan, nan)",nan,nan,nan,nan,nan,nan,nan,nan,"(190, 417)",no pil E/W
2011-09-29 07:48:00,0,nan,nan,nan,nan,"(nan, nan)",nan,nan,nan,nan,nan,nan,nan,nan,"(190, 417)",no pil E/W
2011-09-29 08:00:00,0,nan,nan,nan,nan,"(nan, nan)",nan,nan,nan,nan,nan,nan,nan,nan,"(190, 417)",no pil E/W
2011-09-29 08:12:00,1,14,46,3772.5,0.23898651361715112,"(14.708142586028845, 2.4676815897953306)",1.867295401695068,0.2278425655976676,0.026365141225169794,0.006622294668727002,0.0020667809571521933,6.168303813903329e-06,0.0002417792982421034,4.518459508883817e-06,"(190, 417)",detected
2011-09-29 08:24:00,0,nan,nan,nan,nan,"(nan, nan)",nan,nan,nan,nan,nan,nan,nan,nan,"(190, 417)",no pil E/W
2011-09-29 08:36:00,0,nan,nan,nan,nan,"(nan, nan)",nan,nan,nan,nan,nan,nan,nan,nan,"(190, 417)",no pil E/W
2011-09-29 08:48:00,0,nan,nan,nan,nan,"(nan, nan)",nan,nan,nan,nan,nan,nan,nan,nan,"(190, 417)",no pil E/W
2011-09-29 09:00:00,0,nan,nan,nan,nan,"(nan, nan)",nan,nan,nan,nan,nan,nan,nan,nan,"(190, 417)",no pil E/W
2011-09-29 09:24:00,0,nan,nan,nan,nan,"(nan, nan)",nan,nan,nan,nan,nan,nan,nan,nan,"(190, 417)",no pil E/W
2011-09-29 09:36:00,0,nan,nan,nan,nan,"(nan, nan)",nan,nan,nan,nan,nan,nan,nan,nan,"(190, 417)",no pil E/W
2011-09-29 09:48:00,0,nan,nan,nan,nan,"(nan, nan)",nan,nan,nan,nan,nan,nan,nan,nan,"(190, 417)",no pil E/W
2011-09-29 10:00:00,0,nan,nan,nan,nan,"(nan, nan)",nan,nan,nan,nan,nan,nan,nan,nan,"(190, 417)",no pil E/W
2011-09-29 10:12:00,0,nan,nan,nan,nan,"(nan, nan)",nan,nan,nan,nan,nan,nan,nan,nan,"(190, 417)",no pil E/W
2011-09-29 10:24:00,0,nan,nan,nan,nan,"(nan, nan)",nan,nan,nan,nan,nan,nan,nan,nan,"(190, 417)",no pil E/W
2011-09-29 10:36:00,0,nan,nan,nan,nan,"(nan, nan)",nan,nan,nan,nan,nan,nan,nan,nan,"(190, 417)",no pil E/W
2011-09-29 10:48:00,0,nan,nan,nan,nan,"(nan, nan)",nan,nan,nan,nan,nan,nan,nan,nan,"(190, 417)",no pil E/W
2011-09-29 11:00:00,0,nan,nan,nan,nan,"(nan, nan)",nan,nan,nan,nan,nan,nan,nan,nan,"(190, 417)",no pil E/W
2011-09-29 11:12:00,0,nan,nan,nan,nan,"(nan, nan)",nan,nan,nan,nan,nan,nan,nan,nan,"(190, 417)",no pil E/W
2011-09-29 11:24:00,0,nan,nan,nan,nan,"(nan, nan)",nan,nan,nan,nan,nan,nan,nan,nan,"(190, 417)",no pil E/W
2011-09-29 11:36:00,0,nan,nan,nan,nan,"(nan, nan)",nan,nan,nan,nan,nan,nan,nan,nan,"(190, 417)",no pil E/W
2011-09-29 11:48:00,0,nan,nan,nan,nan,"(nan, nan)",nan,nan,nan,nan,nan,nan,nan,nan,"(190, 417)",no pil E/W
2011-09-29 12:00:00,0,nan,nan,nan,nan,"(nan, nan)",nan,nan,nan,nan,nan,nan,nan,nan,"(190, 417)",no pil E/W
2011-09-29 12:12:00,0,nan,nan,nan,nan,"(nan, nan)",nan,nan,nan,nan,nan,nan,nan,nan,"(190, 417)",no pil E/W
2011-09-29 12:24:00,0,nan,nan,nan,nan,"(nan, nan)",nan,nan,nan,nan,nan,nan,nan,nan,"(190, 417)",no pil E/W
2011-09-29 12:36:00,0,nan,nan,nan,nan,"(nan, nan)",nan,nan,nan,nan,nan,nan,nan,nan,"(190, 417)",no pil E/W
2011-09-29 12:48:00,0,nan,nan,nan,nan,"(nan, nan)",nan,nan,nan,nan,nan,nan,nan,nan,"(190, 417)",no pil E/W
2011-09-29 13:00:00,0,nan,nan,nan,nan,"(nan, nan)",nan,nan,nan,nan,nan,nan,nan,nan,"(190, 417)",no pil E/W
2011-09-29 13:12:00,0,nan,nan,nan,nan,"(nan, nan)",nan,nan,nan,nan,nan,nan,nan,nan,"(190, 417)",no pil E/W
2011-09-29 13:24:00,0,nan,nan,nan,nan,"(nan, nan)",nan,nan,nan,nan,nan,nan,nan,nan,"(190, 417)",no pil E/W
2011-09-29 13:36:00,0,nan,nan,nan,nan,"(nan, nan)",nan,nan,nan,nan,nan,nan,nan,nan,"(190, 417)",no pil E/W
2011-09-29 13:48:00,0,nan,nan,nan,nan,"(nan, nan)",nan,nan,nan,nan,nan,nan,nan,nan,"(190, 417)",no pil E/W
2011-09-29 14:00:00,0,nan,nan,nan,nan,"(nan, nan)",nan,nan,nan,nan,nan,nan,nan,nan,"(190, 417)",no pil E/W
2011-09-29 14:12:00,0,nan,nan,nan,nan,"(nan, nan)",nan,nan,nan,nan,nan,nan,nan,nan,"(190, 417)",no pil E/W
2011-09-29 14:24:00,0,nan,nan,nan,nan,"(nan, nan)",nan,nan,nan,nan,nan,nan,nan,nan,"(190, 417)",no pil E/W
2011-09-29 14:36:00,0,nan,nan,nan,nan,"(nan, nan)",nan,nan,nan,nan,nan,nan,nan,nan,"(190, 417)",no pil E/W
2011-09-29 14:48:00,0,nan,nan,nan,nan,"(nan, nan)",nan,nan,nan,nan,nan,nan,nan,nan,"(190, 417)",no pil E/W
2011-09-29 15:00:00,0,nan,nan,nan,nan,"(nan, nan)",nan,nan,nan,nan,nan,nan,nan,nan,"(190, 417)",no pil E/W
2011-09-29 15:12:00,0,nan,nan,nan,nan,"(nan, nan)",nan,nan,nan,nan,nan,nan,nan,nan,"(190, 417)",no pil E/W
2011-09-29 15:24:00,0,nan,nan,nan,nan,"(nan, nan)",nan,nan,nan,nan,nan,nan,nan,nan,"(190, 417)",no pil E/W
2011-09-29 15:36:00,0,nan,nan,nan,nan,"(nan, nan)",nan,nan,nan,nan,nan,nan,nan,nan,"(190, 417)",no pil E/W
2011-09-29 15:48:00,0,nan,nan,nan,nan,"(nan, nan)",nan,nan,nan,nan,nan,nan,nan,nan,"(190, 417)",no pil E/W
2011-09-29 16:00:00,0,nan,nan,nan,nan,"(nan, nan)",nan,nan,nan,nan,nan,nan,nan,nan,"(190, 417)",no pil E/W
2011-09-29 16:12:00,0,nan,nan,nan,nan,"(nan, nan)",nan,nan,nan,nan,nan,nan,nan,nan,"(190, 417)",no pil E/W
2011-09-29 16:24:00,0,nan,nan,nan,nan,"(nan, nan)",nan,nan,nan,nan,nan,nan,nan,nan,"(190, 417)",no pil E/W
2011-09-29 16:36:00,1,17,36,2156.0,0.41942000016483577,"(21.50676471560761, 1.4932352843923944)",1.7264260238186764,0.4244521337946943,0.1364109202546454,0.022467822979645644,0.0022425423495285994,-1.4001239113627594e-05,-0.0007756791344236759,7.5730773300262336e-06,"(190, 417)",detected
2011-09-29 16:48:00,0,nan,nan,nan,nan,"(nan, nan)",nan,nan,nan,nan,nan,nan,nan,nan,"(190, 417)",no pil E/W
2011-09-29 17:00:00,0,nan,nan,nan,nan,"(nan, nan)",nan,nan,nan,nan,nan,nan,nan,nan,"(190, 417)",no pil E/W
2011-09-29 17:24:00,0,nan,nan,nan,nan,"(nan, nan)",nan,nan,nan,nan,nan,nan,nan,nan,"(190, 417)",no pil E/W
2011-09-29 17:36:00,1,16,45,3054.7,0.35644455111397216,"(17.397710304445614, 3.327289695554384)",1.8816626073623883,0.40478515625,0.0755221313900418,0.03853170589233438,0.005336910641441743,-2.5821698602495598e-05,-0.000599428634435147,-7.204451814460696e-05,"(190, 417)",detected
2011-09-29 17:48:00,1,16,47,3846.5,0.29127437071879936,"(19.461561501981762, 2.0551051646849006)",1.7307742597140696,0.315185546875,0.06501346826553345,0.01264451426686719,0.001786332402843982,-2.2225653076292025e-06,-0.00014994690356218143,-8.193651306431186e-06,"(190, 417)",detected
2011-09-29 18:00:00,0,nan,nan,nan,nan,"(nan, nan)",nan,nan,nan,nan,nan,nan,nan,nan,"(190, 417)",no pil E/W
2011-09-29 18:12:00,0,nan,nan,nan,nan,"(nan, nan)",nan,nan,nan,nan,nan,nan,nan,nan,"(190, 417)",no pil E/W
2011-09-29 18:24:00,0,nan,nan,nan,nan,"(nan, nan)",nan,nan,nan,nan,nan,nan,nan,nan,"(190, 417)",no pil E/W
2011-09-29 18:36:00,1,14,29,1784.7,0.35644455111397216,"(16.815318428380955, 1.2341321210695957)",1.6749819620218453,0.19952623906705538,0.029666963837110576,0.002316157090213751,0.0002996621358121102,-1.3691067585976109e-07,-2.894661283609715e-05,-2.0875981072228897e-07,"(190, 417)",detected
2011-09-29 18:48:00,1,15,46,3033.1,0.49612937076000824,"(18.563918785659453, 0.9979859762453043)",1.712825877028341,0.20286419753086418,0.033184170705685107,0.0020948171922904146,0.0002423786656430373,-1.6957935183983099e-07,-4.41528070723957e-05,3.272916480367917e-08,"(190, 417)",detected
2011-09-29 19:00:00,0,nan,nan,nan,nan,"(nan, nan)",nan,nan,nan,nan,nan,nan,nan,nan,"(190, 417)",no pil E/W
2011-09-29 19:12:00,0,nan,nan,nan,nan,"(nan, nan)",nan,nan,nan,nan,nan,nan,nan,nan,"(190, 417)",no pil E/W
2011-09-29 19:24:00,0,nan,nan,nan,nan,"(nan, nan)",nan,nan,nan,nan,nan,nan,nan,nan,"(190, 417)",no pil E/W
2011-09-29 19:36:00,0,nan,nan,nan,nan,"(nan, nan)",nan,nan,nan,nan,nan,nan,nan,nan,"(190, 417)",no pil E/W
2011-09-29 19:48:00,0,nan,nan,nan,nan,"(nan, nan)",nan,nan,nan,nan,nan,nan,nan,nan,"(190, 417)",no pil E/W
2011-09-29 20:00:00,0,nan,nan,nan,nan,"(nan, nan)",nan,nan,nan,nan,nan,nan,nan,nan,"(190, 417)",no pil E/W
2011-09-29 20:12:00,0,nan,nan,nan,nan,"(nan, nan)",nan,nan,nan,nan,nan,nan,nan,nan,"(190, 417)",no pil E/W
2011-09-29 20:24:00,0,nan,nan,nan,nan,"(nan, nan)",nan,nan,nan,nan,nan,nan,nan,nan,"(190, 417)",no pil E/W
2011-09-29 20:36:00,0,nan,nan,nan,nan,"(nan, nan)",nan,nan,nan,nan,nan,nan,nan,nan,"(190, 417)",no pil E/W
2011-09-29 20:48:00,0,nan,nan,nan,nan,"(nan, nan)",nan,nan,nan,nan,nan,nan,nan,nan,"(190, 417)",no pil E/W
2011-09-29 21:00:00,0,nan,nan,nan,nan,"(nan, nan)",nan,nan,nan,nan,nan,nan,nan,nan,"(190, 417)",no pil E/W
2011-09-29 21:12:00,1,14,31,1635.8,0.19299678577609924,"(16.0203754544655, 0.64995421586417)",1.8326324463923132,1.105685131195335,1.039312382595687,0.23571549936044267,0.030118289673585225,-0.0021110138841428762,-0.02533547488449342,-0.0014083747408701376,"(190, 417)",detected
2011-09-29 21:24:00,0,nan,nan,nan,nan,"(nan, nan)",nan,nan,nan,nan,nan,nan,nan,nan,"(190, 417)",no pil E/W
2011-09-29 21:36:00,1,15,45,3500.0,0.19299678577609924,"(20.894024612342672, 0.13454681622875286)",1.535702260395516,1.3084444444444445,1.6684910617283952,0.0027753054814817616,0.00029579272427987237,-2.0604092038763358e-07,-0.0002751431495052864,1.7138187076040246e-07,"(190, 417)",detected
2011-09-29 21:48:00,0,nan,nan,nan,nan,"(nan, nan)",nan,nan,nan,nan,nan,nan,nan,nan,"(190, 417)",no pil E/W
2011-09-29 22:00:00,0,nan,nan,nan,nan,"(nan, nan)",nan,nan,nan,nan,nan,nan,nan,nan,"(190, 417)",no pil E/W
2011-09-29 22:12:00,1,15,43,4546.1,0.17843178565247236,"(1.2601596774768673, 17.244602227285036)",1.7956685895029603,0.23028148148148153,0.03956817470507545,0.004058288387498585,0.0006223101736409766,1.793431921089298e-07,-1.1305919916165164e-05,-9.72569670546966e-07,"(190, 417)",detected
2011-09-29 22:24:00,0,nan,nan,nan,nan,"(nan, nan)",nan,nan,nan,nan,nan,nan,nan,nan,"(190, 417)",no pil E/W
2011-09-29 22:36:00,0,nan,nan,nan,nan,"(nan, nan)",nan,nan,nan,nan,nan,nan,nan,nan,"(190, 417)",no pil E/W
2011-09-29 22:48:00,1,19,53,3747.5,0.2060256223571036,"(29.77307190973904, 1.4374544060504313)",1.9187286380376694,0.3890508820527774,0.12476017826087688,0.00996175680396652,0.0019386355118647639,4.734977336405142e-06,0.00017370549919987067,-7.0824598013193345e-06,"(190, 417)",detected
2011-09-29 23:00:00,1,14,45,3518.8,0.23898651361715112,"(14.758033732570368, 1.4068014322648006)",1.867295401695068,0.2680393586005831,0.049011419827197866,0.00775464245229193,0.0009111041031365846,-2.4041097364959316e-06,-0.0002013087981333733,2.919353533234676e-07,"(190, 417)",detected
2011-09-29 23:12:00,1,14,52,5943.7,0.19299678577609924,"(16.438877520705827, 1.055627973799667)",1.8525020601817432,0.2900874635568513,0.06506549673180394,0.007736629424980933,0.0009253240022090972,-2.060692662257849e-06,-0.00021580744294922826,1.3722834576888493e-06,"(190, 417)",detected
2011-09-29 23:24:00,0,nan,nan,nan,nan,"(nan, nan)",nan,nan,nan,nan,nan,nan,nan,nan,"(190, 417)",no pil E/W
2011-09-29 23:36:00,0,nan,nan,nan,nan,"(nan, nan)",nan,nan,nan,nan,nan,nan,nan,nan,"(190, 417)",no pil E/W
2011-09-29 23:48:00,0,nan,nan,nan,nan,"(nan, nan)",nan,nan,nan,nan,nan,nan,nan,nan,"(190, 417)",no pil E/W
2011-09-30 00:00:00,0,nan,nan,nan,nan,"(nan, nan)",nan,nan,nan,nan,nan,nan,nan,nan,"(190, 417)",no pil E/W
2011-09-30 00:12:00,0,nan,nan,nan,nan,"(nan, nan)",nan,nan,nan,nan,nan,nan,nan,nan,"(190, 417)",no pil E/W
2011-09-30 00:24:00,0,nan,nan,nan,nan,"(nan, nan)",nan,nan,nan,nan,nan,nan,nan,nan,"(190, 417)",no pil E/W
2011-09-30 00:36:00,0,nan,nan,nan,nan,"(nan, nan)",nan,nan,nan,nan,nan,nan,nan,nan,"(190, 417)",no pil E/W
2011-09-30 00:48:00,0,nan,nan,nan,nan,"(nan, nan)",nan,nan,nan,nan,nan,nan,nan,nan,"(190, 417)",no pil E/W
2011-09-30 01:00:00,0,nan,nan,nan,nan,"(nan, nan)",nan,nan,nan,nan,nan,nan,nan,nan,"(190, 417)",no pil E/W
2011-09-30 01:12:00,0,nan,nan,nan,nan,"(nan, nan)",nan,nan,nan,nan,nan,nan,nan,nan,"(190, 417)",no pil E/W
2011-09-30 01:24:00,0,nan,nan,nan,nan,"(nan, nan)",nan,nan,nan,nan,nan,nan,nan,nan,"(190, 417)",no pil E/W
2011-09-30 01:36:00,0,nan,nan,nan,nan,"(nan, nan)",nan,nan,nan,nan,nan,nan,nan,nan,"(190, 417)",no pil E/W
2011-09-30 01:48:00,0,nan,nan,nan,nan,"(nan, nan)",nan,nan,nan,nan,nan,nan,nan,nan,"(190, 417)",no pil E/W
2011-09-30 02:00:00,0,nan,nan,nan,nan,"(nan, nan)",nan,nan,nan,nan,nan,nan,nan,nan,"(190, 417)",no pil E/W
2011-09-30 02:12:00,0,nan,nan,nan,nan,"(nan, nan)",nan,nan,nan,nan,nan,nan,nan,nan,"(190, 417)",no pil E/W
2011-09-30 02:24:00,0,nan,nan,nan,nan,"(nan, nan)",nan,nan,nan,nan,nan,nan,nan,nan,"(190, 417)",no pil E/W
2011-09-30 02:36:00,0,nan,nan,nan,nan,"(nan, nan)",nan,nan,nan,nan,nan,nan,nan,nan,"(190, 417)",no pil E/W
2011-09-30 02:48:00,0,nan,nan,nan,nan,"(nan, nan)",nan,nan,nan,nan,nan,nan,nan,nan,"(190, 417)",no pil E/W
2011-09-30 03:00:00,0,nan,nan,nan,nan,"(nan, nan)",nan,nan,nan,nan,nan,nan,nan,nan,"(190, 417)",no pil E/W
2011-09-30 03:12:00,0,nan,nan,nan,nan,"(nan, nan)",nan,nan,nan,nan,nan,nan,nan,nan,"(190, 417)",no pil E/W
2011-09-30 03:24:00,0,nan,nan,nan,nan,"(nan, nan)",nan,nan,nan,nan,nan,nan,nan,nan,"(190, 417)",no pil E/W
2011-09-30 03:36:00,0,nan,nan,nan,nan,"(nan, nan)",nan,nan,nan,nan,nan,nan,nan,nan,"(190, 417)",no pil E/W
2011-09-30 03:48:00,0,nan,nan,nan,nan,"(nan, nan)",nan,nan,nan,nan,nan,nan,nan,nan,"(190, 417)",no pil E/W
2011-09-30 04:00:00,0,nan,nan,nan,nan,"(nan, nan)",nan,nan,nan,nan,nan,nan,nan,nan,"(190, 417)",no pil E/W
2011-09-30 04:12:00,0,nan,nan,nan,nan,"(nan, nan)",nan,nan,nan,nan,nan,nan,nan,nan,"(190, 417)",no pil E/W
2011-09-30 04:24:00,0,nan,nan,nan,nan,"(nan, nan)",nan,nan,nan,nan,nan,nan,nan,nan,"(190, 417)",no pil E/W
2011-09-30 04:36:00,0,nan,nan,nan,nan,"(nan, nan)",nan,nan,nan,nan,nan,nan,nan,nan,"(190, 417)",no pil E/W
2011-09-30 04:48:00,0,nan,nan,nan,nan,"(nan, nan)",nan,nan,nan,nan,nan,nan,nan,nan,"(190, 417)",no pil E/W
2011-09-30 05:00:00,1,19,42,2473.8,0.5692803572458797,"(32.389708820583294, 0.09567129637576577)",1.6842105263157894,1.6197696457209505,2.592837489853788,0.00436796508110227,0.0005585236909881453,-4.3438946339929443e-07,-0.0006164648250487703,-7.56531302844516e-07,"(190, 417)",detected
2011-09-30 05:12:00,1,19,37,2761.2,0.49612937076000824,"(31.838995307199056, 0.07328539455532845)",1.3157894736842106,1.5911940516110221,2.5086942680486732,0.018057499681909388,0.002094583105126448,-1.048638057161205e-05,-0.002979167503006071,-7.481681776096089e-06,"(190, 417)",detected
2011-09-30 05:24:00,1,17,43,4478.4,0.49612937076000824,"(25.603909524191284, 0.08726694639695162)",1.3529411764705883,1.4223488703439855,1.9956820009504685,0.03923349888230557,0.004598147804879524,-4.765398415090763e-05,-0.0057911209732515855,-3.928509295189493e-05,"(190, 417)",detected
2011-09-30 05:36:00,1,18,51,4694.0,0.49612937076000824,"(28.62861833343099, 0.08379996722260594)",1.3333333333333333,1.5065157750342937,2.2431710434460275,0.03632882526768206,0.004234046201929475,-4.171637839464291e-05,-0.00568576403718539,-3.189451922998348e-05,"(190, 417)",detected
2011-09-30 05:48:00,1,18,52,5200.9,0.5574221429807698,"(28.62861833343099, 0.08379996722260594)",1.3333333333333333,1.5065157750342937,2.2431710434460275,0.03632882526768206,0.004234046201929475,-4.171637839464291e-05,-0.00568576403718539,-3.189451922998348e-05,"(190, 417)",detected
2011-09-30 07:36:00,1,14,34,3357.2,0.5031325849839092,"(18.18175289214217, 0.3127526023633256)",1.6601886205085203,1.2266763848396502,1.404672479154094,0.11337186815790852,0.01682530046198865,-0.00016650819887795585,-0.010128293604838898,-0.0007157339277919525,"(190, 417)",detected
2011-09-30 07:48:00,1,16,37,3448.5,0.5407089286744512,"(23.802881485462894, 0.6637851812037765)",1.6401650429449552,1.43359375,1.8382110595703125,0.26918649673461914,0.03596925735473633,-0.0011749020120532805,-0.024347294121980667,-0.0033386558311576664,"(190, 417)",detected
2011-09-30 08:00:00,1,16,39,3426.6,0.5407089286744511,"(20.164724104094237, 0.6477758959057651)",1.5906092167691144,1.219482421875,1.3077550530433655,0.15604511863784865,0.01766178972320631,-0.0008609311191965261,-0.019823564669664506,0.00034425606457955804,"(190, 417)",detected
2011-09-30 08:12:00,1,15,44,3356.1,0.5407089286744511,"(20.878968987086598, 0.4734119652943578)",1.6690355937288492,1.3285925925925925,1.6120850260631003,0.2698135166289654,0.03785343444637446,-0.001096072093295171,-0.02440080214373981,-0.0036651306405404913,"(190, 417)",detected
2011-09-30 08:24:00,1,14,40,3168.6,0.37142857142857166,"(18.285221879491214, 0.13785504358570755)",1.3867295401695068,1.2219387755102042,1.4487778529779258,0.0,0.0,0.0,-0.0,0.0,"(190, 417)",detected
2011-09-30 08:36:00,0,nan,nan,nan,nan,"(nan, nan)",nan,nan,nan,nan,nan,nan,nan,nan,"(190, 417)",no pil E/W
2011-09-30 08:48:00,0,nan,nan,nan,nan,"(nan, nan)",nan,nan,nan,nan,nan,nan,nan,nan,"(190, 417)",no pil E/W
2011-09-30 09:00:00,0,nan,nan,nan,nan,"(nan, nan)",nan,nan,nan,nan,nan,nan,nan,nan,"(190, 417)",no pil E/W
2011-09-30 09:12:00,0,nan,nan,nan,nan,"(nan, nan)",nan,nan,nan,nan,nan,nan,nan,nan,"(190, 417)",no pil E/W
2011-09-30 09:24:00,0,nan,nan,nan,nan,"(nan, nan)",nan,nan,nan,nan,nan,nan,nan,nan,"(190, 417)",no pil E/W
2011-09-30 09:36:00,0,nan,nan,nan,nan,"(nan, nan)",nan,nan,nan,nan,nan,nan,nan,nan,"(190, 417)",no pil E/W
2011-09-30 09:48:00,0,nan,nan,nan,nan,"(nan, nan)",nan,nan,nan,nan,nan,nan,nan,nan,"(190, 417)",no pil E/W
2011-09-30 10:00:00,0,nan,nan,nan,nan,"(nan, nan)",nan,nan,nan,nan,nan,nan,nan,nan,"(190, 417)",no pil E/W
2011-09-30 10:12:00,0,nan,nan,nan,nan,"(nan, nan)",nan,nan,nan,nan,nan,nan,nan,nan,"(190, 417)",no pil E/W
2011-09-30 10:24:00,0,nan,nan,nan,nan,"(nan, nan)",nan,nan,nan,nan,nan,nan,nan,nan,"(190, 417)",no pil E/W
2011-09-30 10:36:00,0,nan,nan,nan,nan,"(nan, nan)",nan,nan,nan,nan,nan,nan,nan,nan,"(190, 417)",no pil E/W
2011-09-30 10:48:00,0,nan,nan,nan,nan,"(nan, nan)",nan,nan,nan,nan,nan,nan,nan,nan,"(190, 417)",no pil E/W
2011-09-30 11:00:00,0,nan,nan,nan,nan,"(nan, nan)",nan,nan,nan,nan,nan,nan,nan,nan,"(190, 417)",no pil E/W
2011-09-30 11:12:00,0,nan,nan,nan,nan,"(nan, nan)",nan,nan,nan,nan,nan,nan,nan,nan,"(190, 417)",no pil E/W
2011-09-30 11:24:00,0,nan,nan,nan,nan,"(nan, nan)",nan,nan,nan,nan,nan,nan,nan,nan,"(190, 417)",no pil E/W
2011-09-30 11:36:00,0,nan,nan,nan,nan,"(nan, nan)",nan,nan,nan,nan,nan,nan,nan,nan,"(190, 417)",no pil E/W
2011-09-30 11:48:00,0,nan,nan,nan,nan,"(nan, nan)",nan,nan,nan,nan,nan,nan,nan,nan,"(190, 417)",no pil E/W
2011-09-30 12:00:00,0,nan,nan,nan,nan,"(nan, nan)",nan,nan,nan,nan,nan,nan,nan,nan,"(190, 417)",no pil E/W
2011-09-30 12:12:00,0,nan,nan,nan,nan,"(nan, nan)",nan,nan,nan,nan,nan,nan,nan,nan,"(190, 417)",no pil E/W
2011-09-30 12:24:00,0,nan,nan,nan,nan,"(nan, nan)",nan,nan,nan,nan,nan,nan,nan,nan,"(190, 417)",no pil E/W
2011-09-30 12:36:00,0,nan,nan,nan,nan,"(nan, nan)",nan,nan,nan,nan,nan,nan,nan,nan,"(190, 417)",no pil E/W
2011-09-30 12:48:00,0,nan,nan,nan,nan,"(nan, nan)",nan,nan,nan,nan,nan,nan,nan,nan,"(190, 417)",no pil E/W
2011-09-30 13:00:00,0,nan,nan,nan,nan,"(nan, nan)",nan,nan,nan,nan,nan,nan,nan,nan,"(190, 417)",no pil E/W
2011-09-30 13:12:00,0,nan,nan,nan,nan,"(nan, nan)",nan,nan,nan,nan,nan,nan,nan,nan,"(190, 417)",no pil E/W
2011-09-30 13:24:00,0,nan,nan,nan,nan,"(nan, nan)",nan,nan,nan,nan,nan,nan,nan,nan,"(190, 417)",no pil E/W
2011-09-30 13:36:00,0,nan,nan,nan,nan,"(nan, nan)",nan,nan,nan,nan,nan,nan,nan,nan,"(190, 417)",no pil E/W
2011-09-30 13:48:00,0,nan,nan,nan,nan,"(nan, nan)",nan,nan,nan,nan,nan,nan,nan,nan,"(190, 417)",no pil E/W
2011-09-30 14:00:00,0,nan,nan,nan,nan,"(nan, nan)",nan,nan,nan,nan,nan,nan,nan,nan,"(190, 417)",no pil E/W
2011-09-30 14:12:00,0,nan,nan,nan,nan,"(nan, nan)",nan,nan,nan,nan,nan,nan,nan,nan,"(190, 417)",no pil E/W
2011-09-30 14:24:00,0,nan,nan,nan,nan,"(nan, nan)",nan,nan,nan,nan,nan,nan,nan,nan,"(190, 417)",no pil E/W
2011-09-30 14:36:00,0,nan,nan,nan,nan,"(nan, nan)",nan,nan,nan,nan,nan,nan,nan,nan,"(190, 417)",no pil E/W
2011-09-30 14:48:00,0,nan,nan,nan,nan,"(nan, nan)",nan,nan,nan,nan,nan,nan,nan,nan,"(190, 417)",no pil E/W
2011-09-30 15:00:00,0,nan,nan,nan,nan,"(nan, nan)",nan,nan,nan,nan,nan,nan,nan,nan,"(190, 417)",no pil E/W
2011-09-30 15:12:00,0,nan,nan,nan,nan,"(nan, nan)",nan,nan,nan,nan,nan,nan,nan,nan,"(190, 417)",no pil E/W
2011-09-30 15:24:00,0,nan,nan,nan,nan,"(nan, nan)",nan,nan,nan,nan,nan,nan,nan,nan,"(190, 417)",no pil E/W
2011-09-30 15:36:00,0,nan,nan,nan,nan,"(nan, nan)",nan,nan,nan,nan,nan,nan,nan,nan,"(190, 417)",no pil E/W
2011-09-30 15:48:00,0,nan,nan,nan,nan,"(nan, nan)",nan,nan,nan,nan,nan,nan,nan,nan,"(190, 417)",no pil E/W
2011-09-30 16:00:00,0,nan,nan,nan,nan,"(nan, nan)",nan,nan,nan,nan,nan,nan,nan,nan,"(190, 417)",no pil E/W
2011-09-30 16:12:00,0,nan,nan,nan,nan,"(nan, nan)",nan,nan,nan,nan,nan,nan,nan,nan,"(190, 417)",no pil E/W
2011-09-30 16:24:00,0,nan,nan,nan,nan,"(nan, nan)",nan,nan,nan,nan,nan,nan,nan,nan,"(190, 417)",no pil E/W
2011-09-30 16:36:00,0,nan,nan,nan,nan,"(nan, nan)",nan,nan,nan,nan,nan,nan,nan,nan,"(190, 417)",no pil E/W
2011-09-30 16:48:00,0,nan,nan,nan,nan,"(nan, nan)",nan,nan,nan,nan,nan,nan,nan,nan,"(190, 417)",no pil E/W
2011-09-30 17:00:00,0,nan,nan,nan,nan,"(nan, nan)",nan,nan,nan,nan,nan,nan,nan,nan,"(190, 417)",no pil E/W
2011-09-30 17:12:00,0,nan,nan,nan,nan,"(nan, nan)",nan,nan,nan,nan,nan,nan,nan,nan,"(190, 417)",no pil E/W
2011-09-30 17:24:00,0,nan,nan,nan,nan,"(nan, nan)",nan,nan,nan,nan,nan,nan,nan,nan,"(190, 417)",no pil E/W
2011-09-30 17:36:00,0,nan,nan,nan,nan,"(nan, nan)",nan,nan,nan,nan,nan,nan,nan,nan,"(190, 417)",no pil E/W
2011-09-30 17:48:00,0,nan,nan,nan,nan,"(nan, nan)",nan,nan,nan,nan,nan,nan,nan,nan,"(190, 417)",no pil E/W
2011-09-30 18:00:00,0,nan,nan,nan,nan,"(nan, nan)",nan,nan,nan,nan,nan,nan,nan,nan,"(190, 417)",no pil E/W
2011-09-30 18:12:00,0,nan,nan,nan,nan,"(nan, nan)",nan,nan,nan,nan,nan,nan,nan,nan,"(190, 417)",no pil E/W
2011-09-30 18:24:00,0,nan,nan,nan,nan,"(nan, nan)",nan,nan,nan,nan,nan,nan,nan,nan,"(190, 417)",no pil E/W
2011-09-30 18:36:00,0,nan,nan,nan,nan,"(nan, nan)",nan,nan,nan,nan,nan,nan,nan,nan,"(190, 417)",no pil E/W
2011-09-30 18:48:00,0,nan,nan,nan,nan,"(nan, nan)",nan,nan,nan,nan,nan,nan,nan,nan,"(190, 417)",no pil E/W
2011-09-30 19:00:00,0,nan,nan,nan,nan,"(nan, nan)",nan,nan,nan,nan,nan,nan,nan,nan,"(190, 417)",no pil E/W
2011-09-30 19:12:00,0,nan,nan,nan,nan,"(nan, nan)",nan,nan,nan,nan,nan,nan,nan,nan,"(190, 417)",no pil E/W
2011-09-30 19:24:00,0,nan,nan,nan,nan,"(nan, nan)",nan,nan,nan,nan,nan,nan,nan,nan,"(190, 417)",no pil E/W
2011-09-30 19:36:00,0,nan,nan,nan,nan,"(nan, nan)",nan,nan,nan,nan,nan,nan,nan,nan,"(190, 417)",no pil E/W
2011-09-30 19:48:00,0,nan,nan,nan,nan,"(nan, nan)",nan,nan,nan,nan,nan,nan,nan,nan,"(190, 417)",no pil E/W
2011-09-30 20:00:00,0,nan,nan,nan,nan,"(nan, nan)",nan,nan,nan,nan,nan,nan,nan,nan,"(190, 417)",no pil E/W
2011-09-30 20:12:00,0,nan,nan,nan,nan,"(nan, nan)",nan,nan,nan,nan,nan,nan,nan,nan,"(190, 417)",no pil E/W
2011-09-30 20:24:00,0,nan,nan,nan,nan,"(nan, nan)",nan,nan,nan,nan,nan,nan,nan,nan,"(190, 417)",no pil E/W
2011-09-30 20:36:00,0,nan,nan,nan,nan,"(nan, nan)",nan,nan,nan,nan,nan,nan,nan,nan,"(190, 417)",no pil E/W
2011-09-30 20:48:00,0,nan,nan,nan,nan,"(nan, nan)",nan,nan,nan,nan,nan,nan,nan,nan,"(190, 417)",no pil E/W
2011-09-30 21:00:00,0,nan,nan,nan,nan,"(nan, nan)",nan,nan,nan,nan,nan,nan,nan,nan,"(190, 417)",no pil E/W
2011-09-30 21:12:00,0,nan,nan,nan,nan,"(nan, nan)",nan,nan,nan,nan,nan,nan,nan,nan,"(190, 417)",no pil E/W
2011-09-30 21:24:00,0,nan,nan,nan,nan,"(nan, nan)",nan,nan,nan,nan,nan,nan,nan,nan,"(190, 417)",no pil E/W
2011-09-30 21:36:00,0,nan,nan,nan,nan,"(nan, nan)",nan,nan,nan,nan,nan,nan,nan,nan,"(190, 417)",no pil E/W
2011-09-30 21:48:00,0,nan,nan,nan,nan,"(nan, nan)",nan,nan,nan,nan,nan,nan,nan,nan,"(190, 417)",no pil E/W
2011-09-30 22:00:00,0,nan,nan,nan,nan,"(nan, nan)",nan,nan,nan,nan,nan,nan,nan,nan,"(190, 417)",no pil E/W
2011-09-30 22:12:00,0,nan,nan,nan,nan,"(nan, nan)",nan,nan,nan,nan,nan,nan,nan,nan,"(190, 417)",no pil E/W
2011-09-30 22:24:00,0,nan,nan,nan,nan,"(nan, nan)",nan,nan,nan,nan,nan,nan,nan,nan,"(190, 417)",no pil E/W
2011-09-30 22:36:00,0,nan,nan,nan,nan,"(nan, nan)",nan,nan,nan,nan,nan,nan,nan,nan,"(190, 417)",no pil E/W
2011-09-30 22:48:00,0,nan,nan,nan,nan,"(nan, nan)",nan,nan,nan,nan,nan,nan,nan,nan,"(190, 417)",no pil E/W
2011-09-30 23:00:00,0,nan,nan,nan,nan,"(nan, nan)",nan,nan,nan,nan,nan,nan,nan,nan,"(190, 417)",no pil E/W
2011-09-30 23:12:00,0,nan,nan,nan,nan,"(nan, nan)",nan,nan,nan,nan,nan,nan,nan,nan,"(190, 417)",no pil E/W
2011-09-30 23:24:00,0,nan,nan,nan,nan,"(nan, nan)",nan,nan,nan,nan,nan,nan,nan,nan,"(190, 417)",no pil E/W
2011-09-30 23:36:00,0,nan,nan,nan,nan,"(nan, nan)",nan,nan,nan,nan,nan,nan,nan,nan,"(190, 417)",no pil E/W
2011-10-01 00:48:00,0,nan,nan,nan,nan,"(nan, nan)",nan,nan,nan,nan,nan,nan,nan,nan,"(190, 417)",no pil E/W
2011-10-01 01:00:00,0,nan,nan,nan,nan,"(nan, nan)",nan,nan,nan,nan,nan,nan,nan,nan,"(190, 417)",no pil E/W
2011-10-01 01:12:00,0,nan,nan,nan,nan,"(nan, nan)",nan,nan,nan,nan,nan,nan,nan,nan,"(190, 417)",no pil E/W
2011-10-01 01:24:00,0,nan,nan,nan,nan,"(nan, nan)",nan,nan,nan,nan,nan,nan,nan,nan,"(190, 417)",no pil E/W
2011-10-01 01:36:00,0,nan,nan,nan,nan,"(nan, nan)",nan,nan,nan,nan,nan,nan,nan,nan,"(190, 417)",no pil E/W
2011-10-01 01:48:00,0,nan,nan,nan,nan,"(nan, nan)",nan,nan,nan,nan,nan,nan,nan,nan,"(190, 417)",no pil E/W
2011-10-01 02:00:00,0,nan,nan,nan,nan,"(nan, nan)",nan,nan,nan,nan,nan,nan,nan,nan,"(190, 417)",no pil E/W
2011-10-01 02:12:00,0,nan,nan,nan,nan,"(nan, nan)",nan,nan,nan,nan,nan,nan,nan,nan,"(190, 417)",no pil E/W
2011-10-01 02:24:00,0,nan,nan,nan,nan,"(nan, nan)",nan,nan,nan,nan,nan,nan,nan,nan,"(190, 417)",no pil E/W
2011-10-01 02:36:00,0,nan,nan,nan,nan,"(nan, nan)",nan,nan,nan,nan,nan,nan,nan,nan,"(190, 417)",no pil E/W
2011-10-01 02:48:00,0,nan,nan,nan,nan,"(nan, nan)",nan,nan,nan,nan,nan,nan,nan,nan,"(190, 417)",no pil E/W
2011-10-01 03:00:00,0,nan,nan,nan,nan,"(nan, nan)",nan,nan,nan,nan,nan,nan,nan,nan,"(190, 417)",no pil E/W
2011-10-01 03:12:00,0,nan,nan,nan,nan,"(nan, nan)",nan,nan,nan,nan,nan,nan,nan,nan,"(190, 417)",no pil E/W
2011-10-01 03:24:00,0,nan,nan,nan,nan,"(nan, nan)",nan,nan,nan,nan,nan,nan,nan,nan,"(190, 417)",no pil E/W
2011-10-01 04:00:00,0,nan,nan,nan,nan,"(nan, nan)",nan,nan,nan,nan,nan,nan,nan,nan,"(190, 417)",no pil E/W
2011-10-01 04:12:00,0,nan,nan,nan,nan,"(nan, nan)",nan,nan,nan,nan,nan,nan,nan,nan,"(190, 417)",no pil E/W
2011-10-01 05:00:00,0,nan,nan,nan,nan,"(nan, nan)",nan,nan,nan,nan,nan,nan,nan,nan,"(190, 417)",no pil E/W
2011-10-01 10:48:00,N/A,N/A,N/A,N/A,N/A,N/A,N/A,N/A,N/A,N/A,N/A,N/A,N/A,N/A,N/A,no pil SPE
2011-10-01 11:00:00,N/A,N/A,N/A,N/A,N/A,N/A,N/A,N/A,N/A,N/A,N/A,N/A,N/A,N/A,N/A,no pil SPE
2011-10-01 11:12:00,N/A,N/A,N/A,N/A,N/A,N/A,N/A,N/A,N/A,N/A,N/A,N/A,N/A,N/A,N/A,no pil SPE
2011-10-01 11:24:00,N/A,N/A,N/A,N/A,N/A,N/A,N/A,N/A,N/A,N/A,N/A,N/A,N/A,N/A,N/A,no pil SPE
2011-10-01 11:36:00,N/A,N/A,N/A,N/A,N/A,N/A,N/A,N/A,N/A,N/A,N/A,N/A,N/A,N/A,N/A,no pil SPE
2011-10-01 11:48:00,N/A,N/A,N/A,N/A,N/A,N/A,N/A,N/A,N/A,N/A,N/A,N/A,N/A,N/A,N/A,no pil SPE
2011-10-01 12:00:00,N/A,N/A,N/A,N/A,N/A,N/A,N/A,N/A,N/A,N/A,N/A,N/A,N/A,N/A,N/A,no pil SPE
2011-10-01 12:12:00,N/A,N/A,N/A,N/A,N/A,N/A,N/A,N/A,N/A,N/A,N/A,N/A,N/A,N/A,N/A,no pil SPE
2011-10-01 12:24:00,N/A,N/A,N/A,N/A,N/A,N/A,N/A,N/A,N/A,N/A,N/A,N/A,N/A,N/A,N/A,no pil SPE
2011-10-01 12:36:00,N/A,N/A,N/A,N/A,N/A,N/A,N/A,N/A,N/A,N/A,N/A,N/A,N/A,N/A,N/A,no pil SPE
2011-10-01 12:48:00,N/A,N/A,N/A,N/A,N/A,N/A,N/A,N/A,N/A,N/A,N/A,N/A,N/A,N/A,N/A,no pil SPE
2011-10-01 13:00:00,N/A,N/A,N/A,N/A,N/A,N/A,N/A,N/A,N/A,N/A,N/A,N/A,N/A,N/A,N/A,no pil SPE
2011-10-01 14:00:00,N/A,N/A,N/A,N/A,N/A,N/A,N/A,N/A,N/A,N/A,N/A,N/A,N/A,N/A,N/A,no pil SPE
