,num_PILs,sum_PIL_length,sum_RoPI_Area,sum_mag_field_strength,fra_dim,eige_vals,convexity,Hu1,Hu2,Hu3,Hu4,Hu5,Hu6,Hu7,patch_shape,detection_flag
2011-11-19 22:00:00,0,nan,nan,nan,nan,"(nan, nan)",nan,nan,nan,nan,nan,nan,nan,nan,"(95, 178)",no pil E/W
2011-11-19 22:12:00,0,nan,nan,nan,nan,"(nan, nan)",nan,nan,nan,nan,nan,nan,nan,nan,"(95, 178)",no pil E/W
2011-11-19 22:24:00,0,nan,nan,nan,nan,"(nan, nan)",nan,nan,nan,nan,nan,nan,nan,nan,"(95, 178)",no pil E/W
2011-11-19 22:36:00,0,nan,nan,nan,nan,"(nan, nan)",nan,nan,nan,nan,nan,nan,nan,nan,"(95, 178)",no pil E/W
2011-11-19 22:48:00,0,nan,nan,nan,nan,"(nan, nan)",nan,nan,nan,nan,nan,nan,nan,nan,"(95, 178)",no pil E/W
2011-11-19 23:00:00,0,nan,nan,nan,nan,"(nan, nan)",nan,nan,nan,nan,nan,nan,nan,nan,"(95, 178)",no pil E/W
2011-11-19 23:12:00,0,nan,nan,nan,nan,"(nan, nan)",nan,nan,nan,nan,nan,nan,nan,nan,"(95, 178)",no pil E/W
2011-11-19 23:24:00,0,nan,nan,nan,nan,"(nan, nan)",nan,nan,nan,nan,nan,nan,nan,nan,"(95, 178)",no pil E/W
2011-11-19 23:36:00,0,nan,nan,nan,nan,"(nan, nan)",nan,nan,nan,nan,nan,nan,nan,nan,"(95, 178)",no pil E/W
2011-11-19 23:48:00,0,nan,nan,nan,nan,"(nan, nan)",nan,nan,nan,nan,nan,nan,nan,nan,"(95, 178)",no pil E/W
2011-11-20 00:00:00,0,nan,nan,nan,nan,"(nan, nan)",nan,nan,nan,nan,nan,nan,nan,nan,"(95, 178)",no pil E/W
2011-11-20 00:12:00,0,nan,nan,nan,nan,"(nan, nan)",nan,nan,nan,nan,nan,nan,nan,nan,"(95, 178)",no pil E/W
2011-11-20 00:24:00,0,nan,nan,nan,nan,"(nan, nan)",nan,nan,nan,nan,nan,nan,nan,nan,"(95, 178)",no pil E/W
2011-11-20 00:36:00,0,nan,nan,nan,nan,"(nan, nan)",nan,nan,nan,nan,nan,nan,nan,nan,"(95, 178)",no pil E/W
2011-11-20 00:48:00,0,nan,nan,nan,nan,"(nan, nan)",nan,nan,nan,nan,nan,nan,nan,nan,"(95, 178)",no pil E/W
2011-11-20 01:00:00,0,nan,nan,nan,nan,"(nan, nan)",nan,nan,nan,nan,nan,nan,nan,nan,"(95, 178)",no pil E/W
2011-11-20 01:12:00,0,nan,nan,nan,nan,"(nan, nan)",nan,nan,nan,nan,nan,nan,nan,nan,"(95, 178)",no pil E/W
2011-11-20 01:24:00,0,nan,nan,nan,nan,"(nan, nan)",nan,nan,nan,nan,nan,nan,nan,nan,"(95, 178)",no pil E/W
2011-11-20 01:36:00,0,nan,nan,nan,nan,"(nan, nan)",nan,nan,nan,nan,nan,nan,nan,nan,"(95, 178)",no pil E/W
2011-11-20 01:48:00,0,nan,nan,nan,nan,"(nan, nan)",nan,nan,nan,nan,nan,nan,nan,nan,"(95, 178)",no pil E/W
2011-11-20 02:00:00,0,nan,nan,nan,nan,"(nan, nan)",nan,nan,nan,nan,nan,nan,nan,nan,"(95, 178)",no pil E/W
2011-11-20 02:12:00,0,nan,nan,nan,nan,"(nan, nan)",nan,nan,nan,nan,nan,nan,nan,nan,"(95, 178)",no pil E/W
2011-11-20 02:24:00,0,nan,nan,nan,nan,"(nan, nan)",nan,nan,nan,nan,nan,nan,nan,nan,"(95, 178)",no pil E/W
2011-11-20 02:36:00,0,nan,nan,nan,nan,"(nan, nan)",nan,nan,nan,nan,nan,nan,nan,nan,"(95, 178)",no pil E/W
2011-11-20 03:12:00,0,nan,nan,nan,nan,"(nan, nan)",nan,nan,nan,nan,nan,nan,nan,nan,"(95, 178)",no pil E/W
2011-11-20 04:00:00,0,nan,nan,nan,nan,"(nan, nan)",nan,nan,nan,nan,nan,nan,nan,nan,"(95, 178)",no pil E/W
2011-11-20 04:24:00,0,nan,nan,nan,nan,"(nan, nan)",nan,nan,nan,nan,nan,nan,nan,nan,"(95, 178)",no pil E/W
2011-11-20 04:36:00,0,nan,nan,nan,nan,"(nan, nan)",nan,nan,nan,nan,nan,nan,nan,nan,"(95, 178)",no pil E/W
2011-11-20 06:12:00,0,nan,nan,nan,nan,"(nan, nan)",nan,nan,nan,nan,nan,nan,nan,nan,"(95, 178)",no pil E/W
2011-11-20 07:00:00,0,nan,nan,nan,nan,"(nan, nan)",nan,nan,nan,nan,nan,nan,nan,nan,"(95, 178)",no pil E/W
2011-11-20 07:12:00,0,nan,nan,nan,nan,"(nan, nan)",nan,nan,nan,nan,nan,nan,nan,nan,"(95, 178)",no pil E/W
2011-11-20 07:24:00,0,nan,nan,nan,nan,"(nan, nan)",nan,nan,nan,nan,nan,nan,nan,nan,"(95, 178)",no pil E/W
2011-11-20 07:36:00,0,nan,nan,nan,nan,"(nan, nan)",nan,nan,nan,nan,nan,nan,nan,nan,"(95, 178)",no pil E/W
2011-11-20 07:48:00,0,nan,nan,nan,nan,"(nan, nan)",nan,nan,nan,nan,nan,nan,nan,nan,"(95, 178)",no pil E/W
2011-11-20 08:00:00,0,nan,nan,nan,nan,"(nan, nan)",nan,nan,nan,nan,nan,nan,nan,nan,"(95, 178)",no pil E/W
2011-11-20 08:12:00,0,nan,nan,nan,nan,"(nan, nan)",nan,nan,nan,nan,nan,nan,nan,nan,"(95, 178)",no pil E/W
2011-11-20 08:24:00,0,nan,nan,nan,nan,"(nan, nan)",nan,nan,nan,nan,nan,nan,nan,nan,"(95, 178)",no pil E/W
2011-11-20 08:36:00,0,nan,nan,nan,nan,"(nan, nan)",nan,nan,nan,nan,nan,nan,nan,nan,"(95, 178)",no pil E/W
2011-11-20 08:48:00,0,nan,nan,nan,nan,"(nan, nan)",nan,nan,nan,nan,nan,nan,nan,nan,"(95, 178)",no pil E/W
2011-11-20 09:00:00,0,nan,nan,nan,nan,"(nan, nan)",nan,nan,nan,nan,nan,nan,nan,nan,"(95, 178)",no pil E/W
2011-11-20 09:12:00,0,nan,nan,nan,nan,"(nan, nan)",nan,nan,nan,nan,nan,nan,nan,nan,"(95, 178)",no pil E/W
2011-11-20 09:24:00,0,nan,nan,nan,nan,"(nan, nan)",nan,nan,nan,nan,nan,nan,nan,nan,"(95, 178)",no pil E/W
2011-11-20 09:36:00,0,nan,nan,nan,nan,"(nan, nan)",nan,nan,nan,nan,nan,nan,nan,nan,"(95, 178)",no pil E/W
2011-11-20 09:48:00,0,nan,nan,nan,nan,"(nan, nan)",nan,nan,nan,nan,nan,nan,nan,nan,"(95, 178)",no pil E/W
2011-11-20 10:00:00,0,nan,nan,nan,nan,"(nan, nan)",nan,nan,nan,nan,nan,nan,nan,nan,"(95, 178)",no pil E/W
2011-11-20 10:12:00,0,nan,nan,nan,nan,"(nan, nan)",nan,nan,nan,nan,nan,nan,nan,nan,"(95, 178)",no pil E/W
2011-11-20 10:24:00,0,nan,nan,nan,nan,"(nan, nan)",nan,nan,nan,nan,nan,nan,nan,nan,"(95, 178)",no pil E/W
2011-11-20 10:36:00,0,nan,nan,nan,nan,"(nan, nan)",nan,nan,nan,nan,nan,nan,nan,nan,"(95, 178)",no pil E/W
2011-11-20 10:48:00,0,nan,nan,nan,nan,"(nan, nan)",nan,nan,nan,nan,nan,nan,nan,nan,"(95, 178)",no pil E/W
2011-11-20 11:00:00,0,nan,nan,nan,nan,"(nan, nan)",nan,nan,nan,nan,nan,nan,nan,nan,"(95, 178)",no pil E/W
2011-11-20 11:12:00,0,nan,nan,nan,nan,"(nan, nan)",nan,nan,nan,nan,nan,nan,nan,nan,"(95, 178)",no pil E/W
2011-11-20 11:24:00,0,nan,nan,nan,nan,"(nan, nan)",nan,nan,nan,nan,nan,nan,nan,nan,"(95, 178)",no pil E/W
2011-11-20 11:36:00,0,nan,nan,nan,nan,"(nan, nan)",nan,nan,nan,nan,nan,nan,nan,nan,"(95, 178)",no pil E/W
2011-11-20 11:48:00,0,nan,nan,nan,nan,"(nan, nan)",nan,nan,nan,nan,nan,nan,nan,nan,"(95, 178)",no pil E/W
2011-11-20 12:00:00,0,nan,nan,nan,nan,"(nan, nan)",nan,nan,nan,nan,nan,nan,nan,nan,"(95, 178)",no pil E/W
2011-11-20 12:12:00,0,nan,nan,nan,nan,"(nan, nan)",nan,nan,nan,nan,nan,nan,nan,nan,"(95, 178)",no pil E/W
2011-11-20 12:24:00,0,nan,nan,nan,nan,"(nan, nan)",nan,nan,nan,nan,nan,nan,nan,nan,"(95, 178)",no pil E/W
2011-11-20 12:36:00,0,nan,nan,nan,nan,"(nan, nan)",nan,nan,nan,nan,nan,nan,nan,nan,"(95, 178)",no pil E/W
2011-11-20 12:48:00,0,nan,nan,nan,nan,"(nan, nan)",nan,nan,nan,nan,nan,nan,nan,nan,"(95, 178)",no pil E/W
2011-11-20 13:00:00,0,nan,nan,nan,nan,"(nan, nan)",nan,nan,nan,nan,nan,nan,nan,nan,"(95, 178)",no pil E/W
2011-11-20 13:12:00,0,nan,nan,nan,nan,"(nan, nan)",nan,nan,nan,nan,nan,nan,nan,nan,"(95, 178)",no pil E/W
2011-11-20 13:24:00,0,nan,nan,nan,nan,"(nan, nan)",nan,nan,nan,nan,nan,nan,nan,nan,"(95, 178)",no pil E/W
2011-11-20 13:36:00,0,nan,nan,nan,nan,"(nan, nan)",nan,nan,nan,nan,nan,nan,nan,nan,"(95, 178)",no pil E/W
2011-11-20 13:48:00,0,nan,nan,nan,nan,"(nan, nan)",nan,nan,nan,nan,nan,nan,nan,nan,"(95, 178)",no pil E/W
2011-11-20 14:00:00,0,nan,nan,nan,nan,"(nan, nan)",nan,nan,nan,nan,nan,nan,nan,nan,"(95, 178)",no pil E/W
2011-11-20 14:12:00,0,nan,nan,nan,nan,"(nan, nan)",nan,nan,nan,nan,nan,nan,nan,nan,"(95, 178)",no pil E/W
2011-11-20 14:24:00,0,nan,nan,nan,nan,"(nan, nan)",nan,nan,nan,nan,nan,nan,nan,nan,"(95, 178)",no pil E/W
2011-11-20 14:36:00,0,nan,nan,nan,nan,"(nan, nan)",nan,nan,nan,nan,nan,nan,nan,nan,"(95, 178)",no pil E/W
2011-11-20 14:48:00,0,nan,nan,nan,nan,"(nan, nan)",nan,nan,nan,nan,nan,nan,nan,nan,"(95, 178)",no pil E/W
2011-11-20 15:00:00,0,nan,nan,nan,nan,"(nan, nan)",nan,nan,nan,nan,nan,nan,nan,nan,"(95, 178)",no pil E/W
2011-11-20 15:12:00,0,nan,nan,nan,nan,"(nan, nan)",nan,nan,nan,nan,nan,nan,nan,nan,"(95, 178)",no pil E/W
2011-11-20 15:24:00,0,nan,nan,nan,nan,"(nan, nan)",nan,nan,nan,nan,nan,nan,nan,nan,"(95, 178)",no pil E/W
2011-11-20 15:36:00,0,nan,nan,nan,nan,"(nan, nan)",nan,nan,nan,nan,nan,nan,nan,nan,"(95, 178)",no pil E/W
2011-11-20 15:48:00,0,nan,nan,nan,nan,"(nan, nan)",nan,nan,nan,nan,nan,nan,nan,nan,"(95, 178)",no pil E/W
2011-11-20 16:00:00,0,nan,nan,nan,nan,"(nan, nan)",nan,nan,nan,nan,nan,nan,nan,nan,"(95, 178)",no pil E/W
2011-11-20 16:12:00,0,nan,nan,nan,nan,"(nan, nan)",nan,nan,nan,nan,nan,nan,nan,nan,"(95, 178)",no pil E/W
2011-11-20 16:24:00,0,nan,nan,nan,nan,"(nan, nan)",nan,nan,nan,nan,nan,nan,nan,nan,"(95, 178)",no pil E/W
2011-11-20 16:36:00,0,nan,nan,nan,nan,"(nan, nan)",nan,nan,nan,nan,nan,nan,nan,nan,"(95, 178)",no pil E/W
2011-11-20 16:48:00,0,nan,nan,nan,nan,"(nan, nan)",nan,nan,nan,nan,nan,nan,nan,nan,"(95, 178)",no pil E/W
2011-11-20 17:00:00,0,nan,nan,nan,nan,"(nan, nan)",nan,nan,nan,nan,nan,nan,nan,nan,"(95, 178)",no pil E/W
2011-11-20 17:12:00,0,nan,nan,nan,nan,"(nan, nan)",nan,nan,nan,nan,nan,nan,nan,nan,"(95, 178)",no pil E/W
2011-11-20 17:24:00,0,nan,nan,nan,nan,"(nan, nan)",nan,nan,nan,nan,nan,nan,nan,nan,"(95, 178)",no pil E/W
2011-11-20 17:36:00,0,nan,nan,nan,nan,"(nan, nan)",nan,nan,nan,nan,nan,nan,nan,nan,"(95, 178)",no pil E/W
2011-11-20 17:48:00,0,nan,nan,nan,nan,"(nan, nan)",nan,nan,nan,nan,nan,nan,nan,nan,"(95, 178)",no pil E/W
2011-11-20 18:00:00,0,nan,nan,nan,nan,"(nan, nan)",nan,nan,nan,nan,nan,nan,nan,nan,"(95, 178)",no pil E/W
2011-11-20 18:12:00,0,nan,nan,nan,nan,"(nan, nan)",nan,nan,nan,nan,nan,nan,nan,nan,"(95, 178)",no pil E/W
2011-11-20 18:24:00,0,nan,nan,nan,nan,"(nan, nan)",nan,nan,nan,nan,nan,nan,nan,nan,"(95, 178)",no pil E/W
2011-11-20 18:36:00,0,nan,nan,nan,nan,"(nan, nan)",nan,nan,nan,nan,nan,nan,nan,nan,"(95, 178)",no pil E/W
2011-11-20 18:48:00,0,nan,nan,nan,nan,"(nan, nan)",nan,nan,nan,nan,nan,nan,nan,nan,"(95, 178)",no pil E/W
2011-11-20 19:00:00,0,nan,nan,nan,nan,"(nan, nan)",nan,nan,nan,nan,nan,nan,nan,nan,"(95, 178)",no pil E/W
2011-11-20 19:12:00,0,nan,nan,nan,nan,"(nan, nan)",nan,nan,nan,nan,nan,nan,nan,nan,"(95, 178)",no pil E/W
2011-11-20 19:24:00,0,nan,nan,nan,nan,"(nan, nan)",nan,nan,nan,nan,nan,nan,nan,nan,"(95, 178)",no pil E/W
2011-11-20 19:36:00,0,nan,nan,nan,nan,"(nan, nan)",nan,nan,nan,nan,nan,nan,nan,nan,"(95, 178)",no pil E/W
2011-11-20 19:48:00,0,nan,nan,nan,nan,"(nan, nan)",nan,nan,nan,nan,nan,nan,nan,nan,"(95, 178)",no pil E/W
2011-11-20 20:00:00,0,nan,nan,nan,nan,"(nan, nan)",nan,nan,nan,nan,nan,nan,nan,nan,"(95, 178)",no pil E/W
2011-11-20 20:12:00,0,nan,nan,nan,nan,"(nan, nan)",nan,nan,nan,nan,nan,nan,nan,nan,"(95, 178)",no pil E/W
2011-11-20 20:24:00,0,nan,nan,nan,nan,"(nan, nan)",nan,nan,nan,nan,nan,nan,nan,nan,"(95, 178)",no pil E/W
2011-11-20 20:36:00,0,nan,nan,nan,nan,"(nan, nan)",nan,nan,nan,nan,nan,nan,nan,nan,"(95, 178)",no pil E/W
2011-11-20 20:48:00,0,nan,nan,nan,nan,"(nan, nan)",nan,nan,nan,nan,nan,nan,nan,nan,"(95, 178)",no pil E/W
2011-11-20 21:00:00,0,nan,nan,nan,nan,"(nan, nan)",nan,nan,nan,nan,nan,nan,nan,nan,"(95, 178)",no pil E/W
2011-11-20 21:12:00,0,nan,nan,nan,nan,"(nan, nan)",nan,nan,nan,nan,nan,nan,nan,nan,"(95, 178)",no pil E/W
2011-11-20 21:24:00,0,nan,nan,nan,nan,"(nan, nan)",nan,nan,nan,nan,nan,nan,nan,nan,"(95, 178)",no pil E/W
2011-11-20 21:36:00,0,nan,nan,nan,nan,"(nan, nan)",nan,nan,nan,nan,nan,nan,nan,nan,"(95, 178)",no pil E/W
2011-11-20 21:48:00,0,nan,nan,nan,nan,"(nan, nan)",nan,nan,nan,nan,nan,nan,nan,nan,"(95, 178)",no pil E/W
2011-11-20 22:00:00,0,nan,nan,nan,nan,"(nan, nan)",nan,nan,nan,nan,nan,nan,nan,nan,"(95, 178)",no pil E/W
2011-11-20 22:12:00,0,nan,nan,nan,nan,"(nan, nan)",nan,nan,nan,nan,nan,nan,nan,nan,"(95, 178)",no pil E/W
2011-11-20 22:24:00,0,nan,nan,nan,nan,"(nan, nan)",nan,nan,nan,nan,nan,nan,nan,nan,"(95, 178)",no pil E/W
2011-11-20 22:36:00,0,nan,nan,nan,nan,"(nan, nan)",nan,nan,nan,nan,nan,nan,nan,nan,"(95, 178)",no pil E/W
2011-11-20 22:48:00,0,nan,nan,nan,nan,"(nan, nan)",nan,nan,nan,nan,nan,nan,nan,nan,"(95, 178)",no pil E/W
2011-11-20 23:00:00,0,nan,nan,nan,nan,"(nan, nan)",nan,nan,nan,nan,nan,nan,nan,nan,"(95, 178)",no pil E/W
2011-11-20 23:12:00,0,nan,nan,nan,nan,"(nan, nan)",nan,nan,nan,nan,nan,nan,nan,nan,"(95, 178)",no pil E/W
2011-11-20 23:24:00,0,nan,nan,nan,nan,"(nan, nan)",nan,nan,nan,nan,nan,nan,nan,nan,"(95, 178)",no pil E/W
2011-11-20 23:36:00,0,nan,nan,nan,nan,"(nan, nan)",nan,nan,nan,nan,nan,nan,nan,nan,"(95, 178)",no pil E/W
2011-11-20 23:48:00,0,nan,nan,nan,nan,"(nan, nan)",nan,nan,nan,nan,nan,nan,nan,nan,"(95, 178)",no pil E/W
2011-11-21 00:12:00,0,nan,nan,nan,nan,"(nan, nan)",nan,nan,nan,nan,nan,nan,nan,nan,"(95, 178)",no pil E/W
2011-11-21 01:24:00,0,nan,nan,nan,nan,"(nan, nan)",nan,nan,nan,nan,nan,nan,nan,nan,"(95, 178)",no pil E/W
