,num_PILs,sum_PIL_length,sum_RoPI_Area,sum_mag_field_strength,fra_dim,eige_vals,convexity,Hu1,Hu2,Hu3,Hu4,Hu5,Hu6,Hu7,patch_shape,detection_flag
2011-04-13 05:00:00,0,nan,nan,nan,nan,"(nan, nan)",nan,nan,nan,nan,nan,nan,nan,nan,"(139, 259)",no pil E/W
2011-04-13 05:12:00,0,nan,nan,nan,nan,"(nan, nan)",nan,nan,nan,nan,nan,nan,nan,nan,"(139, 259)",no pil E/W
2011-04-13 05:24:00,0,nan,nan,nan,nan,"(nan, nan)",nan,nan,nan,nan,nan,nan,nan,nan,"(139, 259)",no pil E/W
2011-04-13 05:36:00,0,nan,nan,nan,nan,"(nan, nan)",nan,nan,nan,nan,nan,nan,nan,nan,"(139, 259)",no pil E/W
2011-04-13 05:48:00,0,nan,nan,nan,nan,"(nan, nan)",nan,nan,nan,nan,nan,nan,nan,nan,"(139, 259)",no pil E/W
2011-04-13 06:00:00,0,nan,nan,nan,nan,"(nan, nan)",nan,nan,nan,nan,nan,nan,nan,nan,"(139, 259)",no pil E/W
2011-04-13 06:12:00,0,nan,nan,nan,nan,"(nan, nan)",nan,nan,nan,nan,nan,nan,nan,nan,"(139, 259)",no pil E/W
2011-04-13 06:24:00,0,nan,nan,nan,nan,"(nan, nan)",nan,nan,nan,nan,nan,nan,nan,nan,"(139, 259)",no pil E/W
2011-04-13 06:36:00,0,nan,nan,nan,nan,"(nan, nan)",nan,nan,nan,nan,nan,nan,nan,nan,"(139, 259)",no pil E/W
2011-04-13 06:48:00,0,nan,nan,nan,nan,"(nan, nan)",nan,nan,nan,nan,nan,nan,nan,nan,"(139, 259)",no pil E/W
2011-04-13 07:00:00,0,nan,nan,nan,nan,"(nan, nan)",nan,nan,nan,nan,nan,nan,nan,nan,"(139, 259)",no pil E/W
2011-04-13 07:12:00,0,nan,nan,nan,nan,"(nan, nan)",nan,nan,nan,nan,nan,nan,nan,nan,"(139, 259)",no pil E/W
2011-04-13 07:24:00,0,nan,nan,nan,nan,"(nan, nan)",nan,nan,nan,nan,nan,nan,nan,nan,"(139, 259)",no pil E/W
2011-04-13 07:36:00,0,nan,nan,nan,nan,"(nan, nan)",nan,nan,nan,nan,nan,nan,nan,nan,"(139, 259)",no pil E/W
2011-04-13 07:48:00,0,nan,nan,nan,nan,"(nan, nan)",nan,nan,nan,nan,nan,nan,nan,nan,"(139, 259)",no pil E/W
2011-04-13 08:00:00,0,nan,nan,nan,nan,"(nan, nan)",nan,nan,nan,nan,nan,nan,nan,nan,"(139, 259)",no pil E/W
2011-04-13 08:12:00,0,nan,nan,nan,nan,"(nan, nan)",nan,nan,nan,nan,nan,nan,nan,nan,"(139, 259)",no pil E/W
2011-04-13 08:24:00,0,nan,nan,nan,nan,"(nan, nan)",nan,nan,nan,nan,nan,nan,nan,nan,"(139, 259)",no pil E/W
2011-04-13 08:36:00,0,nan,nan,nan,nan,"(nan, nan)",nan,nan,nan,nan,nan,nan,nan,nan,"(139, 259)",no pil E/W
2011-04-13 08:48:00,0,nan,nan,nan,nan,"(nan, nan)",nan,nan,nan,nan,nan,nan,nan,nan,"(139, 259)",no pil E/W
2011-04-13 09:00:00,0,nan,nan,nan,nan,"(nan, nan)",nan,nan,nan,nan,nan,nan,nan,nan,"(139, 259)",no pil E/W
2011-04-13 09:12:00,0,nan,nan,nan,nan,"(nan, nan)",nan,nan,nan,nan,nan,nan,nan,nan,"(139, 259)",no pil E/W
2011-04-13 09:24:00,0,nan,nan,nan,nan,"(nan, nan)",nan,nan,nan,nan,nan,nan,nan,nan,"(139, 259)",no pil E/W
2011-04-13 09:36:00,0,nan,nan,nan,nan,"(nan, nan)",nan,nan,nan,nan,nan,nan,nan,nan,"(139, 259)",no pil E/W
2011-04-13 09:48:00,0,nan,nan,nan,nan,"(nan, nan)",nan,nan,nan,nan,nan,nan,nan,nan,"(139, 259)",no pil E/W
2011-04-13 10:00:00,0,nan,nan,nan,nan,"(nan, nan)",nan,nan,nan,nan,nan,nan,nan,nan,"(139, 259)",no pil E/W
2011-04-13 10:12:00,0,nan,nan,nan,nan,"(nan, nan)",nan,nan,nan,nan,nan,nan,nan,nan,"(139, 259)",no pil E/W
2011-04-13 10:24:00,0,nan,nan,nan,nan,"(nan, nan)",nan,nan,nan,nan,nan,nan,nan,nan,"(139, 259)",no pil E/W
2011-04-13 10:36:00,0,nan,nan,nan,nan,"(nan, nan)",nan,nan,nan,nan,nan,nan,nan,nan,"(139, 259)",no pil E/W
2011-04-13 10:48:00,0,nan,nan,nan,nan,"(nan, nan)",nan,nan,nan,nan,nan,nan,nan,nan,"(139, 259)",no pil E/W
2011-04-13 11:00:00,0,nan,nan,nan,nan,"(nan, nan)",nan,nan,nan,nan,nan,nan,nan,nan,"(139, 259)",no pil E/W
2011-04-13 11:12:00,0,nan,nan,nan,nan,"(nan, nan)",nan,nan,nan,nan,nan,nan,nan,nan,"(139, 259)",no pil E/W
2011-04-13 11:24:00,0,nan,nan,nan,nan,"(nan, nan)",nan,nan,nan,nan,nan,nan,nan,nan,"(139, 259)",no pil E/W
2011-04-13 11:36:00,0,nan,nan,nan,nan,"(nan, nan)",nan,nan,nan,nan,nan,nan,nan,nan,"(139, 259)",no pil E/W
2011-04-13 11:48:00,0,nan,nan,nan,nan,"(nan, nan)",nan,nan,nan,nan,nan,nan,nan,nan,"(139, 259)",no pil E/W
2011-04-13 12:00:00,0,nan,nan,nan,nan,"(nan, nan)",nan,nan,nan,nan,nan,nan,nan,nan,"(139, 259)",no pil E/W
2011-04-13 12:12:00,0,nan,nan,nan,nan,"(nan, nan)",nan,nan,nan,nan,nan,nan,nan,nan,"(139, 259)",no pil E/W
2011-04-13 12:24:00,0,nan,nan,nan,nan,"(nan, nan)",nan,nan,nan,nan,nan,nan,nan,nan,"(139, 259)",no pil E/W
2011-04-13 12:36:00,0,nan,nan,nan,nan,"(nan, nan)",nan,nan,nan,nan,nan,nan,nan,nan,"(139, 259)",no pil E/W
2011-04-13 12:48:00,0,nan,nan,nan,nan,"(nan, nan)",nan,nan,nan,nan,nan,nan,nan,nan,"(139, 259)",no pil E/W
2011-04-13 13:00:00,0,nan,nan,nan,nan,"(nan, nan)",nan,nan,nan,nan,nan,nan,nan,nan,"(139, 259)",no pil E/W
2011-04-13 13:12:00,0,nan,nan,nan,nan,"(nan, nan)",nan,nan,nan,nan,nan,nan,nan,nan,"(139, 259)",no pil E/W
2011-04-13 13:24:00,0,nan,nan,nan,nan,"(nan, nan)",nan,nan,nan,nan,nan,nan,nan,nan,"(139, 259)",no pil E/W
2011-04-13 13:36:00,0,nan,nan,nan,nan,"(nan, nan)",nan,nan,nan,nan,nan,nan,nan,nan,"(139, 259)",no pil E/W
2011-04-13 13:48:00,0,nan,nan,nan,nan,"(nan, nan)",nan,nan,nan,nan,nan,nan,nan,nan,"(139, 259)",no pil E/W
2011-04-13 14:00:00,0,nan,nan,nan,nan,"(nan, nan)",nan,nan,nan,nan,nan,nan,nan,nan,"(139, 259)",no pil E/W
2011-04-13 14:12:00,0,nan,nan,nan,nan,"(nan, nan)",nan,nan,nan,nan,nan,nan,nan,nan,"(139, 259)",no pil E/W
2011-04-13 14:24:00,0,nan,nan,nan,nan,"(nan, nan)",nan,nan,nan,nan,nan,nan,nan,nan,"(139, 259)",no pil E/W
2011-04-13 14:36:00,0,nan,nan,nan,nan,"(nan, nan)",nan,nan,nan,nan,nan,nan,nan,nan,"(139, 259)",no pil E/W
2011-04-13 14:48:00,0,nan,nan,nan,nan,"(nan, nan)",nan,nan,nan,nan,nan,nan,nan,nan,"(139, 259)",no pil E/W
2011-04-13 15:00:00,0,nan,nan,nan,nan,"(nan, nan)",nan,nan,nan,nan,nan,nan,nan,nan,"(139, 259)",no pil E/W
2011-04-13 15:12:00,0,nan,nan,nan,nan,"(nan, nan)",nan,nan,nan,nan,nan,nan,nan,nan,"(139, 259)",no pil E/W
2011-04-13 15:24:00,0,nan,nan,nan,nan,"(nan, nan)",nan,nan,nan,nan,nan,nan,nan,nan,"(139, 259)",no pil E/W
2011-04-13 15:36:00,0,nan,nan,nan,nan,"(nan, nan)",nan,nan,nan,nan,nan,nan,nan,nan,"(139, 259)",no pil E/W
2011-04-13 15:48:00,0,nan,nan,nan,nan,"(nan, nan)",nan,nan,nan,nan,nan,nan,nan,nan,"(139, 259)",no pil E/W
2011-04-13 16:00:00,0,nan,nan,nan,nan,"(nan, nan)",nan,nan,nan,nan,nan,nan,nan,nan,"(139, 259)",no pil E/W
2011-04-13 16:12:00,0,nan,nan,nan,nan,"(nan, nan)",nan,nan,nan,nan,nan,nan,nan,nan,"(139, 259)",no pil E/W
2011-04-13 16:24:00,0,nan,nan,nan,nan,"(nan, nan)",nan,nan,nan,nan,nan,nan,nan,nan,"(139, 259)",no pil E/W
2011-04-13 16:36:00,0,nan,nan,nan,nan,"(nan, nan)",nan,nan,nan,nan,nan,nan,nan,nan,"(139, 259)",no pil E/W
2011-04-13 16:48:00,0,nan,nan,nan,nan,"(nan, nan)",nan,nan,nan,nan,nan,nan,nan,nan,"(139, 259)",no pil E/W
2011-04-13 17:00:00,0,nan,nan,nan,nan,"(nan, nan)",nan,nan,nan,nan,nan,nan,nan,nan,"(139, 259)",no pil E/W
2011-04-13 17:12:00,0,nan,nan,nan,nan,"(nan, nan)",nan,nan,nan,nan,nan,nan,nan,nan,"(139, 259)",no pil E/W
2011-04-13 17:24:00,0,nan,nan,nan,nan,"(nan, nan)",nan,nan,nan,nan,nan,nan,nan,nan,"(139, 259)",no pil E/W
2011-04-13 17:36:00,0,nan,nan,nan,nan,"(nan, nan)",nan,nan,nan,nan,nan,nan,nan,nan,"(139, 259)",no pil E/W
2011-04-13 17:48:00,0,nan,nan,nan,nan,"(nan, nan)",nan,nan,nan,nan,nan,nan,nan,nan,"(139, 259)",no pil E/W
2011-04-13 18:00:00,0,nan,nan,nan,nan,"(nan, nan)",nan,nan,nan,nan,nan,nan,nan,nan,"(139, 259)",no pil E/W
2011-04-14 03:24:00,0,nan,nan,nan,nan,"(nan, nan)",nan,nan,nan,nan,nan,nan,nan,nan,"(139, 259)",no pil E/W
2011-04-14 03:36:00,0,nan,nan,nan,nan,"(nan, nan)",nan,nan,nan,nan,nan,nan,nan,nan,"(139, 259)",no pil E/W
2011-04-14 03:48:00,0,nan,nan,nan,nan,"(nan, nan)",nan,nan,nan,nan,nan,nan,nan,nan,"(139, 259)",no pil E/W
2011-04-14 04:00:00,0,nan,nan,nan,nan,"(nan, nan)",nan,nan,nan,nan,nan,nan,nan,nan,"(139, 259)",no pil E/W
2011-04-14 04:12:00,0,nan,nan,nan,nan,"(nan, nan)",nan,nan,nan,nan,nan,nan,nan,nan,"(139, 259)",no pil E/W
2011-04-14 04:24:00,0,nan,nan,nan,nan,"(nan, nan)",nan,nan,nan,nan,nan,nan,nan,nan,"(139, 259)",no pil E/W
2011-04-14 04:36:00,0,nan,nan,nan,nan,"(nan, nan)",nan,nan,nan,nan,nan,nan,nan,nan,"(139, 259)",no pil E/W
2011-04-14 04:48:00,0,nan,nan,nan,nan,"(nan, nan)",nan,nan,nan,nan,nan,nan,nan,nan,"(139, 259)",no pil E/W
2011-04-14 05:00:00,0,nan,nan,nan,nan,"(nan, nan)",nan,nan,nan,nan,nan,nan,nan,nan,"(139, 259)",no pil E/W
2011-04-14 05:12:00,0,nan,nan,nan,nan,"(nan, nan)",nan,nan,nan,nan,nan,nan,nan,nan,"(139, 259)",no pil E/W
2011-04-14 05:24:00,0,nan,nan,nan,nan,"(nan, nan)",nan,nan,nan,nan,nan,nan,nan,nan,"(139, 259)",no pil E/W
2011-04-14 05:36:00,0,nan,nan,nan,nan,"(nan, nan)",nan,nan,nan,nan,nan,nan,nan,nan,"(139, 259)",no pil E/W
2011-04-14 05:48:00,0,nan,nan,nan,nan,"(nan, nan)",nan,nan,nan,nan,nan,nan,nan,nan,"(139, 259)",no pil E/W
2011-04-14 06:00:00,0,nan,nan,nan,nan,"(nan, nan)",nan,nan,nan,nan,nan,nan,nan,nan,"(139, 259)",no pil E/W
2011-04-14 06:12:00,1,15,15,565.9,0.5337057144505503,"(12.151353025465468, 2.5343612602488177)",1.6852116395368015,0.9137777777777777,0.35807130864197534,0.4497672722962987,0.06254693978600867,-0.0060685595007303845,-0.022304254282564877,-0.008557256594054131,"(139, 259)",detected
2011-04-14 06:24:00,1,15,22,769.9,0.49612937076000824,"(13.019303604526732, 3.009267824044696)",1.7680543520114205,0.49866666666666665,0.09698449382716051,0.0675881576296294,0.009064766683127523,-0.00020568898800614842,-0.0026532476439176736,-8.963929566012467e-05,"(139, 259)",detected
2011-04-14 06:36:00,1,16,24,1286.5,0.5654760603557573,"(13.766594878713743, 2.1584051212862554)",1.7544417382415922,0.466552734375,0.11565691232681274,0.054914994689170264,0.008842699753586203,4.405872553975465e-05,0.0005806744265868249,-0.00018981376307569036,"(139, 259)",detected
2011-04-14 06:48:00,0,nan,nan,nan,nan,"(nan, nan)",nan,nan,nan,nan,nan,nan,nan,nan,"(139, 259)",no pil E/W
2011-04-14 07:00:00,0,nan,nan,nan,nan,"(nan, nan)",nan,nan,nan,nan,nan,nan,nan,nan,"(139, 259)",no pil E/W
2011-04-14 07:12:00,0,nan,nan,nan,nan,"(nan, nan)",nan,nan,nan,nan,nan,nan,nan,nan,"(139, 259)",no pil E/W
2011-04-14 07:24:00,0,nan,nan,nan,nan,"(nan, nan)",nan,nan,nan,nan,nan,nan,nan,nan,"(139, 259)",no pil E/W
2011-04-14 07:36:00,0,nan,nan,nan,nan,"(nan, nan)",nan,nan,nan,nan,nan,nan,nan,nan,"(139, 259)",no pil E/W
2011-04-14 07:48:00,0,nan,nan,nan,nan,"(nan, nan)",nan,nan,nan,nan,nan,nan,nan,nan,"(139, 259)",no pil E/W
2011-04-14 08:00:00,0,nan,nan,nan,nan,"(nan, nan)",nan,nan,nan,nan,nan,nan,nan,nan,"(139, 259)",no pil E/W
2011-04-14 08:12:00,0,nan,nan,nan,nan,"(nan, nan)",nan,nan,nan,nan,nan,nan,nan,nan,"(139, 259)",no pil E/W
2011-04-14 08:24:00,0,nan,nan,nan,nan,"(nan, nan)",nan,nan,nan,nan,nan,nan,nan,nan,"(139, 259)",no pil E/W
2011-04-14 08:36:00,1,15,32,1212.3,0.46755794218857966,"(3.13210595139777, 4.629798810506992)",1.2714045207910316,0.09659259259259259,0.0003473733882030179,6.267761296550359e-05,1.5226660976474953e-06,1.0069452850308853e-11,1.519423848138646e-09,1.0948887173201816e-11,"(139, 259)",detected
2011-04-14 08:48:00,0,nan,nan,nan,nan,"(nan, nan)",nan,nan,nan,nan,nan,nan,nan,nan,"(139, 259)",no pil E/W
2011-04-14 09:00:00,0,nan,nan,nan,nan,"(nan, nan)",nan,nan,nan,nan,nan,nan,nan,nan,"(139, 259)",no pil E/W
2011-04-14 09:12:00,0,nan,nan,nan,nan,"(nan, nan)",nan,nan,nan,nan,nan,nan,nan,nan,"(139, 259)",no pil E/W
2011-04-14 09:24:00,0,nan,nan,nan,nan,"(nan, nan)",nan,nan,nan,nan,nan,nan,nan,nan,"(139, 259)",no pil E/W
2011-04-14 09:36:00,1,21,36,2456.4,0.5859935715521984,"(30.974472383553874, 1.13505142596993)",1.6404641651574206,0.48540474390814536,0.20347969852156955,0.013729101803314174,0.004588992303697419,3.506930406472337e-05,0.0019411741590356878,-9.844249055233714e-06,"(139, 259)",detected
2011-04-14 09:48:00,1,15,23,1547.9,0.49612937076000824,"(20.050546203445133, 0.21612046322153405)",1.4666666666666666,0.2522074074074074,0.06092426359396433,0.0005298610480239877,5.835195270314575e-05,-1.0247516441019604e-08,-1.4361426954379315e-05,-5.13922222527481e-10,"(139, 259)",detected
2011-04-14 10:00:00,1,16,30,1787.0,0.49612937076000824,"(22.730721550171467, 0.18594511649520357)",1.4375,0.335693359375,0.10906225442886353,0.00042799307266250253,4.548026481643319e-05,-6.0144047804110265e-09,-1.4995755478253159e-05,-2.0223487884329927e-09,"(139, 259)",detected
2011-04-14 10:12:00,1,16,24,1352.7,0.49612937076000824,"(22.666666666666668, 0.0)",0.875,0.4427083333333333,0.19599066840277776,0.0,0.0,0.0,0.0,0.0,"(139, 259)",detected
2011-04-14 10:24:00,1,15,44,4067.4,0.40000000000000024,"(20.0, 0.0)",0.8666666666666667,0.6222222222222222,0.3871604938271605,0.0,0.0,0.0,0.0,0.0,"(139, 259)",detected
2011-04-14 10:36:00,1,16,46,4939.3,0.40000000000000024,"(22.666666666666668, 0.0)",0.875,0.6640625,0.44097900390625,0.0,0.0,0.0,0.0,0.0,"(139, 259)",detected
2011-04-14 10:48:00,1,16,46,4976.2,0.49612937076000824,"(22.671655568850774, 0.39501109781589333)",1.6638325214724776,0.67578125,0.425933837890625,0.0248565673828125,0.002761840820312499,-2.2378982976078977e-05,-0.0017860531806945794,-4.777684807777402e-06,"(139, 259)",detected
2011-04-14 11:00:00,1,16,46,4642.0,0.49612937076000824,"(22.822992272810115, 0.37700772718988473)",1.4633883476483185,0.453125,0.1921929253472222,0.006357828776041666,0.0007064254195601851,-1.2623636749546221e-06,-0.0002787436968014564,8.048466694207837e-07,"(139, 259)",detected
2011-04-14 11:12:00,1,15,48,5239.2,0.49612937076000824,"(20.150100858075465, 0.4213277133531035)",1.4276142374915397,0.32,0.09418271604938272,0.0027407407407407406,0.0003045267489711934,-2.196819590509577e-07,-8.179240969364426e-05,1.707056851089773e-07,"(139, 259)",detected
2011-04-14 11:24:00,1,14,51,6845.4,0.40000000000000024,"(17.659703924797054, 0.3732631081699812)",1.3867295401695068,0.5980320699708456,0.3286440226861257,0.01602739510064137,0.0017547645276170948,-7.0407891991428994e-06,-0.0008578433386296478,6.085031198393976e-06,"(139, 259)",detected
2011-04-14 11:36:00,1,14,42,6094.8,0.40000000000000024,"(17.671915074957557, 0.07533767229518881)",1.2857142857142858,0.39237123420796893,0.1513521033847386,0.0005720910524801079,6.867673976867795e-05,-9.204962738040174e-09,-2.1929801104428653e-05,1.0028791535987078e-08,"(139, 259)",detected
2011-04-14 11:48:00,0,nan,nan,nan,nan,"(nan, nan)",nan,nan,nan,nan,nan,nan,nan,nan,"(139, 259)",no pil E/W
2011-04-14 12:00:00,0,nan,nan,nan,nan,"(nan, nan)",nan,nan,nan,nan,nan,nan,nan,nan,"(139, 259)",no pil E/W
2011-04-14 12:12:00,0,nan,nan,nan,nan,"(nan, nan)",nan,nan,nan,nan,nan,nan,nan,nan,"(139, 259)",no pil E/W
2011-04-14 12:24:00,0,nan,nan,nan,nan,"(nan, nan)",nan,nan,nan,nan,nan,nan,nan,nan,"(139, 259)",no pil E/W
2011-04-14 12:36:00,0,nan,nan,nan,nan,"(nan, nan)",nan,nan,nan,nan,nan,nan,nan,nan,"(139, 259)",no pil E/W
2011-04-14 12:48:00,0,nan,nan,nan,nan,"(nan, nan)",nan,nan,nan,nan,nan,nan,nan,nan,"(139, 259)",no pil E/W
2011-04-14 13:00:00,0,nan,nan,nan,nan,"(nan, nan)",nan,nan,nan,nan,nan,nan,nan,nan,"(139, 259)",no pil E/W
2011-04-14 13:12:00,0,nan,nan,nan,nan,"(nan, nan)",nan,nan,nan,nan,nan,nan,nan,nan,"(139, 259)",no pil E/W
2011-04-14 13:24:00,0,nan,nan,nan,nan,"(nan, nan)",nan,nan,nan,nan,nan,nan,nan,nan,"(139, 259)",no pil E/W
2011-04-14 13:36:00,0,nan,nan,nan,nan,"(nan, nan)",nan,nan,nan,nan,nan,nan,nan,nan,"(139, 259)",no pil E/W
2011-04-14 13:48:00,0,nan,nan,nan,nan,"(nan, nan)",nan,nan,nan,nan,nan,nan,nan,nan,"(139, 259)",no pil E/W
2011-04-14 14:00:00,0,nan,nan,nan,nan,"(nan, nan)",nan,nan,nan,nan,nan,nan,nan,nan,"(139, 259)",no pil E/W
2011-04-14 14:12:00,0,nan,nan,nan,nan,"(nan, nan)",nan,nan,nan,nan,nan,nan,nan,nan,"(139, 259)",no pil E/W
2011-04-14 14:24:00,0,nan,nan,nan,nan,"(nan, nan)",nan,nan,nan,nan,nan,nan,nan,nan,"(139, 259)",no pil E/W
2011-04-14 14:36:00,0,nan,nan,nan,nan,"(nan, nan)",nan,nan,nan,nan,nan,nan,nan,nan,"(139, 259)",no pil E/W
2011-04-14 14:48:00,0,nan,nan,nan,nan,"(nan, nan)",nan,nan,nan,nan,nan,nan,nan,nan,"(139, 259)",no pil E/W
2011-04-14 15:00:00,0,nan,nan,nan,nan,"(nan, nan)",nan,nan,nan,nan,nan,nan,nan,nan,"(139, 259)",no pil E/W
2011-04-14 15:12:00,0,nan,nan,nan,nan,"(nan, nan)",nan,nan,nan,nan,nan,nan,nan,nan,"(139, 259)",no pil E/W
2011-04-14 15:24:00,0,nan,nan,nan,nan,"(nan, nan)",nan,nan,nan,nan,nan,nan,nan,nan,"(139, 259)",no pil E/W
2011-04-14 15:36:00,0,nan,nan,nan,nan,"(nan, nan)",nan,nan,nan,nan,nan,nan,nan,nan,"(139, 259)",no pil E/W
2011-04-14 15:48:00,0,nan,nan,nan,nan,"(nan, nan)",nan,nan,nan,nan,nan,nan,nan,nan,"(139, 259)",no pil E/W
2011-04-14 16:00:00,0,nan,nan,nan,nan,"(nan, nan)",nan,nan,nan,nan,nan,nan,nan,nan,"(139, 259)",no pil E/W
2011-04-14 16:12:00,0,nan,nan,nan,nan,"(nan, nan)",nan,nan,nan,nan,nan,nan,nan,nan,"(139, 259)",no pil E/W
2011-04-14 16:24:00,0,nan,nan,nan,nan,"(nan, nan)",nan,nan,nan,nan,nan,nan,nan,nan,"(139, 259)",no pil E/W
2011-04-14 16:36:00,1,14,28,2791.4,0.40000000000000024,"(2.1768479505610188, 11.966009192296127)",1.805583899503716,0.9380466472303206,0.4215659504118181,0.489583293322453,0.06199728471608519,-0.0021828548742095708,-0.009051269916866361,0.010578337404722263,"(139, 259)",detected
2011-04-14 16:48:00,0,nan,nan,nan,nan,"(nan, nan)",nan,nan,nan,nan,nan,nan,nan,nan,"(139, 259)",no pil E/W
2011-04-14 17:00:00,0,nan,nan,nan,nan,"(nan, nan)",nan,nan,nan,nan,nan,nan,nan,nan,"(139, 259)",no pil E/W
2011-04-14 17:12:00,0,nan,nan,nan,nan,"(nan, nan)",nan,nan,nan,nan,nan,nan,nan,nan,"(139, 259)",no pil E/W
2011-04-14 17:24:00,0,nan,nan,nan,nan,"(nan, nan)",nan,nan,nan,nan,nan,nan,nan,nan,"(139, 259)",no pil E/W
2011-04-14 17:36:00,1,15,38,3231.7,0.48427115649489827,"(3.348964744032068, 6.06055906549174)",1.5542472332656507,0.5854814814814815,0.02846691906721536,0.1867120416294265,0.021809416493014454,-0.00016369708977771377,0.0006201141325762509,0.001382060445881282,"(139, 259)",detected
2011-04-14 17:48:00,0,nan,nan,nan,nan,"(nan, nan)",nan,nan,nan,nan,nan,nan,nan,nan,"(139, 259)",no pil E/W
2011-04-14 18:00:00,0,nan,nan,nan,nan,"(nan, nan)",nan,nan,nan,nan,nan,nan,nan,nan,"(139, 259)",no pil E/W
2011-04-14 18:12:00,0,nan,nan,nan,nan,"(nan, nan)",nan,nan,nan,nan,nan,nan,nan,nan,"(139, 259)",no pil E/W
2011-04-14 18:24:00,0,nan,nan,nan,nan,"(nan, nan)",nan,nan,nan,nan,nan,nan,nan,nan,"(139, 259)",no pil E/W
2011-04-14 18:36:00,0,nan,nan,nan,nan,"(nan, nan)",nan,nan,nan,nan,nan,nan,nan,nan,"(139, 259)",no pil E/W
2011-04-14 18:48:00,0,nan,nan,nan,nan,"(nan, nan)",nan,nan,nan,nan,nan,nan,nan,nan,"(139, 259)",no pil E/W
2011-04-14 19:00:00,0,nan,nan,nan,nan,"(nan, nan)",nan,nan,nan,nan,nan,nan,nan,nan,"(139, 259)",no pil E/W
2011-04-14 19:12:00,0,nan,nan,nan,nan,"(nan, nan)",nan,nan,nan,nan,nan,nan,nan,nan,"(139, 259)",no pil E/W
2011-04-14 19:24:00,0,nan,nan,nan,nan,"(nan, nan)",nan,nan,nan,nan,nan,nan,nan,nan,"(139, 259)",no pil E/W
2011-04-14 19:36:00,0,nan,nan,nan,nan,"(nan, nan)",nan,nan,nan,nan,nan,nan,nan,nan,"(139, 259)",no pil E/W
2011-04-14 19:48:00,0,nan,nan,nan,nan,"(nan, nan)",nan,nan,nan,nan,nan,nan,nan,nan,"(139, 259)",no pil E/W
2011-04-14 20:00:00,0,nan,nan,nan,nan,"(nan, nan)",nan,nan,nan,nan,nan,nan,nan,nan,"(139, 259)",no pil E/W
2011-04-14 20:12:00,0,nan,nan,nan,nan,"(nan, nan)",nan,nan,nan,nan,nan,nan,nan,nan,"(139, 259)",no pil E/W
2011-04-14 20:24:00,0,nan,nan,nan,nan,"(nan, nan)",nan,nan,nan,nan,nan,nan,nan,nan,"(139, 259)",no pil E/W
2011-04-14 20:36:00,0,nan,nan,nan,nan,"(nan, nan)",nan,nan,nan,nan,nan,nan,nan,nan,"(139, 259)",no pil E/W
2011-04-14 20:48:00,0,nan,nan,nan,nan,"(nan, nan)",nan,nan,nan,nan,nan,nan,nan,nan,"(139, 259)",no pil E/W
2011-04-14 21:00:00,0,nan,nan,nan,nan,"(nan, nan)",nan,nan,nan,nan,nan,nan,nan,nan,"(139, 259)",no pil E/W
2011-04-14 21:12:00,0,nan,nan,nan,nan,"(nan, nan)",nan,nan,nan,nan,nan,nan,nan,nan,"(139, 259)",no pil E/W
2011-04-14 21:24:00,0,nan,nan,nan,nan,"(nan, nan)",nan,nan,nan,nan,nan,nan,nan,nan,"(139, 259)",no pil E/W
2011-04-14 21:36:00,0,nan,nan,nan,nan,"(nan, nan)",nan,nan,nan,nan,nan,nan,nan,nan,"(139, 259)",no pil E/W
2011-04-14 21:48:00,0,nan,nan,nan,nan,"(nan, nan)",nan,nan,nan,nan,nan,nan,nan,nan,"(139, 259)",no pil E/W
2011-04-14 22:00:00,0,nan,nan,nan,nan,"(nan, nan)",nan,nan,nan,nan,nan,nan,nan,nan,"(139, 259)",no pil E/W
2011-04-14 22:12:00,1,16,34,2433.6,0.5337057144505503,"(15.885880956466764, 1.8724523768665682)",1.6941626073623883,1.04052734375,0.6742041110992432,0.5184229114092886,0.07161537790670991,-0.0007806153469048028,-0.0075505269962832244,-0.013777026889639693,"(139, 259)",detected
2011-04-14 22:24:00,0,nan,nan,nan,nan,"(nan, nan)",nan,nan,nan,nan,nan,nan,nan,nan,"(139, 259)",no pil E/W
2011-04-14 22:36:00,0,nan,nan,nan,nan,"(nan, nan)",nan,nan,nan,nan,nan,nan,nan,nan,"(139, 259)",no pil E/W
2011-04-14 22:48:00,1,14,33,2710.0,0.49612937076000824,"(11.705792218424241, 1.6623396497076257)",1.6060915267313263,0.886661807580175,0.4437523108993701,0.2961893964026609,0.045766181446929136,-0.0008182202516128406,-0.004007414619897863,-0.005265264429014002,"(139, 259)",detected
2011-04-14 23:00:00,0,nan,nan,nan,nan,"(nan, nan)",nan,nan,nan,nan,nan,nan,nan,nan,"(139, 259)",no pil E/W
2011-04-14 23:12:00,0,nan,nan,nan,nan,"(nan, nan)",nan,nan,nan,nan,nan,nan,nan,nan,"(139, 259)",no pil E/W
2011-04-14 23:24:00,0,nan,nan,nan,nan,"(nan, nan)",nan,nan,nan,nan,nan,nan,nan,nan,"(139, 259)",no pil E/W
2011-04-14 23:36:00,0,nan,nan,nan,nan,"(nan, nan)",nan,nan,nan,nan,nan,nan,nan,nan,"(139, 259)",no pil E/W
2011-04-14 23:48:00,0,nan,nan,nan,nan,"(nan, nan)",nan,nan,nan,nan,nan,nan,nan,nan,"(139, 259)",no pil E/W
2011-04-15 00:00:00,0,nan,nan,nan,nan,"(nan, nan)",nan,nan,nan,nan,nan,nan,nan,nan,"(139, 259)",no pil E/W
2011-04-15 00:12:00,0,nan,nan,nan,nan,"(nan, nan)",nan,nan,nan,nan,nan,nan,nan,nan,"(139, 259)",no pil E/W
2011-04-15 00:24:00,0,nan,nan,nan,nan,"(nan, nan)",nan,nan,nan,nan,nan,nan,nan,nan,"(139, 259)",no pil E/W
2011-04-15 00:36:00,0,nan,nan,nan,nan,"(nan, nan)",nan,nan,nan,nan,nan,nan,nan,nan,"(139, 259)",no pil E/W
2011-04-15 00:48:00,0,nan,nan,nan,nan,"(nan, nan)",nan,nan,nan,nan,nan,nan,nan,nan,"(139, 259)",no pil E/W
2011-04-15 01:00:00,0,nan,nan,nan,nan,"(nan, nan)",nan,nan,nan,nan,nan,nan,nan,nan,"(139, 259)",no pil E/W
2011-04-15 01:12:00,0,nan,nan,nan,nan,"(nan, nan)",nan,nan,nan,nan,nan,nan,nan,nan,"(139, 259)",no pil E/W
2011-04-15 01:24:00,0,nan,nan,nan,nan,"(nan, nan)",nan,nan,nan,nan,nan,nan,nan,nan,"(139, 259)",no pil E/W
2011-04-15 01:36:00,0,nan,nan,nan,nan,"(nan, nan)",nan,nan,nan,nan,nan,nan,nan,nan,"(139, 259)",no pil E/W
2011-04-15 01:48:00,0,nan,nan,nan,nan,"(nan, nan)",nan,nan,nan,nan,nan,nan,nan,nan,"(139, 259)",no pil E/W
2011-04-15 02:00:00,0,nan,nan,nan,nan,"(nan, nan)",nan,nan,nan,nan,nan,nan,nan,nan,"(139, 259)",no pil E/W
2011-04-15 02:12:00,0,nan,nan,nan,nan,"(nan, nan)",nan,nan,nan,nan,nan,nan,nan,nan,"(139, 259)",no pil E/W
2011-04-15 02:24:00,1,14,44,3649.9,0.37142857142857166,"(16.58005685685035, 0.39247061567712177)",1.6158085959685462,1.125728862973761,1.1527596122788974,0.14048167986569127,0.020219072361982345,-0.0004749028612924318,-0.012730693937899133,-0.0009672939047062261,"(139, 259)",detected
2011-04-15 02:36:00,1,16,41,3476.1,0.37142857142857166,"(21.838923305382202, 0.5402433612844657)",1.853553390593274,0.6556396484375,0.38935698568820953,0.005403164752351586,0.0005059139584773219,-1.2040382561446104e-08,2.3228545571463157e-05,-8.363616278718972e-07,"(139, 259)",detected
2011-04-15 02:48:00,1,18,54,5329.0,0.46755794218857955,"(27.574456769687625, 0.7033210080901544)",1.7472081926836571,0.741855281207133,0.4969582186098736,0.04417830706967282,0.005183323282174092,-7.600890062541624e-05,-0.003428883613300472,-1.9362251925560994e-05,"(139, 259)",detected
2011-04-15 03:00:00,1,18,47,4737.0,0.37142857142857166,"(26.10036612192452, 0.4878691721931258)",1.6130852169962633,0.6975308641975309,0.45149367474470364,0.021904624643187133,0.004005177667887751,1.2166527335768992e-05,0.00038183893408498944,-3.548693496660534e-05,"(139, 259)",detected
2011-04-15 03:12:00,1,28,77,9583.9,0.6728784795823788,"(65.1968674578302, 0.6959896850269272)",1.7451414653813901,0.5673173287172013,0.30839453259159166,0.006063815242256183,0.000805595819781879,-6.862628490663624e-07,-0.00020409524554166502,-1.6429616391214718e-06,"(139, 259)",detected
2011-04-15 03:24:00,1,27,53,5033.9,0.6728784795823788,"(60.55761472171629, 0.7101915460899771)",1.7727392974325527,0.3641890633202933,0.12655521628278618,0.0017996208005059667,0.00023669067870707027,-6.413214222523529e-08,-3.998100928805615e-05,-1.4053482451321835e-07,"(139, 259)",detected
2011-04-15 03:36:00,2,40,110,9886.2,0.7002635959314124,"(23.224294902478277, 182.72378202059875)",2.2235281374238567,1.2047730205269533,0.4178811164639193,3.2953782249379966,1.887303350813022,4.698814681508434,1.0739903890293783,0.2720865244066708,"(139, 259)",detected
2011-04-15 03:48:00,2,43,122,10463.5,0.7581272279440744,"(29.324263016421668, 169.83299058269242)",2.1069297615452713,1.4552660153198356,0.5700273267604861,4.344555267772695,2.1313997537591507,6.296102075213736,1.1283541854299977,1.5575478063642283,"(139, 259)",detected
2011-04-15 04:00:00,1,16,74,9217.1,0.49612937076000824,"(21.47704838356962, 0.4896182830970466)",1.866497564417433,0.32177734375,0.09451508522033691,0.0009144865907728672,0.00016903365030884743,4.5959040746940474e-08,3.081058071074949e-05,-4.800474880106709e-08,"(139, 259)",detected
2011-04-15 04:12:00,2,30,68,5092.1,0.6647046430425834,"(10.32574502631644, 247.7719561231088)",2.9213203435596427,3.214050925925926,7.756857377079045,40.288365487838476,33.85969462363616,1250.4094473208888,93.9081350444569,21.15281910078329,"(139, 259)",detected
2011-04-15 04:24:00,1,15,49,4444.1,0.4549946429601654,"(4.452796445547746, 5.271013078261777)",1.3266329957741112,0.605037037037037,0.0025919561042523943,0.0022884869956815634,0.0011066464713712912,-1.6661293693061342e-06,-3.496888943273978e-05,-5.705585167190377e-07,"(139, 259)",detected
2011-04-15 04:36:00,0,nan,nan,nan,nan,"(nan, nan)",nan,nan,nan,nan,nan,nan,nan,nan,"(139, 259)",no pil E/W
2011-04-15 04:48:00,1,18,64,6520.5,0.5337057144505503,"(21.799164642413547, 2.0831882987629236)",1.8047378541243648,0.3132716049382716,0.06688433546715439,0.008776410798658738,0.0016189547028738842,3.6143558942080135e-06,0.00022282695414971323,-4.917052563972128e-06,"(139, 259)",detected
2011-04-15 05:00:00,1,18,56,6142.2,0.49612937076000824,"(22.901393809947148, 1.4286715495299824)",1.8047378541243648,0.18236821477562215,0.025905140721747325,0.0002453828290981345,0.0001065370121808081,1.701018942981152e-08,1.681546648334832e-05,-2.7152708034779823e-09,"(139, 259)",detected
2011-04-15 05:12:00,2,30,97,9457.9,0.5337057144505499,"(90.43334014552862, 3.3528667510231234)",2.1737734478532142,0.37799105190260973,0.1236432542379416,0.01099035562039715,0.0062844471052285,5.169708301012323e-05,0.0016568759854343274,-7.4306399022260745e-06,"(139, 259)",detected
2011-04-15 05:24:00,1,22,68,6463.2,0.6010507031510866,"(27.135381761084105, 2.5724104467081013)",1.7635904487828784,0.2577948910593539,0.04543281638340424,0.004169583191148032,0.00043719811679231765,-3.1318191464405125e-07,-6.49929521420225e-05,-5.003565487761946e-07,"(139, 259)",detected
2011-04-15 05:36:00,0,nan,nan,nan,nan,"(nan, nan)",nan,nan,nan,nan,nan,nan,nan,nan,"(139, 259)",no pil E/W
2011-04-15 05:48:00,0,nan,nan,nan,nan,"(nan, nan)",nan,nan,nan,nan,nan,nan,nan,nan,"(139, 259)",no pil E/W
2011-04-15 06:00:00,0,nan,nan,nan,nan,"(nan, nan)",nan,nan,nan,nan,nan,nan,nan,nan,"(139, 259)",no pil E/W
2011-04-15 06:12:00,0,nan,nan,nan,nan,"(nan, nan)",nan,nan,nan,nan,nan,nan,nan,nan,"(139, 259)",no pil E/W
2011-04-15 06:24:00,1,16,32,1805.2,0.49612937076000824,"(2.0497720753003783, 16.979394591366287)",1.8472718241315027,0.5574951171875,0.19131113588809967,0.0810643140648608,0.009294025083363522,-0.00021785341338723804,-0.0034496962027512615,0.00013273637225764954,"(139, 259)",detected
2011-04-15 06:36:00,2,36,82,4774.5,0.540901959123548,"(223.78063910296956, 14.16221803988751)",2.510688230856951,3.865886805873089,11.337665575974484,18.137385881759176,18.376664712036728,335.46010871120586,60.95465830083133,4.9092535010968845,"(139, 259)",detected
2011-04-15 06:48:00,2,32,110,11655.5,0.5249706768639238,"(310.4238680245413, 8.054962620619985)",3.0928300858899105,5.767704716435186,30.293231375750533,53.08304752703607,66.74087804932715,3971.93477886078,367.1441133126927,68.02842362985274,"(139, 259)",detected
2011-04-15 07:00:00,1,17,67,5267.6,0.6010507031510866,"(24.948699111666492, 1.6910067706864491)",2.0104511488037464,0.7374313047018118,0.4144933153790261,0.09217309088738683,0.014794934813968125,0.0001129010939304715,-0.0029872391371722723,0.0005345583639628489,"(139, 259)",detected
2011-04-15 07:12:00,1,24,78,6652.8,0.628571428571429,"(47.99684275990943, 1.2984470951630254)",1.9672168098165177,0.6561294367283951,0.3863421717607254,0.0007782107658798891,0.0004950788170363072,3.072795200783451e-07,0.0003064364026089947,3.3958012282915628e-09,"(139, 259)",detected
2011-04-15 07:24:00,1,23,68,5295.0,0.44001062264556623,"(50.51213339230461, 1.6064436827942075)",1.8952992648711644,0.7225007534040164,0.459632028825118,0.045429894404510035,0.009446245590985744,0.00010960549426151275,0.0013169320587289157,0.00016210995821598926,"(139, 259)",detected
2011-04-15 07:36:00,0,nan,nan,nan,nan,"(nan, nan)",nan,nan,nan,nan,nan,nan,nan,nan,"(139, 259)",no pil E/W
2011-04-15 07:48:00,1,19,61,5408.1,0.34390784600822927,"(35.66172052352192, 1.3792151489926945)",1.8913173075023366,1.846916460125383,2.921969725681193,1.677660568487995,0.3878656799172996,0.18870934711434828,0.07067505254118966,0.24956161054701895,"(139, 259)",detected
2011-04-15 08:00:00,1,19,55,4933.5,0.34390784600822927,"(36.41056568216347, 0.9578553704681001)",1.9040878699822994,1.8632453710453425,3.124852269213536,1.066733781979359,0.22767958554254786,0.05529916563558546,-0.00039258962314664414,0.09763235895148395,"(139, 259)",detected
2011-04-15 08:12:00,1,19,52,4220.4,0.34390784600822927,"(34.11730450156307, 1.7189528083784467)",1.9349187351205577,1.7868493949555333,2.609614984147073,1.6827327686656304,0.30458166341783427,0.037152071489498034,-0.11799671994110386,0.21486527002039568,"(139, 259)",detected
2011-04-15 08:24:00,1,22,58,4848.7,0.4625564288598913,"(43.77590361427097, 2.1396808013134407)",1.924965563859886,0.9961025544703231,0.8158879570933486,0.273766094968008,0.042008277105543945,-0.0002943718531885262,-0.01706846223891991,0.0044953444409828874,"(139, 259)",detected
2011-04-15 08:36:00,1,21,52,4361.3,0.3990224081332026,"(39.16212238915797, 1.5474014203658366)",1.881943584770062,0.9231184537306989,0.7275092340948944,0.17368731671698864,0.02379716510550957,-0.0006061725728131958,-0.01357035796390094,0.0014047220903773226,"(139, 259)",detected
2011-04-15 08:48:00,1,21,42,2901.3,0.3990224081332026,"(36.4411841016959, 1.6778635173517273)",1.881943584770062,0.8643774970305584,0.6213915282469175,0.14345064143680475,0.01693836391888758,-0.000831581138330224,-0.01334983505990161,7.488515915460325e-05,"(139, 259)",detected
2011-04-15 09:00:00,0,nan,nan,nan,nan,"(nan, nan)",nan,nan,nan,nan,nan,nan,nan,nan,"(139, 259)",no pil E/W
2011-04-15 09:12:00,0,nan,nan,nan,nan,"(nan, nan)",nan,nan,nan,nan,nan,nan,nan,nan,"(139, 259)",no pil E/W
2011-04-15 09:24:00,1,25,55,3327.9,0.3881417857348905,"(55.1430043090178, 2.436995690982192)",1.990538238691624,1.1055359999999999,1.0240536616960003,0.34154710810892996,0.04527911797660143,-0.002872194266684203,-0.03211300698768494,0.004843213960309894,"(139, 259)",detected
2011-04-15 09:36:00,1,23,53,3448.4,0.34390784600822927,"(45.36448277045857, 1.2125923283556452)",1.8742000746868788,0.6456809402482122,0.3746192714719933,0.03740160548446516,0.004336065438449341,-5.255074146295367e-05,-0.0026175127261119898,1.6957656701821395e-05,"(139, 259)",detected
2011-04-15 09:48:00,1,26,67,5370.6,0.4232974083392473,"(57.555214160679775, 1.8186319931663613)",1.8887154506845467,0.7319261113639811,0.47208998085542186,0.06641182221920307,0.007575382528010043,-0.000169764285099951,-0.005178094576370425,-7.134863050896347e-06,"(139, 259)",detected
2011-04-15 10:00:00,1,26,70,5407.7,0.44001062264556623,"(57.81213338226846, 2.004789694654601)",1.9205780324055541,0.7373881049916554,0.47328944479388174,0.07334673246016422,0.008612538295090942,-0.0002097113764917775,-0.005854500417429186,5.364807408541885e-05,"(139, 259)",detected
2011-04-15 10:12:00,1,29,68,4919.9,0.5039145170306036,"(69.26541110188239, 2.6065100803836296)",1.9085945656868102,0.7976273456612953,0.5472652348216259,0.09615076169322978,0.011447669111889734,-0.0003743189420535761,-0.008229145006905737,-6.427581766231086e-05,"(139, 259)",detected
2011-04-15 10:24:00,1,27,70,5768.4,0.41573562243952145,"(59.47632636710915, 2.1533032625204833)",1.8711413066730114,0.7326796389439281,0.46441613755515965,0.06790919860002717,0.008484013083987416,-0.00015213042528905603,-0.004558125472119945,-0.00013537428148391203,"(139, 259)",detected
2011-04-15 10:36:00,1,30,76,5572.3,0.5039145170306036,"(73.90852935315507, 3.5546890376495432)",1.91164141349725,0.8320123456790123,0.5710104875781129,0.12091900006847797,0.014372492270095776,-0.0005243109290253806,-0.009298238468671317,-0.00028999143497986357,"(139, 259)",detected
2011-04-15 10:48:00,1,28,69,4719.5,0.4232974083392473,"(67.40346067982307, 1.8915128651504833)",1.8670776640375721,0.7954780126336249,0.5655798362405363,0.06072703925223676,0.007449530983291313,-0.00010400134818247945,-0.0041074369139241056,-0.0001195375296915,"(139, 259)",detected
2011-04-15 11:00:00,1,17,44,2789.4,0.46755794218857966,"(25.29127412440151, 0.5763729344220174)",1.8398926231207071,0.47737295610285635,0.2080269143922488,0.011251263142685038,0.001361704361041288,-5.2432430608618585e-06,-0.0006163014779434166,9.576001081262531e-07,"(139, 259)",detected
2011-04-15 11:12:00,1,17,32,1903.9,0.3121375001030224,"(25.02028279223306, 0.30324661953164983)",1.6491490532901611,0.35049867697944226,0.1170353567917299,0.002253741695250424,0.0002591106293506892,-1.8861669740387054e-07,-8.35881774083736e-05,-6.025279822223713e-08,"(139, 259)",detected
2011-04-15 11:24:00,1,18,38,2427.2,0.3121375001030224,"(28.420925506607432, 0.523518937837014)",1.7932319218362234,0.5062299954275263,0.2380635888764908,0.011272191384147572,0.00135670908759845,-4.317959814324706e-06,-0.0006236486164128177,3.0829507016521757e-06,"(139, 259)",detected
2011-04-15 11:36:00,1,17,43,3959.6,0.3121375001030224,"(24.96990519223666, 0.3536242195280509)",1.6735145569591665,0.7009973539588845,0.4643325928969897,0.02160402285780724,0.0024514366146640215,-1.7679228326990342e-05,-0.0016273768472659655,-2.39072515762559e-06,"(139, 259)",detected
2011-04-15 11:48:00,1,19,48,4251.0,0.34390784600822927,"(30.376993513327193, 0.9738836796552608)",1.773283587127638,0.7816008164455461,0.5373498691628286,0.06761603288388505,0.007837900371343505,-0.00018032025750501968,-0.005691786758664718,6.476406182563506e-06,"(139, 259)",detected
2011-04-15 12:00:00,1,20,50,4601.4,0.34390784600822927,"(33.525149952756514, 1.0932710998750734)",1.784619407771256,0.41109375000000004,0.1483240087890626,0.009806643704223631,0.0011205528839111343,-3.694510115862408e-06,-0.0004290954742901832,3.85534993979595e-07,"(139, 259)",detected
2011-04-15 12:12:00,1,20,50,4355.5,0.34390784600822927,"(33.525149952756514, 1.0932710998750734)",1.784619407771256,0.548125,0.263687126736111,0.023245377669270827,0.002656125354456023,-2.075818029433804e-05,-0.0013561535977566284,2.1661883886700127e-06,"(139, 259)",detected
2011-04-15 12:24:00,1,17,44,3746.4,0.3121375001030224,"(24.907241911658755, 0.4089345589294834)",1.6735145569591665,0.7007938123346223,0.45989262630383354,0.023722704110661904,0.0026664900375208706,-2.1207230216256346e-05,-0.001783488020749029,-1.2947069148076306e-07,"(139, 259)",detected
2011-04-15 12:36:00,1,16,43,3457.5,0.3121375001030224,"(22.260358350811305, 0.6021416491886964)",1.79327425971407,0.6697998046875,0.40261317789554596,0.03607290180661948,0.004222674651828128,-5.149842398759252e-05,-0.0026731589744040103,8.000062071647438e-06,"(139, 259)",detected
2011-04-15 12:48:00,0,nan,nan,nan,nan,"(nan, nan)",nan,nan,nan,nan,nan,nan,nan,nan,"(139, 259)",no pil E/W
2011-04-15 13:00:00,0,nan,nan,nan,nan,"(nan, nan)",nan,nan,nan,nan,nan,nan,nan,nan,"(139, 259)",no pil E/W
2011-04-15 13:12:00,0,nan,nan,nan,nan,"(nan, nan)",nan,nan,nan,nan,nan,nan,nan,nan,"(139, 259)",no pil E/W
2011-04-15 13:24:00,0,nan,nan,nan,nan,"(nan, nan)",nan,nan,nan,nan,nan,nan,nan,nan,"(139, 259)",no pil E/W
2011-04-15 13:36:00,0,nan,nan,nan,nan,"(nan, nan)",nan,nan,nan,nan,nan,nan,nan,nan,"(139, 259)",no pil E/W
2011-04-15 13:48:00,0,nan,nan,nan,nan,"(nan, nan)",nan,nan,nan,nan,nan,nan,nan,nan,"(139, 259)",no pil E/W
2011-04-15 14:00:00,0,nan,nan,nan,nan,"(nan, nan)",nan,nan,nan,nan,nan,nan,nan,nan,"(139, 259)",no pil E/W
2011-04-15 14:12:00,0,nan,nan,nan,nan,"(nan, nan)",nan,nan,nan,nan,nan,nan,nan,nan,"(139, 259)",no pil E/W
2011-04-15 14:24:00,0,nan,nan,nan,nan,"(nan, nan)",nan,nan,nan,nan,nan,nan,nan,nan,"(139, 259)",no pil E/W
2011-04-15 14:36:00,0,nan,nan,nan,nan,"(nan, nan)",nan,nan,nan,nan,nan,nan,nan,nan,"(139, 259)",no pil E/W
2011-04-15 14:48:00,1,15,46,4095.9,0.46755794218857966,"(21.029382098950286, 0.6372845677163796)",1.712825877028341,1.3481481481481479,1.6099590672153625,0.37911422640857373,0.058586899964435,-0.0007698694969030333,-0.038660683922567815,0.00869743215246643,"(139, 259)",detected
2011-04-15 15:00:00,1,15,42,3210.9,0.46755794218857966,"(21.029382098950286, 0.6372845677163796)",1.712825877028341,1.3481481481481479,1.6099590672153625,0.37911422640857373,0.058586899964435,-0.0007698694969030333,-0.038660683922567815,0.00869743215246643,"(139, 259)",detected
2011-04-15 15:12:00,1,17,39,2684.7,0.46755794218857966,"(24.507455699225194, 0.830779594892453)",1.7466110679661835,0.7014044372074091,0.4295618999576969,0.04979715211570866,0.005835106905025852,-9.937213831562439e-05,-0.0037559167629830957,-4.324453737483053e-06,"(139, 259)",detected
2011-04-15 15:24:00,1,15,34,2036.5,0.46755794218857966,"(20.54620689846328, 0.2347454824891022)",1.5633164978870553,0.6465185185185185,0.39931294375857346,0.007825288499517271,0.0012197783638672854,2.1097912869270806e-07,-0.0003464742229710952,3.762616030269207e-06,"(139, 259)",detected
2011-04-15 15:36:00,0,nan,nan,nan,nan,"(nan, nan)",nan,nan,nan,nan,nan,nan,nan,nan,"(139, 259)",no pil E/W
2011-04-15 15:48:00,1,15,34,2174.4,0.46755794218857966,"(20.118885411701626, 0.5477812549650387)",1.6575974020452617,1.2859259259259257,1.482933552812071,0.2841471928466227,0.036473634791444554,-0.0022584899683015763,-0.037347557542510464,0.002947297694279083,"(139, 259)",detected
2011-04-15 16:00:00,0,nan,nan,nan,nan,"(nan, nan)",nan,nan,nan,nan,nan,nan,nan,nan,"(139, 259)",no pil E/W
2011-04-15 16:12:00,0,nan,nan,nan,nan,"(nan, nan)",nan,nan,nan,nan,nan,nan,nan,nan,"(139, 259)",no pil E/W
2011-04-15 16:24:00,0,nan,nan,nan,nan,"(nan, nan)",nan,nan,nan,nan,nan,nan,nan,nan,"(139, 259)",no pil E/W
2011-04-15 16:36:00,0,nan,nan,nan,nan,"(nan, nan)",nan,nan,nan,nan,nan,nan,nan,nan,"(139, 259)",no pil E/W
2011-04-15 16:48:00,0,nan,nan,nan,nan,"(nan, nan)",nan,nan,nan,nan,nan,nan,nan,nan,"(139, 259)",no pil E/W
2011-04-15 17:00:00,0,nan,nan,nan,nan,"(nan, nan)",nan,nan,nan,nan,nan,nan,nan,nan,"(139, 259)",no pil E/W
2011-04-15 17:12:00,0,nan,nan,nan,nan,"(nan, nan)",nan,nan,nan,nan,nan,nan,nan,nan,"(139, 259)",no pil E/W
2011-04-15 17:24:00,0,nan,nan,nan,nan,"(nan, nan)",nan,nan,nan,nan,nan,nan,nan,nan,"(139, 259)",no pil E/W
2011-04-15 17:36:00,0,nan,nan,nan,nan,"(nan, nan)",nan,nan,nan,nan,nan,nan,nan,nan,"(139, 259)",no pil E/W
2011-04-15 17:48:00,0,nan,nan,nan,nan,"(nan, nan)",nan,nan,nan,nan,nan,nan,nan,nan,"(139, 259)",no pil E/W
2011-04-15 18:00:00,0,nan,nan,nan,nan,"(nan, nan)",nan,nan,nan,nan,nan,nan,nan,nan,"(139, 259)",no pil E/W
2011-04-15 18:12:00,0,nan,nan,nan,nan,"(nan, nan)",nan,nan,nan,nan,nan,nan,nan,nan,"(139, 259)",no pil E/W
2011-04-15 18:24:00,0,nan,nan,nan,nan,"(nan, nan)",nan,nan,nan,nan,nan,nan,nan,nan,"(139, 259)",no pil E/W
2011-04-15 18:36:00,0,nan,nan,nan,nan,"(nan, nan)",nan,nan,nan,nan,nan,nan,nan,nan,"(139, 259)",no pil E/W
2011-04-15 18:48:00,0,nan,nan,nan,nan,"(nan, nan)",nan,nan,nan,nan,nan,nan,nan,nan,"(139, 259)",no pil E/W
2011-04-15 19:00:00,0,nan,nan,nan,nan,"(nan, nan)",nan,nan,nan,nan,nan,nan,nan,nan,"(139, 259)",no pil E/W
2011-04-15 19:12:00,0,nan,nan,nan,nan,"(nan, nan)",nan,nan,nan,nan,nan,nan,nan,nan,"(139, 259)",no pil E/W
2011-04-15 19:24:00,0,nan,nan,nan,nan,"(nan, nan)",nan,nan,nan,nan,nan,nan,nan,nan,"(139, 259)",no pil E/W
2011-04-15 19:36:00,0,nan,nan,nan,nan,"(nan, nan)",nan,nan,nan,nan,nan,nan,nan,nan,"(139, 259)",no pil E/W
2011-04-15 19:48:00,0,nan,nan,nan,nan,"(nan, nan)",nan,nan,nan,nan,nan,nan,nan,nan,"(139, 259)",no pil E/W
2011-04-15 20:00:00,0,nan,nan,nan,nan,"(nan, nan)",nan,nan,nan,nan,nan,nan,nan,nan,"(139, 259)",no pil E/W
2011-04-15 20:12:00,0,nan,nan,nan,nan,"(nan, nan)",nan,nan,nan,nan,nan,nan,nan,nan,"(139, 259)",no pil E/W
2011-04-15 20:24:00,0,nan,nan,nan,nan,"(nan, nan)",nan,nan,nan,nan,nan,nan,nan,nan,"(139, 259)",no pil E/W
2011-04-15 20:36:00,0,nan,nan,nan,nan,"(nan, nan)",nan,nan,nan,nan,nan,nan,nan,nan,"(139, 259)",no pil E/W
2011-04-15 20:48:00,0,nan,nan,nan,nan,"(nan, nan)",nan,nan,nan,nan,nan,nan,nan,nan,"(139, 259)",no pil E/W
2011-04-15 21:00:00,0,nan,nan,nan,nan,"(nan, nan)",nan,nan,nan,nan,nan,nan,nan,nan,"(139, 259)",no pil E/W
2011-04-15 21:12:00,0,nan,nan,nan,nan,"(nan, nan)",nan,nan,nan,nan,nan,nan,nan,nan,"(139, 259)",no pil E/W
2011-04-15 21:24:00,0,nan,nan,nan,nan,"(nan, nan)",nan,nan,nan,nan,nan,nan,nan,nan,"(139, 259)",no pil E/W
2011-04-15 21:36:00,0,nan,nan,nan,nan,"(nan, nan)",nan,nan,nan,nan,nan,nan,nan,nan,"(139, 259)",no pil E/W
2011-04-15 21:48:00,0,nan,nan,nan,nan,"(nan, nan)",nan,nan,nan,nan,nan,nan,nan,nan,"(139, 259)",no pil E/W
2011-04-15 22:00:00,0,nan,nan,nan,nan,"(nan, nan)",nan,nan,nan,nan,nan,nan,nan,nan,"(139, 259)",no pil E/W
2011-04-15 22:12:00,0,nan,nan,nan,nan,"(nan, nan)",nan,nan,nan,nan,nan,nan,nan,nan,"(139, 259)",no pil E/W
2011-04-15 22:24:00,0,nan,nan,nan,nan,"(nan, nan)",nan,nan,nan,nan,nan,nan,nan,nan,"(139, 259)",no pil E/W
2011-04-15 22:36:00,0,nan,nan,nan,nan,"(nan, nan)",nan,nan,nan,nan,nan,nan,nan,nan,"(139, 259)",no pil E/W
2011-04-15 22:48:00,0,nan,nan,nan,nan,"(nan, nan)",nan,nan,nan,nan,nan,nan,nan,nan,"(139, 259)",no pil E/W
2011-04-15 23:00:00,0,nan,nan,nan,nan,"(nan, nan)",nan,nan,nan,nan,nan,nan,nan,nan,"(139, 259)",no pil E/W
2011-04-15 23:12:00,0,nan,nan,nan,nan,"(nan, nan)",nan,nan,nan,nan,nan,nan,nan,nan,"(139, 259)",no pil E/W
2011-04-15 23:24:00,0,nan,nan,nan,nan,"(nan, nan)",nan,nan,nan,nan,nan,nan,nan,nan,"(139, 259)",no pil E/W
2011-04-15 23:36:00,0,nan,nan,nan,nan,"(nan, nan)",nan,nan,nan,nan,nan,nan,nan,nan,"(139, 259)",no pil E/W
2011-04-15 23:48:00,0,nan,nan,nan,nan,"(nan, nan)",nan,nan,nan,nan,nan,nan,nan,nan,"(139, 259)",no pil E/W
2011-04-16 00:00:00,0,nan,nan,nan,nan,"(nan, nan)",nan,nan,nan,nan,nan,nan,nan,nan,"(139, 259)",no pil E/W
2011-04-16 00:12:00,0,nan,nan,nan,nan,"(nan, nan)",nan,nan,nan,nan,nan,nan,nan,nan,"(139, 259)",no pil E/W
2011-04-16 00:24:00,0,nan,nan,nan,nan,"(nan, nan)",nan,nan,nan,nan,nan,nan,nan,nan,"(139, 259)",no pil E/W
2011-04-16 00:36:00,0,nan,nan,nan,nan,"(nan, nan)",nan,nan,nan,nan,nan,nan,nan,nan,"(139, 259)",no pil E/W
2011-04-16 00:48:00,0,nan,nan,nan,nan,"(nan, nan)",nan,nan,nan,nan,nan,nan,nan,nan,"(139, 259)",no pil E/W
2011-04-16 01:00:00,0,nan,nan,nan,nan,"(nan, nan)",nan,nan,nan,nan,nan,nan,nan,nan,"(139, 259)",no pil E/W
2011-04-16 01:12:00,0,nan,nan,nan,nan,"(nan, nan)",nan,nan,nan,nan,nan,nan,nan,nan,"(139, 259)",no pil E/W
2011-04-16 01:24:00,0,nan,nan,nan,nan,"(nan, nan)",nan,nan,nan,nan,nan,nan,nan,nan,"(139, 259)",no pil E/W
2011-04-16 01:36:00,0,nan,nan,nan,nan,"(nan, nan)",nan,nan,nan,nan,nan,nan,nan,nan,"(139, 259)",no pil E/W
2011-04-16 01:48:00,0,nan,nan,nan,nan,"(nan, nan)",nan,nan,nan,nan,nan,nan,nan,nan,"(139, 259)",no pil E/W
2011-04-16 02:00:00,0,nan,nan,nan,nan,"(nan, nan)",nan,nan,nan,nan,nan,nan,nan,nan,"(139, 259)",no pil E/W
2011-04-16 02:12:00,0,nan,nan,nan,nan,"(nan, nan)",nan,nan,nan,nan,nan,nan,nan,nan,"(139, 259)",no pil E/W
2011-04-16 02:24:00,0,nan,nan,nan,nan,"(nan, nan)",nan,nan,nan,nan,nan,nan,nan,nan,"(139, 259)",no pil E/W
2011-04-16 02:36:00,0,nan,nan,nan,nan,"(nan, nan)",nan,nan,nan,nan,nan,nan,nan,nan,"(139, 259)",no pil E/W
2011-04-16 02:48:00,0,nan,nan,nan,nan,"(nan, nan)",nan,nan,nan,nan,nan,nan,nan,nan,"(139, 259)",no pil E/W
2011-04-16 03:00:00,0,nan,nan,nan,nan,"(nan, nan)",nan,nan,nan,nan,nan,nan,nan,nan,"(139, 259)",no pil E/W
2011-04-16 03:12:00,0,nan,nan,nan,nan,"(nan, nan)",nan,nan,nan,nan,nan,nan,nan,nan,"(139, 259)",no pil E/W
2011-04-16 03:24:00,0,nan,nan,nan,nan,"(nan, nan)",nan,nan,nan,nan,nan,nan,nan,nan,"(139, 259)",no pil E/W
2011-04-16 03:36:00,0,nan,nan,nan,nan,"(nan, nan)",nan,nan,nan,nan,nan,nan,nan,nan,"(139, 259)",no pil E/W
2011-04-16 03:48:00,0,nan,nan,nan,nan,"(nan, nan)",nan,nan,nan,nan,nan,nan,nan,nan,"(139, 259)",no pil E/W
2011-04-16 04:00:00,0,nan,nan,nan,nan,"(nan, nan)",nan,nan,nan,nan,nan,nan,nan,nan,"(139, 259)",no pil E/W
2011-04-16 04:12:00,0,nan,nan,nan,nan,"(nan, nan)",nan,nan,nan,nan,nan,nan,nan,nan,"(139, 259)",no pil E/W
2011-04-16 04:24:00,0,nan,nan,nan,nan,"(nan, nan)",nan,nan,nan,nan,nan,nan,nan,nan,"(139, 259)",no pil E/W
2011-04-16 04:36:00,0,nan,nan,nan,nan,"(nan, nan)",nan,nan,nan,nan,nan,nan,nan,nan,"(139, 259)",no pil E/W
2011-04-16 04:48:00,0,nan,nan,nan,nan,"(nan, nan)",nan,nan,nan,nan,nan,nan,nan,nan,"(139, 259)",no pil E/W
2011-04-16 05:00:00,0,nan,nan,nan,nan,"(nan, nan)",nan,nan,nan,nan,nan,nan,nan,nan,"(139, 259)",no pil E/W
2011-04-16 05:12:00,0,nan,nan,nan,nan,"(nan, nan)",nan,nan,nan,nan,nan,nan,nan,nan,"(139, 259)",no pil E/W
2011-04-16 05:24:00,0,nan,nan,nan,nan,"(nan, nan)",nan,nan,nan,nan,nan,nan,nan,nan,"(139, 259)",no pil E/W
2011-04-16 05:36:00,0,nan,nan,nan,nan,"(nan, nan)",nan,nan,nan,nan,nan,nan,nan,nan,"(139, 259)",no pil E/W
2011-04-16 05:48:00,0,nan,nan,nan,nan,"(nan, nan)",nan,nan,nan,nan,nan,nan,nan,nan,"(139, 259)",no pil E/W
2011-04-16 06:00:00,0,nan,nan,nan,nan,"(nan, nan)",nan,nan,nan,nan,nan,nan,nan,nan,"(139, 259)",no pil E/W
2011-04-16 06:12:00,0,nan,nan,nan,nan,"(nan, nan)",nan,nan,nan,nan,nan,nan,nan,nan,"(139, 259)",no pil E/W
2011-04-16 06:24:00,0,nan,nan,nan,nan,"(nan, nan)",nan,nan,nan,nan,nan,nan,nan,nan,"(139, 259)",no pil E/W
2011-04-16 06:36:00,0,nan,nan,nan,nan,"(nan, nan)",nan,nan,nan,nan,nan,nan,nan,nan,"(139, 259)",no pil E/W
2011-04-16 06:48:00,0,nan,nan,nan,nan,"(nan, nan)",nan,nan,nan,nan,nan,nan,nan,nan,"(139, 259)",no pil E/W
2011-04-16 07:00:00,0,nan,nan,nan,nan,"(nan, nan)",nan,nan,nan,nan,nan,nan,nan,nan,"(139, 259)",no pil E/W
2011-04-16 07:12:00,0,nan,nan,nan,nan,"(nan, nan)",nan,nan,nan,nan,nan,nan,nan,nan,"(139, 259)",no pil E/W
2011-04-16 07:24:00,0,nan,nan,nan,nan,"(nan, nan)",nan,nan,nan,nan,nan,nan,nan,nan,"(139, 259)",no pil E/W
2011-04-16 07:36:00,0,nan,nan,nan,nan,"(nan, nan)",nan,nan,nan,nan,nan,nan,nan,nan,"(139, 259)",no pil E/W
2011-04-16 07:48:00,0,nan,nan,nan,nan,"(nan, nan)",nan,nan,nan,nan,nan,nan,nan,nan,"(139, 259)",no pil E/W
2011-04-16 08:00:00,0,nan,nan,nan,nan,"(nan, nan)",nan,nan,nan,nan,nan,nan,nan,nan,"(139, 259)",no pil E/W
2011-04-16 08:12:00,0,nan,nan,nan,nan,"(nan, nan)",nan,nan,nan,nan,nan,nan,nan,nan,"(139, 259)",no pil E/W
2011-04-16 08:24:00,0,nan,nan,nan,nan,"(nan, nan)",nan,nan,nan,nan,nan,nan,nan,nan,"(139, 259)",no pil E/W
2011-04-16 08:36:00,0,nan,nan,nan,nan,"(nan, nan)",nan,nan,nan,nan,nan,nan,nan,nan,"(139, 259)",no pil E/W
2011-04-16 08:48:00,0,nan,nan,nan,nan,"(nan, nan)",nan,nan,nan,nan,nan,nan,nan,nan,"(139, 259)",no pil E/W
2011-04-16 09:00:00,0,nan,nan,nan,nan,"(nan, nan)",nan,nan,nan,nan,nan,nan,nan,nan,"(139, 259)",no pil E/W
2011-04-16 09:12:00,0,nan,nan,nan,nan,"(nan, nan)",nan,nan,nan,nan,nan,nan,nan,nan,"(139, 259)",no pil E/W
2011-04-16 09:24:00,0,nan,nan,nan,nan,"(nan, nan)",nan,nan,nan,nan,nan,nan,nan,nan,"(139, 259)",no pil E/W
2011-04-16 09:36:00,0,nan,nan,nan,nan,"(nan, nan)",nan,nan,nan,nan,nan,nan,nan,nan,"(139, 259)",no pil E/W
2011-04-16 09:48:00,0,nan,nan,nan,nan,"(nan, nan)",nan,nan,nan,nan,nan,nan,nan,nan,"(139, 259)",no pil E/W
2011-04-16 10:00:00,0,nan,nan,nan,nan,"(nan, nan)",nan,nan,nan,nan,nan,nan,nan,nan,"(139, 259)",no pil E/W
2011-04-16 10:12:00,0,nan,nan,nan,nan,"(nan, nan)",nan,nan,nan,nan,nan,nan,nan,nan,"(139, 259)",no pil E/W
2011-04-16 10:24:00,0,nan,nan,nan,nan,"(nan, nan)",nan,nan,nan,nan,nan,nan,nan,nan,"(139, 259)",no pil E/W
2011-04-16 10:36:00,0,nan,nan,nan,nan,"(nan, nan)",nan,nan,nan,nan,nan,nan,nan,nan,"(139, 259)",no pil E/W
2011-04-16 10:48:00,0,nan,nan,nan,nan,"(nan, nan)",nan,nan,nan,nan,nan,nan,nan,nan,"(139, 259)",no pil E/W
2011-04-16 11:00:00,0,nan,nan,nan,nan,"(nan, nan)",nan,nan,nan,nan,nan,nan,nan,nan,"(139, 259)",no pil E/W
2011-04-16 11:12:00,0,nan,nan,nan,nan,"(nan, nan)",nan,nan,nan,nan,nan,nan,nan,nan,"(139, 259)",no pil E/W
2011-04-16 11:24:00,0,nan,nan,nan,nan,"(nan, nan)",nan,nan,nan,nan,nan,nan,nan,nan,"(139, 259)",no pil E/W
2011-04-16 11:36:00,0,nan,nan,nan,nan,"(nan, nan)",nan,nan,nan,nan,nan,nan,nan,nan,"(139, 259)",no pil E/W
2011-04-16 11:48:00,0,nan,nan,nan,nan,"(nan, nan)",nan,nan,nan,nan,nan,nan,nan,nan,"(139, 259)",no pil E/W
2011-04-16 12:00:00,0,nan,nan,nan,nan,"(nan, nan)",nan,nan,nan,nan,nan,nan,nan,nan,"(139, 259)",no pil E/W
2011-04-16 12:12:00,0,nan,nan,nan,nan,"(nan, nan)",nan,nan,nan,nan,nan,nan,nan,nan,"(139, 259)",no pil E/W
2011-04-16 12:24:00,0,nan,nan,nan,nan,"(nan, nan)",nan,nan,nan,nan,nan,nan,nan,nan,"(139, 259)",no pil E/W
2011-04-16 12:36:00,0,nan,nan,nan,nan,"(nan, nan)",nan,nan,nan,nan,nan,nan,nan,nan,"(139, 259)",no pil E/W
2011-04-16 12:48:00,N/A,N/A,N/A,N/A,N/A,N/A,N/A,N/A,N/A,N/A,N/A,N/A,N/A,N/A,N/A,no pil SPE
2011-04-16 13:00:00,N/A,N/A,N/A,N/A,N/A,N/A,N/A,N/A,N/A,N/A,N/A,N/A,N/A,N/A,N/A,no pil SPE
2011-04-16 13:12:00,N/A,N/A,N/A,N/A,N/A,N/A,N/A,N/A,N/A,N/A,N/A,N/A,N/A,N/A,N/A,no pil SPE
2011-04-16 13:24:00,N/A,N/A,N/A,N/A,N/A,N/A,N/A,N/A,N/A,N/A,N/A,N/A,N/A,N/A,N/A,no pil SPE
2011-04-16 13:36:00,N/A,N/A,N/A,N/A,N/A,N/A,N/A,N/A,N/A,N/A,N/A,N/A,N/A,N/A,N/A,no pil SPE
2011-04-16 13:48:00,N/A,N/A,N/A,N/A,N/A,N/A,N/A,N/A,N/A,N/A,N/A,N/A,N/A,N/A,N/A,no pil SPE
2011-04-16 14:00:00,N/A,N/A,N/A,N/A,N/A,N/A,N/A,N/A,N/A,N/A,N/A,N/A,N/A,N/A,N/A,no pil SPE
2011-04-16 14:12:00,N/A,N/A,N/A,N/A,N/A,N/A,N/A,N/A,N/A,N/A,N/A,N/A,N/A,N/A,N/A,no pil SPE
2011-04-16 14:24:00,N/A,N/A,N/A,N/A,N/A,N/A,N/A,N/A,N/A,N/A,N/A,N/A,N/A,N/A,N/A,no pil SPE
2011-04-16 14:36:00,N/A,N/A,N/A,N/A,N/A,N/A,N/A,N/A,N/A,N/A,N/A,N/A,N/A,N/A,N/A,no pil SPE
2011-04-16 14:48:00,N/A,N/A,N/A,N/A,N/A,N/A,N/A,N/A,N/A,N/A,N/A,N/A,N/A,N/A,N/A,no pil SPE
2011-04-16 15:00:00,N/A,N/A,N/A,N/A,N/A,N/A,N/A,N/A,N/A,N/A,N/A,N/A,N/A,N/A,N/A,no pil SPE
2011-04-16 15:12:00,N/A,N/A,N/A,N/A,N/A,N/A,N/A,N/A,N/A,N/A,N/A,N/A,N/A,N/A,N/A,no pil SPE
2011-04-16 15:24:00,N/A,N/A,N/A,N/A,N/A,N/A,N/A,N/A,N/A,N/A,N/A,N/A,N/A,N/A,N/A,no pil SPE
2011-04-16 15:36:00,N/A,N/A,N/A,N/A,N/A,N/A,N/A,N/A,N/A,N/A,N/A,N/A,N/A,N/A,N/A,no pil SPE
