,"num_PILs,sum_PIL_length,sum_RoPI_Area,sum_mag_field_strength,fra_dim,eige_vals,convexity,Hu1,Hu2,Hu3,Hu4,Hu5,Hu6,Hu7,patch_shape,detection_flag",detection_flag
2011-04-15 17:48:00,,no pil SPE
2011-04-15 18:00:00,,no pil SPE
2011-04-15 18:12:00,,no pil SPE
2011-04-15 18:24:00,,no pil SPE
2011-04-15 18:36:00,,no pil SPE
2011-04-15 18:48:00,,no pil SPE
2011-04-15 19:00:00,,no pil SPE
2011-04-15 19:12:00,,no pil SPE
2011-04-15 19:24:00,,no pil SPE
2011-04-15 19:36:00,,no pil SPE
2011-04-15 19:48:00,,no pil SPE
2011-04-15 20:00:00,,no pil SPE
2011-04-15 20:12:00,,no pil SPE
2011-04-15 20:24:00,,no pil SPE
2011-04-15 20:36:00,,no pil SPE
2011-04-15 20:48:00,,no pil SPE
2011-04-15 21:00:00,,no pil SPE
2011-04-15 21:12:00,,no pil SPE
2011-04-15 21:24:00,,no pil SPE
2011-04-15 21:36:00,,no pil SPE
2011-04-15 21:48:00,,no pil SPE
2011-04-15 22:00:00,,no pil SPE
2011-04-15 22:12:00,,no pil SPE
2011-04-15 22:24:00,,no pil SPE
2011-04-15 22:36:00,,no pil SPE
2011-04-15 22:48:00,,no pil SPE
2011-04-15 23:00:00,,no pil SPE
2011-04-15 23:12:00,,no pil SPE
2011-04-15 23:24:00,,no pil SPE
2011-04-15 23:36:00,,no pil SPE
2011-04-15 23:48:00,,no pil SPE
2011-04-16 00:00:00,,no pil SPE
2011-04-16 00:12:00,,no pil SPE
2011-04-16 00:24:00,,no pil SPE
2011-04-16 00:36:00,,no pil SPE
2011-04-16 00:48:00,,no pil SPE
2011-04-16 01:00:00,,no pil SPE
2011-04-16 01:12:00,,no pil SPE
2011-04-16 01:24:00,,no pil SPE
2011-04-16 01:36:00,,no pil SPE
2011-04-16 01:48:00,,no pil SPE
2011-04-16 02:12:00,,no pil SPE
2011-04-16 02:48:00,,no pil SPE
