,num_PILs,sum_PIL_length,sum_RoPI_Area,sum_mag_field_strength,fra_dim,eige_vals,convexity,Hu1,Hu2,Hu3,Hu4,Hu5,Hu6,Hu7,patch_shape,detection_flag
2012-08-10 21:00:00,0,nan,nan,nan,nan,"(nan, nan)",nan,nan,nan,nan,nan,nan,nan,nan,"(173, 329)",no pil E/W
2012-08-10 21:12:00,0,nan,nan,nan,nan,"(nan, nan)",nan,nan,nan,nan,nan,nan,nan,nan,"(173, 329)",no pil E/W
2012-08-10 21:24:00,0,nan,nan,nan,nan,"(nan, nan)",nan,nan,nan,nan,nan,nan,nan,nan,"(173, 329)",no pil E/W
2012-08-10 21:36:00,0,nan,nan,nan,nan,"(nan, nan)",nan,nan,nan,nan,nan,nan,nan,nan,"(173, 329)",no pil E/W
2012-08-10 21:48:00,0,nan,nan,nan,nan,"(nan, nan)",nan,nan,nan,nan,nan,nan,nan,nan,"(173, 329)",no pil E/W
2012-08-10 22:00:00,0,nan,nan,nan,nan,"(nan, nan)",nan,nan,nan,nan,nan,nan,nan,nan,"(173, 329)",no pil E/W
2012-08-10 22:12:00,0,nan,nan,nan,nan,"(nan, nan)",nan,nan,nan,nan,nan,nan,nan,nan,"(173, 329)",no pil E/W
2012-08-10 22:24:00,0,nan,nan,nan,nan,"(nan, nan)",nan,nan,nan,nan,nan,nan,nan,nan,"(173, 329)",no pil E/W
2012-08-10 22:36:00,0,nan,nan,nan,nan,"(nan, nan)",nan,nan,nan,nan,nan,nan,nan,nan,"(173, 329)",no pil E/W
2012-08-10 22:48:00,0,nan,nan,nan,nan,"(nan, nan)",nan,nan,nan,nan,nan,nan,nan,nan,"(173, 329)",no pil E/W
2012-08-10 23:00:00,0,nan,nan,nan,nan,"(nan, nan)",nan,nan,nan,nan,nan,nan,nan,nan,"(173, 329)",no pil E/W
2012-08-10 23:12:00,0,nan,nan,nan,nan,"(nan, nan)",nan,nan,nan,nan,nan,nan,nan,nan,"(173, 329)",no pil E/W
2012-08-10 23:24:00,0,nan,nan,nan,nan,"(nan, nan)",nan,nan,nan,nan,nan,nan,nan,nan,"(173, 329)",no pil E/W
2012-08-10 23:36:00,0,nan,nan,nan,nan,"(nan, nan)",nan,nan,nan,nan,nan,nan,nan,nan,"(173, 329)",no pil E/W
2012-08-10 23:48:00,0,nan,nan,nan,nan,"(nan, nan)",nan,nan,nan,nan,nan,nan,nan,nan,"(173, 329)",no pil E/W
2012-08-11 00:00:00,0,nan,nan,nan,nan,"(nan, nan)",nan,nan,nan,nan,nan,nan,nan,nan,"(173, 329)",no pil E/W
2012-08-11 00:12:00,0,nan,nan,nan,nan,"(nan, nan)",nan,nan,nan,nan,nan,nan,nan,nan,"(173, 329)",no pil E/W
2012-08-11 00:24:00,0,nan,nan,nan,nan,"(nan, nan)",nan,nan,nan,nan,nan,nan,nan,nan,"(173, 329)",no pil E/W
2012-08-11 00:36:00,0,nan,nan,nan,nan,"(nan, nan)",nan,nan,nan,nan,nan,nan,nan,nan,"(173, 329)",no pil E/W
2012-08-11 00:48:00,0,nan,nan,nan,nan,"(nan, nan)",nan,nan,nan,nan,nan,nan,nan,nan,"(173, 329)",no pil E/W
2012-08-11 01:00:00,0,nan,nan,nan,nan,"(nan, nan)",nan,nan,nan,nan,nan,nan,nan,nan,"(173, 329)",no pil E/W
2012-08-11 01:12:00,0,nan,nan,nan,nan,"(nan, nan)",nan,nan,nan,nan,nan,nan,nan,nan,"(173, 329)",no pil E/W
2012-08-11 01:24:00,0,nan,nan,nan,nan,"(nan, nan)",nan,nan,nan,nan,nan,nan,nan,nan,"(173, 329)",no pil E/W
2012-08-11 01:36:00,0,nan,nan,nan,nan,"(nan, nan)",nan,nan,nan,nan,nan,nan,nan,nan,"(173, 329)",no pil E/W
2012-08-11 01:48:00,0,nan,nan,nan,nan,"(nan, nan)",nan,nan,nan,nan,nan,nan,nan,nan,"(173, 329)",no pil E/W
2012-08-11 02:00:00,0,nan,nan,nan,nan,"(nan, nan)",nan,nan,nan,nan,nan,nan,nan,nan,"(173, 329)",no pil E/W
2012-08-11 02:12:00,0,nan,nan,nan,nan,"(nan, nan)",nan,nan,nan,nan,nan,nan,nan,nan,"(173, 329)",no pil E/W
2012-08-11 02:24:00,0,nan,nan,nan,nan,"(nan, nan)",nan,nan,nan,nan,nan,nan,nan,nan,"(173, 329)",no pil E/W
2012-08-11 02:36:00,0,nan,nan,nan,nan,"(nan, nan)",nan,nan,nan,nan,nan,nan,nan,nan,"(173, 329)",no pil E/W
2012-08-11 02:48:00,0,nan,nan,nan,nan,"(nan, nan)",nan,nan,nan,nan,nan,nan,nan,nan,"(173, 329)",no pil E/W
2012-08-11 03:00:00,0,nan,nan,nan,nan,"(nan, nan)",nan,nan,nan,nan,nan,nan,nan,nan,"(173, 329)",no pil E/W
2012-08-11 03:12:00,0,nan,nan,nan,nan,"(nan, nan)",nan,nan,nan,nan,nan,nan,nan,nan,"(173, 329)",no pil E/W
2012-08-11 03:24:00,0,nan,nan,nan,nan,"(nan, nan)",nan,nan,nan,nan,nan,nan,nan,nan,"(173, 329)",no pil E/W
2012-08-11 03:36:00,0,nan,nan,nan,nan,"(nan, nan)",nan,nan,nan,nan,nan,nan,nan,nan,"(173, 329)",no pil E/W
2012-08-11 03:48:00,0,nan,nan,nan,nan,"(nan, nan)",nan,nan,nan,nan,nan,nan,nan,nan,"(173, 329)",no pil E/W
2012-08-11 04:00:00,0,nan,nan,nan,nan,"(nan, nan)",nan,nan,nan,nan,nan,nan,nan,nan,"(173, 329)",no pil E/W
2012-08-11 04:12:00,0,nan,nan,nan,nan,"(nan, nan)",nan,nan,nan,nan,nan,nan,nan,nan,"(173, 329)",no pil E/W
2012-08-11 04:24:00,0,nan,nan,nan,nan,"(nan, nan)",nan,nan,nan,nan,nan,nan,nan,nan,"(173, 329)",no pil E/W
2012-08-11 04:36:00,0,nan,nan,nan,nan,"(nan, nan)",nan,nan,nan,nan,nan,nan,nan,nan,"(173, 329)",no pil E/W
2012-08-11 04:48:00,0,nan,nan,nan,nan,"(nan, nan)",nan,nan,nan,nan,nan,nan,nan,nan,"(173, 329)",no pil E/W
2012-08-11 05:00:00,0,nan,nan,nan,nan,"(nan, nan)",nan,nan,nan,nan,nan,nan,nan,nan,"(173, 329)",no pil E/W
2012-08-11 05:12:00,0,nan,nan,nan,nan,"(nan, nan)",nan,nan,nan,nan,nan,nan,nan,nan,"(173, 329)",no pil E/W
2012-08-11 05:24:00,0,nan,nan,nan,nan,"(nan, nan)",nan,nan,nan,nan,nan,nan,nan,nan,"(173, 329)",no pil E/W
2012-08-11 05:36:00,0,nan,nan,nan,nan,"(nan, nan)",nan,nan,nan,nan,nan,nan,nan,nan,"(173, 329)",no pil E/W
2012-08-11 05:48:00,0,nan,nan,nan,nan,"(nan, nan)",nan,nan,nan,nan,nan,nan,nan,nan,"(173, 329)",no pil E/W
2012-08-11 06:00:00,0,nan,nan,nan,nan,"(nan, nan)",nan,nan,nan,nan,nan,nan,nan,nan,"(173, 329)",no pil E/W
2012-08-11 06:12:00,0,nan,nan,nan,nan,"(nan, nan)",nan,nan,nan,nan,nan,nan,nan,nan,"(173, 329)",no pil E/W
2012-08-11 06:24:00,0,nan,nan,nan,nan,"(nan, nan)",nan,nan,nan,nan,nan,nan,nan,nan,"(173, 329)",no pil E/W
2012-08-11 06:36:00,0,nan,nan,nan,nan,"(nan, nan)",nan,nan,nan,nan,nan,nan,nan,nan,"(173, 329)",no pil E/W
2012-08-11 06:48:00,0,nan,nan,nan,nan,"(nan, nan)",nan,nan,nan,nan,nan,nan,nan,nan,"(173, 329)",no pil E/W
2012-08-11 07:00:00,0,nan,nan,nan,nan,"(nan, nan)",nan,nan,nan,nan,nan,nan,nan,nan,"(173, 329)",no pil E/W
2012-08-11 07:12:00,0,nan,nan,nan,nan,"(nan, nan)",nan,nan,nan,nan,nan,nan,nan,nan,"(173, 329)",no pil E/W
2012-08-11 07:24:00,0,nan,nan,nan,nan,"(nan, nan)",nan,nan,nan,nan,nan,nan,nan,nan,"(173, 329)",no pil E/W
2012-08-11 07:36:00,0,nan,nan,nan,nan,"(nan, nan)",nan,nan,nan,nan,nan,nan,nan,nan,"(173, 329)",no pil E/W
2012-08-11 07:48:00,0,nan,nan,nan,nan,"(nan, nan)",nan,nan,nan,nan,nan,nan,nan,nan,"(173, 329)",no pil E/W
2012-08-11 08:00:00,0,nan,nan,nan,nan,"(nan, nan)",nan,nan,nan,nan,nan,nan,nan,nan,"(173, 329)",no pil E/W
2012-08-11 08:12:00,0,nan,nan,nan,nan,"(nan, nan)",nan,nan,nan,nan,nan,nan,nan,nan,"(173, 329)",no pil E/W
2012-08-11 08:24:00,0,nan,nan,nan,nan,"(nan, nan)",nan,nan,nan,nan,nan,nan,nan,nan,"(173, 329)",no pil E/W
2012-08-11 08:36:00,0,nan,nan,nan,nan,"(nan, nan)",nan,nan,nan,nan,nan,nan,nan,nan,"(173, 329)",no pil E/W
2012-08-11 08:48:00,0,nan,nan,nan,nan,"(nan, nan)",nan,nan,nan,nan,nan,nan,nan,nan,"(173, 329)",no pil E/W
2012-08-11 09:00:00,0,nan,nan,nan,nan,"(nan, nan)",nan,nan,nan,nan,nan,nan,nan,nan,"(173, 329)",no pil E/W
2012-08-11 09:12:00,0,nan,nan,nan,nan,"(nan, nan)",nan,nan,nan,nan,nan,nan,nan,nan,"(173, 329)",no pil E/W
2012-08-11 09:24:00,0,nan,nan,nan,nan,"(nan, nan)",nan,nan,nan,nan,nan,nan,nan,nan,"(173, 329)",no pil E/W
2012-08-11 09:36:00,0,nan,nan,nan,nan,"(nan, nan)",nan,nan,nan,nan,nan,nan,nan,nan,"(173, 329)",no pil E/W
2012-08-11 09:48:00,0,nan,nan,nan,nan,"(nan, nan)",nan,nan,nan,nan,nan,nan,nan,nan,"(173, 329)",no pil E/W
2012-08-11 10:00:00,0,nan,nan,nan,nan,"(nan, nan)",nan,nan,nan,nan,nan,nan,nan,nan,"(173, 329)",no pil E/W
2012-08-11 10:12:00,0,nan,nan,nan,nan,"(nan, nan)",nan,nan,nan,nan,nan,nan,nan,nan,"(173, 329)",no pil E/W
2012-08-11 10:24:00,0,nan,nan,nan,nan,"(nan, nan)",nan,nan,nan,nan,nan,nan,nan,nan,"(173, 329)",no pil E/W
2012-08-11 10:36:00,0,nan,nan,nan,nan,"(nan, nan)",nan,nan,nan,nan,nan,nan,nan,nan,"(173, 329)",no pil E/W
2012-08-11 10:48:00,0,nan,nan,nan,nan,"(nan, nan)",nan,nan,nan,nan,nan,nan,nan,nan,"(173, 329)",no pil E/W
2012-08-11 11:00:00,0,nan,nan,nan,nan,"(nan, nan)",nan,nan,nan,nan,nan,nan,nan,nan,"(173, 329)",no pil E/W
2012-08-11 11:12:00,0,nan,nan,nan,nan,"(nan, nan)",nan,nan,nan,nan,nan,nan,nan,nan,"(173, 329)",no pil E/W
2012-08-11 11:24:00,0,nan,nan,nan,nan,"(nan, nan)",nan,nan,nan,nan,nan,nan,nan,nan,"(173, 329)",no pil E/W
2012-08-11 11:36:00,0,nan,nan,nan,nan,"(nan, nan)",nan,nan,nan,nan,nan,nan,nan,nan,"(173, 329)",no pil E/W
2012-08-11 11:48:00,0,nan,nan,nan,nan,"(nan, nan)",nan,nan,nan,nan,nan,nan,nan,nan,"(173, 329)",no pil E/W
2012-08-11 12:00:00,0,nan,nan,nan,nan,"(nan, nan)",nan,nan,nan,nan,nan,nan,nan,nan,"(173, 329)",no pil E/W
2012-08-11 12:12:00,0,nan,nan,nan,nan,"(nan, nan)",nan,nan,nan,nan,nan,nan,nan,nan,"(173, 329)",no pil E/W
2012-08-11 12:24:00,0,nan,nan,nan,nan,"(nan, nan)",nan,nan,nan,nan,nan,nan,nan,nan,"(173, 329)",no pil E/W
2012-08-11 12:36:00,0,nan,nan,nan,nan,"(nan, nan)",nan,nan,nan,nan,nan,nan,nan,nan,"(173, 329)",no pil E/W
2012-08-11 12:48:00,0,nan,nan,nan,nan,"(nan, nan)",nan,nan,nan,nan,nan,nan,nan,nan,"(173, 329)",no pil E/W
2012-08-11 13:00:00,0,nan,nan,nan,nan,"(nan, nan)",nan,nan,nan,nan,nan,nan,nan,nan,"(173, 329)",no pil E/W
2012-08-11 13:12:00,0,nan,nan,nan,nan,"(nan, nan)",nan,nan,nan,nan,nan,nan,nan,nan,"(173, 329)",no pil E/W
2012-08-11 13:24:00,0,nan,nan,nan,nan,"(nan, nan)",nan,nan,nan,nan,nan,nan,nan,nan,"(173, 329)",no pil E/W
2012-08-11 13:36:00,0,nan,nan,nan,nan,"(nan, nan)",nan,nan,nan,nan,nan,nan,nan,nan,"(173, 329)",no pil E/W
2012-08-11 13:48:00,0,nan,nan,nan,nan,"(nan, nan)",nan,nan,nan,nan,nan,nan,nan,nan,"(173, 329)",no pil E/W
2012-08-11 14:00:00,0,nan,nan,nan,nan,"(nan, nan)",nan,nan,nan,nan,nan,nan,nan,nan,"(173, 329)",no pil E/W
2012-08-11 14:12:00,0,nan,nan,nan,nan,"(nan, nan)",nan,nan,nan,nan,nan,nan,nan,nan,"(173, 329)",no pil E/W
2012-08-11 14:24:00,0,nan,nan,nan,nan,"(nan, nan)",nan,nan,nan,nan,nan,nan,nan,nan,"(173, 329)",no pil E/W
2012-08-11 14:36:00,0,nan,nan,nan,nan,"(nan, nan)",nan,nan,nan,nan,nan,nan,nan,nan,"(173, 329)",no pil E/W
2012-08-11 14:48:00,0,nan,nan,nan,nan,"(nan, nan)",nan,nan,nan,nan,nan,nan,nan,nan,"(173, 329)",no pil E/W
2012-08-11 15:00:00,0,nan,nan,nan,nan,"(nan, nan)",nan,nan,nan,nan,nan,nan,nan,nan,"(173, 329)",no pil E/W
2012-08-11 15:12:00,0,nan,nan,nan,nan,"(nan, nan)",nan,nan,nan,nan,nan,nan,nan,nan,"(173, 329)",no pil E/W
2012-08-11 15:24:00,0,nan,nan,nan,nan,"(nan, nan)",nan,nan,nan,nan,nan,nan,nan,nan,"(173, 329)",no pil E/W
2012-08-11 15:36:00,1,14,34,2628.9,0.4174182992696235,"(0.5128256150059194, 18.92124031906002)",1.6923134396732227,1.28899416909621,1.4907586602946052,0.27974426564271815,0.04174155748332376,-0.0008007267220128118,-0.026340855432985484,-0.004438950248394424,"(173, 329)",detected
2012-08-11 15:48:00,0,nan,nan,nan,nan,"(nan, nan)",nan,nan,nan,nan,nan,nan,nan,nan,"(173, 329)",no pil E/W
2012-08-11 16:00:00,0,nan,nan,nan,nan,"(nan, nan)",nan,nan,nan,nan,nan,nan,nan,nan,"(173, 329)",no pil E/W
2012-08-11 16:12:00,0,nan,nan,nan,nan,"(nan, nan)",nan,nan,nan,nan,nan,nan,nan,nan,"(173, 329)",no pil E/W
2012-08-11 16:24:00,0,nan,nan,nan,nan,"(nan, nan)",nan,nan,nan,nan,nan,nan,nan,nan,"(173, 329)",no pil E/W
2012-08-11 16:36:00,0,nan,nan,nan,nan,"(nan, nan)",nan,nan,nan,nan,nan,nan,nan,nan,"(173, 329)",no pil E/W
2012-08-11 16:48:00,0,nan,nan,nan,nan,"(nan, nan)",nan,nan,nan,nan,nan,nan,nan,nan,"(173, 329)",no pil E/W
2012-08-11 17:00:00,0,nan,nan,nan,nan,"(nan, nan)",nan,nan,nan,nan,nan,nan,nan,nan,"(173, 329)",no pil E/W
2012-08-11 17:12:00,0,nan,nan,nan,nan,"(nan, nan)",nan,nan,nan,nan,nan,nan,nan,nan,"(173, 329)",no pil E/W
2012-08-11 17:24:00,0,nan,nan,nan,nan,"(nan, nan)",nan,nan,nan,nan,nan,nan,nan,nan,"(173, 329)",no pil E/W
2012-08-11 17:36:00,0,nan,nan,nan,nan,"(nan, nan)",nan,nan,nan,nan,nan,nan,nan,nan,"(173, 329)",no pil E/W
2012-08-11 17:48:00,0,nan,nan,nan,nan,"(nan, nan)",nan,nan,nan,nan,nan,nan,nan,nan,"(173, 329)",no pil E/W
2012-08-11 18:00:00,0,nan,nan,nan,nan,"(nan, nan)",nan,nan,nan,nan,nan,nan,nan,nan,"(173, 329)",no pil E/W
2012-08-11 18:12:00,0,nan,nan,nan,nan,"(nan, nan)",nan,nan,nan,nan,nan,nan,nan,nan,"(173, 329)",no pil E/W
2012-08-11 18:24:00,0,nan,nan,nan,nan,"(nan, nan)",nan,nan,nan,nan,nan,nan,nan,nan,"(173, 329)",no pil E/W
2012-08-11 18:36:00,0,nan,nan,nan,nan,"(nan, nan)",nan,nan,nan,nan,nan,nan,nan,nan,"(173, 329)",no pil E/W
2012-08-11 18:48:00,0,nan,nan,nan,nan,"(nan, nan)",nan,nan,nan,nan,nan,nan,nan,nan,"(173, 329)",no pil E/W
2012-08-11 19:00:00,0,nan,nan,nan,nan,"(nan, nan)",nan,nan,nan,nan,nan,nan,nan,nan,"(173, 329)",no pil E/W
2012-08-11 19:12:00,0,nan,nan,nan,nan,"(nan, nan)",nan,nan,nan,nan,nan,nan,nan,nan,"(173, 329)",no pil E/W
2012-08-11 19:24:00,0,nan,nan,nan,nan,"(nan, nan)",nan,nan,nan,nan,nan,nan,nan,nan,"(173, 329)",no pil E/W
2012-08-11 19:36:00,0,nan,nan,nan,nan,"(nan, nan)",nan,nan,nan,nan,nan,nan,nan,nan,"(173, 329)",no pil E/W
2012-08-11 19:48:00,0,nan,nan,nan,nan,"(nan, nan)",nan,nan,nan,nan,nan,nan,nan,nan,"(173, 329)",no pil E/W
2012-08-11 20:00:00,0,nan,nan,nan,nan,"(nan, nan)",nan,nan,nan,nan,nan,nan,nan,nan,"(173, 329)",no pil E/W
2012-08-11 20:12:00,0,nan,nan,nan,nan,"(nan, nan)",nan,nan,nan,nan,nan,nan,nan,nan,"(173, 329)",no pil E/W
2012-08-11 20:24:00,0,nan,nan,nan,nan,"(nan, nan)",nan,nan,nan,nan,nan,nan,nan,nan,"(173, 329)",no pil E/W
2012-08-11 20:36:00,0,nan,nan,nan,nan,"(nan, nan)",nan,nan,nan,nan,nan,nan,nan,nan,"(173, 329)",no pil E/W
2012-08-11 20:48:00,0,nan,nan,nan,nan,"(nan, nan)",nan,nan,nan,nan,nan,nan,nan,nan,"(173, 329)",no pil E/W
2012-08-11 21:00:00,0,nan,nan,nan,nan,"(nan, nan)",nan,nan,nan,nan,nan,nan,nan,nan,"(173, 329)",no pil E/W
2012-08-11 21:12:00,0,nan,nan,nan,nan,"(nan, nan)",nan,nan,nan,nan,nan,nan,nan,nan,"(173, 329)",no pil E/W
2012-08-11 21:24:00,0,nan,nan,nan,nan,"(nan, nan)",nan,nan,nan,nan,nan,nan,nan,nan,"(173, 329)",no pil E/W
2012-08-11 21:36:00,0,nan,nan,nan,nan,"(nan, nan)",nan,nan,nan,nan,nan,nan,nan,nan,"(173, 329)",no pil E/W
2012-08-11 21:48:00,0,nan,nan,nan,nan,"(nan, nan)",nan,nan,nan,nan,nan,nan,nan,nan,"(173, 329)",no pil E/W
2012-08-11 22:00:00,0,nan,nan,nan,nan,"(nan, nan)",nan,nan,nan,nan,nan,nan,nan,nan,"(173, 329)",no pil E/W
2012-08-11 22:12:00,1,16,45,3097.5,0.5574221429807698,"(29.25656911285613, 0.32676422047720965)",2.0088834764831844,0.86669921875,0.7183458805084229,0.0014139642007648943,0.00033118622377514834,1.6691348941216296e-07,0.000129094616340808,1.5330837332960804e-07,"(173, 329)",detected
2012-08-11 22:24:00,0,nan,nan,nan,nan,"(nan, nan)",nan,nan,nan,nan,nan,nan,nan,nan,"(173, 329)",no pil E/W
2012-08-11 22:36:00,0,nan,nan,nan,nan,"(nan, nan)",nan,nan,nan,nan,nan,nan,nan,nan,"(173, 329)",no pil E/W
2012-08-11 22:48:00,0,nan,nan,nan,nan,"(nan, nan)",nan,nan,nan,nan,nan,nan,nan,nan,"(173, 329)",no pil E/W
2012-08-11 23:00:00,0,nan,nan,nan,nan,"(nan, nan)",nan,nan,nan,nan,nan,nan,nan,nan,"(173, 329)",no pil E/W
2012-08-11 23:12:00,0,nan,nan,nan,nan,"(nan, nan)",nan,nan,nan,nan,nan,nan,nan,nan,"(173, 329)",no pil E/W
2012-08-11 23:24:00,0,nan,nan,nan,nan,"(nan, nan)",nan,nan,nan,nan,nan,nan,nan,nan,"(173, 329)",no pil E/W
2012-08-11 23:36:00,0,nan,nan,nan,nan,"(nan, nan)",nan,nan,nan,nan,nan,nan,nan,nan,"(173, 329)",no pil E/W
2012-08-11 23:48:00,0,nan,nan,nan,nan,"(nan, nan)",nan,nan,nan,nan,nan,nan,nan,nan,"(173, 329)",no pil E/W
2012-08-12 00:00:00,0,nan,nan,nan,nan,"(nan, nan)",nan,nan,nan,nan,nan,nan,nan,nan,"(173, 329)",no pil E/W
2012-08-12 00:12:00,0,nan,nan,nan,nan,"(nan, nan)",nan,nan,nan,nan,nan,nan,nan,nan,"(173, 329)",no pil E/W
2012-08-12 00:24:00,0,nan,nan,nan,nan,"(nan, nan)",nan,nan,nan,nan,nan,nan,nan,nan,"(173, 329)",no pil E/W
2012-08-12 00:36:00,0,nan,nan,nan,nan,"(nan, nan)",nan,nan,nan,nan,nan,nan,nan,nan,"(173, 329)",no pil E/W
2012-08-12 00:48:00,0,nan,nan,nan,nan,"(nan, nan)",nan,nan,nan,nan,nan,nan,nan,nan,"(173, 329)",no pil E/W
2012-08-12 01:00:00,0,nan,nan,nan,nan,"(nan, nan)",nan,nan,nan,nan,nan,nan,nan,nan,"(173, 329)",no pil E/W
2012-08-12 01:12:00,0,nan,nan,nan,nan,"(nan, nan)",nan,nan,nan,nan,nan,nan,nan,nan,"(173, 329)",no pil E/W
2012-08-12 01:24:00,0,nan,nan,nan,nan,"(nan, nan)",nan,nan,nan,nan,nan,nan,nan,nan,"(173, 329)",no pil E/W
2012-08-12 01:36:00,0,nan,nan,nan,nan,"(nan, nan)",nan,nan,nan,nan,nan,nan,nan,nan,"(173, 329)",no pil E/W
2012-08-12 01:48:00,0,nan,nan,nan,nan,"(nan, nan)",nan,nan,nan,nan,nan,nan,nan,nan,"(173, 329)",no pil E/W
2012-08-12 02:00:00,0,nan,nan,nan,nan,"(nan, nan)",nan,nan,nan,nan,nan,nan,nan,nan,"(173, 329)",no pil E/W
2012-08-12 02:12:00,0,nan,nan,nan,nan,"(nan, nan)",nan,nan,nan,nan,nan,nan,nan,nan,"(173, 329)",no pil E/W
2012-08-12 02:24:00,0,nan,nan,nan,nan,"(nan, nan)",nan,nan,nan,nan,nan,nan,nan,nan,"(173, 329)",no pil E/W
2012-08-12 02:36:00,0,nan,nan,nan,nan,"(nan, nan)",nan,nan,nan,nan,nan,nan,nan,nan,"(173, 329)",no pil E/W
2012-08-12 02:48:00,0,nan,nan,nan,nan,"(nan, nan)",nan,nan,nan,nan,nan,nan,nan,nan,"(173, 329)",no pil E/W
2012-08-12 03:00:00,0,nan,nan,nan,nan,"(nan, nan)",nan,nan,nan,nan,nan,nan,nan,nan,"(173, 329)",no pil E/W
2012-08-12 03:12:00,0,nan,nan,nan,nan,"(nan, nan)",nan,nan,nan,nan,nan,nan,nan,nan,"(173, 329)",no pil E/W
2012-08-12 03:24:00,0,nan,nan,nan,nan,"(nan, nan)",nan,nan,nan,nan,nan,nan,nan,nan,"(173, 329)",no pil E/W
2012-08-12 03:36:00,0,nan,nan,nan,nan,"(nan, nan)",nan,nan,nan,nan,nan,nan,nan,nan,"(173, 329)",no pil E/W
2012-08-12 03:48:00,0,nan,nan,nan,nan,"(nan, nan)",nan,nan,nan,nan,nan,nan,nan,nan,"(173, 329)",no pil E/W
2012-08-12 04:00:00,0,nan,nan,nan,nan,"(nan, nan)",nan,nan,nan,nan,nan,nan,nan,nan,"(173, 329)",no pil E/W
2012-08-12 04:12:00,0,nan,nan,nan,nan,"(nan, nan)",nan,nan,nan,nan,nan,nan,nan,nan,"(173, 329)",no pil E/W
2012-08-12 04:24:00,0,nan,nan,nan,nan,"(nan, nan)",nan,nan,nan,nan,nan,nan,nan,nan,"(173, 329)",no pil E/W
2012-08-12 04:36:00,0,nan,nan,nan,nan,"(nan, nan)",nan,nan,nan,nan,nan,nan,nan,nan,"(173, 329)",no pil E/W
2012-08-12 04:48:00,0,nan,nan,nan,nan,"(nan, nan)",nan,nan,nan,nan,nan,nan,nan,nan,"(173, 329)",no pil E/W
2012-08-12 05:00:00,0,nan,nan,nan,nan,"(nan, nan)",nan,nan,nan,nan,nan,nan,nan,nan,"(173, 329)",no pil E/W
2012-08-12 05:12:00,0,nan,nan,nan,nan,"(nan, nan)",nan,nan,nan,nan,nan,nan,nan,nan,"(173, 329)",no pil E/W
2012-08-12 05:24:00,0,nan,nan,nan,nan,"(nan, nan)",nan,nan,nan,nan,nan,nan,nan,nan,"(173, 329)",no pil E/W
2012-08-12 05:36:00,0,nan,nan,nan,nan,"(nan, nan)",nan,nan,nan,nan,nan,nan,nan,nan,"(173, 329)",no pil E/W
2012-08-12 05:48:00,0,nan,nan,nan,nan,"(nan, nan)",nan,nan,nan,nan,nan,nan,nan,nan,"(173, 329)",no pil E/W
2012-08-12 06:00:00,0,nan,nan,nan,nan,"(nan, nan)",nan,nan,nan,nan,nan,nan,nan,nan,"(173, 329)",no pil E/W
2012-08-12 06:12:00,0,nan,nan,nan,nan,"(nan, nan)",nan,nan,nan,nan,nan,nan,nan,nan,"(173, 329)",no pil E/W
2012-08-12 06:24:00,0,nan,nan,nan,nan,"(nan, nan)",nan,nan,nan,nan,nan,nan,nan,nan,"(173, 329)",no pil E/W
2012-08-12 06:36:00,0,nan,nan,nan,nan,"(nan, nan)",nan,nan,nan,nan,nan,nan,nan,nan,"(173, 329)",no pil E/W
2012-08-12 06:48:00,0,nan,nan,nan,nan,"(nan, nan)",nan,nan,nan,nan,nan,nan,nan,nan,"(173, 329)",no pil E/W
2012-08-12 07:00:00,0,nan,nan,nan,nan,"(nan, nan)",nan,nan,nan,nan,nan,nan,nan,nan,"(173, 329)",no pil E/W
2012-08-12 07:12:00,0,nan,nan,nan,nan,"(nan, nan)",nan,nan,nan,nan,nan,nan,nan,nan,"(173, 329)",no pil E/W
2012-08-12 07:24:00,0,nan,nan,nan,nan,"(nan, nan)",nan,nan,nan,nan,nan,nan,nan,nan,"(173, 329)",no pil E/W
2012-08-12 07:36:00,0,nan,nan,nan,nan,"(nan, nan)",nan,nan,nan,nan,nan,nan,nan,nan,"(173, 329)",no pil E/W
2012-08-12 07:48:00,0,nan,nan,nan,nan,"(nan, nan)",nan,nan,nan,nan,nan,nan,nan,nan,"(173, 329)",no pil E/W
2012-08-12 08:00:00,0,nan,nan,nan,nan,"(nan, nan)",nan,nan,nan,nan,nan,nan,nan,nan,"(173, 329)",no pil E/W
2012-08-12 08:12:00,0,nan,nan,nan,nan,"(nan, nan)",nan,nan,nan,nan,nan,nan,nan,nan,"(173, 329)",no pil E/W
2012-08-12 08:24:00,0,nan,nan,nan,nan,"(nan, nan)",nan,nan,nan,nan,nan,nan,nan,nan,"(173, 329)",no pil E/W
2012-08-12 08:36:00,0,nan,nan,nan,nan,"(nan, nan)",nan,nan,nan,nan,nan,nan,nan,nan,"(173, 329)",no pil E/W
2012-08-12 08:48:00,0,nan,nan,nan,nan,"(nan, nan)",nan,nan,nan,nan,nan,nan,nan,nan,"(173, 329)",no pil E/W
2012-08-12 09:00:00,0,nan,nan,nan,nan,"(nan, nan)",nan,nan,nan,nan,nan,nan,nan,nan,"(173, 329)",no pil E/W
2012-08-12 09:12:00,0,nan,nan,nan,nan,"(nan, nan)",nan,nan,nan,nan,nan,nan,nan,nan,"(173, 329)",no pil E/W
2012-08-12 09:24:00,0,nan,nan,nan,nan,"(nan, nan)",nan,nan,nan,nan,nan,nan,nan,nan,"(173, 329)",no pil E/W
2012-08-12 09:36:00,0,nan,nan,nan,nan,"(nan, nan)",nan,nan,nan,nan,nan,nan,nan,nan,"(173, 329)",no pil E/W
2012-08-12 09:48:00,0,nan,nan,nan,nan,"(nan, nan)",nan,nan,nan,nan,nan,nan,nan,nan,"(173, 329)",no pil E/W
2012-08-12 10:00:00,0,nan,nan,nan,nan,"(nan, nan)",nan,nan,nan,nan,nan,nan,nan,nan,"(173, 329)",no pil E/W
2012-08-12 10:12:00,0,nan,nan,nan,nan,"(nan, nan)",nan,nan,nan,nan,nan,nan,nan,nan,"(173, 329)",no pil E/W
2012-08-12 10:24:00,0,nan,nan,nan,nan,"(nan, nan)",nan,nan,nan,nan,nan,nan,nan,nan,"(173, 329)",no pil E/W
2012-08-12 10:36:00,0,nan,nan,nan,nan,"(nan, nan)",nan,nan,nan,nan,nan,nan,nan,nan,"(173, 329)",no pil E/W
2012-08-12 10:48:00,0,nan,nan,nan,nan,"(nan, nan)",nan,nan,nan,nan,nan,nan,nan,nan,"(173, 329)",no pil E/W
2012-08-12 11:00:00,0,nan,nan,nan,nan,"(nan, nan)",nan,nan,nan,nan,nan,nan,nan,nan,"(173, 329)",no pil E/W
2012-08-12 11:12:00,0,nan,nan,nan,nan,"(nan, nan)",nan,nan,nan,nan,nan,nan,nan,nan,"(173, 329)",no pil E/W
2012-08-12 11:24:00,0,nan,nan,nan,nan,"(nan, nan)",nan,nan,nan,nan,nan,nan,nan,nan,"(173, 329)",no pil E/W
2012-08-12 11:36:00,1,14,35,1590.1,0.46755794218857966,"(15.042825045618683, 0.8967353939417566)",1.6652648927846256,0.17620262390670555,0.024453716522357942,0.001103157691134841,0.0001367278936512989,-1.533240013464919e-08,-1.0530326219783877e-05,-5.0839520758398265e-08,"(173, 329)",detected
2012-08-12 11:48:00,0,nan,nan,nan,nan,"(nan, nan)",nan,nan,nan,nan,nan,nan,nan,nan,"(173, 329)",no pil E/W
2012-08-12 12:00:00,0,nan,nan,nan,nan,"(nan, nan)",nan,nan,nan,nan,nan,nan,nan,nan,"(173, 329)",no pil E/W
2012-08-12 12:12:00,0,nan,nan,nan,nan,"(nan, nan)",nan,nan,nan,nan,nan,nan,nan,nan,"(173, 329)",no pil E/W
2012-08-12 12:24:00,0,nan,nan,nan,nan,"(nan, nan)",nan,nan,nan,nan,nan,nan,nan,nan,"(173, 329)",no pil E/W
2012-08-12 12:36:00,0,nan,nan,nan,nan,"(nan, nan)",nan,nan,nan,nan,nan,nan,nan,nan,"(173, 329)",no pil E/W
2012-08-12 12:48:00,0,nan,nan,nan,nan,"(nan, nan)",nan,nan,nan,nan,nan,nan,nan,nan,"(173, 329)",no pil E/W
2012-08-12 13:00:00,1,14,34,2092.5,0.40000000000000024,"(11.387689716066916, 1.2112113828341848)",1.6948515758112757,0.11937734277384425,0.009297656697082867,0.00030612052647053454,2.3256805550334783e-05,-1.7653379733631318e-09,-1.901547819850819e-06,-8.569177399181989e-10,"(173, 329)",detected
2012-08-12 13:12:00,0,nan,nan,nan,nan,"(nan, nan)",nan,nan,nan,nan,nan,nan,nan,nan,"(173, 329)",no pil E/W
2012-08-12 13:24:00,0,nan,nan,nan,nan,"(nan, nan)",nan,nan,nan,nan,nan,nan,nan,nan,"(173, 329)",no pil E/W
2012-08-12 13:36:00,0,nan,nan,nan,nan,"(nan, nan)",nan,nan,nan,nan,nan,nan,nan,nan,"(173, 329)",no pil E/W
2012-08-12 13:48:00,0,nan,nan,nan,nan,"(nan, nan)",nan,nan,nan,nan,nan,nan,nan,nan,"(173, 329)",no pil E/W
2012-08-12 14:00:00,0,nan,nan,nan,nan,"(nan, nan)",nan,nan,nan,nan,nan,nan,nan,nan,"(173, 329)",no pil E/W
2012-08-12 14:12:00,0,nan,nan,nan,nan,"(nan, nan)",nan,nan,nan,nan,nan,nan,nan,nan,"(173, 329)",no pil E/W
2012-08-12 14:24:00,0,nan,nan,nan,nan,"(nan, nan)",nan,nan,nan,nan,nan,nan,nan,nan,"(173, 329)",no pil E/W
2012-08-12 14:36:00,0,nan,nan,nan,nan,"(nan, nan)",nan,nan,nan,nan,nan,nan,nan,nan,"(173, 329)",no pil E/W
2012-08-12 14:48:00,0,nan,nan,nan,nan,"(nan, nan)",nan,nan,nan,nan,nan,nan,nan,nan,"(173, 329)",no pil E/W
2012-08-12 15:00:00,0,nan,nan,nan,nan,"(nan, nan)",nan,nan,nan,nan,nan,nan,nan,nan,"(173, 329)",no pil E/W
2012-08-12 15:12:00,0,nan,nan,nan,nan,"(nan, nan)",nan,nan,nan,nan,nan,nan,nan,nan,"(173, 329)",no pil E/W
2012-08-12 15:24:00,0,nan,nan,nan,nan,"(nan, nan)",nan,nan,nan,nan,nan,nan,nan,nan,"(173, 329)",no pil E/W
2012-08-12 15:36:00,0,nan,nan,nan,nan,"(nan, nan)",nan,nan,nan,nan,nan,nan,nan,nan,"(173, 329)",no pil E/W
2012-08-12 15:48:00,0,nan,nan,nan,nan,"(nan, nan)",nan,nan,nan,nan,nan,nan,nan,nan,"(173, 329)",no pil E/W
2012-08-12 16:00:00,0,nan,nan,nan,nan,"(nan, nan)",nan,nan,nan,nan,nan,nan,nan,nan,"(173, 329)",no pil E/W
2012-08-12 16:12:00,0,nan,nan,nan,nan,"(nan, nan)",nan,nan,nan,nan,nan,nan,nan,nan,"(173, 329)",no pil E/W
2012-08-12 16:24:00,0,nan,nan,nan,nan,"(nan, nan)",nan,nan,nan,nan,nan,nan,nan,nan,"(173, 329)",no pil E/W
2012-08-12 16:36:00,0,nan,nan,nan,nan,"(nan, nan)",nan,nan,nan,nan,nan,nan,nan,nan,"(173, 329)",no pil E/W
2012-08-12 16:48:00,0,nan,nan,nan,nan,"(nan, nan)",nan,nan,nan,nan,nan,nan,nan,nan,"(173, 329)",no pil E/W
2012-08-12 17:00:00,0,nan,nan,nan,nan,"(nan, nan)",nan,nan,nan,nan,nan,nan,nan,nan,"(173, 329)",no pil E/W
2012-08-12 17:12:00,0,nan,nan,nan,nan,"(nan, nan)",nan,nan,nan,nan,nan,nan,nan,nan,"(173, 329)",no pil E/W
2012-08-12 17:24:00,0,nan,nan,nan,nan,"(nan, nan)",nan,nan,nan,nan,nan,nan,nan,nan,"(173, 329)",no pil E/W
2012-08-12 17:36:00,1,19,35,1803.8,0.46755794218857966,"(3.9173308286044914, 20.731791978413053)",1.7225222137556768,1.2290421344219276,0.7029048090309968,0.6329213436264244,0.12040150671194619,-0.020904465379772075,-0.0648431893181107,0.02584001275176287,"(173, 329)",detected
2012-08-12 17:48:00,0,nan,nan,nan,nan,"(nan, nan)",nan,nan,nan,nan,nan,nan,nan,nan,"(173, 329)",no pil E/W
2012-08-12 18:00:00,0,nan,nan,nan,nan,"(nan, nan)",nan,nan,nan,nan,nan,nan,nan,nan,"(173, 329)",no pil E/W
2012-08-12 18:12:00,0,nan,nan,nan,nan,"(nan, nan)",nan,nan,nan,nan,nan,nan,nan,nan,"(173, 329)",no pil E/W
2012-08-12 18:24:00,0,nan,nan,nan,nan,"(nan, nan)",nan,nan,nan,nan,nan,nan,nan,nan,"(173, 329)",no pil E/W
2012-08-12 18:36:00,0,nan,nan,nan,nan,"(nan, nan)",nan,nan,nan,nan,nan,nan,nan,nan,"(173, 329)",no pil E/W
2012-08-12 18:48:00,0,nan,nan,nan,nan,"(nan, nan)",nan,nan,nan,nan,nan,nan,nan,nan,"(173, 329)",no pil E/W
2012-08-12 19:00:00,0,nan,nan,nan,nan,"(nan, nan)",nan,nan,nan,nan,nan,nan,nan,nan,"(173, 329)",no pil E/W
2012-08-12 19:12:00,0,nan,nan,nan,nan,"(nan, nan)",nan,nan,nan,nan,nan,nan,nan,nan,"(173, 329)",no pil E/W
2012-08-12 19:24:00,0,nan,nan,nan,nan,"(nan, nan)",nan,nan,nan,nan,nan,nan,nan,nan,"(173, 329)",no pil E/W
2012-08-12 19:36:00,0,nan,nan,nan,nan,"(nan, nan)",nan,nan,nan,nan,nan,nan,nan,nan,"(173, 329)",no pil E/W
2012-08-12 19:48:00,0,nan,nan,nan,nan,"(nan, nan)",nan,nan,nan,nan,nan,nan,nan,nan,"(173, 329)",no pil E/W
2012-08-12 20:00:00,0,nan,nan,nan,nan,"(nan, nan)",nan,nan,nan,nan,nan,nan,nan,nan,"(173, 329)",no pil E/W
2012-08-12 20:12:00,0,nan,nan,nan,nan,"(nan, nan)",nan,nan,nan,nan,nan,nan,nan,nan,"(173, 329)",no pil E/W
2012-08-12 20:24:00,0,nan,nan,nan,nan,"(nan, nan)",nan,nan,nan,nan,nan,nan,nan,nan,"(173, 329)",no pil E/W
2012-08-12 20:36:00,0,nan,nan,nan,nan,"(nan, nan)",nan,nan,nan,nan,nan,nan,nan,nan,"(173, 329)",no pil E/W
2012-08-12 20:48:00,0,nan,nan,nan,nan,"(nan, nan)",nan,nan,nan,nan,nan,nan,nan,nan,"(173, 329)",no pil E/W
2012-08-12 21:00:00,0,nan,nan,nan,nan,"(nan, nan)",nan,nan,nan,nan,nan,nan,nan,nan,"(173, 329)",no pil E/W
2012-08-12 21:12:00,0,nan,nan,nan,nan,"(nan, nan)",nan,nan,nan,nan,nan,nan,nan,nan,"(173, 329)",no pil E/W
2012-08-12 21:24:00,0,nan,nan,nan,nan,"(nan, nan)",nan,nan,nan,nan,nan,nan,nan,nan,"(173, 329)",no pil E/W
2012-08-12 21:36:00,0,nan,nan,nan,nan,"(nan, nan)",nan,nan,nan,nan,nan,nan,nan,nan,"(173, 329)",no pil E/W
2012-08-12 21:48:00,0,nan,nan,nan,nan,"(nan, nan)",nan,nan,nan,nan,nan,nan,nan,nan,"(173, 329)",no pil E/W
2012-08-12 22:00:00,0,nan,nan,nan,nan,"(nan, nan)",nan,nan,nan,nan,nan,nan,nan,nan,"(173, 329)",no pil E/W
2012-08-12 22:12:00,0,nan,nan,nan,nan,"(nan, nan)",nan,nan,nan,nan,nan,nan,nan,nan,"(173, 329)",no pil E/W
2012-08-12 22:24:00,0,nan,nan,nan,nan,"(nan, nan)",nan,nan,nan,nan,nan,nan,nan,nan,"(173, 329)",no pil E/W
2012-08-12 22:36:00,0,nan,nan,nan,nan,"(nan, nan)",nan,nan,nan,nan,nan,nan,nan,nan,"(173, 329)",no pil E/W
2012-08-12 22:48:00,0,nan,nan,nan,nan,"(nan, nan)",nan,nan,nan,nan,nan,nan,nan,nan,"(173, 329)",no pil E/W
2012-08-12 23:00:00,0,nan,nan,nan,nan,"(nan, nan)",nan,nan,nan,nan,nan,nan,nan,nan,"(173, 329)",no pil E/W
2012-08-12 23:12:00,0,nan,nan,nan,nan,"(nan, nan)",nan,nan,nan,nan,nan,nan,nan,nan,"(173, 329)",no pil E/W
2012-08-13 23:24:00,1,18,31,1360.8,0.46755794218857955,"(3.552887270694896, 17.53208004956654)",1.7531305103391137,1.106310013717421,0.5379872836307323,0.8705531396469455,0.09998037058515295,-0.028621934757518487,-0.0715427999049901,0.007129196136020868,"(173, 329)",detected
2012-08-13 23:36:00,0,nan,nan,nan,nan,"(nan, nan)",nan,nan,nan,nan,nan,nan,nan,nan,"(173, 329)",no pil E/W
2012-08-13 23:48:00,1,22,61,5960.6,0.6518688369106763,"(6.489554078547439, 23.259363670370305)",1.6993080141295562,1.2907588279489104,0.5294246147888784,1.4018759617704235,0.16892831450220347,-0.07852425656606371,-0.11655128164352581,-0.024329439971080728,"(173, 329)",detected
2012-08-14 00:00:00,1,29,94,8131.3,0.6300584455814277,"(6.5955229314008115, 29.4315706646583)",1.5960093533607553,1.199475173233835,0.5780507318071343,0.4897134381979277,0.1847077848582493,0.04274138115430076,0.10182125858308505,-0.035485016780382246,"(173, 329)",detected
2012-08-14 00:12:00,1,21,63,5029.5,0.6518688369106763,"(5.153607845086594, 24.65115405967531)",1.7720573064569727,1.3516898823021273,0.7818847257881698,1.1970182799336342,0.1704439142727392,-0.06426643331368459,-0.12162387233812844,-0.04239064574321878,"(173, 329)",detected
2012-08-14 00:24:00,1,15,38,2435.0,0.6286445398557176,"(1.344522201580272, 19.360239703181634)",1.8990187582825713,1.2882962962962963,1.2565916268861452,0.7022265494194948,0.09295384118599699,-0.021052943544194774,-0.09992274156865215,0.010989712529516893,"(173, 329)",detected
2012-08-14 00:36:00,1,15,32,1559.0,0.6286445398557176,"(1.3457071595382644, 19.292388078556975)",1.8990187582825713,1.284148148148148,1.2469795116598077,0.6955536857007582,0.08885766175318785,-0.019602764797832444,-0.09603030670142973,0.010184622212658435,"(173, 329)",detected
2012-08-14 00:48:00,1,14,27,1396.0,0.572479274579658,"(1.7805569564516528, 15.38977271387802)",1.9091372900969896,1.1388483965014577,0.8147807514301013,0.631507478996849,0.11321153088000162,0.0001287066712428609,-0.028734628711454407,0.030270620134763164,"(173, 329)",detected
2012-08-14 01:00:00,1,15,34,1950.5,0.5051342858791218,"(1.725113754468186, 19.179648150293716)",1.8623352561696267,1.300740740740741,1.1795261454046642,0.8643787572219717,0.11890575834984558,-0.022053428722496396,-0.09878892131510587,0.03109347163131733,"(173, 329)",detected
2012-08-14 01:12:00,1,19,52,5637.9,0.5692803572458797,"(2.40658673705558, 26.33610332142395)",1.795084300936748,1.433153520921417,1.4236343453744655,1.0613769711498724,0.14472962910406817,-0.031035300936290002,-0.10019680008000842,-0.047481405292870836,"(173, 329)",detected
2012-08-14 01:24:00,1,24,55,4695.8,0.6167863255906076,"(7.121192648026923, 32.78279285921944)",1.7934012733476088,1.5933883101851856,1.0499731045528036,1.96188663768466,0.2712897212638141,-0.19089604738554483,-0.26327605310194185,-0.05225452195286716,"(173, 329)",detected
2012-08-14 01:36:00,1,17,47,4624.0,0.46755794218857966,"(1.2284312259498904, 24.175980538755994)",1.9352644080359804,1.406472623651537,1.6140496998682843,0.6199861483299283,0.07701399368788815,-0.016338602724982023,-0.097654318000559,0.004030948201137288,"(173, 329)",detected
2012-08-14 01:48:00,1,18,40,3257.5,0.5051342858791218,"(2.960127785384243, 21.016996397622286)",1.8297238245857999,1.2580589849108368,0.8976203673126459,1.0044258203907157,0.12579397291504507,-0.04364082412926914,-0.1162633341180166,-0.00974000997939982,"(173, 329)",detected
2012-08-14 02:00:00,1,18,54,5891.8,0.5051342858791218,"(3.4505187994334534, 22.052749174422754)",1.8201919981828105,1.3381344307270233,0.9526598437079563,1.277651432659528,0.14455920479853862,-0.06210561108027318,-0.14045241657364943,-0.0015994705306930854,"(173, 329)",detected
2012-08-14 02:12:00,1,18,55,6569.1,0.5051342858791218,"(3.491940450272093, 21.26949745822464)",1.8642416214502247,1.2992112482853224,0.8700655681910126,1.0596290240505457,0.130912194492252,-0.04437774336625657,-0.1176007865124499,0.020198305189205998,"(173, 329)",detected
2012-08-14 02:24:00,1,17,44,3710.3,0.5051342858791218,"(2.579149919990975, 20.7517324329502)",1.8907138602194677,1.2916751475676778,1.0122262105185493,0.9890838061592864,0.11406541114969905,-0.03792262808214321,-0.1145578865235026,0.005456126494948356,"(173, 329)",detected
2012-08-14 02:36:00,0,nan,nan,nan,nan,"(nan, nan)",nan,nan,nan,nan,nan,nan,nan,nan,"(173, 329)",no pil E/W
2012-08-14 02:48:00,1,16,42,3765.8,0.46755794218857966,"(2.10734664651363, 17.20515335348637)",1.6941626073623883,1.131591796875,0.7825828194618225,0.5754663961124606,0.08313646336318925,-0.011570026475258892,-0.04985712033773382,-0.014028697110599682,"(173, 329)",detected
2012-08-14 03:00:00,1,17,39,3270.9,0.5051342858791218,"(2.2194822997007897, 19.868752994416855)",1.7608840495614355,1.2228780785670668,0.954767897297362,0.8526181963175328,0.0985606333232169,-0.02839492037161865,-0.0952276183359597,-0.0031713048657154054,"(173, 329)",detected
2012-08-14 03:12:00,1,15,33,1964.2,0.46755794218857966,"(1.6023520591570701, 17.102409845604832)",1.7680543520114205,1.163851851851852,0.9301600219478741,0.5919019904071494,0.0714045602836959,-0.014668966143608613,-0.06846444569119327,-0.0005582951663846802,"(173, 329)",detected
2012-08-14 03:24:00,1,18,46,3158.0,0.5369046317843286,"(22.11764705882353, 2.7973856209150316)",1.7991542394916797,1.3072702331961592,1.027623009891973,1.0385704742631654,0.1269477748245771,-0.04609519166871137,-0.12868917091270574,3.469446951953614e-18,"(173, 329)",detected
2012-08-14 03:36:00,1,19,55,5151.1,0.5369046317843286,"(24.446799016786485, 3.4713296381842653)",1.8097250689921176,1.3920396559265198,1.093840457573746,1.2874199512015985,0.15339123499495377,-0.06796196250066493,-0.15967673213442785,0.005256240533032568,"(173, 329)",detected
2012-08-14 03:48:00,1,20,49,3876.7,0.5051342858791218,"(24.833263611038994, 4.195683757382062)",1.7692388155425118,1.3788749999999999,0.9609587656250009,1.290336166476569,0.16412544772656412,-0.0730712461610443,-0.1533327699664275,0.01911189406195181,"(173, 329)",detected
2012-08-14 04:00:00,1,18,45,3521.6,0.5051342858791218,"(2.9349874566716743, 22.88200600738061)",1.8547097950472353,1.3545953360768177,1.095377473698868,1.088039719841709,0.13732781776675582,-0.05039565475822003,-0.13647906887564262,0.016677643251596697,"(173, 329)",detected
2012-08-14 04:12:00,1,17,43,3532.4,0.5051342858791218,"(2.2448866554676528, 20.269819226885286)",1.8419828528814564,1.2464889069814775,0.9958446105322369,0.7120556144551344,0.09505384218837336,-0.023384889953286404,-0.0938590523514119,0.008042649514317945,"(173, 329)",detected
2012-08-14 04:24:00,1,17,41,3192.4,0.5051342858791218,"(26.24290628736243, 1.6320937126375714)",1.953717849152731,1.543252595155709,1.8565052677840088,0.8145274184283493,0.1114847393387194,-0.023090531348330345,-0.1193090325057193,0.02440201561205358,"(173, 329)",detected
2012-08-14 04:36:00,0,nan,nan,nan,nan,"(nan, nan)",nan,nan,nan,nan,nan,nan,nan,nan,"(173, 329)",no pil E/W
2012-08-14 04:48:00,1,22,43,2098.6,0.5369046317843286,"(4.191795318323326, 32.94456831804031)",1.8639134842913578,1.6112885048835461,1.556350241750072,1.9495284470456313,0.26165662987559984,-0.11764045885522909,-0.24220874005521945,0.1452060225056667,"(173, 329)",detected
2012-08-14 05:00:00,1,21,47,2958.8,0.5051342858791218,"(3.826131023044397, 31.954821357907992)",1.8853277662874657,1.6227189288413775,1.6273532529237278,1.7605244358173706,0.2387383520462931,-0.10963080167746986,-0.2506494151393294,0.10925554658625225,"(173, 329)",detected
2012-08-14 05:12:00,0,nan,nan,nan,nan,"(nan, nan)",nan,nan,nan,nan,nan,nan,nan,nan,"(173, 329)",no pil E/W
2012-08-14 05:24:00,0,nan,nan,nan,nan,"(nan, nan)",nan,nan,nan,nan,nan,nan,nan,nan,"(173, 329)",no pil E/W
2012-08-14 05:36:00,1,19,48,3576.1,0.4174182992696235,"(2.381370405696675, 26.84669976974192)",1.8586162367886716,1.4573552996063566,1.4881021358703008,0.9058273432481272,0.12854557450904036,-0.042792002279263754,-0.15416426684681664,-0.009638287396636334,"(173, 329)",detected
2012-08-14 05:48:00,1,19,54,4697.2,0.4174182992696235,"(2.2407900180100206, 24.583771385498743)",1.784183944032193,1.337512756961656,1.2411173679583127,0.6555931842337646,0.09622904273613254,-0.018587592112063876,-0.082424975117774,-0.015449589508932155,"(173, 329)",detected
2012-08-14 06:00:00,1,16,33,1978.5,0.4174182992696235,"(1.7432922026139828, 20.923374464052685)",1.9053300858899105,1.328125,1.26300048828125,0.765995979309082,0.11422443389892578,-0.027108616802252072,-0.11456172168254852,0.020166692505881656,"(173, 329)",detected
2012-08-14 06:12:00,1,16,36,2868.9,0.381843656474294,"(1.4199400024945064, 20.6800599975055)",1.6812184335382292,1.294921875,1.2735633850097656,0.596770316362381,0.0710020363330841,-0.014615284691557484,-0.07916769111761823,-4.992425186856053e-05,"(173, 329)",detected
2012-08-14 06:24:00,0,nan,nan,nan,nan,"(nan, nan)",nan,nan,nan,nan,nan,nan,nan,nan,"(173, 329)",no pil E/W
2012-08-14 06:36:00,1,20,49,3260.4,0.5310720398763221,"(2.5091523914864027, 32.31979497693465)",1.9363961030678927,1.654375,2.005071640625,1.44480750644534,0.2076289439453162,-0.08486754711084872,-0.2567296495472001,0.07569502642424666,"(173, 329)",detected
2012-08-14 06:48:00,1,19,51,3414.9,0.5585927652966641,"(2.699867252031506, 28.838144443874917)",1.9131180213114471,1.5725324391310687,1.6985742067408625,1.348735555912241,0.17095065602339843,-0.07610729564127999,-0.2182922411779589,0.030753950290452053,"(173, 329)",detected
2012-08-14 07:00:00,1,16,43,2575.2,0.5692803572458797,"(1.3932891544223516, 21.765044178910983)",1.9937184335382292,1.35693359375,1.4248182773590088,0.728178194258362,0.09129357943311334,-0.0234886217021184,-0.10784390058347526,0.0015318821986464726,"(173, 329)",detected
2012-08-14 07:12:00,1,16,38,2511.0,0.5310720398763221,"(0.6783260422387762, 22.013340624427894)",1.9419417382415922,1.32958984375,1.562746286392212,0.36450870567932725,0.05996613437309861,-0.0006846896924893335,-0.02609010092078279,0.008839221519752943,"(173, 329)",detected
2012-08-14 07:24:00,1,21,57,4198.1,0.5034782031716908,"(2.3668469070111158, 31.428391188226975)",1.8162921725586167,1.5326638591944712,1.7370814753298678,0.7597236209791506,0.11322233120057257,-0.025902698654663287,-0.11589145841122508,-0.020778265582587118,"(173, 329)",detected
2012-08-14 07:36:00,1,22,45,2604.9,0.5034782031716908,"(3.257786209633757, 33.556066604219055)",1.824642528351407,1.5972952667167544,1.7281595158168417,1.1460666285938563,0.17731219196287346,-0.06156603487264299,-0.1857679219639062,-0.0509756516163898,"(173, 329)",detected
2012-08-14 07:48:00,0,nan,nan,nan,nan,"(nan, nan)",nan,nan,nan,nan,nan,nan,nan,nan,"(173, 329)",no pil E/W
2012-08-14 08:00:00,0,nan,nan,nan,nan,"(nan, nan)",nan,nan,nan,nan,nan,nan,nan,nan,"(173, 329)",no pil E/W
2012-08-14 08:12:00,0,nan,nan,nan,nan,"(nan, nan)",nan,nan,nan,nan,nan,nan,nan,nan,"(173, 329)",no pil E/W
2012-08-14 08:24:00,0,nan,nan,nan,nan,"(nan, nan)",nan,nan,nan,nan,nan,nan,nan,nan,"(173, 329)",no pil E/W
2012-08-14 08:36:00,0,nan,nan,nan,nan,"(nan, nan)",nan,nan,nan,nan,nan,nan,nan,nan,"(173, 329)",no pil E/W
2012-08-14 08:48:00,1,14,48,4538.0,0.25569972792346984,"(3.267174703601445, 7.6888692524425135)",1.5494562968160799,0.3633381924198251,0.02150265301872519,0.02623880569399915,0.0034516574472512993,-3.062237065307807e-05,-0.00043675971296683585,-1.1886317270860245e-05,"(173, 329)",detected
2012-08-14 09:00:00,0,nan,nan,nan,nan,"(nan, nan)",nan,nan,nan,nan,nan,nan,nan,nan,"(173, 329)",no pil E/W
2012-08-14 09:12:00,0,nan,nan,nan,nan,"(nan, nan)",nan,nan,nan,nan,nan,nan,nan,nan,"(173, 329)",no pil E/W
2012-08-14 09:24:00,0,nan,nan,nan,nan,"(nan, nan)",nan,nan,nan,nan,nan,nan,nan,nan,"(173, 329)",no pil E/W
2012-08-14 09:36:00,0,nan,nan,nan,nan,"(nan, nan)",nan,nan,nan,nan,nan,nan,nan,nan,"(173, 329)",no pil E/W
2012-08-14 09:48:00,2,31,72,5161.3,0.3340530067921428,"(5070.0544575632575, 11.519735985130069)",10.575734293822658,56.72900694669403,3191.3979019498593,269840.8779200598,273034.6396966669,74110628149.65411,15424382.280254103,213385.21431350708,"(173, 329)",detected
2012-08-14 10:00:00,0,nan,nan,nan,nan,"(nan, nan)",nan,nan,nan,nan,nan,nan,nan,nan,"(173, 329)",no pil E/W
2012-08-14 10:12:00,0,nan,nan,nan,nan,"(nan, nan)",nan,nan,nan,nan,nan,nan,nan,nan,"(173, 329)",no pil E/W
2012-08-14 10:24:00,0,nan,nan,nan,nan,"(nan, nan)",nan,nan,nan,nan,nan,nan,nan,nan,"(173, 329)",no pil E/W
2012-08-14 10:36:00,0,nan,nan,nan,nan,"(nan, nan)",nan,nan,nan,nan,nan,nan,nan,nan,"(173, 329)",no pil E/W
2012-08-14 10:48:00,0,nan,nan,nan,nan,"(nan, nan)",nan,nan,nan,nan,nan,nan,nan,nan,"(173, 329)",no pil E/W
2012-08-14 11:00:00,0,nan,nan,nan,nan,"(nan, nan)",nan,nan,nan,nan,nan,nan,nan,nan,"(173, 329)",no pil E/W
2012-08-14 11:12:00,0,nan,nan,nan,nan,"(nan, nan)",nan,nan,nan,nan,nan,nan,nan,nan,"(173, 329)",no pil E/W
2012-08-14 11:24:00,0,nan,nan,nan,nan,"(nan, nan)",nan,nan,nan,nan,nan,nan,nan,nan,"(173, 329)",no pil E/W
2012-08-14 11:36:00,0,nan,nan,nan,nan,"(nan, nan)",nan,nan,nan,nan,nan,nan,nan,nan,"(173, 329)",no pil E/W
2012-08-14 11:48:00,0,nan,nan,nan,nan,"(nan, nan)",nan,nan,nan,nan,nan,nan,nan,nan,"(173, 329)",no pil E/W
2012-08-14 12:00:00,0,nan,nan,nan,nan,"(nan, nan)",nan,nan,nan,nan,nan,nan,nan,nan,"(173, 329)",no pil E/W
2012-08-14 12:12:00,0,nan,nan,nan,nan,"(nan, nan)",nan,nan,nan,nan,nan,nan,nan,nan,"(173, 329)",no pil E/W
2012-08-14 12:24:00,0,nan,nan,nan,nan,"(nan, nan)",nan,nan,nan,nan,nan,nan,nan,nan,"(173, 329)",no pil E/W
2012-08-14 12:36:00,0,nan,nan,nan,nan,"(nan, nan)",nan,nan,nan,nan,nan,nan,nan,nan,"(173, 329)",no pil E/W
2012-08-14 12:48:00,0,nan,nan,nan,nan,"(nan, nan)",nan,nan,nan,nan,nan,nan,nan,nan,"(173, 329)",no pil E/W
2012-08-14 13:00:00,0,nan,nan,nan,nan,"(nan, nan)",nan,nan,nan,nan,nan,nan,nan,nan,"(173, 329)",no pil E/W
2012-08-14 13:12:00,0,nan,nan,nan,nan,"(nan, nan)",nan,nan,nan,nan,nan,nan,nan,nan,"(173, 329)",no pil E/W
2012-08-14 13:24:00,0,nan,nan,nan,nan,"(nan, nan)",nan,nan,nan,nan,nan,nan,nan,nan,"(173, 329)",no pil E/W
2012-08-14 13:36:00,0,nan,nan,nan,nan,"(nan, nan)",nan,nan,nan,nan,nan,nan,nan,nan,"(173, 329)",no pil E/W
2012-08-14 13:48:00,0,nan,nan,nan,nan,"(nan, nan)",nan,nan,nan,nan,nan,nan,nan,nan,"(173, 329)",no pil E/W
2012-08-14 14:00:00,0,nan,nan,nan,nan,"(nan, nan)",nan,nan,nan,nan,nan,nan,nan,nan,"(173, 329)",no pil E/W
2012-08-14 14:12:00,0,nan,nan,nan,nan,"(nan, nan)",nan,nan,nan,nan,nan,nan,nan,nan,"(173, 329)",no pil E/W
2012-08-14 14:24:00,0,nan,nan,nan,nan,"(nan, nan)",nan,nan,nan,nan,nan,nan,nan,nan,"(173, 329)",no pil E/W
2012-08-14 14:36:00,0,nan,nan,nan,nan,"(nan, nan)",nan,nan,nan,nan,nan,nan,nan,nan,"(173, 329)",no pil E/W
2012-08-14 14:48:00,0,nan,nan,nan,nan,"(nan, nan)",nan,nan,nan,nan,nan,nan,nan,nan,"(173, 329)",no pil E/W
2012-08-14 15:00:00,0,nan,nan,nan,nan,"(nan, nan)",nan,nan,nan,nan,nan,nan,nan,nan,"(173, 329)",no pil E/W
2012-08-14 15:12:00,0,nan,nan,nan,nan,"(nan, nan)",nan,nan,nan,nan,nan,nan,nan,nan,"(173, 329)",no pil E/W
2012-08-14 15:24:00,0,nan,nan,nan,nan,"(nan, nan)",nan,nan,nan,nan,nan,nan,nan,nan,"(173, 329)",no pil E/W
2012-08-14 15:36:00,0,nan,nan,nan,nan,"(nan, nan)",nan,nan,nan,nan,nan,nan,nan,nan,"(173, 329)",no pil E/W
2012-08-14 15:48:00,0,nan,nan,nan,nan,"(nan, nan)",nan,nan,nan,nan,nan,nan,nan,nan,"(173, 329)",no pil E/W
2012-08-14 16:00:00,0,nan,nan,nan,nan,"(nan, nan)",nan,nan,nan,nan,nan,nan,nan,nan,"(173, 329)",no pil E/W
2012-08-14 16:12:00,0,nan,nan,nan,nan,"(nan, nan)",nan,nan,nan,nan,nan,nan,nan,nan,"(173, 329)",no pil E/W
2012-08-14 16:24:00,0,nan,nan,nan,nan,"(nan, nan)",nan,nan,nan,nan,nan,nan,nan,nan,"(173, 329)",no pil E/W
2012-08-14 16:36:00,0,nan,nan,nan,nan,"(nan, nan)",nan,nan,nan,nan,nan,nan,nan,nan,"(173, 329)",no pil E/W
2012-08-14 16:48:00,0,nan,nan,nan,nan,"(nan, nan)",nan,nan,nan,nan,nan,nan,nan,nan,"(173, 329)",no pil E/W
2012-08-14 17:00:00,0,nan,nan,nan,nan,"(nan, nan)",nan,nan,nan,nan,nan,nan,nan,nan,"(173, 329)",no pil E/W
2012-08-14 17:12:00,0,nan,nan,nan,nan,"(nan, nan)",nan,nan,nan,nan,nan,nan,nan,nan,"(173, 329)",no pil E/W
2012-08-14 17:24:00,0,nan,nan,nan,nan,"(nan, nan)",nan,nan,nan,nan,nan,nan,nan,nan,"(173, 329)",no pil E/W
2012-08-14 17:36:00,0,nan,nan,nan,nan,"(nan, nan)",nan,nan,nan,nan,nan,nan,nan,nan,"(173, 329)",no pil E/W
2012-08-14 17:48:00,0,nan,nan,nan,nan,"(nan, nan)",nan,nan,nan,nan,nan,nan,nan,nan,"(173, 329)",no pil E/W
2012-08-14 18:00:00,0,nan,nan,nan,nan,"(nan, nan)",nan,nan,nan,nan,nan,nan,nan,nan,"(173, 329)",no pil E/W
2012-08-14 18:12:00,0,nan,nan,nan,nan,"(nan, nan)",nan,nan,nan,nan,nan,nan,nan,nan,"(173, 329)",no pil E/W
2012-08-14 18:24:00,0,nan,nan,nan,nan,"(nan, nan)",nan,nan,nan,nan,nan,nan,nan,nan,"(173, 329)",no pil E/W
2012-08-14 18:36:00,0,nan,nan,nan,nan,"(nan, nan)",nan,nan,nan,nan,nan,nan,nan,nan,"(173, 329)",no pil E/W
2012-08-14 18:48:00,0,nan,nan,nan,nan,"(nan, nan)",nan,nan,nan,nan,nan,nan,nan,nan,"(173, 329)",no pil E/W
2012-08-14 19:00:00,0,nan,nan,nan,nan,"(nan, nan)",nan,nan,nan,nan,nan,nan,nan,nan,"(173, 329)",no pil E/W
2012-08-14 19:12:00,0,nan,nan,nan,nan,"(nan, nan)",nan,nan,nan,nan,nan,nan,nan,nan,"(173, 329)",no pil E/W
2012-08-14 19:24:00,0,nan,nan,nan,nan,"(nan, nan)",nan,nan,nan,nan,nan,nan,nan,nan,"(173, 329)",no pil E/W
2012-08-14 19:36:00,0,nan,nan,nan,nan,"(nan, nan)",nan,nan,nan,nan,nan,nan,nan,nan,"(173, 329)",no pil E/W
2012-08-14 19:48:00,0,nan,nan,nan,nan,"(nan, nan)",nan,nan,nan,nan,nan,nan,nan,nan,"(173, 329)",no pil E/W
2012-08-14 20:00:00,0,nan,nan,nan,nan,"(nan, nan)",nan,nan,nan,nan,nan,nan,nan,nan,"(173, 329)",no pil E/W
2012-08-14 20:12:00,0,nan,nan,nan,nan,"(nan, nan)",nan,nan,nan,nan,nan,nan,nan,nan,"(173, 329)",no pil E/W
2012-08-14 20:24:00,0,nan,nan,nan,nan,"(nan, nan)",nan,nan,nan,nan,nan,nan,nan,nan,"(173, 329)",no pil E/W
2012-08-14 20:36:00,0,nan,nan,nan,nan,"(nan, nan)",nan,nan,nan,nan,nan,nan,nan,nan,"(173, 329)",no pil E/W
2012-08-14 20:48:00,0,nan,nan,nan,nan,"(nan, nan)",nan,nan,nan,nan,nan,nan,nan,nan,"(173, 329)",no pil E/W
2012-08-14 21:00:00,0,nan,nan,nan,nan,"(nan, nan)",nan,nan,nan,nan,nan,nan,nan,nan,"(173, 329)",no pil E/W
2012-08-14 21:12:00,0,nan,nan,nan,nan,"(nan, nan)",nan,nan,nan,nan,nan,nan,nan,nan,"(173, 329)",no pil E/W
2012-08-14 21:24:00,0,nan,nan,nan,nan,"(nan, nan)",nan,nan,nan,nan,nan,nan,nan,nan,"(173, 329)",no pil E/W
2012-08-14 21:36:00,0,nan,nan,nan,nan,"(nan, nan)",nan,nan,nan,nan,nan,nan,nan,nan,"(173, 329)",no pil E/W
2012-08-14 21:48:00,0,nan,nan,nan,nan,"(nan, nan)",nan,nan,nan,nan,nan,nan,nan,nan,"(173, 329)",no pil E/W
2012-08-14 22:00:00,0,nan,nan,nan,nan,"(nan, nan)",nan,nan,nan,nan,nan,nan,nan,nan,"(173, 329)",no pil E/W
2012-08-14 22:12:00,0,nan,nan,nan,nan,"(nan, nan)",nan,nan,nan,nan,nan,nan,nan,nan,"(173, 329)",no pil E/W
2012-08-14 22:24:00,0,nan,nan,nan,nan,"(nan, nan)",nan,nan,nan,nan,nan,nan,nan,nan,"(173, 329)",no pil E/W
2012-08-14 22:36:00,0,nan,nan,nan,nan,"(nan, nan)",nan,nan,nan,nan,nan,nan,nan,nan,"(173, 329)",no pil E/W
2012-08-14 22:48:00,0,nan,nan,nan,nan,"(nan, nan)",nan,nan,nan,nan,nan,nan,nan,nan,"(173, 329)",no pil E/W
2012-08-14 23:00:00,0,nan,nan,nan,nan,"(nan, nan)",nan,nan,nan,nan,nan,nan,nan,nan,"(173, 329)",no pil E/W
2012-08-14 23:12:00,0,nan,nan,nan,nan,"(nan, nan)",nan,nan,nan,nan,nan,nan,nan,nan,"(173, 329)",no pil E/W
2012-08-14 23:24:00,0,nan,nan,nan,nan,"(nan, nan)",nan,nan,nan,nan,nan,nan,nan,nan,"(173, 329)",no pil E/W
2012-08-14 23:36:00,0,nan,nan,nan,nan,"(nan, nan)",nan,nan,nan,nan,nan,nan,nan,nan,"(173, 329)",no pil E/W
2012-08-14 23:48:00,0,nan,nan,nan,nan,"(nan, nan)",nan,nan,nan,nan,nan,nan,nan,nan,"(173, 329)",no pil E/W
2012-08-15 00:00:00,0,nan,nan,nan,nan,"(nan, nan)",nan,nan,nan,nan,nan,nan,nan,nan,"(173, 329)",no pil E/W
2012-08-15 00:12:00,0,nan,nan,nan,nan,"(nan, nan)",nan,nan,nan,nan,nan,nan,nan,nan,"(173, 329)",no pil E/W
2012-08-15 00:24:00,0,nan,nan,nan,nan,"(nan, nan)",nan,nan,nan,nan,nan,nan,nan,nan,"(173, 329)",no pil E/W
2012-08-15 00:36:00,0,nan,nan,nan,nan,"(nan, nan)",nan,nan,nan,nan,nan,nan,nan,nan,"(173, 329)",no pil E/W
2012-08-15 00:48:00,0,nan,nan,nan,nan,"(nan, nan)",nan,nan,nan,nan,nan,nan,nan,nan,"(173, 329)",no pil E/W
2012-08-15 01:00:00,0,nan,nan,nan,nan,"(nan, nan)",nan,nan,nan,nan,nan,nan,nan,nan,"(173, 329)",no pil E/W
2012-08-15 01:12:00,0,nan,nan,nan,nan,"(nan, nan)",nan,nan,nan,nan,nan,nan,nan,nan,"(173, 329)",no pil E/W
2012-08-15 01:24:00,0,nan,nan,nan,nan,"(nan, nan)",nan,nan,nan,nan,nan,nan,nan,nan,"(173, 329)",no pil E/W
2012-08-15 01:36:00,0,nan,nan,nan,nan,"(nan, nan)",nan,nan,nan,nan,nan,nan,nan,nan,"(173, 329)",no pil E/W
2012-08-15 01:48:00,0,nan,nan,nan,nan,"(nan, nan)",nan,nan,nan,nan,nan,nan,nan,nan,"(173, 329)",no pil E/W
2012-08-15 02:00:00,0,nan,nan,nan,nan,"(nan, nan)",nan,nan,nan,nan,nan,nan,nan,nan,"(173, 329)",no pil E/W
2012-08-15 02:12:00,0,nan,nan,nan,nan,"(nan, nan)",nan,nan,nan,nan,nan,nan,nan,nan,"(173, 329)",no pil E/W
2012-08-15 02:24:00,0,nan,nan,nan,nan,"(nan, nan)",nan,nan,nan,nan,nan,nan,nan,nan,"(173, 329)",no pil E/W
2012-08-15 02:36:00,0,nan,nan,nan,nan,"(nan, nan)",nan,nan,nan,nan,nan,nan,nan,nan,"(173, 329)",no pil E/W
2012-08-15 02:48:00,0,nan,nan,nan,nan,"(nan, nan)",nan,nan,nan,nan,nan,nan,nan,nan,"(173, 329)",no pil E/W
2012-08-15 03:00:00,0,nan,nan,nan,nan,"(nan, nan)",nan,nan,nan,nan,nan,nan,nan,nan,"(173, 329)",no pil E/W
2012-08-15 03:12:00,0,nan,nan,nan,nan,"(nan, nan)",nan,nan,nan,nan,nan,nan,nan,nan,"(173, 329)",no pil E/W
2012-08-15 03:24:00,0,nan,nan,nan,nan,"(nan, nan)",nan,nan,nan,nan,nan,nan,nan,nan,"(173, 329)",no pil E/W
2012-08-15 03:36:00,0,nan,nan,nan,nan,"(nan, nan)",nan,nan,nan,nan,nan,nan,nan,nan,"(173, 329)",no pil E/W
2012-08-15 03:48:00,0,nan,nan,nan,nan,"(nan, nan)",nan,nan,nan,nan,nan,nan,nan,nan,"(173, 329)",no pil E/W
2012-08-15 04:00:00,0,nan,nan,nan,nan,"(nan, nan)",nan,nan,nan,nan,nan,nan,nan,nan,"(173, 329)",no pil E/W
2012-08-15 04:12:00,0,nan,nan,nan,nan,"(nan, nan)",nan,nan,nan,nan,nan,nan,nan,nan,"(173, 329)",no pil E/W
2012-08-15 04:24:00,0,nan,nan,nan,nan,"(nan, nan)",nan,nan,nan,nan,nan,nan,nan,nan,"(173, 329)",no pil E/W
2012-08-15 04:36:00,0,nan,nan,nan,nan,"(nan, nan)",nan,nan,nan,nan,nan,nan,nan,nan,"(173, 329)",no pil E/W
2012-08-15 05:00:00,0,nan,nan,nan,nan,"(nan, nan)",nan,nan,nan,nan,nan,nan,nan,nan,"(173, 329)",no pil E/W
2012-08-15 10:00:00,N/A,N/A,N/A,N/A,N/A,N/A,N/A,N/A,N/A,N/A,N/A,N/A,N/A,N/A,N/A,no pil SPE
