,num_PILs,sum_PIL_length,sum_RoPI_Area,sum_mag_field_strength,fra_dim,eige_vals,convexity,Hu1,Hu2,Hu3,Hu4,Hu5,Hu6,Hu7,patch_shape,detection_flag
2011-02-11 21:36:00,N/A,N/A,N/A,N/A,N/A,N/A,N/A,N/A,N/A,N/A,N/A,N/A,N/A,N/A,N/A,no pil SPE
2011-02-11 21:48:00,N/A,N/A,N/A,N/A,N/A,N/A,N/A,N/A,N/A,N/A,N/A,N/A,N/A,N/A,N/A,no pil SPE
2011-02-11 22:00:00,N/A,N/A,N/A,N/A,N/A,N/A,N/A,N/A,N/A,N/A,N/A,N/A,N/A,N/A,N/A,no pil SPE
2011-02-11 22:12:00,N/A,N/A,N/A,N/A,N/A,N/A,N/A,N/A,N/A,N/A,N/A,N/A,N/A,N/A,N/A,no pil SPE
2011-02-11 22:24:00,N/A,N/A,N/A,N/A,N/A,N/A,N/A,N/A,N/A,N/A,N/A,N/A,N/A,N/A,N/A,no pil SPE
2011-02-11 22:36:00,N/A,N/A,N/A,N/A,N/A,N/A,N/A,N/A,N/A,N/A,N/A,N/A,N/A,N/A,N/A,no pil SPE
2011-02-11 22:48:00,N/A,N/A,N/A,N/A,N/A,N/A,N/A,N/A,N/A,N/A,N/A,N/A,N/A,N/A,N/A,no pil SPE
2011-02-11 23:00:00,N/A,N/A,N/A,N/A,N/A,N/A,N/A,N/A,N/A,N/A,N/A,N/A,N/A,N/A,N/A,no pil SPE
2011-02-11 23:12:00,N/A,N/A,N/A,N/A,N/A,N/A,N/A,N/A,N/A,N/A,N/A,N/A,N/A,N/A,N/A,no pil SPE
2011-02-13 01:12:00,0,nan,nan,nan,nan,"(nan, nan)",nan,nan,nan,nan,nan,nan,nan,nan,"(142, 261)",no pil E/W
2011-02-13 02:12:00,0,nan,nan,nan,nan,"(nan, nan)",nan,nan,nan,nan,nan,nan,nan,nan,"(142, 261)",no pil E/W
2011-02-13 02:24:00,0,nan,nan,nan,nan,"(nan, nan)",nan,nan,nan,nan,nan,nan,nan,nan,"(142, 261)",no pil E/W
2011-02-13 03:00:00,0,nan,nan,nan,nan,"(nan, nan)",nan,nan,nan,nan,nan,nan,nan,nan,"(142, 261)",no pil E/W
2011-02-13 03:12:00,0,nan,nan,nan,nan,"(nan, nan)",nan,nan,nan,nan,nan,nan,nan,nan,"(142, 261)",no pil E/W
2011-02-13 03:24:00,0,nan,nan,nan,nan,"(nan, nan)",nan,nan,nan,nan,nan,nan,nan,nan,"(142, 261)",no pil E/W
2011-02-13 03:36:00,0,nan,nan,nan,nan,"(nan, nan)",nan,nan,nan,nan,nan,nan,nan,nan,"(142, 261)",no pil E/W
2011-02-13 03:48:00,0,nan,nan,nan,nan,"(nan, nan)",nan,nan,nan,nan,nan,nan,nan,nan,"(142, 261)",no pil E/W
2011-02-13 04:00:00,0,nan,nan,nan,nan,"(nan, nan)",nan,nan,nan,nan,nan,nan,nan,nan,"(142, 261)",no pil E/W
2011-02-13 04:12:00,0,nan,nan,nan,nan,"(nan, nan)",nan,nan,nan,nan,nan,nan,nan,nan,"(142, 261)",no pil E/W
2011-02-13 04:24:00,0,nan,nan,nan,nan,"(nan, nan)",nan,nan,nan,nan,nan,nan,nan,nan,"(142, 261)",no pil E/W
2011-02-13 04:36:00,0,nan,nan,nan,nan,"(nan, nan)",nan,nan,nan,nan,nan,nan,nan,nan,"(142, 261)",no pil E/W
2011-02-13 04:48:00,0,nan,nan,nan,nan,"(nan, nan)",nan,nan,nan,nan,nan,nan,nan,nan,"(142, 261)",no pil E/W
2011-02-13 05:00:00,0,nan,nan,nan,nan,"(nan, nan)",nan,nan,nan,nan,nan,nan,nan,nan,"(142, 261)",no pil E/W
2011-02-13 05:12:00,0,nan,nan,nan,nan,"(nan, nan)",nan,nan,nan,nan,nan,nan,nan,nan,"(142, 261)",no pil E/W
2011-02-13 05:24:00,0,nan,nan,nan,nan,"(nan, nan)",nan,nan,nan,nan,nan,nan,nan,nan,"(142, 261)",no pil E/W
2011-02-13 05:36:00,0,nan,nan,nan,nan,"(nan, nan)",nan,nan,nan,nan,nan,nan,nan,nan,"(142, 261)",no pil E/W
2011-02-13 05:48:00,0,nan,nan,nan,nan,"(nan, nan)",nan,nan,nan,nan,nan,nan,nan,nan,"(142, 261)",no pil E/W
2011-02-13 06:00:00,0,nan,nan,nan,nan,"(nan, nan)",nan,nan,nan,nan,nan,nan,nan,nan,"(142, 261)",no pil E/W
2011-02-13 06:12:00,0,nan,nan,nan,nan,"(nan, nan)",nan,nan,nan,nan,nan,nan,nan,nan,"(142, 261)",no pil E/W
2011-02-13 06:24:00,0,nan,nan,nan,nan,"(nan, nan)",nan,nan,nan,nan,nan,nan,nan,nan,"(142, 261)",no pil E/W
2011-02-13 06:36:00,0,nan,nan,nan,nan,"(nan, nan)",nan,nan,nan,nan,nan,nan,nan,nan,"(142, 261)",no pil E/W
2011-02-13 06:48:00,0,nan,nan,nan,nan,"(nan, nan)",nan,nan,nan,nan,nan,nan,nan,nan,"(142, 261)",no pil E/W
2011-02-13 07:00:00,0,nan,nan,nan,nan,"(nan, nan)",nan,nan,nan,nan,nan,nan,nan,nan,"(142, 261)",no pil E/W
2011-02-13 07:12:00,0,nan,nan,nan,nan,"(nan, nan)",nan,nan,nan,nan,nan,nan,nan,nan,"(142, 261)",no pil E/W
2011-02-13 07:24:00,0,nan,nan,nan,nan,"(nan, nan)",nan,nan,nan,nan,nan,nan,nan,nan,"(142, 261)",no pil E/W
2011-02-13 07:36:00,0,nan,nan,nan,nan,"(nan, nan)",nan,nan,nan,nan,nan,nan,nan,nan,"(142, 261)",no pil E/W
2011-02-13 07:48:00,0,nan,nan,nan,nan,"(nan, nan)",nan,nan,nan,nan,nan,nan,nan,nan,"(142, 261)",no pil E/W
2011-02-13 08:00:00,0,nan,nan,nan,nan,"(nan, nan)",nan,nan,nan,nan,nan,nan,nan,nan,"(142, 261)",no pil E/W
2011-02-13 08:12:00,0,nan,nan,nan,nan,"(nan, nan)",nan,nan,nan,nan,nan,nan,nan,nan,"(142, 261)",no pil E/W
2011-02-13 08:24:00,0,nan,nan,nan,nan,"(nan, nan)",nan,nan,nan,nan,nan,nan,nan,nan,"(142, 261)",no pil E/W
2011-02-13 08:36:00,0,nan,nan,nan,nan,"(nan, nan)",nan,nan,nan,nan,nan,nan,nan,nan,"(142, 261)",no pil E/W
2011-02-13 08:48:00,0,nan,nan,nan,nan,"(nan, nan)",nan,nan,nan,nan,nan,nan,nan,nan,"(142, 261)",no pil E/W
2011-02-13 09:00:00,0,nan,nan,nan,nan,"(nan, nan)",nan,nan,nan,nan,nan,nan,nan,nan,"(142, 261)",no pil E/W
2011-02-13 09:12:00,0,nan,nan,nan,nan,"(nan, nan)",nan,nan,nan,nan,nan,nan,nan,nan,"(142, 261)",no pil E/W
2011-02-13 09:24:00,0,nan,nan,nan,nan,"(nan, nan)",nan,nan,nan,nan,nan,nan,nan,nan,"(142, 261)",no pil E/W
2011-02-13 09:36:00,0,nan,nan,nan,nan,"(nan, nan)",nan,nan,nan,nan,nan,nan,nan,nan,"(142, 261)",no pil E/W
2011-02-13 09:48:00,0,nan,nan,nan,nan,"(nan, nan)",nan,nan,nan,nan,nan,nan,nan,nan,"(142, 261)",no pil E/W
2011-02-13 10:00:00,0,nan,nan,nan,nan,"(nan, nan)",nan,nan,nan,nan,nan,nan,nan,nan,"(142, 261)",no pil E/W
2011-02-13 10:12:00,0,nan,nan,nan,nan,"(nan, nan)",nan,nan,nan,nan,nan,nan,nan,nan,"(142, 261)",no pil E/W
2011-02-13 10:24:00,0,nan,nan,nan,nan,"(nan, nan)",nan,nan,nan,nan,nan,nan,nan,nan,"(142, 261)",no pil E/W
2011-02-13 10:36:00,0,nan,nan,nan,nan,"(nan, nan)",nan,nan,nan,nan,nan,nan,nan,nan,"(142, 261)",no pil E/W
2011-02-13 10:48:00,0,nan,nan,nan,nan,"(nan, nan)",nan,nan,nan,nan,nan,nan,nan,nan,"(142, 261)",no pil E/W
2011-02-13 11:00:00,0,nan,nan,nan,nan,"(nan, nan)",nan,nan,nan,nan,nan,nan,nan,nan,"(142, 261)",no pil E/W
2011-02-13 11:12:00,0,nan,nan,nan,nan,"(nan, nan)",nan,nan,nan,nan,nan,nan,nan,nan,"(142, 261)",no pil E/W
2011-02-13 11:24:00,0,nan,nan,nan,nan,"(nan, nan)",nan,nan,nan,nan,nan,nan,nan,nan,"(142, 261)",no pil E/W
2011-02-13 11:36:00,0,nan,nan,nan,nan,"(nan, nan)",nan,nan,nan,nan,nan,nan,nan,nan,"(142, 261)",no pil E/W
2011-02-13 11:48:00,0,nan,nan,nan,nan,"(nan, nan)",nan,nan,nan,nan,nan,nan,nan,nan,"(142, 261)",no pil E/W
2011-02-13 12:00:00,0,nan,nan,nan,nan,"(nan, nan)",nan,nan,nan,nan,nan,nan,nan,nan,"(142, 261)",no pil E/W
2011-02-13 12:12:00,0,nan,nan,nan,nan,"(nan, nan)",nan,nan,nan,nan,nan,nan,nan,nan,"(142, 261)",no pil E/W
2011-02-13 12:24:00,0,nan,nan,nan,nan,"(nan, nan)",nan,nan,nan,nan,nan,nan,nan,nan,"(142, 261)",no pil E/W
2011-02-13 12:36:00,0,nan,nan,nan,nan,"(nan, nan)",nan,nan,nan,nan,nan,nan,nan,nan,"(142, 261)",no pil E/W
2011-02-13 12:48:00,0,nan,nan,nan,nan,"(nan, nan)",nan,nan,nan,nan,nan,nan,nan,nan,"(142, 261)",no pil E/W
2011-02-13 13:00:00,0,nan,nan,nan,nan,"(nan, nan)",nan,nan,nan,nan,nan,nan,nan,nan,"(142, 261)",no pil E/W
2011-02-13 13:12:00,0,nan,nan,nan,nan,"(nan, nan)",nan,nan,nan,nan,nan,nan,nan,nan,"(142, 261)",no pil E/W
2011-02-13 13:24:00,0,nan,nan,nan,nan,"(nan, nan)",nan,nan,nan,nan,nan,nan,nan,nan,"(142, 261)",no pil E/W
2011-02-13 13:36:00,0,nan,nan,nan,nan,"(nan, nan)",nan,nan,nan,nan,nan,nan,nan,nan,"(142, 261)",no pil E/W
2011-02-13 13:48:00,0,nan,nan,nan,nan,"(nan, nan)",nan,nan,nan,nan,nan,nan,nan,nan,"(142, 261)",no pil E/W
2011-02-13 14:00:00,1,16,50,5193.9,0.46755794218857955,"(20.189959732229376, 0.8058736011039578)",1.8624368670764582,1.230224609375,1.2900105118751526,0.2270103237242438,0.04801470699021593,0.0025726177461483906,0.012285193915872128,0.004302353704066966,"(142, 261)",detected
2011-02-13 14:12:00,1,16,54,4742.3,0.540708928674451,"(25.9960810308577, 0.48308563580896724)",1.7847718241315027,1.551513671875,2.234732210636139,0.2605198838864453,0.0804037147318013,0.009785648485660589,0.0748116517577131,0.006297368162384777,"(142, 261)",detected
2011-02-13 14:24:00,1,17,58,5346.5,0.5051342858791216,"(26.24290628736243, 1.6320937126375714)",1.953717849152731,1.5432525951557095,1.8565052677840088,0.8145274184283495,0.11148473933871929,-0.023090531348330355,-0.11930903250571927,0.02440201561205351,"(142, 261)",detected
2011-02-13 14:36:00,0,nan,nan,nan,nan,"(nan, nan)",nan,nan,nan,nan,nan,nan,nan,nan,"(142, 261)",no pil E/W
2011-02-13 14:48:00,1,15,52,5727.9,0.421568214347528,"(14.509888117588563, 2.1853499776495333)",1.8209138999323173,0.5194074074074073,0.14701862277091904,0.056120461591424975,0.006939853269522209,-4.988675247140143e-05,-0.0010692950601596135,0.00012754876938312845,"(142, 261)",detected
2011-02-13 15:00:00,0,nan,nan,nan,nan,"(nan, nan)",nan,nan,nan,nan,nan,nan,nan,nan,"(142, 261)",no pil E/W
2011-02-13 15:12:00,1,14,50,5273.7,0.46755794218857955,"(15.021490378352944, 1.1543337974712315)",1.790790557990391,0.5364431486880468,0.21148979166843754,0.027415557494339587,0.0034002337216718415,-8.927355849840383e-07,-5.88509646312449e-05,3.2817165114023976e-05,"(142, 261)",detected
2011-02-13 15:24:00,0,nan,nan,nan,nan,"(nan, nan)",nan,nan,nan,nan,nan,nan,nan,nan,"(142, 261)",no pil E/W
2011-02-13 15:36:00,1,18,60,5886.5,0.5574221429807698,"(0.86833945309737, 27.069569043634665)",1.9313031092939221,1.4658779149519892,1.889953711936038,0.42914811006872167,0.12355035036943751,0.024001780890135146,0.116887766525609,-0.015273168948157723,"(142, 261)",detected
2011-02-13 15:48:00,0,nan,nan,nan,nan,"(nan, nan)",nan,nan,nan,nan,nan,nan,nan,nan,"(142, 261)",no pil E/W
2011-02-13 16:00:00,0,nan,nan,nan,nan,"(nan, nan)",nan,nan,nan,nan,nan,nan,nan,nan,"(142, 261)",no pil E/W
2011-02-13 16:12:00,0,nan,nan,nan,nan,"(nan, nan)",nan,nan,nan,nan,nan,nan,nan,nan,"(142, 261)",no pil E/W
2011-02-13 16:24:00,0,nan,nan,nan,nan,"(nan, nan)",nan,nan,nan,nan,nan,nan,nan,nan,"(142, 261)",no pil E/W
2011-02-13 16:36:00,0,nan,nan,nan,nan,"(nan, nan)",nan,nan,nan,nan,nan,nan,nan,nan,"(142, 261)",no pil E/W
2011-02-13 16:48:00,0,nan,nan,nan,nan,"(nan, nan)",nan,nan,nan,nan,nan,nan,nan,nan,"(142, 261)",no pil E/W
2011-02-13 17:00:00,0,nan,nan,nan,nan,"(nan, nan)",nan,nan,nan,nan,nan,nan,nan,nan,"(142, 261)",no pil E/W
2011-02-13 17:12:00,0,nan,nan,nan,nan,"(nan, nan)",nan,nan,nan,nan,nan,nan,nan,nan,"(142, 261)",no pil E/W
2011-02-13 17:24:00,0,nan,nan,nan,nan,"(nan, nan)",nan,nan,nan,nan,nan,nan,nan,nan,"(142, 261)",no pil E/W
2011-02-13 17:36:00,0,nan,nan,nan,nan,"(nan, nan)",nan,nan,nan,nan,nan,nan,nan,nan,"(142, 261)",no pil E/W
2011-02-13 17:48:00,0,nan,nan,nan,nan,"(nan, nan)",nan,nan,nan,nan,nan,nan,nan,nan,"(142, 261)",no pil E/W
2011-02-13 18:00:00,0,nan,nan,nan,nan,"(nan, nan)",nan,nan,nan,nan,nan,nan,nan,nan,"(142, 261)",no pil E/W
2011-02-13 18:12:00,0,nan,nan,nan,nan,"(nan, nan)",nan,nan,nan,nan,nan,nan,nan,nan,"(142, 261)",no pil E/W
2011-02-13 18:24:00,0,nan,nan,nan,nan,"(nan, nan)",nan,nan,nan,nan,nan,nan,nan,nan,"(142, 261)",no pil E/W
2011-02-13 18:36:00,0,nan,nan,nan,nan,"(nan, nan)",nan,nan,nan,nan,nan,nan,nan,nan,"(142, 261)",no pil E/W
2011-02-13 18:48:00,0,nan,nan,nan,nan,"(nan, nan)",nan,nan,nan,nan,nan,nan,nan,nan,"(142, 261)",no pil E/W
2011-02-13 19:00:00,0,nan,nan,nan,nan,"(nan, nan)",nan,nan,nan,nan,nan,nan,nan,nan,"(142, 261)",no pil E/W
2011-02-13 19:12:00,0,nan,nan,nan,nan,"(nan, nan)",nan,nan,nan,nan,nan,nan,nan,nan,"(142, 261)",no pil E/W
2011-02-13 19:24:00,0,nan,nan,nan,nan,"(nan, nan)",nan,nan,nan,nan,nan,nan,nan,nan,"(142, 261)",no pil E/W
2011-02-13 19:36:00,0,nan,nan,nan,nan,"(nan, nan)",nan,nan,nan,nan,nan,nan,nan,nan,"(142, 261)",no pil E/W
2011-02-13 19:48:00,0,nan,nan,nan,nan,"(nan, nan)",nan,nan,nan,nan,nan,nan,nan,nan,"(142, 261)",no pil E/W
2011-02-13 20:00:00,0,nan,nan,nan,nan,"(nan, nan)",nan,nan,nan,nan,nan,nan,nan,nan,"(142, 261)",no pil E/W
2011-02-13 20:12:00,0,nan,nan,nan,nan,"(nan, nan)",nan,nan,nan,nan,nan,nan,nan,nan,"(142, 261)",no pil E/W
2011-02-13 20:24:00,0,nan,nan,nan,nan,"(nan, nan)",nan,nan,nan,nan,nan,nan,nan,nan,"(142, 261)",no pil E/W
2011-02-13 20:36:00,0,nan,nan,nan,nan,"(nan, nan)",nan,nan,nan,nan,nan,nan,nan,nan,"(142, 261)",no pil E/W
2011-02-13 20:48:00,0,nan,nan,nan,nan,"(nan, nan)",nan,nan,nan,nan,nan,nan,nan,nan,"(142, 261)",no pil E/W
2011-02-13 21:00:00,0,nan,nan,nan,nan,"(nan, nan)",nan,nan,nan,nan,nan,nan,nan,nan,"(142, 261)",no pil E/W
2011-02-13 21:12:00,0,nan,nan,nan,nan,"(nan, nan)",nan,nan,nan,nan,nan,nan,nan,nan,"(142, 261)",no pil E/W
2011-02-13 21:24:00,0,nan,nan,nan,nan,"(nan, nan)",nan,nan,nan,nan,nan,nan,nan,nan,"(142, 261)",no pil E/W
2011-02-13 21:36:00,0,nan,nan,nan,nan,"(nan, nan)",nan,nan,nan,nan,nan,nan,nan,nan,"(142, 261)",no pil E/W
2011-02-13 21:48:00,0,nan,nan,nan,nan,"(nan, nan)",nan,nan,nan,nan,nan,nan,nan,nan,"(142, 261)",no pil E/W
2011-02-13 22:00:00,0,nan,nan,nan,nan,"(nan, nan)",nan,nan,nan,nan,nan,nan,nan,nan,"(142, 261)",no pil E/W
2011-02-13 22:12:00,0,nan,nan,nan,nan,"(nan, nan)",nan,nan,nan,nan,nan,nan,nan,nan,"(142, 261)",no pil E/W
2011-02-13 22:24:00,0,nan,nan,nan,nan,"(nan, nan)",nan,nan,nan,nan,nan,nan,nan,nan,"(142, 261)",no pil E/W
2011-02-13 22:36:00,0,nan,nan,nan,nan,"(nan, nan)",nan,nan,nan,nan,nan,nan,nan,nan,"(142, 261)",no pil E/W
2011-02-13 22:48:00,0,nan,nan,nan,nan,"(nan, nan)",nan,nan,nan,nan,nan,nan,nan,nan,"(142, 261)",no pil E/W
2011-02-13 23:00:00,0,nan,nan,nan,nan,"(nan, nan)",nan,nan,nan,nan,nan,nan,nan,nan,"(142, 261)",no pil E/W
2011-02-13 23:12:00,0,nan,nan,nan,nan,"(nan, nan)",nan,nan,nan,nan,nan,nan,nan,nan,"(142, 261)",no pil E/W
2011-02-13 23:24:00,0,nan,nan,nan,nan,"(nan, nan)",nan,nan,nan,nan,nan,nan,nan,nan,"(142, 261)",no pil E/W
2011-02-13 23:36:00,0,nan,nan,nan,nan,"(nan, nan)",nan,nan,nan,nan,nan,nan,nan,nan,"(142, 261)",no pil E/W
2011-02-13 23:48:00,0,nan,nan,nan,nan,"(nan, nan)",nan,nan,nan,nan,nan,nan,nan,nan,"(142, 261)",no pil E/W
2011-02-14 00:00:00,0,nan,nan,nan,nan,"(nan, nan)",nan,nan,nan,nan,nan,nan,nan,nan,"(142, 261)",no pil E/W
2011-02-14 00:12:00,0,nan,nan,nan,nan,"(nan, nan)",nan,nan,nan,nan,nan,nan,nan,nan,"(142, 261)",no pil E/W
2011-02-14 00:24:00,0,nan,nan,nan,nan,"(nan, nan)",nan,nan,nan,nan,nan,nan,nan,nan,"(142, 261)",no pil E/W
2011-02-14 00:36:00,1,17,40,3834.0,0.49612937076000824,"(0.801073951570821, 25.507749577840944)",1.7323380863709312,0.4855146210733428,0.20788846723637425,0.009127146219656226,0.000917527263881842,-2.259111207503803e-06,-0.00039769818922685753,1.3951567695364194e-06,"(142, 261)",detected
2011-02-14 00:48:00,1,15,42,3390.0,0.445989727841052,"(21.47289325636701, 0.43186864839489747)",1.7932996624407775,0.2725925925925926,0.06856220795610427,0.0019097086933495867,0.00023682363216988598,-1.1011441792515647e-07,-5.368166528716685e-05,-1.15066265642927e-07,"(142, 261)",detected
2011-02-14 01:00:00,0,nan,nan,nan,nan,"(nan, nan)",nan,nan,nan,nan,nan,nan,nan,nan,"(142, 261)",no pil E/W
2011-02-14 01:12:00,1,15,52,6708.4,0.49612937076000824,"(18.022467079570585, 1.3013424442389399)",1.8347210186780873,0.4007901234567901,0.12027614327084282,0.019896226723764544,0.002261056381393278,-1.4900328765396305e-05,-0.0007568067832299163,2.822774294663707e-06,"(142, 261)",detected
2011-02-14 01:24:00,1,17,58,6616.6,0.5337057144505503,"(19.943793595087456, 1.8650299343243093)",1.7587938198006863,0.24148178302462853,0.04007206525230442,0.00536871685671933,0.0006572317149297286,-8.607961750057927e-07,-8.955548269111861e-05,8.849712267528241e-07,"(142, 261)",detected
2011-02-14 01:36:00,0,nan,nan,nan,nan,"(nan, nan)",nan,nan,nan,nan,nan,nan,nan,nan,"(142, 261)",no pil E/W
2011-02-14 01:48:00,0,nan,nan,nan,nan,"(nan, nan)",nan,nan,nan,nan,nan,nan,nan,nan,"(142, 261)",no pil E/W
2011-02-14 02:00:00,1,15,34,2448.7,0.49612937076000824,"(16.058035065487775, 1.7229173154646027)",1.6852116395368015,0.5531851851851852,0.1988994458161866,0.06200279090463856,0.00749893551674028,-0.00011406457320389347,-0.002245145950705552,0.00011461049025274198,"(142, 261)",detected
2011-02-14 02:12:00,1,14,47,4257.3,0.49612937076000824,"(16.689277785332806, 1.068963972908956)",1.7341553280751445,0.23556851311953353,0.042935256568266626,0.0014331613652280898,7.96048417679156e-05,-2.2105855105011376e-08,-9.572820043821442e-06,1.530653324525062e-08,"(142, 261)",detected
2011-02-14 02:24:00,0,nan,nan,nan,nan,"(nan, nan)",nan,nan,nan,nan,nan,nan,nan,nan,"(142, 261)",no pil E/W
2011-02-14 02:36:00,0,nan,nan,nan,nan,"(nan, nan)",nan,nan,nan,nan,nan,nan,nan,nan,"(142, 261)",no pil E/W
2011-02-14 02:48:00,0,nan,nan,nan,nan,"(nan, nan)",nan,nan,nan,nan,nan,nan,nan,nan,"(142, 261)",no pil E/W
2011-02-14 03:00:00,1,14,20,1139.3,0.4174182992696235,"(13.755696227797468, 0.997051024949783)",1.5321248191647021,0.4892492711370261,0.17902912609754432,0.0325939439100214,0.005015476760851012,4.5206912479178914e-08,-0.00014395438871761795,-6.412637386460024e-05,"(142, 261)",detected
2011-02-14 03:12:00,0,nan,nan,nan,nan,"(nan, nan)",nan,nan,nan,nan,nan,nan,nan,nan,"(142, 261)",no pil E/W
2011-02-14 03:24:00,0,nan,nan,nan,nan,"(nan, nan)",nan,nan,nan,nan,nan,nan,nan,nan,"(142, 261)",no pil E/W
2011-02-14 03:36:00,0,nan,nan,nan,nan,"(nan, nan)",nan,nan,nan,nan,nan,nan,nan,nan,"(142, 261)",no pil E/W
2011-02-14 03:48:00,1,22,56,4091.1,0.65616526527606,"(30.360738975932144, 8.23017011497694)",1.8733274288907467,0.4185997370398198,0.05762527866049353,0.0346153392351299,0.005287357222338897,-6.98387561866939e-05,-0.0012665391712994923,1.5465590081509858e-05,"(142, 261)",detected
2011-02-14 04:00:00,0,nan,nan,nan,nan,"(nan, nan)",nan,nan,nan,nan,nan,nan,nan,nan,"(142, 261)",no pil E/W
2011-02-14 04:12:00,0,nan,nan,nan,nan,"(nan, nan)",nan,nan,nan,nan,nan,nan,nan,nan,"(142, 261)",no pil E/W
2011-02-14 04:24:00,0,nan,nan,nan,nan,"(nan, nan)",nan,nan,nan,nan,nan,nan,nan,nan,"(142, 261)",no pil E/W
2011-02-14 04:36:00,0,nan,nan,nan,nan,"(nan, nan)",nan,nan,nan,nan,nan,nan,nan,nan,"(142, 261)",no pil E/W
2011-02-14 04:48:00,0,nan,nan,nan,nan,"(nan, nan)",nan,nan,nan,nan,nan,nan,nan,nan,"(142, 261)",no pil E/W
2011-02-14 05:00:00,0,nan,nan,nan,nan,"(nan, nan)",nan,nan,nan,nan,nan,nan,nan,nan,"(142, 261)",no pil E/W
2011-02-14 05:12:00,0,nan,nan,nan,nan,"(nan, nan)",nan,nan,nan,nan,nan,nan,nan,nan,"(142, 261)",no pil E/W
2011-02-14 05:24:00,2,34,70,4042.7,0.7813393505651033,"(18.798384531828532, 182.09466359651358)",2.559182156141757,0.8156786808372782,0.2539439100887929,1.0606878388617969,0.7172260979578873,0.6255666063228262,0.35887826140639234,-0.0028042122958183147,"(142, 261)",detected
2011-02-14 05:36:00,2,35,98,7757.7,0.8223076420385204,"(20.00759610266323, 198.86803414943768)",2.624017726673313,1.0908690207863763,0.6373572686135125,1.445578587794512,0.8551760641392705,0.9506517435541452,0.67927975420215,0.01855509171135461,"(142, 261)",detected
2011-02-14 05:48:00,1,23,93,10285.6,0.628571428571429,"(50.04093217312676, 1.121123162841629)",2.045288285232288,0.30396036116427344,0.08447096258405506,0.0034393401856246805,0.0007012958615923884,5.080953524391101e-07,1.3230152305740862e-06,9.633776978008725e-07,"(142, 261)",detected
2011-02-14 06:00:00,0,nan,nan,nan,nan,"(nan, nan)",nan,nan,nan,nan,nan,nan,nan,nan,"(142, 261)",no pil E/W
2011-02-14 06:12:00,0,nan,nan,nan,nan,"(nan, nan)",nan,nan,nan,nan,nan,nan,nan,nan,"(142, 261)",no pil E/W
2011-02-14 06:24:00,0,nan,nan,nan,nan,"(nan, nan)",nan,nan,nan,nan,nan,nan,nan,nan,"(142, 261)",no pil E/W
2011-02-14 06:36:00,0,nan,nan,nan,nan,"(nan, nan)",nan,nan,nan,nan,nan,nan,nan,nan,"(142, 261)",no pil E/W
2011-02-14 06:48:00,0,nan,nan,nan,nan,"(nan, nan)",nan,nan,nan,nan,nan,nan,nan,nan,"(142, 261)",no pil E/W
2011-02-14 07:00:00,0,nan,nan,nan,nan,"(nan, nan)",nan,nan,nan,nan,nan,nan,nan,nan,"(142, 261)",no pil E/W
2011-02-14 07:12:00,0,nan,nan,nan,nan,"(nan, nan)",nan,nan,nan,nan,nan,nan,nan,nan,"(142, 261)",no pil E/W
2011-02-14 07:24:00,0,nan,nan,nan,nan,"(nan, nan)",nan,nan,nan,nan,nan,nan,nan,nan,"(142, 261)",no pil E/W
2011-02-14 07:36:00,0,nan,nan,nan,nan,"(nan, nan)",nan,nan,nan,nan,nan,nan,nan,nan,"(142, 261)",no pil E/W
2011-02-14 07:48:00,0,nan,nan,nan,nan,"(nan, nan)",nan,nan,nan,nan,nan,nan,nan,nan,"(142, 261)",no pil E/W
2011-02-14 08:00:00,0,nan,nan,nan,nan,"(nan, nan)",nan,nan,nan,nan,nan,nan,nan,nan,"(142, 261)",no pil E/W
2011-02-14 08:12:00,0,nan,nan,nan,nan,"(nan, nan)",nan,nan,nan,nan,nan,nan,nan,nan,"(142, 261)",no pil E/W
2011-02-14 08:24:00,0,nan,nan,nan,nan,"(nan, nan)",nan,nan,nan,nan,nan,nan,nan,nan,"(142, 261)",no pil E/W
2011-02-14 08:36:00,0,nan,nan,nan,nan,"(nan, nan)",nan,nan,nan,nan,nan,nan,nan,nan,"(142, 261)",no pil E/W
2011-02-14 08:48:00,0,nan,nan,nan,nan,"(nan, nan)",nan,nan,nan,nan,nan,nan,nan,nan,"(142, 261)",no pil E/W
2011-02-14 09:00:00,0,nan,nan,nan,nan,"(nan, nan)",nan,nan,nan,nan,nan,nan,nan,nan,"(142, 261)",no pil E/W
2011-02-14 09:12:00,0,nan,nan,nan,nan,"(nan, nan)",nan,nan,nan,nan,nan,nan,nan,nan,"(142, 261)",no pil E/W
2011-02-14 09:24:00,0,nan,nan,nan,nan,"(nan, nan)",nan,nan,nan,nan,nan,nan,nan,nan,"(142, 261)",no pil E/W
2011-02-14 09:36:00,0,nan,nan,nan,nan,"(nan, nan)",nan,nan,nan,nan,nan,nan,nan,nan,"(142, 261)",no pil E/W
2011-02-14 09:48:00,0,nan,nan,nan,nan,"(nan, nan)",nan,nan,nan,nan,nan,nan,nan,nan,"(142, 261)",no pil E/W
2011-02-14 10:00:00,0,nan,nan,nan,nan,"(nan, nan)",nan,nan,nan,nan,nan,nan,nan,nan,"(142, 261)",no pil E/W
2011-02-14 10:12:00,0,nan,nan,nan,nan,"(nan, nan)",nan,nan,nan,nan,nan,nan,nan,nan,"(142, 261)",no pil E/W
2011-02-14 10:24:00,0,nan,nan,nan,nan,"(nan, nan)",nan,nan,nan,nan,nan,nan,nan,nan,"(142, 261)",no pil E/W
2011-02-14 10:36:00,0,nan,nan,nan,nan,"(nan, nan)",nan,nan,nan,nan,nan,nan,nan,nan,"(142, 261)",no pil E/W
2011-02-14 10:48:00,0,nan,nan,nan,nan,"(nan, nan)",nan,nan,nan,nan,nan,nan,nan,nan,"(142, 261)",no pil E/W
2011-02-14 11:00:00,0,nan,nan,nan,nan,"(nan, nan)",nan,nan,nan,nan,nan,nan,nan,nan,"(142, 261)",no pil E/W
2011-02-14 11:12:00,0,nan,nan,nan,nan,"(nan, nan)",nan,nan,nan,nan,nan,nan,nan,nan,"(142, 261)",no pil E/W
2011-02-14 11:24:00,0,nan,nan,nan,nan,"(nan, nan)",nan,nan,nan,nan,nan,nan,nan,nan,"(142, 261)",no pil E/W
2011-02-14 11:36:00,0,nan,nan,nan,nan,"(nan, nan)",nan,nan,nan,nan,nan,nan,nan,nan,"(142, 261)",no pil E/W
2011-02-14 11:48:00,0,nan,nan,nan,nan,"(nan, nan)",nan,nan,nan,nan,nan,nan,nan,nan,"(142, 261)",no pil E/W
2011-02-14 12:00:00,0,nan,nan,nan,nan,"(nan, nan)",nan,nan,nan,nan,nan,nan,nan,nan,"(142, 261)",no pil E/W
2011-02-14 12:12:00,0,nan,nan,nan,nan,"(nan, nan)",nan,nan,nan,nan,nan,nan,nan,nan,"(142, 261)",no pil E/W
2011-02-14 12:24:00,0,nan,nan,nan,nan,"(nan, nan)",nan,nan,nan,nan,nan,nan,nan,nan,"(142, 261)",no pil E/W
2011-02-14 12:36:00,0,nan,nan,nan,nan,"(nan, nan)",nan,nan,nan,nan,nan,nan,nan,nan,"(142, 261)",no pil E/W
2011-02-14 12:48:00,0,nan,nan,nan,nan,"(nan, nan)",nan,nan,nan,nan,nan,nan,nan,nan,"(142, 261)",no pil E/W
2011-02-14 13:00:00,0,nan,nan,nan,nan,"(nan, nan)",nan,nan,nan,nan,nan,nan,nan,nan,"(142, 261)",no pil E/W
2011-02-14 13:12:00,0,nan,nan,nan,nan,"(nan, nan)",nan,nan,nan,nan,nan,nan,nan,nan,"(142, 261)",no pil E/W
2011-02-14 13:24:00,0,nan,nan,nan,nan,"(nan, nan)",nan,nan,nan,nan,nan,nan,nan,nan,"(142, 261)",no pil E/W
2011-02-14 13:36:00,0,nan,nan,nan,nan,"(nan, nan)",nan,nan,nan,nan,nan,nan,nan,nan,"(142, 261)",no pil E/W
2011-02-14 13:48:00,0,nan,nan,nan,nan,"(nan, nan)",nan,nan,nan,nan,nan,nan,nan,nan,"(142, 261)",no pil E/W
2011-02-14 14:00:00,0,nan,nan,nan,nan,"(nan, nan)",nan,nan,nan,nan,nan,nan,nan,nan,"(142, 261)",no pil E/W
2011-02-14 14:12:00,0,nan,nan,nan,nan,"(nan, nan)",nan,nan,nan,nan,nan,nan,nan,nan,"(142, 261)",no pil E/W
2011-02-14 14:24:00,0,nan,nan,nan,nan,"(nan, nan)",nan,nan,nan,nan,nan,nan,nan,nan,"(142, 261)",no pil E/W
2011-02-14 14:36:00,0,nan,nan,nan,nan,"(nan, nan)",nan,nan,nan,nan,nan,nan,nan,nan,"(142, 261)",no pil E/W
2011-02-14 14:48:00,0,nan,nan,nan,nan,"(nan, nan)",nan,nan,nan,nan,nan,nan,nan,nan,"(142, 261)",no pil E/W
2011-02-14 15:00:00,0,nan,nan,nan,nan,"(nan, nan)",nan,nan,nan,nan,nan,nan,nan,nan,"(142, 261)",no pil E/W
2011-02-14 15:12:00,0,nan,nan,nan,nan,"(nan, nan)",nan,nan,nan,nan,nan,nan,nan,nan,"(142, 261)",no pil E/W
2011-02-14 15:24:00,0,nan,nan,nan,nan,"(nan, nan)",nan,nan,nan,nan,nan,nan,nan,nan,"(142, 261)",no pil E/W
2011-02-14 15:36:00,0,nan,nan,nan,nan,"(nan, nan)",nan,nan,nan,nan,nan,nan,nan,nan,"(142, 261)",no pil E/W
2011-02-14 15:48:00,0,nan,nan,nan,nan,"(nan, nan)",nan,nan,nan,nan,nan,nan,nan,nan,"(142, 261)",no pil E/W
2011-02-14 16:00:00,0,nan,nan,nan,nan,"(nan, nan)",nan,nan,nan,nan,nan,nan,nan,nan,"(142, 261)",no pil E/W
2011-02-14 16:12:00,0,nan,nan,nan,nan,"(nan, nan)",nan,nan,nan,nan,nan,nan,nan,nan,"(142, 261)",no pil E/W
2011-02-14 16:24:00,0,nan,nan,nan,nan,"(nan, nan)",nan,nan,nan,nan,nan,nan,nan,nan,"(142, 261)",no pil E/W
2011-02-14 16:36:00,0,nan,nan,nan,nan,"(nan, nan)",nan,nan,nan,nan,nan,nan,nan,nan,"(142, 261)",no pil E/W
2011-02-14 16:48:00,0,nan,nan,nan,nan,"(nan, nan)",nan,nan,nan,nan,nan,nan,nan,nan,"(142, 261)",no pil E/W
2011-02-14 17:00:00,0,nan,nan,nan,nan,"(nan, nan)",nan,nan,nan,nan,nan,nan,nan,nan,"(142, 261)",no pil E/W
2011-02-14 17:12:00,0,nan,nan,nan,nan,"(nan, nan)",nan,nan,nan,nan,nan,nan,nan,nan,"(142, 261)",no pil E/W
2011-02-14 17:24:00,0,nan,nan,nan,nan,"(nan, nan)",nan,nan,nan,nan,nan,nan,nan,nan,"(142, 261)",no pil E/W
2011-02-14 17:36:00,0,nan,nan,nan,nan,"(nan, nan)",nan,nan,nan,nan,nan,nan,nan,nan,"(142, 261)",no pil E/W
2011-02-14 17:48:00,0,nan,nan,nan,nan,"(nan, nan)",nan,nan,nan,nan,nan,nan,nan,nan,"(142, 261)",no pil E/W
2011-02-14 18:00:00,0,nan,nan,nan,nan,"(nan, nan)",nan,nan,nan,nan,nan,nan,nan,nan,"(142, 261)",no pil E/W
2011-02-14 18:12:00,0,nan,nan,nan,nan,"(nan, nan)",nan,nan,nan,nan,nan,nan,nan,nan,"(142, 261)",no pil E/W
2011-02-14 18:24:00,0,nan,nan,nan,nan,"(nan, nan)",nan,nan,nan,nan,nan,nan,nan,nan,"(142, 261)",no pil E/W
2011-02-14 18:36:00,0,nan,nan,nan,nan,"(nan, nan)",nan,nan,nan,nan,nan,nan,nan,nan,"(142, 261)",no pil E/W
2011-02-14 18:48:00,0,nan,nan,nan,nan,"(nan, nan)",nan,nan,nan,nan,nan,nan,nan,nan,"(142, 261)",no pil E/W
2011-02-14 19:00:00,0,nan,nan,nan,nan,"(nan, nan)",nan,nan,nan,nan,nan,nan,nan,nan,"(142, 261)",no pil E/W
2011-02-14 19:12:00,0,nan,nan,nan,nan,"(nan, nan)",nan,nan,nan,nan,nan,nan,nan,nan,"(142, 261)",no pil E/W
2011-02-14 19:24:00,0,nan,nan,nan,nan,"(nan, nan)",nan,nan,nan,nan,nan,nan,nan,nan,"(142, 261)",no pil E/W
2011-02-14 19:36:00,0,nan,nan,nan,nan,"(nan, nan)",nan,nan,nan,nan,nan,nan,nan,nan,"(142, 261)",no pil E/W
2011-02-14 19:48:00,0,nan,nan,nan,nan,"(nan, nan)",nan,nan,nan,nan,nan,nan,nan,nan,"(142, 261)",no pil E/W
2011-02-14 20:00:00,0,nan,nan,nan,nan,"(nan, nan)",nan,nan,nan,nan,nan,nan,nan,nan,"(142, 261)",no pil E/W
2011-02-14 20:12:00,0,nan,nan,nan,nan,"(nan, nan)",nan,nan,nan,nan,nan,nan,nan,nan,"(142, 261)",no pil E/W
2011-02-14 20:24:00,0,nan,nan,nan,nan,"(nan, nan)",nan,nan,nan,nan,nan,nan,nan,nan,"(142, 261)",no pil E/W
2011-02-14 20:36:00,0,nan,nan,nan,nan,"(nan, nan)",nan,nan,nan,nan,nan,nan,nan,nan,"(142, 261)",no pil E/W
2011-02-14 20:48:00,0,nan,nan,nan,nan,"(nan, nan)",nan,nan,nan,nan,nan,nan,nan,nan,"(142, 261)",no pil E/W
2011-02-14 21:00:00,0,nan,nan,nan,nan,"(nan, nan)",nan,nan,nan,nan,nan,nan,nan,nan,"(142, 261)",no pil E/W
2011-02-14 21:12:00,0,nan,nan,nan,nan,"(nan, nan)",nan,nan,nan,nan,nan,nan,nan,nan,"(142, 261)",no pil E/W
2011-02-14 21:24:00,0,nan,nan,nan,nan,"(nan, nan)",nan,nan,nan,nan,nan,nan,nan,nan,"(142, 261)",no pil E/W
2011-02-14 21:36:00,0,nan,nan,nan,nan,"(nan, nan)",nan,nan,nan,nan,nan,nan,nan,nan,"(142, 261)",no pil E/W
2011-02-14 21:48:00,0,nan,nan,nan,nan,"(nan, nan)",nan,nan,nan,nan,nan,nan,nan,nan,"(142, 261)",no pil E/W
2011-02-14 22:00:00,0,nan,nan,nan,nan,"(nan, nan)",nan,nan,nan,nan,nan,nan,nan,nan,"(142, 261)",no pil E/W
2011-02-14 22:12:00,0,nan,nan,nan,nan,"(nan, nan)",nan,nan,nan,nan,nan,nan,nan,nan,"(142, 261)",no pil E/W
2011-02-14 22:24:00,0,nan,nan,nan,nan,"(nan, nan)",nan,nan,nan,nan,nan,nan,nan,nan,"(142, 261)",no pil E/W
2011-02-14 22:36:00,0,nan,nan,nan,nan,"(nan, nan)",nan,nan,nan,nan,nan,nan,nan,nan,"(142, 261)",no pil E/W
2011-02-14 22:48:00,0,nan,nan,nan,nan,"(nan, nan)",nan,nan,nan,nan,nan,nan,nan,nan,"(142, 261)",no pil E/W
2011-02-14 23:00:00,0,nan,nan,nan,nan,"(nan, nan)",nan,nan,nan,nan,nan,nan,nan,nan,"(142, 261)",no pil E/W
2011-02-14 23:12:00,0,nan,nan,nan,nan,"(nan, nan)",nan,nan,nan,nan,nan,nan,nan,nan,"(142, 261)",no pil E/W
2011-02-14 23:24:00,0,nan,nan,nan,nan,"(nan, nan)",nan,nan,nan,nan,nan,nan,nan,nan,"(142, 261)",no pil E/W
2011-02-14 23:36:00,0,nan,nan,nan,nan,"(nan, nan)",nan,nan,nan,nan,nan,nan,nan,nan,"(142, 261)",no pil E/W
2011-02-14 23:48:00,0,nan,nan,nan,nan,"(nan, nan)",nan,nan,nan,nan,nan,nan,nan,nan,"(142, 261)",no pil E/W
2011-02-15 00:00:00,0,nan,nan,nan,nan,"(nan, nan)",nan,nan,nan,nan,nan,nan,nan,nan,"(142, 261)",no pil E/W
2011-02-15 00:12:00,0,nan,nan,nan,nan,"(nan, nan)",nan,nan,nan,nan,nan,nan,nan,nan,"(142, 261)",no pil E/W
2011-02-15 00:24:00,0,nan,nan,nan,nan,"(nan, nan)",nan,nan,nan,nan,nan,nan,nan,nan,"(142, 261)",no pil E/W
2011-02-15 00:36:00,0,nan,nan,nan,nan,"(nan, nan)",nan,nan,nan,nan,nan,nan,nan,nan,"(142, 261)",no pil E/W
2011-02-15 00:48:00,0,nan,nan,nan,nan,"(nan, nan)",nan,nan,nan,nan,nan,nan,nan,nan,"(142, 261)",no pil E/W
2011-02-15 01:00:00,0,nan,nan,nan,nan,"(nan, nan)",nan,nan,nan,nan,nan,nan,nan,nan,"(142, 261)",no pil E/W
2011-02-15 01:12:00,0,nan,nan,nan,nan,"(nan, nan)",nan,nan,nan,nan,nan,nan,nan,nan,"(142, 261)",no pil E/W
2011-02-15 01:24:00,0,nan,nan,nan,nan,"(nan, nan)",nan,nan,nan,nan,nan,nan,nan,nan,"(142, 261)",no pil E/W
2011-02-15 01:36:00,0,nan,nan,nan,nan,"(nan, nan)",nan,nan,nan,nan,nan,nan,nan,nan,"(142, 261)",no pil E/W
2011-02-15 01:48:00,0,nan,nan,nan,nan,"(nan, nan)",nan,nan,nan,nan,nan,nan,nan,nan,"(142, 261)",no pil E/W
2011-02-15 02:00:00,0,nan,nan,nan,nan,"(nan, nan)",nan,nan,nan,nan,nan,nan,nan,nan,"(142, 261)",no pil E/W
2011-02-15 02:12:00,0,nan,nan,nan,nan,"(nan, nan)",nan,nan,nan,nan,nan,nan,nan,nan,"(142, 261)",no pil E/W
2011-02-15 02:24:00,0,nan,nan,nan,nan,"(nan, nan)",nan,nan,nan,nan,nan,nan,nan,nan,"(142, 261)",no pil E/W
2011-02-15 02:36:00,0,nan,nan,nan,nan,"(nan, nan)",nan,nan,nan,nan,nan,nan,nan,nan,"(142, 261)",no pil E/W
2011-02-15 02:48:00,0,nan,nan,nan,nan,"(nan, nan)",nan,nan,nan,nan,nan,nan,nan,nan,"(142, 261)",no pil E/W
2011-02-15 03:00:00,0,nan,nan,nan,nan,"(nan, nan)",nan,nan,nan,nan,nan,nan,nan,nan,"(142, 261)",no pil E/W
2011-02-15 03:12:00,0,nan,nan,nan,nan,"(nan, nan)",nan,nan,nan,nan,nan,nan,nan,nan,"(142, 261)",no pil E/W
2011-02-15 03:24:00,0,nan,nan,nan,nan,"(nan, nan)",nan,nan,nan,nan,nan,nan,nan,nan,"(142, 261)",no pil E/W
2011-02-15 03:36:00,0,nan,nan,nan,nan,"(nan, nan)",nan,nan,nan,nan,nan,nan,nan,nan,"(142, 261)",no pil E/W
2011-02-15 03:48:00,0,nan,nan,nan,nan,"(nan, nan)",nan,nan,nan,nan,nan,nan,nan,nan,"(142, 261)",no pil E/W
2011-02-15 04:00:00,0,nan,nan,nan,nan,"(nan, nan)",nan,nan,nan,nan,nan,nan,nan,nan,"(142, 261)",no pil E/W
2011-02-15 04:12:00,0,nan,nan,nan,nan,"(nan, nan)",nan,nan,nan,nan,nan,nan,nan,nan,"(142, 261)",no pil E/W
2011-02-15 04:24:00,0,nan,nan,nan,nan,"(nan, nan)",nan,nan,nan,nan,nan,nan,nan,nan,"(142, 261)",no pil E/W
2011-02-15 04:36:00,0,nan,nan,nan,nan,"(nan, nan)",nan,nan,nan,nan,nan,nan,nan,nan,"(142, 261)",no pil E/W
2011-02-15 04:48:00,0,nan,nan,nan,nan,"(nan, nan)",nan,nan,nan,nan,nan,nan,nan,nan,"(142, 261)",no pil E/W
2011-02-15 05:00:00,0,nan,nan,nan,nan,"(nan, nan)",nan,nan,nan,nan,nan,nan,nan,nan,"(142, 261)",no pil E/W
2011-02-15 05:12:00,0,nan,nan,nan,nan,"(nan, nan)",nan,nan,nan,nan,nan,nan,nan,nan,"(142, 261)",no pil E/W
2011-02-15 05:24:00,0,nan,nan,nan,nan,"(nan, nan)",nan,nan,nan,nan,nan,nan,nan,nan,"(142, 261)",no pil E/W
2011-02-15 05:36:00,0,nan,nan,nan,nan,"(nan, nan)",nan,nan,nan,nan,nan,nan,nan,nan,"(142, 261)",no pil E/W
2011-02-15 05:48:00,0,nan,nan,nan,nan,"(nan, nan)",nan,nan,nan,nan,nan,nan,nan,nan,"(142, 261)",no pil E/W
2011-02-15 06:00:00,0,nan,nan,nan,nan,"(nan, nan)",nan,nan,nan,nan,nan,nan,nan,nan,"(142, 261)",no pil E/W
2011-02-15 06:12:00,0,nan,nan,nan,nan,"(nan, nan)",nan,nan,nan,nan,nan,nan,nan,nan,"(142, 261)",no pil E/W
2011-02-15 06:24:00,0,nan,nan,nan,nan,"(nan, nan)",nan,nan,nan,nan,nan,nan,nan,nan,"(142, 261)",no pil E/W
2011-02-15 06:36:00,0,nan,nan,nan,nan,"(nan, nan)",nan,nan,nan,nan,nan,nan,nan,nan,"(142, 261)",no pil E/W
2011-02-15 06:48:00,0,nan,nan,nan,nan,"(nan, nan)",nan,nan,nan,nan,nan,nan,nan,nan,"(142, 261)",no pil E/W
2011-02-15 07:00:00,0,nan,nan,nan,nan,"(nan, nan)",nan,nan,nan,nan,nan,nan,nan,nan,"(142, 261)",no pil E/W
2011-02-15 07:12:00,0,nan,nan,nan,nan,"(nan, nan)",nan,nan,nan,nan,nan,nan,nan,nan,"(142, 261)",no pil E/W
2011-02-15 07:24:00,0,nan,nan,nan,nan,"(nan, nan)",nan,nan,nan,nan,nan,nan,nan,nan,"(142, 261)",no pil E/W
2011-02-15 07:36:00,0,nan,nan,nan,nan,"(nan, nan)",nan,nan,nan,nan,nan,nan,nan,nan,"(142, 261)",no pil E/W
2011-02-15 07:48:00,0,nan,nan,nan,nan,"(nan, nan)",nan,nan,nan,nan,nan,nan,nan,nan,"(142, 261)",no pil E/W
2011-02-15 08:00:00,0,nan,nan,nan,nan,"(nan, nan)",nan,nan,nan,nan,nan,nan,nan,nan,"(142, 261)",no pil E/W
2011-02-15 08:12:00,0,nan,nan,nan,nan,"(nan, nan)",nan,nan,nan,nan,nan,nan,nan,nan,"(142, 261)",no pil E/W
2011-02-15 08:24:00,0,nan,nan,nan,nan,"(nan, nan)",nan,nan,nan,nan,nan,nan,nan,nan,"(142, 261)",no pil E/W
2011-02-15 08:36:00,0,nan,nan,nan,nan,"(nan, nan)",nan,nan,nan,nan,nan,nan,nan,nan,"(142, 261)",no pil E/W
2011-02-15 08:48:00,0,nan,nan,nan,nan,"(nan, nan)",nan,nan,nan,nan,nan,nan,nan,nan,"(142, 261)",no pil E/W
2011-02-15 09:00:00,0,nan,nan,nan,nan,"(nan, nan)",nan,nan,nan,nan,nan,nan,nan,nan,"(142, 261)",no pil E/W
2011-02-15 09:12:00,0,nan,nan,nan,nan,"(nan, nan)",nan,nan,nan,nan,nan,nan,nan,nan,"(142, 261)",no pil E/W
2011-02-15 09:24:00,0,nan,nan,nan,nan,"(nan, nan)",nan,nan,nan,nan,nan,nan,nan,nan,"(142, 261)",no pil E/W
2011-02-15 09:36:00,0,nan,nan,nan,nan,"(nan, nan)",nan,nan,nan,nan,nan,nan,nan,nan,"(142, 261)",no pil E/W
2011-02-15 09:48:00,0,nan,nan,nan,nan,"(nan, nan)",nan,nan,nan,nan,nan,nan,nan,nan,"(142, 261)",no pil E/W
2011-02-15 10:00:00,0,nan,nan,nan,nan,"(nan, nan)",nan,nan,nan,nan,nan,nan,nan,nan,"(142, 261)",no pil E/W
2011-02-15 10:12:00,0,nan,nan,nan,nan,"(nan, nan)",nan,nan,nan,nan,nan,nan,nan,nan,"(142, 261)",no pil E/W
2011-02-15 10:24:00,0,nan,nan,nan,nan,"(nan, nan)",nan,nan,nan,nan,nan,nan,nan,nan,"(142, 261)",no pil E/W
2011-02-15 10:36:00,0,nan,nan,nan,nan,"(nan, nan)",nan,nan,nan,nan,nan,nan,nan,nan,"(142, 261)",no pil E/W
2011-02-15 10:48:00,0,nan,nan,nan,nan,"(nan, nan)",nan,nan,nan,nan,nan,nan,nan,nan,"(142, 261)",no pil E/W
2011-02-15 11:00:00,0,nan,nan,nan,nan,"(nan, nan)",nan,nan,nan,nan,nan,nan,nan,nan,"(142, 261)",no pil E/W
2011-02-15 11:12:00,0,nan,nan,nan,nan,"(nan, nan)",nan,nan,nan,nan,nan,nan,nan,nan,"(142, 261)",no pil E/W
2011-02-15 11:24:00,0,nan,nan,nan,nan,"(nan, nan)",nan,nan,nan,nan,nan,nan,nan,nan,"(142, 261)",no pil E/W
2011-02-15 11:36:00,0,nan,nan,nan,nan,"(nan, nan)",nan,nan,nan,nan,nan,nan,nan,nan,"(142, 261)",no pil E/W
2011-02-15 11:48:00,0,nan,nan,nan,nan,"(nan, nan)",nan,nan,nan,nan,nan,nan,nan,nan,"(142, 261)",no pil E/W
2011-02-15 12:00:00,0,nan,nan,nan,nan,"(nan, nan)",nan,nan,nan,nan,nan,nan,nan,nan,"(142, 261)",no pil E/W
2011-02-15 12:12:00,0,nan,nan,nan,nan,"(nan, nan)",nan,nan,nan,nan,nan,nan,nan,nan,"(142, 261)",no pil E/W
2011-02-15 12:24:00,0,nan,nan,nan,nan,"(nan, nan)",nan,nan,nan,nan,nan,nan,nan,nan,"(142, 261)",no pil E/W
2011-02-15 12:36:00,0,nan,nan,nan,nan,"(nan, nan)",nan,nan,nan,nan,nan,nan,nan,nan,"(142, 261)",no pil E/W
2011-02-15 12:48:00,0,nan,nan,nan,nan,"(nan, nan)",nan,nan,nan,nan,nan,nan,nan,nan,"(142, 261)",no pil E/W
2011-02-15 13:00:00,0,nan,nan,nan,nan,"(nan, nan)",nan,nan,nan,nan,nan,nan,nan,nan,"(142, 261)",no pil E/W
2011-02-15 13:12:00,0,nan,nan,nan,nan,"(nan, nan)",nan,nan,nan,nan,nan,nan,nan,nan,"(142, 261)",no pil E/W
2011-02-15 13:24:00,0,nan,nan,nan,nan,"(nan, nan)",nan,nan,nan,nan,nan,nan,nan,nan,"(142, 261)",no pil E/W
2011-02-15 13:36:00,0,nan,nan,nan,nan,"(nan, nan)",nan,nan,nan,nan,nan,nan,nan,nan,"(142, 261)",no pil E/W
2011-02-15 13:48:00,0,nan,nan,nan,nan,"(nan, nan)",nan,nan,nan,nan,nan,nan,nan,nan,"(142, 261)",no pil E/W
2011-02-15 14:00:00,0,nan,nan,nan,nan,"(nan, nan)",nan,nan,nan,nan,nan,nan,nan,nan,"(142, 261)",no pil E/W
2011-02-15 14:12:00,0,nan,nan,nan,nan,"(nan, nan)",nan,nan,nan,nan,nan,nan,nan,nan,"(142, 261)",no pil E/W
2011-02-15 14:24:00,0,nan,nan,nan,nan,"(nan, nan)",nan,nan,nan,nan,nan,nan,nan,nan,"(142, 261)",no pil E/W
2011-02-15 14:36:00,0,nan,nan,nan,nan,"(nan, nan)",nan,nan,nan,nan,nan,nan,nan,nan,"(142, 261)",no pil E/W
2011-02-15 14:48:00,0,nan,nan,nan,nan,"(nan, nan)",nan,nan,nan,nan,nan,nan,nan,nan,"(142, 261)",no pil E/W
2011-02-15 15:00:00,0,nan,nan,nan,nan,"(nan, nan)",nan,nan,nan,nan,nan,nan,nan,nan,"(142, 261)",no pil E/W
2011-02-15 15:12:00,0,nan,nan,nan,nan,"(nan, nan)",nan,nan,nan,nan,nan,nan,nan,nan,"(142, 261)",no pil E/W
2011-02-15 15:24:00,0,nan,nan,nan,nan,"(nan, nan)",nan,nan,nan,nan,nan,nan,nan,nan,"(142, 261)",no pil E/W
2011-02-15 15:36:00,0,nan,nan,nan,nan,"(nan, nan)",nan,nan,nan,nan,nan,nan,nan,nan,"(142, 261)",no pil E/W
2011-02-15 15:48:00,0,nan,nan,nan,nan,"(nan, nan)",nan,nan,nan,nan,nan,nan,nan,nan,"(142, 261)",no pil E/W
2011-02-15 16:00:00,0,nan,nan,nan,nan,"(nan, nan)",nan,nan,nan,nan,nan,nan,nan,nan,"(142, 261)",no pil E/W
2011-02-15 16:12:00,0,nan,nan,nan,nan,"(nan, nan)",nan,nan,nan,nan,nan,nan,nan,nan,"(142, 261)",no pil E/W
2011-02-15 16:24:00,0,nan,nan,nan,nan,"(nan, nan)",nan,nan,nan,nan,nan,nan,nan,nan,"(142, 261)",no pil E/W
2011-02-15 16:36:00,0,nan,nan,nan,nan,"(nan, nan)",nan,nan,nan,nan,nan,nan,nan,nan,"(142, 261)",no pil E/W
2011-02-15 16:48:00,0,nan,nan,nan,nan,"(nan, nan)",nan,nan,nan,nan,nan,nan,nan,nan,"(142, 261)",no pil E/W
2011-02-15 17:00:00,0,nan,nan,nan,nan,"(nan, nan)",nan,nan,nan,nan,nan,nan,nan,nan,"(142, 261)",no pil E/W
2011-02-15 17:12:00,0,nan,nan,nan,nan,"(nan, nan)",nan,nan,nan,nan,nan,nan,nan,nan,"(142, 261)",no pil E/W
2011-02-15 17:24:00,0,nan,nan,nan,nan,"(nan, nan)",nan,nan,nan,nan,nan,nan,nan,nan,"(142, 261)",no pil E/W
2011-02-15 17:36:00,0,nan,nan,nan,nan,"(nan, nan)",nan,nan,nan,nan,nan,nan,nan,nan,"(142, 261)",no pil E/W
2011-02-15 17:48:00,0,nan,nan,nan,nan,"(nan, nan)",nan,nan,nan,nan,nan,nan,nan,nan,"(142, 261)",no pil E/W
2011-02-15 18:00:00,0,nan,nan,nan,nan,"(nan, nan)",nan,nan,nan,nan,nan,nan,nan,nan,"(142, 261)",no pil E/W
2011-02-15 18:12:00,0,nan,nan,nan,nan,"(nan, nan)",nan,nan,nan,nan,nan,nan,nan,nan,"(142, 261)",no pil E/W
2011-02-15 18:24:00,0,nan,nan,nan,nan,"(nan, nan)",nan,nan,nan,nan,nan,nan,nan,nan,"(142, 261)",no pil E/W
2011-02-15 18:36:00,0,nan,nan,nan,nan,"(nan, nan)",nan,nan,nan,nan,nan,nan,nan,nan,"(142, 261)",no pil E/W
2011-02-15 18:48:00,0,nan,nan,nan,nan,"(nan, nan)",nan,nan,nan,nan,nan,nan,nan,nan,"(142, 261)",no pil E/W
2011-02-15 19:00:00,0,nan,nan,nan,nan,"(nan, nan)",nan,nan,nan,nan,nan,nan,nan,nan,"(142, 261)",no pil E/W
2011-02-15 19:12:00,0,nan,nan,nan,nan,"(nan, nan)",nan,nan,nan,nan,nan,nan,nan,nan,"(142, 261)",no pil E/W
2011-02-15 19:24:00,0,nan,nan,nan,nan,"(nan, nan)",nan,nan,nan,nan,nan,nan,nan,nan,"(142, 261)",no pil E/W
2011-02-15 19:36:00,0,nan,nan,nan,nan,"(nan, nan)",nan,nan,nan,nan,nan,nan,nan,nan,"(142, 261)",no pil E/W
2011-02-15 19:48:00,0,nan,nan,nan,nan,"(nan, nan)",nan,nan,nan,nan,nan,nan,nan,nan,"(142, 261)",no pil E/W
2011-02-15 20:00:00,0,nan,nan,nan,nan,"(nan, nan)",nan,nan,nan,nan,nan,nan,nan,nan,"(142, 261)",no pil E/W
2011-02-15 20:12:00,0,nan,nan,nan,nan,"(nan, nan)",nan,nan,nan,nan,nan,nan,nan,nan,"(142, 261)",no pil E/W
2011-02-15 20:24:00,0,nan,nan,nan,nan,"(nan, nan)",nan,nan,nan,nan,nan,nan,nan,nan,"(142, 261)",no pil E/W
2011-02-15 20:36:00,0,nan,nan,nan,nan,"(nan, nan)",nan,nan,nan,nan,nan,nan,nan,nan,"(142, 261)",no pil E/W
2011-02-15 20:48:00,0,nan,nan,nan,nan,"(nan, nan)",nan,nan,nan,nan,nan,nan,nan,nan,"(142, 261)",no pil E/W
2011-02-15 21:00:00,0,nan,nan,nan,nan,"(nan, nan)",nan,nan,nan,nan,nan,nan,nan,nan,"(142, 261)",no pil E/W
2011-02-15 21:12:00,0,nan,nan,nan,nan,"(nan, nan)",nan,nan,nan,nan,nan,nan,nan,nan,"(142, 261)",no pil E/W
2011-02-15 21:24:00,0,nan,nan,nan,nan,"(nan, nan)",nan,nan,nan,nan,nan,nan,nan,nan,"(142, 261)",no pil E/W
2011-02-15 21:36:00,0,nan,nan,nan,nan,"(nan, nan)",nan,nan,nan,nan,nan,nan,nan,nan,"(142, 261)",no pil E/W
2011-02-15 21:48:00,0,nan,nan,nan,nan,"(nan, nan)",nan,nan,nan,nan,nan,nan,nan,nan,"(142, 261)",no pil E/W
2011-02-15 22:00:00,0,nan,nan,nan,nan,"(nan, nan)",nan,nan,nan,nan,nan,nan,nan,nan,"(142, 261)",no pil E/W
2011-02-15 22:12:00,0,nan,nan,nan,nan,"(nan, nan)",nan,nan,nan,nan,nan,nan,nan,nan,"(142, 261)",no pil E/W
2011-02-15 22:24:00,0,nan,nan,nan,nan,"(nan, nan)",nan,nan,nan,nan,nan,nan,nan,nan,"(142, 261)",no pil E/W
2011-02-15 22:36:00,0,nan,nan,nan,nan,"(nan, nan)",nan,nan,nan,nan,nan,nan,nan,nan,"(142, 261)",no pil E/W
2011-02-15 22:48:00,0,nan,nan,nan,nan,"(nan, nan)",nan,nan,nan,nan,nan,nan,nan,nan,"(142, 261)",no pil E/W
2011-02-15 23:00:00,0,nan,nan,nan,nan,"(nan, nan)",nan,nan,nan,nan,nan,nan,nan,nan,"(142, 261)",no pil E/W
2011-02-15 23:12:00,0,nan,nan,nan,nan,"(nan, nan)",nan,nan,nan,nan,nan,nan,nan,nan,"(142, 261)",no pil E/W
2011-02-15 23:24:00,0,nan,nan,nan,nan,"(nan, nan)",nan,nan,nan,nan,nan,nan,nan,nan,"(142, 261)",no pil E/W
2011-02-15 23:36:00,0,nan,nan,nan,nan,"(nan, nan)",nan,nan,nan,nan,nan,nan,nan,nan,"(142, 261)",no pil E/W
2011-02-15 23:48:00,0,nan,nan,nan,nan,"(nan, nan)",nan,nan,nan,nan,nan,nan,nan,nan,"(142, 261)",no pil E/W
2011-02-16 00:00:00,0,nan,nan,nan,nan,"(nan, nan)",nan,nan,nan,nan,nan,nan,nan,nan,"(142, 261)",no pil E/W
2011-02-16 00:12:00,0,nan,nan,nan,nan,"(nan, nan)",nan,nan,nan,nan,nan,nan,nan,nan,"(142, 261)",no pil E/W
2011-02-16 00:24:00,0,nan,nan,nan,nan,"(nan, nan)",nan,nan,nan,nan,nan,nan,nan,nan,"(142, 261)",no pil E/W
2011-02-16 00:36:00,0,nan,nan,nan,nan,"(nan, nan)",nan,nan,nan,nan,nan,nan,nan,nan,"(142, 261)",no pil E/W
2011-02-16 00:48:00,0,nan,nan,nan,nan,"(nan, nan)",nan,nan,nan,nan,nan,nan,nan,nan,"(142, 261)",no pil E/W
2011-02-16 01:00:00,0,nan,nan,nan,nan,"(nan, nan)",nan,nan,nan,nan,nan,nan,nan,nan,"(142, 261)",no pil E/W
2011-02-16 01:12:00,0,nan,nan,nan,nan,"(nan, nan)",nan,nan,nan,nan,nan,nan,nan,nan,"(142, 261)",no pil E/W
2011-02-16 01:24:00,0,nan,nan,nan,nan,"(nan, nan)",nan,nan,nan,nan,nan,nan,nan,nan,"(142, 261)",no pil E/W
2011-02-16 01:36:00,0,nan,nan,nan,nan,"(nan, nan)",nan,nan,nan,nan,nan,nan,nan,nan,"(142, 261)",no pil E/W
2011-02-16 01:48:00,0,nan,nan,nan,nan,"(nan, nan)",nan,nan,nan,nan,nan,nan,nan,nan,"(142, 261)",no pil E/W
2011-02-16 02:00:00,0,nan,nan,nan,nan,"(nan, nan)",nan,nan,nan,nan,nan,nan,nan,nan,"(142, 261)",no pil E/W
2011-02-16 02:12:00,0,nan,nan,nan,nan,"(nan, nan)",nan,nan,nan,nan,nan,nan,nan,nan,"(142, 261)",no pil E/W
2011-02-16 02:24:00,0,nan,nan,nan,nan,"(nan, nan)",nan,nan,nan,nan,nan,nan,nan,nan,"(142, 261)",no pil E/W
2011-02-16 02:36:00,0,nan,nan,nan,nan,"(nan, nan)",nan,nan,nan,nan,nan,nan,nan,nan,"(142, 261)",no pil E/W
2011-02-16 02:48:00,0,nan,nan,nan,nan,"(nan, nan)",nan,nan,nan,nan,nan,nan,nan,nan,"(142, 261)",no pil E/W
2011-02-16 03:00:00,0,nan,nan,nan,nan,"(nan, nan)",nan,nan,nan,nan,nan,nan,nan,nan,"(142, 261)",no pil E/W
2011-02-16 03:12:00,0,nan,nan,nan,nan,"(nan, nan)",nan,nan,nan,nan,nan,nan,nan,nan,"(142, 261)",no pil E/W
2011-02-16 03:24:00,0,nan,nan,nan,nan,"(nan, nan)",nan,nan,nan,nan,nan,nan,nan,nan,"(142, 261)",no pil E/W
2011-02-16 03:36:00,0,nan,nan,nan,nan,"(nan, nan)",nan,nan,nan,nan,nan,nan,nan,nan,"(142, 261)",no pil E/W
2011-02-16 03:48:00,0,nan,nan,nan,nan,"(nan, nan)",nan,nan,nan,nan,nan,nan,nan,nan,"(142, 261)",no pil E/W
2011-02-16 04:00:00,0,nan,nan,nan,nan,"(nan, nan)",nan,nan,nan,nan,nan,nan,nan,nan,"(142, 261)",no pil E/W
2011-02-16 04:12:00,0,nan,nan,nan,nan,"(nan, nan)",nan,nan,nan,nan,nan,nan,nan,nan,"(142, 261)",no pil E/W
2011-02-16 04:24:00,0,nan,nan,nan,nan,"(nan, nan)",nan,nan,nan,nan,nan,nan,nan,nan,"(142, 261)",no pil E/W
2011-02-16 04:36:00,0,nan,nan,nan,nan,"(nan, nan)",nan,nan,nan,nan,nan,nan,nan,nan,"(142, 261)",no pil E/W
2011-02-16 04:48:00,0,nan,nan,nan,nan,"(nan, nan)",nan,nan,nan,nan,nan,nan,nan,nan,"(142, 261)",no pil E/W
2011-02-16 05:00:00,0,nan,nan,nan,nan,"(nan, nan)",nan,nan,nan,nan,nan,nan,nan,nan,"(142, 261)",no pil E/W
2011-02-16 05:12:00,0,nan,nan,nan,nan,"(nan, nan)",nan,nan,nan,nan,nan,nan,nan,nan,"(142, 261)",no pil E/W
2011-02-16 05:24:00,0,nan,nan,nan,nan,"(nan, nan)",nan,nan,nan,nan,nan,nan,nan,nan,"(142, 261)",no pil E/W
2011-02-16 05:36:00,0,nan,nan,nan,nan,"(nan, nan)",nan,nan,nan,nan,nan,nan,nan,nan,"(142, 261)",no pil E/W
2011-02-16 05:48:00,0,nan,nan,nan,nan,"(nan, nan)",nan,nan,nan,nan,nan,nan,nan,nan,"(142, 261)",no pil E/W
2011-02-16 06:00:00,0,nan,nan,nan,nan,"(nan, nan)",nan,nan,nan,nan,nan,nan,nan,nan,"(142, 261)",no pil E/W
2011-02-16 06:12:00,0,nan,nan,nan,nan,"(nan, nan)",nan,nan,nan,nan,nan,nan,nan,nan,"(142, 261)",no pil E/W
2011-02-16 06:24:00,0,nan,nan,nan,nan,"(nan, nan)",nan,nan,nan,nan,nan,nan,nan,nan,"(142, 261)",no pil E/W
2011-02-16 06:36:00,0,nan,nan,nan,nan,"(nan, nan)",nan,nan,nan,nan,nan,nan,nan,nan,"(142, 261)",no pil E/W
2011-02-16 06:48:00,0,nan,nan,nan,nan,"(nan, nan)",nan,nan,nan,nan,nan,nan,nan,nan,"(142, 261)",no pil E/W
2011-02-16 07:00:00,0,nan,nan,nan,nan,"(nan, nan)",nan,nan,nan,nan,nan,nan,nan,nan,"(142, 261)",no pil E/W
2011-02-16 07:12:00,0,nan,nan,nan,nan,"(nan, nan)",nan,nan,nan,nan,nan,nan,nan,nan,"(142, 261)",no pil E/W
2011-02-16 07:24:00,0,nan,nan,nan,nan,"(nan, nan)",nan,nan,nan,nan,nan,nan,nan,nan,"(142, 261)",no pil E/W
2011-02-16 07:36:00,0,nan,nan,nan,nan,"(nan, nan)",nan,nan,nan,nan,nan,nan,nan,nan,"(142, 261)",no pil E/W
2011-02-16 07:48:00,0,nan,nan,nan,nan,"(nan, nan)",nan,nan,nan,nan,nan,nan,nan,nan,"(142, 261)",no pil E/W
2011-02-16 08:00:00,0,nan,nan,nan,nan,"(nan, nan)",nan,nan,nan,nan,nan,nan,nan,nan,"(142, 261)",no pil E/W
2011-02-16 08:12:00,0,nan,nan,nan,nan,"(nan, nan)",nan,nan,nan,nan,nan,nan,nan,nan,"(142, 261)",no pil E/W
2011-02-16 08:24:00,0,nan,nan,nan,nan,"(nan, nan)",nan,nan,nan,nan,nan,nan,nan,nan,"(142, 261)",no pil E/W
2011-02-16 08:36:00,0,nan,nan,nan,nan,"(nan, nan)",nan,nan,nan,nan,nan,nan,nan,nan,"(142, 261)",no pil E/W
2011-02-16 08:48:00,0,nan,nan,nan,nan,"(nan, nan)",nan,nan,nan,nan,nan,nan,nan,nan,"(142, 261)",no pil E/W
2011-02-16 09:00:00,0,nan,nan,nan,nan,"(nan, nan)",nan,nan,nan,nan,nan,nan,nan,nan,"(142, 261)",no pil E/W
2011-02-16 09:12:00,0,nan,nan,nan,nan,"(nan, nan)",nan,nan,nan,nan,nan,nan,nan,nan,"(142, 261)",no pil E/W
2011-02-16 09:24:00,0,nan,nan,nan,nan,"(nan, nan)",nan,nan,nan,nan,nan,nan,nan,nan,"(142, 261)",no pil E/W
2011-02-16 09:36:00,0,nan,nan,nan,nan,"(nan, nan)",nan,nan,nan,nan,nan,nan,nan,nan,"(142, 261)",no pil E/W
2011-02-16 09:48:00,0,nan,nan,nan,nan,"(nan, nan)",nan,nan,nan,nan,nan,nan,nan,nan,"(142, 261)",no pil E/W
2011-02-16 10:00:00,0,nan,nan,nan,nan,"(nan, nan)",nan,nan,nan,nan,nan,nan,nan,nan,"(142, 261)",no pil E/W
2011-02-16 10:12:00,0,nan,nan,nan,nan,"(nan, nan)",nan,nan,nan,nan,nan,nan,nan,nan,"(142, 261)",no pil E/W
2011-02-16 10:24:00,0,nan,nan,nan,nan,"(nan, nan)",nan,nan,nan,nan,nan,nan,nan,nan,"(142, 261)",no pil E/W
2011-02-16 10:36:00,0,nan,nan,nan,nan,"(nan, nan)",nan,nan,nan,nan,nan,nan,nan,nan,"(142, 261)",no pil E/W
2011-02-16 10:48:00,0,nan,nan,nan,nan,"(nan, nan)",nan,nan,nan,nan,nan,nan,nan,nan,"(142, 261)",no pil E/W
2011-02-16 11:00:00,0,nan,nan,nan,nan,"(nan, nan)",nan,nan,nan,nan,nan,nan,nan,nan,"(142, 261)",no pil E/W
2011-02-16 11:12:00,0,nan,nan,nan,nan,"(nan, nan)",nan,nan,nan,nan,nan,nan,nan,nan,"(142, 261)",no pil E/W
2011-02-16 11:24:00,0,nan,nan,nan,nan,"(nan, nan)",nan,nan,nan,nan,nan,nan,nan,nan,"(142, 261)",no pil E/W
2011-02-16 11:36:00,0,nan,nan,nan,nan,"(nan, nan)",nan,nan,nan,nan,nan,nan,nan,nan,"(142, 261)",no pil E/W
2011-02-16 11:48:00,0,nan,nan,nan,nan,"(nan, nan)",nan,nan,nan,nan,nan,nan,nan,nan,"(142, 261)",no pil E/W
2011-02-16 12:00:00,0,nan,nan,nan,nan,"(nan, nan)",nan,nan,nan,nan,nan,nan,nan,nan,"(142, 261)",no pil E/W
2011-02-16 12:12:00,0,nan,nan,nan,nan,"(nan, nan)",nan,nan,nan,nan,nan,nan,nan,nan,"(142, 261)",no pil E/W
2011-02-16 12:24:00,0,nan,nan,nan,nan,"(nan, nan)",nan,nan,nan,nan,nan,nan,nan,nan,"(142, 261)",no pil E/W
2011-02-16 12:36:00,0,nan,nan,nan,nan,"(nan, nan)",nan,nan,nan,nan,nan,nan,nan,nan,"(142, 261)",no pil E/W
2011-02-16 12:48:00,0,nan,nan,nan,nan,"(nan, nan)",nan,nan,nan,nan,nan,nan,nan,nan,"(142, 261)",no pil E/W
2011-02-16 13:00:00,0,nan,nan,nan,nan,"(nan, nan)",nan,nan,nan,nan,nan,nan,nan,nan,"(142, 261)",no pil E/W
2011-02-16 13:12:00,0,nan,nan,nan,nan,"(nan, nan)",nan,nan,nan,nan,nan,nan,nan,nan,"(142, 261)",no pil E/W
2011-02-16 13:24:00,0,nan,nan,nan,nan,"(nan, nan)",nan,nan,nan,nan,nan,nan,nan,nan,"(142, 261)",no pil E/W
2011-02-16 13:36:00,0,nan,nan,nan,nan,"(nan, nan)",nan,nan,nan,nan,nan,nan,nan,nan,"(142, 261)",no pil E/W
2011-02-16 13:48:00,0,nan,nan,nan,nan,"(nan, nan)",nan,nan,nan,nan,nan,nan,nan,nan,"(142, 261)",no pil E/W
2011-02-16 14:00:00,0,nan,nan,nan,nan,"(nan, nan)",nan,nan,nan,nan,nan,nan,nan,nan,"(142, 261)",no pil E/W
2011-02-16 14:12:00,0,nan,nan,nan,nan,"(nan, nan)",nan,nan,nan,nan,nan,nan,nan,nan,"(142, 261)",no pil E/W
2011-02-16 14:24:00,0,nan,nan,nan,nan,"(nan, nan)",nan,nan,nan,nan,nan,nan,nan,nan,"(142, 261)",no pil E/W
2011-02-16 14:36:00,0,nan,nan,nan,nan,"(nan, nan)",nan,nan,nan,nan,nan,nan,nan,nan,"(142, 261)",no pil E/W
2011-02-16 14:48:00,0,nan,nan,nan,nan,"(nan, nan)",nan,nan,nan,nan,nan,nan,nan,nan,"(142, 261)",no pil E/W
2011-02-16 15:00:00,0,nan,nan,nan,nan,"(nan, nan)",nan,nan,nan,nan,nan,nan,nan,nan,"(142, 261)",no pil E/W
2011-02-16 15:12:00,0,nan,nan,nan,nan,"(nan, nan)",nan,nan,nan,nan,nan,nan,nan,nan,"(142, 261)",no pil E/W
2011-02-16 15:24:00,0,nan,nan,nan,nan,"(nan, nan)",nan,nan,nan,nan,nan,nan,nan,nan,"(142, 261)",no pil E/W
2011-02-16 15:36:00,0,nan,nan,nan,nan,"(nan, nan)",nan,nan,nan,nan,nan,nan,nan,nan,"(142, 261)",no pil E/W
2011-02-16 15:48:00,0,nan,nan,nan,nan,"(nan, nan)",nan,nan,nan,nan,nan,nan,nan,nan,"(142, 261)",no pil E/W
2011-02-16 16:00:00,0,nan,nan,nan,nan,"(nan, nan)",nan,nan,nan,nan,nan,nan,nan,nan,"(142, 261)",no pil E/W
2011-02-16 16:12:00,0,nan,nan,nan,nan,"(nan, nan)",nan,nan,nan,nan,nan,nan,nan,nan,"(142, 261)",no pil E/W
2011-02-16 16:24:00,0,nan,nan,nan,nan,"(nan, nan)",nan,nan,nan,nan,nan,nan,nan,nan,"(142, 261)",no pil E/W
2011-02-16 16:36:00,0,nan,nan,nan,nan,"(nan, nan)",nan,nan,nan,nan,nan,nan,nan,nan,"(142, 261)",no pil E/W
2011-02-16 16:48:00,0,nan,nan,nan,nan,"(nan, nan)",nan,nan,nan,nan,nan,nan,nan,nan,"(142, 261)",no pil E/W
2011-02-16 17:00:00,0,nan,nan,nan,nan,"(nan, nan)",nan,nan,nan,nan,nan,nan,nan,nan,"(142, 261)",no pil E/W
2011-02-16 17:12:00,0,nan,nan,nan,nan,"(nan, nan)",nan,nan,nan,nan,nan,nan,nan,nan,"(142, 261)",no pil E/W
2011-02-16 17:24:00,0,nan,nan,nan,nan,"(nan, nan)",nan,nan,nan,nan,nan,nan,nan,nan,"(142, 261)",no pil E/W
2011-02-16 17:36:00,0,nan,nan,nan,nan,"(nan, nan)",nan,nan,nan,nan,nan,nan,nan,nan,"(142, 261)",no pil E/W
2011-02-16 17:48:00,0,nan,nan,nan,nan,"(nan, nan)",nan,nan,nan,nan,nan,nan,nan,nan,"(142, 261)",no pil E/W
2011-02-16 18:00:00,0,nan,nan,nan,nan,"(nan, nan)",nan,nan,nan,nan,nan,nan,nan,nan,"(142, 261)",no pil E/W
2011-02-16 18:12:00,0,nan,nan,nan,nan,"(nan, nan)",nan,nan,nan,nan,nan,nan,nan,nan,"(142, 261)",no pil E/W
2011-02-16 18:24:00,0,nan,nan,nan,nan,"(nan, nan)",nan,nan,nan,nan,nan,nan,nan,nan,"(142, 261)",no pil E/W
2011-02-16 18:36:00,0,nan,nan,nan,nan,"(nan, nan)",nan,nan,nan,nan,nan,nan,nan,nan,"(142, 261)",no pil E/W
2011-02-16 18:48:00,0,nan,nan,nan,nan,"(nan, nan)",nan,nan,nan,nan,nan,nan,nan,nan,"(142, 261)",no pil E/W
2011-02-16 19:00:00,0,nan,nan,nan,nan,"(nan, nan)",nan,nan,nan,nan,nan,nan,nan,nan,"(142, 261)",no pil E/W
2011-02-16 19:12:00,0,nan,nan,nan,nan,"(nan, nan)",nan,nan,nan,nan,nan,nan,nan,nan,"(142, 261)",no pil E/W
2011-02-16 19:24:00,0,nan,nan,nan,nan,"(nan, nan)",nan,nan,nan,nan,nan,nan,nan,nan,"(142, 261)",no pil E/W
2011-02-16 19:36:00,0,nan,nan,nan,nan,"(nan, nan)",nan,nan,nan,nan,nan,nan,nan,nan,"(142, 261)",no pil E/W
2011-02-16 19:48:00,0,nan,nan,nan,nan,"(nan, nan)",nan,nan,nan,nan,nan,nan,nan,nan,"(142, 261)",no pil E/W
2011-02-16 20:00:00,0,nan,nan,nan,nan,"(nan, nan)",nan,nan,nan,nan,nan,nan,nan,nan,"(142, 261)",no pil E/W
2011-02-16 20:12:00,0,nan,nan,nan,nan,"(nan, nan)",nan,nan,nan,nan,nan,nan,nan,nan,"(142, 261)",no pil E/W
2011-02-16 20:24:00,0,nan,nan,nan,nan,"(nan, nan)",nan,nan,nan,nan,nan,nan,nan,nan,"(142, 261)",no pil E/W
2011-02-16 20:36:00,0,nan,nan,nan,nan,"(nan, nan)",nan,nan,nan,nan,nan,nan,nan,nan,"(142, 261)",no pil E/W
2011-02-16 20:48:00,0,nan,nan,nan,nan,"(nan, nan)",nan,nan,nan,nan,nan,nan,nan,nan,"(142, 261)",no pil E/W
2011-02-16 21:00:00,0,nan,nan,nan,nan,"(nan, nan)",nan,nan,nan,nan,nan,nan,nan,nan,"(142, 261)",no pil E/W
2011-02-16 21:12:00,0,nan,nan,nan,nan,"(nan, nan)",nan,nan,nan,nan,nan,nan,nan,nan,"(142, 261)",no pil E/W
2011-02-16 21:24:00,0,nan,nan,nan,nan,"(nan, nan)",nan,nan,nan,nan,nan,nan,nan,nan,"(142, 261)",no pil E/W
2011-02-16 21:36:00,0,nan,nan,nan,nan,"(nan, nan)",nan,nan,nan,nan,nan,nan,nan,nan,"(142, 261)",no pil E/W
2011-02-16 21:48:00,0,nan,nan,nan,nan,"(nan, nan)",nan,nan,nan,nan,nan,nan,nan,nan,"(142, 261)",no pil E/W
2011-02-16 22:00:00,0,nan,nan,nan,nan,"(nan, nan)",nan,nan,nan,nan,nan,nan,nan,nan,"(142, 261)",no pil E/W
2011-02-16 22:12:00,0,nan,nan,nan,nan,"(nan, nan)",nan,nan,nan,nan,nan,nan,nan,nan,"(142, 261)",no pil E/W
2011-02-16 22:24:00,0,nan,nan,nan,nan,"(nan, nan)",nan,nan,nan,nan,nan,nan,nan,nan,"(142, 261)",no pil E/W
2011-02-16 22:36:00,0,nan,nan,nan,nan,"(nan, nan)",nan,nan,nan,nan,nan,nan,nan,nan,"(142, 261)",no pil E/W
2011-02-16 22:48:00,0,nan,nan,nan,nan,"(nan, nan)",nan,nan,nan,nan,nan,nan,nan,nan,"(142, 261)",no pil E/W
2011-02-16 23:00:00,0,nan,nan,nan,nan,"(nan, nan)",nan,nan,nan,nan,nan,nan,nan,nan,"(142, 261)",no pil E/W
2011-02-16 23:12:00,0,nan,nan,nan,nan,"(nan, nan)",nan,nan,nan,nan,nan,nan,nan,nan,"(142, 261)",no pil E/W
2011-02-16 23:24:00,0,nan,nan,nan,nan,"(nan, nan)",nan,nan,nan,nan,nan,nan,nan,nan,"(142, 261)",no pil E/W
2011-02-16 23:36:00,0,nan,nan,nan,nan,"(nan, nan)",nan,nan,nan,nan,nan,nan,nan,nan,"(142, 261)",no pil E/W
2011-02-16 23:48:00,0,nan,nan,nan,nan,"(nan, nan)",nan,nan,nan,nan,nan,nan,nan,nan,"(142, 261)",no pil E/W
2011-02-17 00:00:00,0,nan,nan,nan,nan,"(nan, nan)",nan,nan,nan,nan,nan,nan,nan,nan,"(142, 261)",no pil E/W
2011-02-17 00:12:00,0,nan,nan,nan,nan,"(nan, nan)",nan,nan,nan,nan,nan,nan,nan,nan,"(142, 261)",no pil E/W
2011-02-17 00:24:00,0,nan,nan,nan,nan,"(nan, nan)",nan,nan,nan,nan,nan,nan,nan,nan,"(142, 261)",no pil E/W
2011-02-17 00:36:00,0,nan,nan,nan,nan,"(nan, nan)",nan,nan,nan,nan,nan,nan,nan,nan,"(142, 261)",no pil E/W
2011-02-17 00:48:00,0,nan,nan,nan,nan,"(nan, nan)",nan,nan,nan,nan,nan,nan,nan,nan,"(142, 261)",no pil E/W
2011-02-17 01:00:00,0,nan,nan,nan,nan,"(nan, nan)",nan,nan,nan,nan,nan,nan,nan,nan,"(142, 261)",no pil E/W
2011-02-17 01:12:00,0,nan,nan,nan,nan,"(nan, nan)",nan,nan,nan,nan,nan,nan,nan,nan,"(142, 261)",no pil E/W
2011-02-17 01:24:00,0,nan,nan,nan,nan,"(nan, nan)",nan,nan,nan,nan,nan,nan,nan,nan,"(142, 261)",no pil E/W
2011-02-17 01:36:00,0,nan,nan,nan,nan,"(nan, nan)",nan,nan,nan,nan,nan,nan,nan,nan,"(142, 261)",no pil E/W
2011-02-17 01:48:00,0,nan,nan,nan,nan,"(nan, nan)",nan,nan,nan,nan,nan,nan,nan,nan,"(142, 261)",no pil E/W
2011-02-17 02:00:00,0,nan,nan,nan,nan,"(nan, nan)",nan,nan,nan,nan,nan,nan,nan,nan,"(142, 261)",no pil E/W
2011-02-17 02:12:00,0,nan,nan,nan,nan,"(nan, nan)",nan,nan,nan,nan,nan,nan,nan,nan,"(142, 261)",no pil E/W
2011-02-17 02:24:00,0,nan,nan,nan,nan,"(nan, nan)",nan,nan,nan,nan,nan,nan,nan,nan,"(142, 261)",no pil E/W
2011-02-17 02:36:00,0,nan,nan,nan,nan,"(nan, nan)",nan,nan,nan,nan,nan,nan,nan,nan,"(142, 261)",no pil E/W
2011-02-17 02:48:00,0,nan,nan,nan,nan,"(nan, nan)",nan,nan,nan,nan,nan,nan,nan,nan,"(142, 261)",no pil E/W
2011-02-17 03:00:00,0,nan,nan,nan,nan,"(nan, nan)",nan,nan,nan,nan,nan,nan,nan,nan,"(142, 261)",no pil E/W
2011-02-17 03:12:00,0,nan,nan,nan,nan,"(nan, nan)",nan,nan,nan,nan,nan,nan,nan,nan,"(142, 261)",no pil E/W
2011-02-17 03:24:00,0,nan,nan,nan,nan,"(nan, nan)",nan,nan,nan,nan,nan,nan,nan,nan,"(142, 261)",no pil E/W
2011-02-17 03:36:00,0,nan,nan,nan,nan,"(nan, nan)",nan,nan,nan,nan,nan,nan,nan,nan,"(142, 261)",no pil E/W
2011-02-17 03:48:00,0,nan,nan,nan,nan,"(nan, nan)",nan,nan,nan,nan,nan,nan,nan,nan,"(142, 261)",no pil E/W
2011-02-17 04:00:00,0,nan,nan,nan,nan,"(nan, nan)",nan,nan,nan,nan,nan,nan,nan,nan,"(142, 261)",no pil E/W
2011-02-17 04:12:00,0,nan,nan,nan,nan,"(nan, nan)",nan,nan,nan,nan,nan,nan,nan,nan,"(142, 261)",no pil E/W
2011-02-17 04:24:00,0,nan,nan,nan,nan,"(nan, nan)",nan,nan,nan,nan,nan,nan,nan,nan,"(142, 261)",no pil E/W
2011-02-17 04:36:00,0,nan,nan,nan,nan,"(nan, nan)",nan,nan,nan,nan,nan,nan,nan,nan,"(142, 261)",no pil E/W
2011-02-17 04:48:00,0,nan,nan,nan,nan,"(nan, nan)",nan,nan,nan,nan,nan,nan,nan,nan,"(142, 261)",no pil E/W
2011-02-17 05:00:00,0,nan,nan,nan,nan,"(nan, nan)",nan,nan,nan,nan,nan,nan,nan,nan,"(142, 261)",no pil E/W
2011-02-17 05:12:00,0,nan,nan,nan,nan,"(nan, nan)",nan,nan,nan,nan,nan,nan,nan,nan,"(142, 261)",no pil E/W
2011-02-17 05:24:00,0,nan,nan,nan,nan,"(nan, nan)",nan,nan,nan,nan,nan,nan,nan,nan,"(142, 261)",no pil E/W
2011-02-17 05:36:00,0,nan,nan,nan,nan,"(nan, nan)",nan,nan,nan,nan,nan,nan,nan,nan,"(142, 261)",no pil E/W
2011-02-17 05:48:00,0,nan,nan,nan,nan,"(nan, nan)",nan,nan,nan,nan,nan,nan,nan,nan,"(142, 261)",no pil E/W
2011-02-17 06:00:00,0,nan,nan,nan,nan,"(nan, nan)",nan,nan,nan,nan,nan,nan,nan,nan,"(142, 261)",no pil E/W
2011-02-17 06:12:00,0,nan,nan,nan,nan,"(nan, nan)",nan,nan,nan,nan,nan,nan,nan,nan,"(142, 261)",no pil E/W
2011-02-17 06:24:00,0,nan,nan,nan,nan,"(nan, nan)",nan,nan,nan,nan,nan,nan,nan,nan,"(142, 261)",no pil E/W
2011-02-17 06:36:00,0,nan,nan,nan,nan,"(nan, nan)",nan,nan,nan,nan,nan,nan,nan,nan,"(142, 261)",no pil E/W
2011-02-17 06:48:00,0,nan,nan,nan,nan,"(nan, nan)",nan,nan,nan,nan,nan,nan,nan,nan,"(142, 261)",no pil E/W
2011-02-17 07:00:00,0,nan,nan,nan,nan,"(nan, nan)",nan,nan,nan,nan,nan,nan,nan,nan,"(142, 261)",no pil E/W
2011-02-17 07:12:00,0,nan,nan,nan,nan,"(nan, nan)",nan,nan,nan,nan,nan,nan,nan,nan,"(142, 261)",no pil E/W
2011-02-17 07:24:00,0,nan,nan,nan,nan,"(nan, nan)",nan,nan,nan,nan,nan,nan,nan,nan,"(142, 261)",no pil E/W
2011-02-17 07:36:00,1,15,45,3084.5,0.2765628573076929,"(0.09757133821768349, 25.169095328448986)",1.8942809041582065,1.5721481481481483,2.4336185240054866,0.02466190654026605,0.006968884622873365,7.172735231032506e-05,0.004347851772830871,-5.6585501320218785e-05,"(142, 261)",detected
2011-02-17 07:48:00,1,14,48,4354.9,0.31213750010302255,"(0.2018547213385773, 20.490452970969113)",1.8326324463923132,1.3724489795918369,1.8108340274885464,0.051039001606473504,0.011397780686618671,0.00016417125596108418,0.003072756219165239,-0.00022049982222513247,"(142, 261)",detected
2011-02-17 08:00:00,1,16,52,5026.2,0.31213750010302255,"(0.14390887409848574, 26.45192445923485)",1.7285533905932737,1.558349609375,2.37617689371109,0.04251705767819658,0.009743473550770432,0.0001206815835292839,0.002877330703981329,-0.0001573664719384249,"(142, 261)",detected
2011-02-17 08:12:00,1,15,54,5007.1,0.2765628573076929,"(0.1839887928304904, 23.95886835002665)",1.9380711874576984,1.5022222222222221,2.188404938271605,0.034607407407407406,0.007258600823045268,5.883323509627599e-05,0.002356464197530864,-9.886236951684195e-05,"(142, 261)",detected
2011-02-17 08:24:00,0,nan,nan,nan,nan,"(nan, nan)",nan,nan,nan,nan,nan,nan,nan,nan,"(142, 261)",no pil E/W
2011-02-17 08:36:00,0,nan,nan,nan,nan,"(nan, nan)",nan,nan,nan,nan,nan,nan,nan,nan,"(142, 261)",no pil E/W
2011-02-17 08:48:00,0,nan,nan,nan,nan,"(nan, nan)",nan,nan,nan,nan,nan,nan,nan,nan,"(142, 261)",no pil E/W
2011-02-17 09:00:00,0,nan,nan,nan,nan,"(nan, nan)",nan,nan,nan,nan,nan,nan,nan,nan,"(142, 261)",no pil E/W
2011-02-17 09:12:00,0,nan,nan,nan,nan,"(nan, nan)",nan,nan,nan,nan,nan,nan,nan,nan,"(142, 261)",no pil E/W
2011-02-17 09:24:00,0,nan,nan,nan,nan,"(nan, nan)",nan,nan,nan,nan,nan,nan,nan,nan,"(142, 261)",no pil E/W
2011-02-17 09:36:00,1,16,49,5746.5,0.2765628573076929,"(0.3302818989953309, 26.18638476767134)",1.9678300858899105,1.5537109375,2.295243263244629,0.2601254917681217,0.0635136105120182,0.005450047904855607,0.018136506780138006,-0.006078190046956422,"(142, 261)",detected
2011-02-17 09:48:00,1,18,51,5670.5,0.41088062239831274,"(0.3656190147081304, 33.104969220585986)",1.7932319218362234,1.7561728395061729,2.9508554336229236,0.31948631174487274,0.06935506481434743,0.005681990432501108,0.019365069641425987,-0.00861961166609067,"(142, 261)",detected
2011-02-17 10:00:00,1,16,45,4351.4,0.32885071440934116,"(0.30525718212792086, 25.02807615120541)",1.741497564417433,1.484375,2.09844970703125,0.18707656860351562,0.036594390869140625,0.001219610872794874,-0.0017684102058410645,-0.002771336061414331,"(142, 261)",detected
2011-02-17 10:12:00,1,16,30,1921.0,0.25569972792346984,"(0.21566851273756527, 24.08016482059577)",1.564720869120796,1.423583984375,1.9552717804908752,0.08107655734056607,0.01375075668329373,7.863445665134326e-05,-0.004944070164597747,-0.0004523480952099701,"(142, 261)",detected
2011-02-17 10:24:00,1,15,36,2499.9,0.32885071440934116,"(0.0798583990178976, 20.891570172410674)",1.4666666666666666,1.304888888888889,1.6768979753086417,0.00012868266666653922,2.249007407405304e-05,4.251824650529439e-10,-7.275911901225098e-06,-1.1327209876520762e-09,"(142, 261)",detected
2011-02-17 10:36:00,1,15,38,3085.4,0.32885071440934116,"(0.0798583990178976, 20.891570172410674)",1.4666666666666666,1.304888888888889,1.6768979753086417,0.00012868266666653922,2.249007407405304e-05,4.251824650529439e-10,-7.275911901225098e-06,-1.1327209876520762e-09,"(142, 261)",detected
2011-02-17 10:48:00,1,16,41,3436.9,0.32885071440934116,"(0.11473509184093444, 23.8810982414924)",1.6638325214724776,1.406005859375,1.9392243027687073,0.012377318053040653,0.002193894295487553,3.301950360869256e-06,-0.0007436741953057435,-1.094516057387196e-05,"(142, 261)",detected
2011-02-17 11:00:00,1,15,41,3548.4,0.23898651361715112,"(0.2283240034507159, 21.124056948930235)",1.7885618083164128,1.3285925925925925,1.6904652729766805,0.06291649385804958,0.009900107331605873,2.0026384467609524e-05,-0.004009813802857147,-0.00024626965014830447,"(142, 261)",detected
2011-02-17 11:12:00,0,nan,nan,nan,nan,"(nan, nan)",nan,nan,nan,nan,nan,nan,nan,nan,"(142, 261)",no pil E/W
2011-02-17 11:24:00,0,nan,nan,nan,nan,"(nan, nan)",nan,nan,nan,nan,nan,nan,nan,nan,"(142, 261)",no pil E/W
2011-02-17 11:36:00,1,16,45,4247.7,0.32885071440934116,"(0.11227473737845273, 23.85022526262155)",1.8383883476483185,1.404052734375,1.9345903992652893,0.017792174185160547,0.0028705387958325446,1.6747291667188273e-06,-0.0013213036431949376,-2.044596498065876e-05,"(142, 261)",detected
2011-02-17 11:48:00,0,nan,nan,nan,nan,"(nan, nan)",nan,nan,nan,nan,nan,nan,nan,nan,"(142, 261)",no pil E/W
2011-02-17 12:00:00,1,14,48,4820.1,0.23898651361715112,"(0.31330034363939774, 18.39549086515181)",1.6453952789951956,1.2408892128279885,1.438389961878129,0.1414380256020207,0.0233336886092978,0.00021745973460436159,-0.008365356551096761,-0.001322716942128703,"(142, 261)",detected
2011-02-17 12:12:00,1,15,44,3742.7,0.23898651361715112,"(0.24266470121366623, 21.45257339402443)",1.3885618083164128,1.349925925925926,1.741681075445816,0.09434706136421883,0.01563993354834049,8.910991599693933e-05,-0.004706318875826195,-0.0005941361984442719,"(142, 261)",detected
2011-02-17 12:24:00,0,nan,nan,nan,nan,"(nan, nan)",nan,nan,nan,nan,nan,nan,nan,nan,"(142, 261)",no pil E/W
2011-02-17 12:36:00,0,nan,nan,nan,nan,"(nan, nan)",nan,nan,nan,nan,nan,nan,nan,nan,"(142, 261)",no pil E/W
2011-02-17 12:48:00,0,nan,nan,nan,nan,"(nan, nan)",nan,nan,nan,nan,nan,nan,nan,nan,"(142, 261)",no pil E/W
2011-02-17 13:00:00,1,16,66,5486.4,0.31213750010302255,"(0.5735381958325902, 28.722295137500744)",1.8579951288348662,1.716552734375,2.7203264832496643,0.7555625974782743,0.2368394970544614,0.08397219130730188,0.1663583076810795,-0.05464740998205869,"(142, 261)",detected
2011-02-17 13:12:00,0,nan,nan,nan,nan,"(nan, nan)",nan,nan,nan,nan,nan,nan,nan,nan,"(142, 261)",no pil E/W
2011-02-17 13:24:00,0,nan,nan,nan,nan,"(nan, nan)",nan,nan,nan,nan,nan,nan,nan,nan,"(142, 261)",no pil E/W
2011-02-17 13:36:00,0,nan,nan,nan,nan,"(nan, nan)",nan,nan,nan,nan,nan,nan,nan,nan,"(142, 261)",no pil E/W
2011-02-17 13:48:00,0,nan,nan,nan,nan,"(nan, nan)",nan,nan,nan,nan,nan,nan,nan,nan,"(142, 261)",no pil E/W
2011-02-17 14:00:00,0,nan,nan,nan,nan,"(nan, nan)",nan,nan,nan,nan,nan,nan,nan,nan,"(142, 261)",no pil E/W
2011-02-17 14:12:00,0,nan,nan,nan,nan,"(nan, nan)",nan,nan,nan,nan,nan,nan,nan,nan,"(142, 261)",no pil E/W
2011-02-17 14:24:00,0,nan,nan,nan,nan,"(nan, nan)",nan,nan,nan,nan,nan,nan,nan,nan,"(142, 261)",no pil E/W
2011-02-17 14:36:00,0,nan,nan,nan,nan,"(nan, nan)",nan,nan,nan,nan,nan,nan,nan,nan,"(142, 261)",no pil E/W
2011-02-17 14:48:00,0,nan,nan,nan,nan,"(nan, nan)",nan,nan,nan,nan,nan,nan,nan,nan,"(142, 261)",no pil E/W
2011-02-17 15:00:00,0,nan,nan,nan,nan,"(nan, nan)",nan,nan,nan,nan,nan,nan,nan,nan,"(142, 261)",no pil E/W
2011-02-17 15:12:00,0,nan,nan,nan,nan,"(nan, nan)",nan,nan,nan,nan,nan,nan,nan,nan,"(142, 261)",no pil E/W
2011-02-17 15:24:00,0,nan,nan,nan,nan,"(nan, nan)",nan,nan,nan,nan,nan,nan,nan,nan,"(142, 261)",no pil E/W
2011-02-17 15:36:00,0,nan,nan,nan,nan,"(nan, nan)",nan,nan,nan,nan,nan,nan,nan,nan,"(142, 261)",no pil E/W
2011-02-17 15:48:00,0,nan,nan,nan,nan,"(nan, nan)",nan,nan,nan,nan,nan,nan,nan,nan,"(142, 261)",no pil E/W
2011-02-17 16:00:00,0,nan,nan,nan,nan,"(nan, nan)",nan,nan,nan,nan,nan,nan,nan,nan,"(142, 261)",no pil E/W
2011-02-17 16:12:00,0,nan,nan,nan,nan,"(nan, nan)",nan,nan,nan,nan,nan,nan,nan,nan,"(142, 261)",no pil E/W
2011-02-17 16:24:00,0,nan,nan,nan,nan,"(nan, nan)",nan,nan,nan,nan,nan,nan,nan,nan,"(142, 261)",no pil E/W
2011-02-17 16:36:00,0,nan,nan,nan,nan,"(nan, nan)",nan,nan,nan,nan,nan,nan,nan,nan,"(142, 261)",no pil E/W
2011-02-17 16:48:00,0,nan,nan,nan,nan,"(nan, nan)",nan,nan,nan,nan,nan,nan,nan,nan,"(142, 261)",no pil E/W
2011-02-17 17:00:00,0,nan,nan,nan,nan,"(nan, nan)",nan,nan,nan,nan,nan,nan,nan,nan,"(142, 261)",no pil E/W
2011-02-17 17:12:00,0,nan,nan,nan,nan,"(nan, nan)",nan,nan,nan,nan,nan,nan,nan,nan,"(142, 261)",no pil E/W
2011-02-17 17:24:00,1,14,23,877.9,0.23898651361715112,"(1.7412333627355423, 13.302722681220503)",1.7933286941284439,0.9978134110787169,0.5880335786959513,0.39522930688699576,0.05712422745753688,-0.006914251945434839,-0.03639786220270095,0.005085904664384666,"(142, 261)",detected
2011-02-17 17:36:00,0,nan,nan,nan,nan,"(nan, nan)",nan,nan,nan,nan,nan,nan,nan,nan,"(142, 261)",no pil E/W
2011-02-17 17:48:00,0,nan,nan,nan,nan,"(nan, nan)",nan,nan,nan,nan,nan,nan,nan,nan,"(142, 261)",no pil E/W
2011-02-17 18:00:00,0,nan,nan,nan,nan,"(nan, nan)",nan,nan,nan,nan,nan,nan,nan,nan,"(142, 261)",no pil E/W
2011-02-17 18:12:00,0,nan,nan,nan,nan,"(nan, nan)",nan,nan,nan,nan,nan,nan,nan,nan,"(142, 261)",no pil E/W
2011-02-17 18:24:00,0,nan,nan,nan,nan,"(nan, nan)",nan,nan,nan,nan,nan,nan,nan,nan,"(142, 261)",no pil E/W
2011-02-17 18:36:00,0,nan,nan,nan,nan,"(nan, nan)",nan,nan,nan,nan,nan,nan,nan,nan,"(142, 261)",no pil E/W
2011-02-17 18:48:00,0,nan,nan,nan,nan,"(nan, nan)",nan,nan,nan,nan,nan,nan,nan,nan,"(142, 261)",no pil E/W
2011-02-17 19:00:00,0,nan,nan,nan,nan,"(nan, nan)",nan,nan,nan,nan,nan,nan,nan,nan,"(142, 261)",no pil E/W
2011-02-17 19:12:00,0,nan,nan,nan,nan,"(nan, nan)",nan,nan,nan,nan,nan,nan,nan,nan,"(142, 261)",no pil E/W
2011-02-17 19:24:00,0,nan,nan,nan,nan,"(nan, nan)",nan,nan,nan,nan,nan,nan,nan,nan,"(142, 261)",no pil E/W
2011-02-17 19:36:00,0,nan,nan,nan,nan,"(nan, nan)",nan,nan,nan,nan,nan,nan,nan,nan,"(142, 261)",no pil E/W
2011-02-17 19:48:00,0,nan,nan,nan,nan,"(nan, nan)",nan,nan,nan,nan,nan,nan,nan,nan,"(142, 261)",no pil E/W
2011-02-17 20:00:00,0,nan,nan,nan,nan,"(nan, nan)",nan,nan,nan,nan,nan,nan,nan,nan,"(142, 261)",no pil E/W
2011-02-17 20:12:00,0,nan,nan,nan,nan,"(nan, nan)",nan,nan,nan,nan,nan,nan,nan,nan,"(142, 261)",no pil E/W
2011-02-17 20:24:00,0,nan,nan,nan,nan,"(nan, nan)",nan,nan,nan,nan,nan,nan,nan,nan,"(142, 261)",no pil E/W
2011-02-17 20:36:00,1,17,37,2379.2,0.32885071440934116,"(0.8359994251406704, 28.259588810153446)",1.9474471598704832,1.6108284144107472,2.3051164763112637,0.002827369018690944,0.000674844633060077,-3.148069237608044e-07,-0.00037884102493833014,-8.774080035621304e-07,"(142, 261)",detected
2011-02-17 20:48:00,0,nan,nan,nan,nan,"(nan, nan)",nan,nan,nan,nan,nan,nan,nan,nan,"(142, 261)",no pil E/W
2011-02-17 21:00:00,0,nan,nan,nan,nan,"(nan, nan)",nan,nan,nan,nan,nan,nan,nan,nan,"(142, 261)",no pil E/W
2011-02-17 21:12:00,0,nan,nan,nan,nan,"(nan, nan)",nan,nan,nan,nan,nan,nan,nan,nan,"(142, 261)",no pil E/W
2011-02-17 21:24:00,0,nan,nan,nan,nan,"(nan, nan)",nan,nan,nan,nan,nan,nan,nan,nan,"(142, 261)",no pil E/W
2011-02-17 21:36:00,0,nan,nan,nan,nan,"(nan, nan)",nan,nan,nan,nan,nan,nan,nan,nan,"(142, 261)",no pil E/W
2011-02-17 21:48:00,0,nan,nan,nan,nan,"(nan, nan)",nan,nan,nan,nan,nan,nan,nan,nan,"(142, 261)",no pil E/W
2011-02-17 22:00:00,0,nan,nan,nan,nan,"(nan, nan)",nan,nan,nan,nan,nan,nan,nan,nan,"(142, 261)",no pil E/W
2011-02-17 22:12:00,0,nan,nan,nan,nan,"(nan, nan)",nan,nan,nan,nan,nan,nan,nan,nan,"(142, 261)",no pil E/W
2011-02-17 22:24:00,0,nan,nan,nan,nan,"(nan, nan)",nan,nan,nan,nan,nan,nan,nan,nan,"(142, 261)",no pil E/W
2011-02-17 22:36:00,0,nan,nan,nan,nan,"(nan, nan)",nan,nan,nan,nan,nan,nan,nan,nan,"(142, 261)",no pil E/W
2011-02-17 22:48:00,0,nan,nan,nan,nan,"(nan, nan)",nan,nan,nan,nan,nan,nan,nan,nan,"(142, 261)",no pil E/W
2011-02-17 23:00:00,0,nan,nan,nan,nan,"(nan, nan)",nan,nan,nan,nan,nan,nan,nan,nan,"(142, 261)",no pil E/W
2011-02-17 23:12:00,0,nan,nan,nan,nan,"(nan, nan)",nan,nan,nan,nan,nan,nan,nan,nan,"(142, 261)",no pil E/W
2011-02-17 23:24:00,0,nan,nan,nan,nan,"(nan, nan)",nan,nan,nan,nan,nan,nan,nan,nan,"(142, 261)",no pil E/W
2011-02-17 23:36:00,0,nan,nan,nan,nan,"(nan, nan)",nan,nan,nan,nan,nan,nan,nan,nan,"(142, 261)",no pil E/W
2011-02-17 23:48:00,0,nan,nan,nan,nan,"(nan, nan)",nan,nan,nan,nan,nan,nan,nan,nan,"(142, 261)",no pil E/W
2011-02-18 00:00:00,0,nan,nan,nan,nan,"(nan, nan)",nan,nan,nan,nan,nan,nan,nan,nan,"(142, 261)",no pil E/W
2011-02-18 00:12:00,0,nan,nan,nan,nan,"(nan, nan)",nan,nan,nan,nan,nan,nan,nan,nan,"(142, 261)",no pil E/W
2011-02-18 00:24:00,0,nan,nan,nan,nan,"(nan, nan)",nan,nan,nan,nan,nan,nan,nan,nan,"(142, 261)",no pil E/W
2011-02-18 00:36:00,0,nan,nan,nan,nan,"(nan, nan)",nan,nan,nan,nan,nan,nan,nan,nan,"(142, 261)",no pil E/W
2011-02-18 00:48:00,0,nan,nan,nan,nan,"(nan, nan)",nan,nan,nan,nan,nan,nan,nan,nan,"(142, 261)",no pil E/W
2011-02-18 01:00:00,0,nan,nan,nan,nan,"(nan, nan)",nan,nan,nan,nan,nan,nan,nan,nan,"(142, 261)",no pil E/W
2011-02-18 01:12:00,0,nan,nan,nan,nan,"(nan, nan)",nan,nan,nan,nan,nan,nan,nan,nan,"(142, 261)",no pil E/W
2011-02-18 01:24:00,0,nan,nan,nan,nan,"(nan, nan)",nan,nan,nan,nan,nan,nan,nan,nan,"(142, 261)",no pil E/W
2011-02-18 01:36:00,0,nan,nan,nan,nan,"(nan, nan)",nan,nan,nan,nan,nan,nan,nan,nan,"(142, 261)",no pil E/W
2011-02-18 01:48:00,0,nan,nan,nan,nan,"(nan, nan)",nan,nan,nan,nan,nan,nan,nan,nan,"(142, 261)",no pil E/W
2011-02-18 02:00:00,0,nan,nan,nan,nan,"(nan, nan)",nan,nan,nan,nan,nan,nan,nan,nan,"(142, 261)",no pil E/W
2011-02-18 02:12:00,0,nan,nan,nan,nan,"(nan, nan)",nan,nan,nan,nan,nan,nan,nan,nan,"(142, 261)",no pil E/W
2011-02-18 02:24:00,0,nan,nan,nan,nan,"(nan, nan)",nan,nan,nan,nan,nan,nan,nan,nan,"(142, 261)",no pil E/W
2011-02-18 02:36:00,0,nan,nan,nan,nan,"(nan, nan)",nan,nan,nan,nan,nan,nan,nan,nan,"(142, 261)",no pil E/W
2011-02-18 02:48:00,0,nan,nan,nan,nan,"(nan, nan)",nan,nan,nan,nan,nan,nan,nan,nan,"(142, 261)",no pil E/W
2011-02-18 03:00:00,0,nan,nan,nan,nan,"(nan, nan)",nan,nan,nan,nan,nan,nan,nan,nan,"(142, 261)",no pil E/W
2011-02-18 03:12:00,0,nan,nan,nan,nan,"(nan, nan)",nan,nan,nan,nan,nan,nan,nan,nan,"(142, 261)",no pil E/W
2011-02-18 03:24:00,0,nan,nan,nan,nan,"(nan, nan)",nan,nan,nan,nan,nan,nan,nan,nan,"(142, 261)",no pil E/W
2011-02-18 03:36:00,0,nan,nan,nan,nan,"(nan, nan)",nan,nan,nan,nan,nan,nan,nan,nan,"(142, 261)",no pil E/W
2011-02-18 03:48:00,0,nan,nan,nan,nan,"(nan, nan)",nan,nan,nan,nan,nan,nan,nan,nan,"(142, 261)",no pil E/W
2011-02-18 04:00:00,0,nan,nan,nan,nan,"(nan, nan)",nan,nan,nan,nan,nan,nan,nan,nan,"(142, 261)",no pil E/W
2011-02-18 04:12:00,0,nan,nan,nan,nan,"(nan, nan)",nan,nan,nan,nan,nan,nan,nan,nan,"(142, 261)",no pil E/W
2011-02-18 04:24:00,0,nan,nan,nan,nan,"(nan, nan)",nan,nan,nan,nan,nan,nan,nan,nan,"(142, 261)",no pil E/W
2011-02-18 04:36:00,0,nan,nan,nan,nan,"(nan, nan)",nan,nan,nan,nan,nan,nan,nan,nan,"(142, 261)",no pil E/W
2011-02-18 04:48:00,0,nan,nan,nan,nan,"(nan, nan)",nan,nan,nan,nan,nan,nan,nan,nan,"(142, 261)",no pil E/W
2011-02-18 05:00:00,0,nan,nan,nan,nan,"(nan, nan)",nan,nan,nan,nan,nan,nan,nan,nan,"(142, 261)",no pil E/W
2011-02-18 05:12:00,0,nan,nan,nan,nan,"(nan, nan)",nan,nan,nan,nan,nan,nan,nan,nan,"(142, 261)",no pil E/W
2011-02-18 05:24:00,0,nan,nan,nan,nan,"(nan, nan)",nan,nan,nan,nan,nan,nan,nan,nan,"(142, 261)",no pil E/W
2011-02-18 05:36:00,0,nan,nan,nan,nan,"(nan, nan)",nan,nan,nan,nan,nan,nan,nan,nan,"(142, 261)",no pil E/W
2011-02-18 05:48:00,0,nan,nan,nan,nan,"(nan, nan)",nan,nan,nan,nan,nan,nan,nan,nan,"(142, 261)",no pil E/W
2011-02-18 06:00:00,0,nan,nan,nan,nan,"(nan, nan)",nan,nan,nan,nan,nan,nan,nan,nan,"(142, 261)",no pil E/W
2011-02-18 06:12:00,0,nan,nan,nan,nan,"(nan, nan)",nan,nan,nan,nan,nan,nan,nan,nan,"(142, 261)",no pil E/W
2011-02-18 06:24:00,0,nan,nan,nan,nan,"(nan, nan)",nan,nan,nan,nan,nan,nan,nan,nan,"(142, 261)",no pil E/W
2011-02-18 06:36:00,0,nan,nan,nan,nan,"(nan, nan)",nan,nan,nan,nan,nan,nan,nan,nan,"(142, 261)",no pil E/W
2011-02-18 06:48:00,0,nan,nan,nan,nan,"(nan, nan)",nan,nan,nan,nan,nan,nan,nan,nan,"(142, 261)",no pil E/W
2011-02-18 07:00:00,0,nan,nan,nan,nan,"(nan, nan)",nan,nan,nan,nan,nan,nan,nan,nan,"(142, 261)",no pil E/W
2011-02-18 07:12:00,0,nan,nan,nan,nan,"(nan, nan)",nan,nan,nan,nan,nan,nan,nan,nan,"(142, 261)",no pil E/W
2011-02-18 07:24:00,0,nan,nan,nan,nan,"(nan, nan)",nan,nan,nan,nan,nan,nan,nan,nan,"(142, 261)",no pil E/W
2011-02-18 07:36:00,0,nan,nan,nan,nan,"(nan, nan)",nan,nan,nan,nan,nan,nan,nan,nan,"(142, 261)",no pil E/W
2011-02-18 07:48:00,0,nan,nan,nan,nan,"(nan, nan)",nan,nan,nan,nan,nan,nan,nan,nan,"(142, 261)",no pil E/W
2011-02-18 08:00:00,0,nan,nan,nan,nan,"(nan, nan)",nan,nan,nan,nan,nan,nan,nan,nan,"(142, 261)",no pil E/W
2011-02-18 08:12:00,0,nan,nan,nan,nan,"(nan, nan)",nan,nan,nan,nan,nan,nan,nan,nan,"(142, 261)",no pil E/W
2011-02-18 08:24:00,0,nan,nan,nan,nan,"(nan, nan)",nan,nan,nan,nan,nan,nan,nan,nan,"(142, 261)",no pil E/W
2011-02-18 08:36:00,0,nan,nan,nan,nan,"(nan, nan)",nan,nan,nan,nan,nan,nan,nan,nan,"(142, 261)",no pil E/W
2011-02-18 08:48:00,0,nan,nan,nan,nan,"(nan, nan)",nan,nan,nan,nan,nan,nan,nan,nan,"(142, 261)",no pil E/W
2011-02-18 09:00:00,0,nan,nan,nan,nan,"(nan, nan)",nan,nan,nan,nan,nan,nan,nan,nan,"(142, 261)",no pil E/W
2011-02-18 09:12:00,0,nan,nan,nan,nan,"(nan, nan)",nan,nan,nan,nan,nan,nan,nan,nan,"(142, 261)",no pil E/W
2011-02-18 09:24:00,0,nan,nan,nan,nan,"(nan, nan)",nan,nan,nan,nan,nan,nan,nan,nan,"(142, 261)",no pil E/W
2011-02-18 09:36:00,0,nan,nan,nan,nan,"(nan, nan)",nan,nan,nan,nan,nan,nan,nan,nan,"(142, 261)",no pil E/W
2011-02-18 09:48:00,0,nan,nan,nan,nan,"(nan, nan)",nan,nan,nan,nan,nan,nan,nan,nan,"(142, 261)",no pil E/W
2011-02-18 10:00:00,0,nan,nan,nan,nan,"(nan, nan)",nan,nan,nan,nan,nan,nan,nan,nan,"(142, 261)",no pil E/W
2011-02-18 10:12:00,0,nan,nan,nan,nan,"(nan, nan)",nan,nan,nan,nan,nan,nan,nan,nan,"(142, 261)",no pil E/W
2011-02-18 10:24:00,0,nan,nan,nan,nan,"(nan, nan)",nan,nan,nan,nan,nan,nan,nan,nan,"(142, 261)",no pil E/W
2011-02-18 10:36:00,0,nan,nan,nan,nan,"(nan, nan)",nan,nan,nan,nan,nan,nan,nan,nan,"(142, 261)",no pil E/W
2011-02-18 10:48:00,0,nan,nan,nan,nan,"(nan, nan)",nan,nan,nan,nan,nan,nan,nan,nan,"(142, 261)",no pil E/W
2011-02-18 11:00:00,0,nan,nan,nan,nan,"(nan, nan)",nan,nan,nan,nan,nan,nan,nan,nan,"(142, 261)",no pil E/W
2011-02-18 11:12:00,0,nan,nan,nan,nan,"(nan, nan)",nan,nan,nan,nan,nan,nan,nan,nan,"(142, 261)",no pil E/W
2011-02-18 11:24:00,0,nan,nan,nan,nan,"(nan, nan)",nan,nan,nan,nan,nan,nan,nan,nan,"(142, 261)",no pil E/W
2011-02-18 11:36:00,0,nan,nan,nan,nan,"(nan, nan)",nan,nan,nan,nan,nan,nan,nan,nan,"(142, 261)",no pil E/W
2011-02-18 11:48:00,0,nan,nan,nan,nan,"(nan, nan)",nan,nan,nan,nan,nan,nan,nan,nan,"(142, 261)",no pil E/W
2011-02-18 12:00:00,0,nan,nan,nan,nan,"(nan, nan)",nan,nan,nan,nan,nan,nan,nan,nan,"(142, 261)",no pil E/W
2011-02-18 12:12:00,0,nan,nan,nan,nan,"(nan, nan)",nan,nan,nan,nan,nan,nan,nan,nan,"(142, 261)",no pil E/W
2011-02-18 12:24:00,0,nan,nan,nan,nan,"(nan, nan)",nan,nan,nan,nan,nan,nan,nan,nan,"(142, 261)",no pil E/W
2011-02-18 12:36:00,0,nan,nan,nan,nan,"(nan, nan)",nan,nan,nan,nan,nan,nan,nan,nan,"(142, 261)",no pil E/W
2011-02-18 12:48:00,0,nan,nan,nan,nan,"(nan, nan)",nan,nan,nan,nan,nan,nan,nan,nan,"(142, 261)",no pil E/W
2011-02-18 13:00:00,0,nan,nan,nan,nan,"(nan, nan)",nan,nan,nan,nan,nan,nan,nan,nan,"(142, 261)",no pil E/W
2011-02-18 13:12:00,0,nan,nan,nan,nan,"(nan, nan)",nan,nan,nan,nan,nan,nan,nan,nan,"(142, 261)",no pil E/W
2011-02-18 13:24:00,0,nan,nan,nan,nan,"(nan, nan)",nan,nan,nan,nan,nan,nan,nan,nan,"(142, 261)",no pil E/W
2011-02-18 13:36:00,0,nan,nan,nan,nan,"(nan, nan)",nan,nan,nan,nan,nan,nan,nan,nan,"(142, 261)",no pil E/W
2011-02-18 13:48:00,0,nan,nan,nan,nan,"(nan, nan)",nan,nan,nan,nan,nan,nan,nan,nan,"(142, 261)",no pil E/W
2011-02-18 14:00:00,0,nan,nan,nan,nan,"(nan, nan)",nan,nan,nan,nan,nan,nan,nan,nan,"(142, 261)",no pil E/W
2011-02-18 14:12:00,0,nan,nan,nan,nan,"(nan, nan)",nan,nan,nan,nan,nan,nan,nan,nan,"(142, 261)",no pil E/W
2011-02-18 14:24:00,0,nan,nan,nan,nan,"(nan, nan)",nan,nan,nan,nan,nan,nan,nan,nan,"(142, 261)",no pil E/W
2011-02-18 14:36:00,0,nan,nan,nan,nan,"(nan, nan)",nan,nan,nan,nan,nan,nan,nan,nan,"(142, 261)",no pil E/W
2011-02-18 14:48:00,0,nan,nan,nan,nan,"(nan, nan)",nan,nan,nan,nan,nan,nan,nan,nan,"(142, 261)",no pil E/W
2011-02-18 15:00:00,0,nan,nan,nan,nan,"(nan, nan)",nan,nan,nan,nan,nan,nan,nan,nan,"(142, 261)",no pil E/W
2011-02-18 15:12:00,0,nan,nan,nan,nan,"(nan, nan)",nan,nan,nan,nan,nan,nan,nan,nan,"(142, 261)",no pil E/W
2011-02-18 15:24:00,0,nan,nan,nan,nan,"(nan, nan)",nan,nan,nan,nan,nan,nan,nan,nan,"(142, 261)",no pil E/W
2011-02-18 15:36:00,0,nan,nan,nan,nan,"(nan, nan)",nan,nan,nan,nan,nan,nan,nan,nan,"(142, 261)",no pil E/W
2011-02-18 15:48:00,0,nan,nan,nan,nan,"(nan, nan)",nan,nan,nan,nan,nan,nan,nan,nan,"(142, 261)",no pil E/W
2011-02-18 16:00:00,0,nan,nan,nan,nan,"(nan, nan)",nan,nan,nan,nan,nan,nan,nan,nan,"(142, 261)",no pil E/W
2011-02-18 16:12:00,0,nan,nan,nan,nan,"(nan, nan)",nan,nan,nan,nan,nan,nan,nan,nan,"(142, 261)",no pil E/W
2011-02-18 16:24:00,0,nan,nan,nan,nan,"(nan, nan)",nan,nan,nan,nan,nan,nan,nan,nan,"(142, 261)",no pil E/W
2011-02-18 16:36:00,0,nan,nan,nan,nan,"(nan, nan)",nan,nan,nan,nan,nan,nan,nan,nan,"(142, 261)",no pil E/W
2011-02-18 16:48:00,0,nan,nan,nan,nan,"(nan, nan)",nan,nan,nan,nan,nan,nan,nan,nan,"(142, 261)",no pil E/W
2011-02-18 17:00:00,0,nan,nan,nan,nan,"(nan, nan)",nan,nan,nan,nan,nan,nan,nan,nan,"(142, 261)",no pil E/W
2011-02-18 17:12:00,0,nan,nan,nan,nan,"(nan, nan)",nan,nan,nan,nan,nan,nan,nan,nan,"(142, 261)",no pil E/W
2011-02-18 17:24:00,0,nan,nan,nan,nan,"(nan, nan)",nan,nan,nan,nan,nan,nan,nan,nan,"(142, 261)",no pil E/W
2011-02-18 17:36:00,0,nan,nan,nan,nan,"(nan, nan)",nan,nan,nan,nan,nan,nan,nan,nan,"(142, 261)",no pil E/W
2011-02-18 18:12:00,0,nan,nan,nan,nan,"(nan, nan)",nan,nan,nan,nan,nan,nan,nan,nan,"(142, 261)",no pil E/W
2011-02-18 18:24:00,0,nan,nan,nan,nan,"(nan, nan)",nan,nan,nan,nan,nan,nan,nan,nan,"(142, 261)",no pil E/W
2011-02-18 18:36:00,0,nan,nan,nan,nan,"(nan, nan)",nan,nan,nan,nan,nan,nan,nan,nan,"(142, 261)",no pil E/W
2011-02-18 18:48:00,0,nan,nan,nan,nan,"(nan, nan)",nan,nan,nan,nan,nan,nan,nan,nan,"(142, 261)",no pil E/W
2011-02-18 19:00:00,0,nan,nan,nan,nan,"(nan, nan)",nan,nan,nan,nan,nan,nan,nan,nan,"(142, 261)",no pil E/W
2011-02-18 19:12:00,0,nan,nan,nan,nan,"(nan, nan)",nan,nan,nan,nan,nan,nan,nan,nan,"(142, 261)",no pil E/W
2011-02-18 19:24:00,0,nan,nan,nan,nan,"(nan, nan)",nan,nan,nan,nan,nan,nan,nan,nan,"(142, 261)",no pil E/W
2011-02-18 19:36:00,0,nan,nan,nan,nan,"(nan, nan)",nan,nan,nan,nan,nan,nan,nan,nan,"(142, 261)",no pil E/W
2011-02-18 19:48:00,0,nan,nan,nan,nan,"(nan, nan)",nan,nan,nan,nan,nan,nan,nan,nan,"(142, 261)",no pil E/W
2011-02-18 20:00:00,0,nan,nan,nan,nan,"(nan, nan)",nan,nan,nan,nan,nan,nan,nan,nan,"(142, 261)",no pil E/W
2011-02-18 20:12:00,0,nan,nan,nan,nan,"(nan, nan)",nan,nan,nan,nan,nan,nan,nan,nan,"(142, 261)",no pil E/W
2011-02-18 20:24:00,0,nan,nan,nan,nan,"(nan, nan)",nan,nan,nan,nan,nan,nan,nan,nan,"(142, 261)",no pil E/W
2011-02-18 20:36:00,0,nan,nan,nan,nan,"(nan, nan)",nan,nan,nan,nan,nan,nan,nan,nan,"(142, 261)",no pil E/W
2011-02-18 20:48:00,0,nan,nan,nan,nan,"(nan, nan)",nan,nan,nan,nan,nan,nan,nan,nan,"(142, 261)",no pil E/W
2011-02-18 21:00:00,0,nan,nan,nan,nan,"(nan, nan)",nan,nan,nan,nan,nan,nan,nan,nan,"(142, 261)",no pil E/W
2011-02-18 21:12:00,0,nan,nan,nan,nan,"(nan, nan)",nan,nan,nan,nan,nan,nan,nan,nan,"(142, 261)",no pil E/W
2011-02-18 21:24:00,0,nan,nan,nan,nan,"(nan, nan)",nan,nan,nan,nan,nan,nan,nan,nan,"(142, 261)",no pil E/W
2011-02-18 21:36:00,0,nan,nan,nan,nan,"(nan, nan)",nan,nan,nan,nan,nan,nan,nan,nan,"(142, 261)",no pil E/W
2011-02-18 21:48:00,0,nan,nan,nan,nan,"(nan, nan)",nan,nan,nan,nan,nan,nan,nan,nan,"(142, 261)",no pil E/W
2011-02-18 22:00:00,0,nan,nan,nan,nan,"(nan, nan)",nan,nan,nan,nan,nan,nan,nan,nan,"(142, 261)",no pil E/W
2011-02-18 22:12:00,0,nan,nan,nan,nan,"(nan, nan)",nan,nan,nan,nan,nan,nan,nan,nan,"(142, 261)",no pil E/W
2011-02-18 22:24:00,0,nan,nan,nan,nan,"(nan, nan)",nan,nan,nan,nan,nan,nan,nan,nan,"(142, 261)",no pil E/W
2011-02-18 22:36:00,0,nan,nan,nan,nan,"(nan, nan)",nan,nan,nan,nan,nan,nan,nan,nan,"(142, 261)",no pil E/W
2011-02-18 22:48:00,0,nan,nan,nan,nan,"(nan, nan)",nan,nan,nan,nan,nan,nan,nan,nan,"(142, 261)",no pil E/W
2011-02-18 23:00:00,0,nan,nan,nan,nan,"(nan, nan)",nan,nan,nan,nan,nan,nan,nan,nan,"(142, 261)",no pil E/W
2011-02-18 23:12:00,0,nan,nan,nan,nan,"(nan, nan)",nan,nan,nan,nan,nan,nan,nan,nan,"(142, 261)",no pil E/W
2011-02-18 23:24:00,0,nan,nan,nan,nan,"(nan, nan)",nan,nan,nan,nan,nan,nan,nan,nan,"(142, 261)",no pil E/W
2011-02-18 23:36:00,0,nan,nan,nan,nan,"(nan, nan)",nan,nan,nan,nan,nan,nan,nan,nan,"(142, 261)",no pil E/W
2011-02-18 23:48:00,0,nan,nan,nan,nan,"(nan, nan)",nan,nan,nan,nan,nan,nan,nan,nan,"(142, 261)",no pil E/W
2011-02-19 00:00:00,0,nan,nan,nan,nan,"(nan, nan)",nan,nan,nan,nan,nan,nan,nan,nan,"(142, 261)",no pil E/W
2011-02-19 00:12:00,0,nan,nan,nan,nan,"(nan, nan)",nan,nan,nan,nan,nan,nan,nan,nan,"(142, 261)",no pil E/W
2011-02-19 00:36:00,0,nan,nan,nan,nan,"(nan, nan)",nan,nan,nan,nan,nan,nan,nan,nan,"(142, 261)",no pil E/W
2011-02-19 00:48:00,0,nan,nan,nan,nan,"(nan, nan)",nan,nan,nan,nan,nan,nan,nan,nan,"(142, 261)",no pil E/W
2011-02-19 01:00:00,0,nan,nan,nan,nan,"(nan, nan)",nan,nan,nan,nan,nan,nan,nan,nan,"(142, 261)",no pil E/W
2011-02-19 01:12:00,0,nan,nan,nan,nan,"(nan, nan)",nan,nan,nan,nan,nan,nan,nan,nan,"(142, 261)",no pil E/W
2011-02-19 01:24:00,0,nan,nan,nan,nan,"(nan, nan)",nan,nan,nan,nan,nan,nan,nan,nan,"(142, 261)",no pil E/W
2011-02-19 02:36:00,0,nan,nan,nan,nan,"(nan, nan)",nan,nan,nan,nan,nan,nan,nan,nan,"(142, 261)",no pil E/W
2011-02-19 03:00:00,0,nan,nan,nan,nan,"(nan, nan)",nan,nan,nan,nan,nan,nan,nan,nan,"(142, 261)",no pil E/W
2011-02-19 03:12:00,0,nan,nan,nan,nan,"(nan, nan)",nan,nan,nan,nan,nan,nan,nan,nan,"(142, 261)",no pil E/W
2011-02-19 03:24:00,0,nan,nan,nan,nan,"(nan, nan)",nan,nan,nan,nan,nan,nan,nan,nan,"(142, 261)",no pil E/W
2011-02-19 03:36:00,0,nan,nan,nan,nan,"(nan, nan)",nan,nan,nan,nan,nan,nan,nan,nan,"(142, 261)",no pil E/W
2011-02-19 03:48:00,0,nan,nan,nan,nan,"(nan, nan)",nan,nan,nan,nan,nan,nan,nan,nan,"(142, 261)",no pil E/W
2011-02-19 04:00:00,0,nan,nan,nan,nan,"(nan, nan)",nan,nan,nan,nan,nan,nan,nan,nan,"(142, 261)",no pil E/W
2011-02-19 04:24:00,0,nan,nan,nan,nan,"(nan, nan)",nan,nan,nan,nan,nan,nan,nan,nan,"(142, 261)",no pil E/W
2011-02-19 04:36:00,0,nan,nan,nan,nan,"(nan, nan)",nan,nan,nan,nan,nan,nan,nan,nan,"(142, 261)",no pil E/W
2011-02-19 04:48:00,0,nan,nan,nan,nan,"(nan, nan)",nan,nan,nan,nan,nan,nan,nan,nan,"(142, 261)",no pil E/W
2011-02-19 05:00:00,0,nan,nan,nan,nan,"(nan, nan)",nan,nan,nan,nan,nan,nan,nan,nan,"(142, 261)",no pil E/W
2011-02-19 05:12:00,0,nan,nan,nan,nan,"(nan, nan)",nan,nan,nan,nan,nan,nan,nan,nan,"(142, 261)",no pil E/W
2011-02-19 05:24:00,0,nan,nan,nan,nan,"(nan, nan)",nan,nan,nan,nan,nan,nan,nan,nan,"(142, 261)",no pil E/W
2011-02-19 05:36:00,0,nan,nan,nan,nan,"(nan, nan)",nan,nan,nan,nan,nan,nan,nan,nan,"(142, 261)",no pil E/W
2011-02-19 05:48:00,0,nan,nan,nan,nan,"(nan, nan)",nan,nan,nan,nan,nan,nan,nan,nan,"(142, 261)",no pil E/W
2011-02-19 06:00:00,0,nan,nan,nan,nan,"(nan, nan)",nan,nan,nan,nan,nan,nan,nan,nan,"(142, 261)",no pil E/W
2011-02-19 06:12:00,0,nan,nan,nan,nan,"(nan, nan)",nan,nan,nan,nan,nan,nan,nan,nan,"(142, 261)",no pil E/W
2011-02-19 06:24:00,0,nan,nan,nan,nan,"(nan, nan)",nan,nan,nan,nan,nan,nan,nan,nan,"(142, 261)",no pil E/W
2011-02-19 06:36:00,0,nan,nan,nan,nan,"(nan, nan)",nan,nan,nan,nan,nan,nan,nan,nan,"(142, 261)",no pil E/W
2011-02-19 06:48:00,0,nan,nan,nan,nan,"(nan, nan)",nan,nan,nan,nan,nan,nan,nan,nan,"(142, 261)",no pil E/W
2011-02-19 07:00:00,0,nan,nan,nan,nan,"(nan, nan)",nan,nan,nan,nan,nan,nan,nan,nan,"(142, 261)",no pil E/W
2011-02-19 07:12:00,0,nan,nan,nan,nan,"(nan, nan)",nan,nan,nan,nan,nan,nan,nan,nan,"(142, 261)",no pil E/W
2011-02-19 07:24:00,0,nan,nan,nan,nan,"(nan, nan)",nan,nan,nan,nan,nan,nan,nan,nan,"(142, 261)",no pil E/W
2011-02-19 07:36:00,0,nan,nan,nan,nan,"(nan, nan)",nan,nan,nan,nan,nan,nan,nan,nan,"(142, 261)",no pil E/W
2011-02-19 07:48:00,0,nan,nan,nan,nan,"(nan, nan)",nan,nan,nan,nan,nan,nan,nan,nan,"(142, 261)",no pil E/W
2011-02-19 08:00:00,0,nan,nan,nan,nan,"(nan, nan)",nan,nan,nan,nan,nan,nan,nan,nan,"(142, 261)",no pil E/W
2011-02-19 08:12:00,0,nan,nan,nan,nan,"(nan, nan)",nan,nan,nan,nan,nan,nan,nan,nan,"(142, 261)",no pil E/W
2011-02-19 08:24:00,0,nan,nan,nan,nan,"(nan, nan)",nan,nan,nan,nan,nan,nan,nan,nan,"(142, 261)",no pil E/W
2011-02-19 08:36:00,0,nan,nan,nan,nan,"(nan, nan)",nan,nan,nan,nan,nan,nan,nan,nan,"(142, 261)",no pil E/W
2011-02-19 08:48:00,0,nan,nan,nan,nan,"(nan, nan)",nan,nan,nan,nan,nan,nan,nan,nan,"(142, 261)",no pil E/W
2011-02-19 09:00:00,0,nan,nan,nan,nan,"(nan, nan)",nan,nan,nan,nan,nan,nan,nan,nan,"(142, 261)",no pil E/W
2011-02-19 09:12:00,0,nan,nan,nan,nan,"(nan, nan)",nan,nan,nan,nan,nan,nan,nan,nan,"(142, 261)",no pil E/W
2011-02-19 09:24:00,0,nan,nan,nan,nan,"(nan, nan)",nan,nan,nan,nan,nan,nan,nan,nan,"(142, 261)",no pil E/W
2011-02-19 09:36:00,0,nan,nan,nan,nan,"(nan, nan)",nan,nan,nan,nan,nan,nan,nan,nan,"(142, 261)",no pil E/W
2011-02-19 09:48:00,0,nan,nan,nan,nan,"(nan, nan)",nan,nan,nan,nan,nan,nan,nan,nan,"(142, 261)",no pil E/W
2011-02-19 10:00:00,0,nan,nan,nan,nan,"(nan, nan)",nan,nan,nan,nan,nan,nan,nan,nan,"(142, 261)",no pil E/W
2011-02-19 10:12:00,0,nan,nan,nan,nan,"(nan, nan)",nan,nan,nan,nan,nan,nan,nan,nan,"(142, 261)",no pil E/W
2011-02-19 10:24:00,0,nan,nan,nan,nan,"(nan, nan)",nan,nan,nan,nan,nan,nan,nan,nan,"(142, 261)",no pil E/W
2011-02-19 10:36:00,0,nan,nan,nan,nan,"(nan, nan)",nan,nan,nan,nan,nan,nan,nan,nan,"(142, 261)",no pil E/W
2011-02-19 10:48:00,0,nan,nan,nan,nan,"(nan, nan)",nan,nan,nan,nan,nan,nan,nan,nan,"(142, 261)",no pil E/W
2011-02-19 11:00:00,0,nan,nan,nan,nan,"(nan, nan)",nan,nan,nan,nan,nan,nan,nan,nan,"(142, 261)",no pil E/W
2011-02-19 11:12:00,0,nan,nan,nan,nan,"(nan, nan)",nan,nan,nan,nan,nan,nan,nan,nan,"(142, 261)",no pil E/W
2011-02-19 11:24:00,0,nan,nan,nan,nan,"(nan, nan)",nan,nan,nan,nan,nan,nan,nan,nan,"(142, 261)",no pil E/W
2011-02-19 11:36:00,0,nan,nan,nan,nan,"(nan, nan)",nan,nan,nan,nan,nan,nan,nan,nan,"(142, 261)",no pil E/W
2011-02-19 11:48:00,0,nan,nan,nan,nan,"(nan, nan)",nan,nan,nan,nan,nan,nan,nan,nan,"(142, 261)",no pil E/W
2011-02-19 12:00:00,0,nan,nan,nan,nan,"(nan, nan)",nan,nan,nan,nan,nan,nan,nan,nan,"(142, 261)",no pil E/W
2011-02-19 12:24:00,0,nan,nan,nan,nan,"(nan, nan)",nan,nan,nan,nan,nan,nan,nan,nan,"(142, 261)",no pil E/W
2011-02-19 12:36:00,0,nan,nan,nan,nan,"(nan, nan)",nan,nan,nan,nan,nan,nan,nan,nan,"(142, 261)",no pil E/W
2011-02-19 12:48:00,0,nan,nan,nan,nan,"(nan, nan)",nan,nan,nan,nan,nan,nan,nan,nan,"(142, 261)",no pil E/W
2011-02-19 13:00:00,0,nan,nan,nan,nan,"(nan, nan)",nan,nan,nan,nan,nan,nan,nan,nan,"(142, 261)",no pil E/W
2011-02-19 13:24:00,0,nan,nan,nan,nan,"(nan, nan)",nan,nan,nan,nan,nan,nan,nan,nan,"(142, 261)",no pil E/W
2011-02-19 13:36:00,0,nan,nan,nan,nan,"(nan, nan)",nan,nan,nan,nan,nan,nan,nan,nan,"(142, 261)",no pil E/W
2011-02-19 13:48:00,0,nan,nan,nan,nan,"(nan, nan)",nan,nan,nan,nan,nan,nan,nan,nan,"(142, 261)",no pil E/W
2011-02-19 14:00:00,0,nan,nan,nan,nan,"(nan, nan)",nan,nan,nan,nan,nan,nan,nan,nan,"(142, 261)",no pil E/W
2011-02-19 14:12:00,0,nan,nan,nan,nan,"(nan, nan)",nan,nan,nan,nan,nan,nan,nan,nan,"(142, 261)",no pil E/W
2011-02-19 14:24:00,0,nan,nan,nan,nan,"(nan, nan)",nan,nan,nan,nan,nan,nan,nan,nan,"(142, 261)",no pil E/W
2011-02-19 14:36:00,0,nan,nan,nan,nan,"(nan, nan)",nan,nan,nan,nan,nan,nan,nan,nan,"(142, 261)",no pil E/W
2011-02-19 14:48:00,0,nan,nan,nan,nan,"(nan, nan)",nan,nan,nan,nan,nan,nan,nan,nan,"(142, 261)",no pil E/W
2011-02-19 15:00:00,0,nan,nan,nan,nan,"(nan, nan)",nan,nan,nan,nan,nan,nan,nan,nan,"(142, 261)",no pil E/W
2011-02-19 15:12:00,0,nan,nan,nan,nan,"(nan, nan)",nan,nan,nan,nan,nan,nan,nan,nan,"(142, 261)",no pil E/W
2011-02-19 15:24:00,0,nan,nan,nan,nan,"(nan, nan)",nan,nan,nan,nan,nan,nan,nan,nan,"(142, 261)",no pil E/W
2011-02-19 15:36:00,0,nan,nan,nan,nan,"(nan, nan)",nan,nan,nan,nan,nan,nan,nan,nan,"(142, 261)",no pil E/W
2011-02-19 15:48:00,0,nan,nan,nan,nan,"(nan, nan)",nan,nan,nan,nan,nan,nan,nan,nan,"(142, 261)",no pil E/W
2011-02-19 16:00:00,0,nan,nan,nan,nan,"(nan, nan)",nan,nan,nan,nan,nan,nan,nan,nan,"(142, 261)",no pil E/W
2011-02-19 16:12:00,0,nan,nan,nan,nan,"(nan, nan)",nan,nan,nan,nan,nan,nan,nan,nan,"(142, 261)",no pil E/W
