,"num_PILs,sum_PIL_length,sum_RoPI_Area,sum_mag_field_strength,fra_dim,eige_vals,convexity,Hu1,Hu2,Hu3,Hu4,Hu5,Hu6,Hu7,patch_shape,detection_flag",detection_flag
2011-03-09 06:24:00,,no pil SPE
2011-03-09 06:36:00,,no pil SPE
2011-03-09 07:24:00,,no pil SPE
2011-03-09 07:36:00,,no pil SPE
2011-03-09 07:48:00,,no pil SPE
2011-03-09 08:00:00,,no pil SPE
2011-03-09 08:12:00,,no pil SPE
2011-03-09 08:24:00,,no pil SPE
2011-03-09 08:36:00,,no pil SPE
2011-03-09 08:48:00,,no pil SPE
2011-03-09 09:00:00,,no pil SPE
2011-03-09 09:12:00,,no pil SPE
2011-03-09 09:24:00,,no pil SPE
2011-03-09 09:36:00,,no pil SPE
2011-03-09 09:48:00,,no pil SPE
2011-03-09 10:00:00,,no pil SPE
2011-03-09 10:12:00,,no pil SPE
2011-03-09 10:24:00,,no pil SPE
2011-03-09 10:36:00,,no pil SPE
2011-03-09 10:48:00,,no pil SPE
2011-03-09 11:00:00,,no pil SPE
2011-03-09 11:12:00,,no pil SPE
2011-03-09 11:24:00,,no pil SPE
2011-03-09 11:36:00,,no pil SPE
2011-03-09 11:48:00,,no pil SPE
2011-03-09 12:00:00,,no pil SPE
2011-03-09 12:12:00,,no pil SPE
2011-03-09 12:24:00,,no pil SPE
2011-03-09 12:36:00,,no pil SPE
2011-03-09 12:48:00,,no pil SPE
2011-03-09 13:00:00,,no pil SPE
2011-03-09 13:12:00,,no pil SPE
2011-03-09 13:24:00,,no pil SPE
2011-03-09 13:36:00,,no pil SPE
2011-03-09 13:48:00,,no pil SPE
2011-03-09 14:00:00,,no pil SPE
2011-03-09 14:12:00,,no pil SPE
2011-03-09 14:24:00,,no pil SPE
2011-03-09 14:36:00,,no pil SPE
2011-03-09 14:48:00,,no pil SPE
2011-03-09 15:00:00,,no pil SPE
2011-03-09 15:12:00,,no pil SPE
2011-03-09 15:24:00,,no pil SPE
2011-03-09 15:36:00,,no pil SPE
2011-03-09 15:48:00,,no pil SPE
2011-03-09 16:00:00,,no pil SPE
2011-03-09 16:12:00,,no pil SPE
2011-03-09 16:24:00,,no pil SPE
2011-03-09 16:36:00,,no pil SPE
2011-03-09 16:48:00,,no pil SPE
2011-03-09 17:00:00,,no pil SPE
2011-03-09 17:12:00,,no pil SPE
2011-03-09 17:24:00,,no pil SPE
2011-03-09 17:36:00,,no pil SPE
2011-03-09 17:48:00,,no pil SPE
2011-03-09 18:00:00,,no pil SPE
2011-03-09 18:12:00,,no pil SPE
2011-03-09 18:24:00,,no pil SPE
2011-03-09 18:36:00,,no pil SPE
2011-03-09 19:12:00,,no pil SPE
