,"num_PILs,sum_PIL_length,sum_RoPI_Area,sum_mag_field_strength,fra_dim,eige_vals,convexity,Hu1,Hu2,Hu3,Hu4,Hu5,Hu6,Hu7,patch_shape,detection_flag",detection_flag
2012-06-10 23:36:00,,no pil SPE
2012-06-10 23:48:00,,no pil SPE
2012-06-11 00:00:00,,no pil SPE
2012-06-11 00:12:00,,no pil SPE
2012-06-11 00:24:00,,no pil SPE
2012-06-11 00:36:00,,no pil SPE
2012-06-11 00:48:00,,no pil SPE
2012-06-11 01:00:00,,no pil SPE
2012-06-11 01:12:00,,no pil SPE
2012-06-11 01:24:00,,no pil SPE
2012-06-11 01:36:00,,no pil SPE
2012-06-11 01:48:00,,no pil SPE
2012-06-11 02:00:00,,no pil SPE
2012-06-11 02:12:00,,no pil SPE
2012-06-11 02:24:00,,no pil SPE
2012-06-11 02:36:00,,no pil SPE
2012-06-11 02:48:00,,no pil SPE
2012-06-11 03:00:00,,no pil SPE
2012-06-11 03:12:00,,no pil SPE
2012-06-11 03:24:00,,no pil SPE
2012-06-11 03:36:00,,no pil SPE
2012-06-11 03:48:00,,no pil SPE
2012-06-11 04:00:00,,no pil SPE
2012-06-11 04:12:00,,no pil SPE
2012-06-11 04:24:00,,no pil SPE
2012-06-11 04:36:00,,no pil SPE
2012-06-11 04:48:00,,no pil SPE
2012-06-11 05:00:00,,no pil SPE
2012-06-11 05:12:00,,no pil SPE
2012-06-11 05:24:00,,no pil SPE
2012-06-11 05:36:00,,no pil SPE
2012-06-11 05:48:00,,no pil SPE
2012-06-11 06:00:00,,no pil SPE
2012-06-11 06:12:00,,no pil SPE
2012-06-11 06:24:00,,no pil SPE
2012-06-11 06:36:00,,no pil SPE
2012-06-11 06:48:00,,no pil SPE
2012-06-11 07:12:00,,no pil SPE
2012-06-11 07:24:00,,no pil SPE
2012-06-11 09:36:00,,no pil SPE
2012-06-11 10:24:00,,no pil SPE
2012-06-11 10:36:00,,no pil SPE
2012-06-11 10:48:00,,no pil SPE
2012-06-11 11:00:00,,no pil SPE
2012-06-11 11:12:00,,no pil SPE
2012-06-11 11:24:00,,no pil SPE
2012-06-11 11:36:00,,no pil SPE
2012-06-11 11:48:00,,no pil SPE
2012-06-11 12:00:00,,no pil SPE
2012-06-11 12:12:00,,no pil SPE
2012-06-11 12:24:00,,no pil SPE
2012-06-11 12:36:00,,no pil SPE
2012-06-11 12:48:00,,no pil SPE
2012-06-11 13:00:00,,no pil SPE
2012-06-11 13:12:00,,no pil SPE
2012-06-11 13:24:00,,no pil SPE
2012-06-11 13:36:00,,no pil SPE
2012-06-11 13:48:00,,no pil SPE
2012-06-11 14:00:00,,no pil SPE
2012-06-11 14:12:00,,no pil SPE
2012-06-11 14:24:00,,no pil SPE
2012-06-11 14:36:00,,no pil SPE
2012-06-11 14:48:00,,no pil SPE
2012-06-11 15:00:00,,no pil SPE
2012-06-11 15:12:00,,no pil SPE
2012-06-11 15:24:00,,no pil SPE
2012-06-11 15:36:00,,no pil SPE
2012-06-11 15:48:00,,no pil SPE
2012-06-11 16:00:00,,no pil SPE
2012-06-11 16:12:00,,no pil SPE
2012-06-11 16:24:00,,no pil SPE
2012-06-11 16:36:00,,no pil SPE
2012-06-11 16:48:00,,no pil SPE
2012-06-11 17:00:00,,no pil SPE
2012-06-11 17:12:00,,no pil SPE
2012-06-11 17:24:00,,no pil SPE
2012-06-11 17:36:00,,no pil SPE
2012-06-11 17:48:00,,no pil SPE
2012-06-11 18:00:00,,no pil SPE
2012-06-11 18:12:00,,no pil SPE
2012-06-11 19:24:00,,no pil SPE
2012-06-11 20:24:00,,no pil SPE
