,num_PILs,sum_PIL_length,sum_RoPI_Area,sum_mag_field_strength,fra_dim,eige_vals,convexity,Hu1,Hu2,Hu3,Hu4,Hu5,Hu6,Hu7,patch_shape,detection_flag
2012-03-04 16:24:00,0,nan,nan,nan,nan,"(nan, nan)",nan,nan,nan,nan,nan,nan,nan,nan,"(117, 248)",no pil E/W
2012-03-04 16:36:00,0,nan,nan,nan,nan,"(nan, nan)",nan,nan,nan,nan,nan,nan,nan,nan,"(117, 248)",no pil E/W
2012-03-04 16:48:00,0,nan,nan,nan,nan,"(nan, nan)",nan,nan,nan,nan,nan,nan,nan,nan,"(117, 248)",no pil E/W
2012-03-04 17:00:00,0,nan,nan,nan,nan,"(nan, nan)",nan,nan,nan,nan,nan,nan,nan,nan,"(117, 248)",no pil E/W
2012-03-04 17:12:00,0,nan,nan,nan,nan,"(nan, nan)",nan,nan,nan,nan,nan,nan,nan,nan,"(117, 248)",no pil E/W
2012-03-04 17:24:00,0,nan,nan,nan,nan,"(nan, nan)",nan,nan,nan,nan,nan,nan,nan,nan,"(117, 248)",no pil E/W
2012-03-04 17:36:00,0,nan,nan,nan,nan,"(nan, nan)",nan,nan,nan,nan,nan,nan,nan,nan,"(117, 248)",no pil E/W
2012-03-04 17:48:00,0,nan,nan,nan,nan,"(nan, nan)",nan,nan,nan,nan,nan,nan,nan,nan,"(117, 248)",no pil E/W
2012-03-04 18:00:00,0,nan,nan,nan,nan,"(nan, nan)",nan,nan,nan,nan,nan,nan,nan,nan,"(117, 248)",no pil E/W
2012-03-04 18:12:00,1,15,49,5114.2,0.7169925001442314,"(0.6971259402629943, 18.712397869260815)",1.9451779686442456,0.6038518518518519,0.3141323676268861,0.012948366703449888,0.001733450343138842,-9.466734002845428e-07,-0.00022206786648022508,8.157740104190081e-06,"(117, 248)",detected
2012-03-04 18:24:00,0,nan,nan,nan,nan,"(nan, nan)",nan,nan,nan,nan,nan,nan,nan,nan,"(117, 248)",no pil E/W
2012-03-04 18:36:00,0,nan,nan,nan,nan,"(nan, nan)",nan,nan,nan,nan,nan,nan,nan,nan,"(117, 248)",no pil E/W
2012-03-04 18:48:00,0,nan,nan,nan,nan,"(nan, nan)",nan,nan,nan,nan,nan,nan,nan,nan,"(117, 248)",no pil E/W
2012-03-04 19:00:00,0,nan,nan,nan,nan,"(nan, nan)",nan,nan,nan,nan,nan,nan,nan,nan,"(117, 248)",no pil E/W
2012-03-04 19:12:00,0,nan,nan,nan,nan,"(nan, nan)",nan,nan,nan,nan,nan,nan,nan,nan,"(117, 248)",no pil E/W
2012-03-04 19:24:00,0,nan,nan,nan,nan,"(nan, nan)",nan,nan,nan,nan,nan,nan,nan,nan,"(117, 248)",no pil E/W
2012-03-04 19:36:00,0,nan,nan,nan,nan,"(nan, nan)",nan,nan,nan,nan,nan,nan,nan,nan,"(117, 248)",no pil E/W
2012-03-04 19:48:00,0,nan,nan,nan,nan,"(nan, nan)",nan,nan,nan,nan,nan,nan,nan,nan,"(117, 248)",no pil E/W
2012-03-04 20:00:00,0,nan,nan,nan,nan,"(nan, nan)",nan,nan,nan,nan,nan,nan,nan,nan,"(117, 248)",no pil E/W
2012-03-04 20:12:00,0,nan,nan,nan,nan,"(nan, nan)",nan,nan,nan,nan,nan,nan,nan,nan,"(117, 248)",no pil E/W
2012-03-04 20:24:00,0,nan,nan,nan,nan,"(nan, nan)",nan,nan,nan,nan,nan,nan,nan,nan,"(117, 248)",no pil E/W
2012-03-04 20:36:00,1,14,42,4423.5,0.6643856189774727,"(17.573368421026828, 0.5145436668852623)",1.6331400736199235,0.5998542274052479,0.3200462817363514,0.02095726864794309,0.0024867264731130963,-1.6444662152719733e-05,-0.0013643504778426039,7.200155339693674e-06,"(117, 248)",detected
2012-03-04 20:48:00,1,14,41,3697.6,0.6643856189774727,"(16.348711142546136, 0.8930470992121099)",1.7045686450484947,0.5717930029154518,0.2627180479647085,0.04715883034322099,0.005723098216474233,-9.399267735525369e-05,-0.002929987644888372,2.337796862587175e-06,"(117, 248)",detected
2012-03-04 21:00:00,0,nan,nan,nan,nan,"(nan, nan)",nan,nan,nan,nan,nan,nan,nan,nan,"(117, 248)",no pil E/W
2012-03-04 21:12:00,0,nan,nan,nan,nan,"(nan, nan)",nan,nan,nan,nan,nan,nan,nan,nan,"(117, 248)",no pil E/W
2012-03-04 21:24:00,0,nan,nan,nan,nan,"(nan, nan)",nan,nan,nan,nan,nan,nan,nan,nan,"(117, 248)",no pil E/W
2012-03-04 21:36:00,0,nan,nan,nan,nan,"(nan, nan)",nan,nan,nan,nan,nan,nan,nan,nan,"(117, 248)",no pil E/W
2012-03-04 21:48:00,0,nan,nan,nan,nan,"(nan, nan)",nan,nan,nan,nan,nan,nan,nan,nan,"(117, 248)",no pil E/W
2012-03-04 22:00:00,0,nan,nan,nan,nan,"(nan, nan)",nan,nan,nan,nan,nan,nan,nan,nan,"(117, 248)",no pil E/W
2012-03-04 22:12:00,0,nan,nan,nan,nan,"(nan, nan)",nan,nan,nan,nan,nan,nan,nan,nan,"(117, 248)",no pil E/W
2012-03-04 22:24:00,0,nan,nan,nan,nan,"(nan, nan)",nan,nan,nan,nan,nan,nan,nan,nan,"(117, 248)",no pil E/W
2012-03-04 22:36:00,0,nan,nan,nan,nan,"(nan, nan)",nan,nan,nan,nan,nan,nan,nan,nan,"(117, 248)",no pil E/W
2012-03-04 22:48:00,0,nan,nan,nan,nan,"(nan, nan)",nan,nan,nan,nan,nan,nan,nan,nan,"(117, 248)",no pil E/W
2012-03-04 23:00:00,0,nan,nan,nan,nan,"(nan, nan)",nan,nan,nan,nan,nan,nan,nan,nan,"(117, 248)",no pil E/W
2012-03-04 23:12:00,0,nan,nan,nan,nan,"(nan, nan)",nan,nan,nan,nan,nan,nan,nan,nan,"(117, 248)",no pil E/W
2012-03-04 23:24:00,0,nan,nan,nan,nan,"(nan, nan)",nan,nan,nan,nan,nan,nan,nan,nan,"(117, 248)",no pil E/W
2012-03-04 23:36:00,0,nan,nan,nan,nan,"(nan, nan)",nan,nan,nan,nan,nan,nan,nan,nan,"(117, 248)",no pil E/W
2012-03-04 23:48:00,0,nan,nan,nan,nan,"(nan, nan)",nan,nan,nan,nan,nan,nan,nan,nan,"(117, 248)",no pil E/W
2012-03-05 00:00:00,0,nan,nan,nan,nan,"(nan, nan)",nan,nan,nan,nan,nan,nan,nan,nan,"(117, 248)",no pil E/W
2012-03-05 00:12:00,0,nan,nan,nan,nan,"(nan, nan)",nan,nan,nan,nan,nan,nan,nan,nan,"(117, 248)",no pil E/W
2012-03-05 00:24:00,0,nan,nan,nan,nan,"(nan, nan)",nan,nan,nan,nan,nan,nan,nan,nan,"(117, 248)",no pil E/W
2012-03-05 00:36:00,0,nan,nan,nan,nan,"(nan, nan)",nan,nan,nan,nan,nan,nan,nan,nan,"(117, 248)",no pil E/W
2012-03-05 00:48:00,0,nan,nan,nan,nan,"(nan, nan)",nan,nan,nan,nan,nan,nan,nan,nan,"(117, 248)",no pil E/W
2012-03-05 01:00:00,0,nan,nan,nan,nan,"(nan, nan)",nan,nan,nan,nan,nan,nan,nan,nan,"(117, 248)",no pil E/W
2012-03-05 01:12:00,0,nan,nan,nan,nan,"(nan, nan)",nan,nan,nan,nan,nan,nan,nan,nan,"(117, 248)",no pil E/W
2012-03-05 01:24:00,0,nan,nan,nan,nan,"(nan, nan)",nan,nan,nan,nan,nan,nan,nan,nan,"(117, 248)",no pil E/W
2012-03-05 01:36:00,0,nan,nan,nan,nan,"(nan, nan)",nan,nan,nan,nan,nan,nan,nan,nan,"(117, 248)",no pil E/W
2012-03-05 01:48:00,0,nan,nan,nan,nan,"(nan, nan)",nan,nan,nan,nan,nan,nan,nan,nan,"(117, 248)",no pil E/W
2012-03-05 02:00:00,0,nan,nan,nan,nan,"(nan, nan)",nan,nan,nan,nan,nan,nan,nan,nan,"(117, 248)",no pil E/W
2012-03-05 02:12:00,0,nan,nan,nan,nan,"(nan, nan)",nan,nan,nan,nan,nan,nan,nan,nan,"(117, 248)",no pil E/W
2012-03-05 02:24:00,0,nan,nan,nan,nan,"(nan, nan)",nan,nan,nan,nan,nan,nan,nan,nan,"(117, 248)",no pil E/W
2012-03-05 02:36:00,0,nan,nan,nan,nan,"(nan, nan)",nan,nan,nan,nan,nan,nan,nan,nan,"(117, 248)",no pil E/W
2012-03-05 02:48:00,0,nan,nan,nan,nan,"(nan, nan)",nan,nan,nan,nan,nan,nan,nan,nan,"(117, 248)",no pil E/W
2012-03-05 03:00:00,0,nan,nan,nan,nan,"(nan, nan)",nan,nan,nan,nan,nan,nan,nan,nan,"(117, 248)",no pil E/W
2012-03-05 03:12:00,0,nan,nan,nan,nan,"(nan, nan)",nan,nan,nan,nan,nan,nan,nan,nan,"(117, 248)",no pil E/W
2012-03-05 03:24:00,0,nan,nan,nan,nan,"(nan, nan)",nan,nan,nan,nan,nan,nan,nan,nan,"(117, 248)",no pil E/W
2012-03-05 03:36:00,0,nan,nan,nan,nan,"(nan, nan)",nan,nan,nan,nan,nan,nan,nan,nan,"(117, 248)",no pil E/W
2012-03-05 03:48:00,0,nan,nan,nan,nan,"(nan, nan)",nan,nan,nan,nan,nan,nan,nan,nan,"(117, 248)",no pil E/W
2012-03-05 04:00:00,0,nan,nan,nan,nan,"(nan, nan)",nan,nan,nan,nan,nan,nan,nan,nan,"(117, 248)",no pil E/W
2012-03-05 04:12:00,0,nan,nan,nan,nan,"(nan, nan)",nan,nan,nan,nan,nan,nan,nan,nan,"(117, 248)",no pil E/W
2012-03-05 04:24:00,0,nan,nan,nan,nan,"(nan, nan)",nan,nan,nan,nan,nan,nan,nan,nan,"(117, 248)",no pil E/W
2012-03-05 04:36:00,0,nan,nan,nan,nan,"(nan, nan)",nan,nan,nan,nan,nan,nan,nan,nan,"(117, 248)",no pil E/W
2012-03-05 04:48:00,0,nan,nan,nan,nan,"(nan, nan)",nan,nan,nan,nan,nan,nan,nan,nan,"(117, 248)",no pil E/W
2012-03-05 05:00:00,0,nan,nan,nan,nan,"(nan, nan)",nan,nan,nan,nan,nan,nan,nan,nan,"(117, 248)",no pil E/W
2012-03-05 05:12:00,0,nan,nan,nan,nan,"(nan, nan)",nan,nan,nan,nan,nan,nan,nan,nan,"(117, 248)",no pil E/W
2012-03-05 05:24:00,0,nan,nan,nan,nan,"(nan, nan)",nan,nan,nan,nan,nan,nan,nan,nan,"(117, 248)",no pil E/W
2012-03-05 05:36:00,0,nan,nan,nan,nan,"(nan, nan)",nan,nan,nan,nan,nan,nan,nan,nan,"(117, 248)",no pil E/W
2012-03-05 05:48:00,0,nan,nan,nan,nan,"(nan, nan)",nan,nan,nan,nan,nan,nan,nan,nan,"(117, 248)",no pil E/W
2012-03-05 06:00:00,0,nan,nan,nan,nan,"(nan, nan)",nan,nan,nan,nan,nan,nan,nan,nan,"(117, 248)",no pil E/W
2012-03-05 06:12:00,0,nan,nan,nan,nan,"(nan, nan)",nan,nan,nan,nan,nan,nan,nan,nan,"(117, 248)",no pil E/W
2012-03-05 06:24:00,0,nan,nan,nan,nan,"(nan, nan)",nan,nan,nan,nan,nan,nan,nan,nan,"(117, 248)",no pil E/W
2012-03-05 06:36:00,0,nan,nan,nan,nan,"(nan, nan)",nan,nan,nan,nan,nan,nan,nan,nan,"(117, 248)",no pil E/W
2012-03-05 06:48:00,0,nan,nan,nan,nan,"(nan, nan)",nan,nan,nan,nan,nan,nan,nan,nan,"(117, 248)",no pil E/W
2012-03-05 07:00:00,0,nan,nan,nan,nan,"(nan, nan)",nan,nan,nan,nan,nan,nan,nan,nan,"(117, 248)",no pil E/W
2012-03-05 07:12:00,0,nan,nan,nan,nan,"(nan, nan)",nan,nan,nan,nan,nan,nan,nan,nan,"(117, 248)",no pil E/W
2012-03-05 07:24:00,0,nan,nan,nan,nan,"(nan, nan)",nan,nan,nan,nan,nan,nan,nan,nan,"(117, 248)",no pil E/W
2012-03-05 07:36:00,0,nan,nan,nan,nan,"(nan, nan)",nan,nan,nan,nan,nan,nan,nan,nan,"(117, 248)",no pil E/W
2012-03-05 07:48:00,0,nan,nan,nan,nan,"(nan, nan)",nan,nan,nan,nan,nan,nan,nan,nan,"(117, 248)",no pil E/W
2012-03-05 08:00:00,0,nan,nan,nan,nan,"(nan, nan)",nan,nan,nan,nan,nan,nan,nan,nan,"(117, 248)",no pil E/W
2012-03-05 08:12:00,0,nan,nan,nan,nan,"(nan, nan)",nan,nan,nan,nan,nan,nan,nan,nan,"(117, 248)",no pil E/W
2012-03-05 08:24:00,0,nan,nan,nan,nan,"(nan, nan)",nan,nan,nan,nan,nan,nan,nan,nan,"(117, 248)",no pil E/W
2012-03-05 08:36:00,0,nan,nan,nan,nan,"(nan, nan)",nan,nan,nan,nan,nan,nan,nan,nan,"(117, 248)",no pil E/W
2012-03-05 08:48:00,0,nan,nan,nan,nan,"(nan, nan)",nan,nan,nan,nan,nan,nan,nan,nan,"(117, 248)",no pil E/W
2012-03-05 09:00:00,0,nan,nan,nan,nan,"(nan, nan)",nan,nan,nan,nan,nan,nan,nan,nan,"(117, 248)",no pil E/W
2012-03-05 09:12:00,0,nan,nan,nan,nan,"(nan, nan)",nan,nan,nan,nan,nan,nan,nan,nan,"(117, 248)",no pil E/W
2012-03-05 09:24:00,0,nan,nan,nan,nan,"(nan, nan)",nan,nan,nan,nan,nan,nan,nan,nan,"(117, 248)",no pil E/W
2012-03-05 09:36:00,0,nan,nan,nan,nan,"(nan, nan)",nan,nan,nan,nan,nan,nan,nan,nan,"(117, 248)",no pil E/W
2012-03-05 09:48:00,0,nan,nan,nan,nan,"(nan, nan)",nan,nan,nan,nan,nan,nan,nan,nan,"(117, 248)",no pil E/W
2012-03-05 10:00:00,0,nan,nan,nan,nan,"(nan, nan)",nan,nan,nan,nan,nan,nan,nan,nan,"(117, 248)",no pil E/W
2012-03-05 10:12:00,0,nan,nan,nan,nan,"(nan, nan)",nan,nan,nan,nan,nan,nan,nan,nan,"(117, 248)",no pil E/W
2012-03-05 10:24:00,0,nan,nan,nan,nan,"(nan, nan)",nan,nan,nan,nan,nan,nan,nan,nan,"(117, 248)",no pil E/W
2012-03-05 10:36:00,0,nan,nan,nan,nan,"(nan, nan)",nan,nan,nan,nan,nan,nan,nan,nan,"(117, 248)",no pil E/W
2012-03-05 10:48:00,0,nan,nan,nan,nan,"(nan, nan)",nan,nan,nan,nan,nan,nan,nan,nan,"(117, 248)",no pil E/W
2012-03-05 11:00:00,0,nan,nan,nan,nan,"(nan, nan)",nan,nan,nan,nan,nan,nan,nan,nan,"(117, 248)",no pil E/W
2012-03-05 11:12:00,0,nan,nan,nan,nan,"(nan, nan)",nan,nan,nan,nan,nan,nan,nan,nan,"(117, 248)",no pil E/W
2012-03-05 11:24:00,0,nan,nan,nan,nan,"(nan, nan)",nan,nan,nan,nan,nan,nan,nan,nan,"(117, 248)",no pil E/W
2012-03-05 11:36:00,0,nan,nan,nan,nan,"(nan, nan)",nan,nan,nan,nan,nan,nan,nan,nan,"(117, 248)",no pil E/W
2012-03-05 11:48:00,0,nan,nan,nan,nan,"(nan, nan)",nan,nan,nan,nan,nan,nan,nan,nan,"(117, 248)",no pil E/W
2012-03-05 12:00:00,0,nan,nan,nan,nan,"(nan, nan)",nan,nan,nan,nan,nan,nan,nan,nan,"(117, 248)",no pil E/W
2012-03-05 12:12:00,0,nan,nan,nan,nan,"(nan, nan)",nan,nan,nan,nan,nan,nan,nan,nan,"(117, 248)",no pil E/W
2012-03-05 12:24:00,0,nan,nan,nan,nan,"(nan, nan)",nan,nan,nan,nan,nan,nan,nan,nan,"(117, 248)",no pil E/W
2012-03-05 12:36:00,0,nan,nan,nan,nan,"(nan, nan)",nan,nan,nan,nan,nan,nan,nan,nan,"(117, 248)",no pil E/W
2012-03-05 12:48:00,0,nan,nan,nan,nan,"(nan, nan)",nan,nan,nan,nan,nan,nan,nan,nan,"(117, 248)",no pil E/W
2012-03-05 13:00:00,0,nan,nan,nan,nan,"(nan, nan)",nan,nan,nan,nan,nan,nan,nan,nan,"(117, 248)",no pil E/W
2012-03-05 13:12:00,0,nan,nan,nan,nan,"(nan, nan)",nan,nan,nan,nan,nan,nan,nan,nan,"(117, 248)",no pil E/W
2012-03-05 13:24:00,0,nan,nan,nan,nan,"(nan, nan)",nan,nan,nan,nan,nan,nan,nan,nan,"(117, 248)",no pil E/W
2012-03-05 13:36:00,0,nan,nan,nan,nan,"(nan, nan)",nan,nan,nan,nan,nan,nan,nan,nan,"(117, 248)",no pil E/W
2012-03-05 13:48:00,0,nan,nan,nan,nan,"(nan, nan)",nan,nan,nan,nan,nan,nan,nan,nan,"(117, 248)",no pil E/W
2012-03-05 14:00:00,0,nan,nan,nan,nan,"(nan, nan)",nan,nan,nan,nan,nan,nan,nan,nan,"(117, 248)",no pil E/W
2012-03-05 14:12:00,0,nan,nan,nan,nan,"(nan, nan)",nan,nan,nan,nan,nan,nan,nan,nan,"(117, 248)",no pil E/W
2012-03-05 14:24:00,0,nan,nan,nan,nan,"(nan, nan)",nan,nan,nan,nan,nan,nan,nan,nan,"(117, 248)",no pil E/W
2012-03-05 14:36:00,0,nan,nan,nan,nan,"(nan, nan)",nan,nan,nan,nan,nan,nan,nan,nan,"(117, 248)",no pil E/W
2012-03-05 14:48:00,0,nan,nan,nan,nan,"(nan, nan)",nan,nan,nan,nan,nan,nan,nan,nan,"(117, 248)",no pil E/W
2012-03-05 15:00:00,1,14,57,4551.4,0.2584962500721157,"(13.374355018935319, 1.0267438821635828)",1.8081220356417684,0.9551749271137027,0.6707187534530681,0.197418855425984,0.040249293111517925,0.0018948439288426766,0.015525426424999338,0.0030466508403153006,"(117, 248)",detected
2012-03-05 15:12:00,0,nan,nan,nan,nan,"(nan, nan)",nan,nan,nan,nan,nan,nan,nan,nan,"(117, 248)",no pil E/W
2012-03-05 15:24:00,0,nan,nan,nan,nan,"(nan, nan)",nan,nan,nan,nan,nan,nan,nan,nan,"(117, 248)",no pil E/W
2012-03-05 15:36:00,0,nan,nan,nan,nan,"(nan, nan)",nan,nan,nan,nan,nan,nan,nan,nan,"(117, 248)",no pil E/W
2012-03-05 15:48:00,0,nan,nan,nan,nan,"(nan, nan)",nan,nan,nan,nan,nan,nan,nan,nan,"(117, 248)",no pil E/W
2012-03-05 16:00:00,0,nan,nan,nan,nan,"(nan, nan)",nan,nan,nan,nan,nan,nan,nan,nan,"(117, 248)",no pil E/W
2012-03-05 16:12:00,0,nan,nan,nan,nan,"(nan, nan)",nan,nan,nan,nan,nan,nan,nan,nan,"(117, 248)",no pil E/W
2012-03-05 16:24:00,0,nan,nan,nan,nan,"(nan, nan)",nan,nan,nan,nan,nan,nan,nan,nan,"(117, 248)",no pil E/W
2012-03-05 16:36:00,0,nan,nan,nan,nan,"(nan, nan)",nan,nan,nan,nan,nan,nan,nan,nan,"(117, 248)",no pil E/W
2012-03-05 16:48:00,0,nan,nan,nan,nan,"(nan, nan)",nan,nan,nan,nan,nan,nan,nan,nan,"(117, 248)",no pil E/W
2012-03-05 17:00:00,0,nan,nan,nan,nan,"(nan, nan)",nan,nan,nan,nan,nan,nan,nan,nan,"(117, 248)",no pil E/W
2012-03-05 17:12:00,0,nan,nan,nan,nan,"(nan, nan)",nan,nan,nan,nan,nan,nan,nan,nan,"(117, 248)",no pil E/W
2012-03-05 17:24:00,0,nan,nan,nan,nan,"(nan, nan)",nan,nan,nan,nan,nan,nan,nan,nan,"(117, 248)",no pil E/W
2012-03-05 17:36:00,0,nan,nan,nan,nan,"(nan, nan)",nan,nan,nan,nan,nan,nan,nan,nan,"(117, 248)",no pil E/W
2012-03-05 17:48:00,0,nan,nan,nan,nan,"(nan, nan)",nan,nan,nan,nan,nan,nan,nan,nan,"(117, 248)",no pil E/W
2012-03-05 18:00:00,0,nan,nan,nan,nan,"(nan, nan)",nan,nan,nan,nan,nan,nan,nan,nan,"(117, 248)",no pil E/W
2012-03-05 18:12:00,0,nan,nan,nan,nan,"(nan, nan)",nan,nan,nan,nan,nan,nan,nan,nan,"(117, 248)",no pil E/W
2012-03-05 18:24:00,0,nan,nan,nan,nan,"(nan, nan)",nan,nan,nan,nan,nan,nan,nan,nan,"(117, 248)",no pil E/W
2012-03-05 18:36:00,0,nan,nan,nan,nan,"(nan, nan)",nan,nan,nan,nan,nan,nan,nan,nan,"(117, 248)",no pil E/W
2012-03-05 18:48:00,0,nan,nan,nan,nan,"(nan, nan)",nan,nan,nan,nan,nan,nan,nan,nan,"(117, 248)",no pil E/W
2012-03-05 19:00:00,0,nan,nan,nan,nan,"(nan, nan)",nan,nan,nan,nan,nan,nan,nan,nan,"(117, 248)",no pil E/W
2012-03-05 19:12:00,0,nan,nan,nan,nan,"(nan, nan)",nan,nan,nan,nan,nan,nan,nan,nan,"(117, 248)",no pil E/W
2012-03-05 19:24:00,0,nan,nan,nan,nan,"(nan, nan)",nan,nan,nan,nan,nan,nan,nan,nan,"(117, 248)",no pil E/W
2012-03-05 19:36:00,0,nan,nan,nan,nan,"(nan, nan)",nan,nan,nan,nan,nan,nan,nan,nan,"(117, 248)",no pil E/W
2012-03-05 19:48:00,0,nan,nan,nan,nan,"(nan, nan)",nan,nan,nan,nan,nan,nan,nan,nan,"(117, 248)",no pil E/W
2012-03-05 20:00:00,0,nan,nan,nan,nan,"(nan, nan)",nan,nan,nan,nan,nan,nan,nan,nan,"(117, 248)",no pil E/W
2012-03-05 20:12:00,0,nan,nan,nan,nan,"(nan, nan)",nan,nan,nan,nan,nan,nan,nan,nan,"(117, 248)",no pil E/W
2012-03-05 20:24:00,0,nan,nan,nan,nan,"(nan, nan)",nan,nan,nan,nan,nan,nan,nan,nan,"(117, 248)",no pil E/W
2012-03-05 20:36:00,0,nan,nan,nan,nan,"(nan, nan)",nan,nan,nan,nan,nan,nan,nan,nan,"(117, 248)",no pil E/W
2012-03-05 20:48:00,0,nan,nan,nan,nan,"(nan, nan)",nan,nan,nan,nan,nan,nan,nan,nan,"(117, 248)",no pil E/W
2012-03-05 21:00:00,0,nan,nan,nan,nan,"(nan, nan)",nan,nan,nan,nan,nan,nan,nan,nan,"(117, 248)",no pil E/W
2012-03-05 21:12:00,0,nan,nan,nan,nan,"(nan, nan)",nan,nan,nan,nan,nan,nan,nan,nan,"(117, 248)",no pil E/W
2012-03-05 21:24:00,0,nan,nan,nan,nan,"(nan, nan)",nan,nan,nan,nan,nan,nan,nan,nan,"(117, 248)",no pil E/W
2012-03-05 21:36:00,0,nan,nan,nan,nan,"(nan, nan)",nan,nan,nan,nan,nan,nan,nan,nan,"(117, 248)",no pil E/W
2012-03-05 21:48:00,0,nan,nan,nan,nan,"(nan, nan)",nan,nan,nan,nan,nan,nan,nan,nan,"(117, 248)",no pil E/W
2012-03-05 22:00:00,0,nan,nan,nan,nan,"(nan, nan)",nan,nan,nan,nan,nan,nan,nan,nan,"(117, 248)",no pil E/W
2012-03-05 22:12:00,0,nan,nan,nan,nan,"(nan, nan)",nan,nan,nan,nan,nan,nan,nan,nan,"(117, 248)",no pil E/W
2012-03-05 22:24:00,0,nan,nan,nan,nan,"(nan, nan)",nan,nan,nan,nan,nan,nan,nan,nan,"(117, 248)",no pil E/W
2012-03-05 22:36:00,0,nan,nan,nan,nan,"(nan, nan)",nan,nan,nan,nan,nan,nan,nan,nan,"(117, 248)",no pil E/W
2012-03-05 22:48:00,0,nan,nan,nan,nan,"(nan, nan)",nan,nan,nan,nan,nan,nan,nan,nan,"(117, 248)",no pil E/W
2012-03-05 23:00:00,0,nan,nan,nan,nan,"(nan, nan)",nan,nan,nan,nan,nan,nan,nan,nan,"(117, 248)",no pil E/W
2012-03-05 23:12:00,0,nan,nan,nan,nan,"(nan, nan)",nan,nan,nan,nan,nan,nan,nan,nan,"(117, 248)",no pil E/W
2012-03-05 23:24:00,0,nan,nan,nan,nan,"(nan, nan)",nan,nan,nan,nan,nan,nan,nan,nan,"(117, 248)",no pil E/W
2012-03-05 23:36:00,0,nan,nan,nan,nan,"(nan, nan)",nan,nan,nan,nan,nan,nan,nan,nan,"(117, 248)",no pil E/W
2012-03-05 23:48:00,0,nan,nan,nan,nan,"(nan, nan)",nan,nan,nan,nan,nan,nan,nan,nan,"(117, 248)",no pil E/W
2012-03-06 00:00:00,0,nan,nan,nan,nan,"(nan, nan)",nan,nan,nan,nan,nan,nan,nan,nan,"(117, 248)",no pil E/W
2012-03-06 00:12:00,0,nan,nan,nan,nan,"(nan, nan)",nan,nan,nan,nan,nan,nan,nan,nan,"(117, 248)",no pil E/W
2012-03-06 00:24:00,0,nan,nan,nan,nan,"(nan, nan)",nan,nan,nan,nan,nan,nan,nan,nan,"(117, 248)",no pil E/W
2012-03-06 00:36:00,0,nan,nan,nan,nan,"(nan, nan)",nan,nan,nan,nan,nan,nan,nan,nan,"(117, 248)",no pil E/W
2012-03-06 00:48:00,0,nan,nan,nan,nan,"(nan, nan)",nan,nan,nan,nan,nan,nan,nan,nan,"(117, 248)",no pil E/W
2012-03-06 01:00:00,0,nan,nan,nan,nan,"(nan, nan)",nan,nan,nan,nan,nan,nan,nan,nan,"(117, 248)",no pil E/W
2012-03-06 01:12:00,0,nan,nan,nan,nan,"(nan, nan)",nan,nan,nan,nan,nan,nan,nan,nan,"(117, 248)",no pil E/W
2012-03-06 01:24:00,0,nan,nan,nan,nan,"(nan, nan)",nan,nan,nan,nan,nan,nan,nan,nan,"(117, 248)",no pil E/W
2012-03-06 01:36:00,0,nan,nan,nan,nan,"(nan, nan)",nan,nan,nan,nan,nan,nan,nan,nan,"(117, 248)",no pil E/W
2012-03-06 01:48:00,0,nan,nan,nan,nan,"(nan, nan)",nan,nan,nan,nan,nan,nan,nan,nan,"(117, 248)",no pil E/W
2012-03-06 02:00:00,0,nan,nan,nan,nan,"(nan, nan)",nan,nan,nan,nan,nan,nan,nan,nan,"(117, 248)",no pil E/W
2012-03-06 02:12:00,0,nan,nan,nan,nan,"(nan, nan)",nan,nan,nan,nan,nan,nan,nan,nan,"(117, 248)",no pil E/W
2012-03-06 02:24:00,0,nan,nan,nan,nan,"(nan, nan)",nan,nan,nan,nan,nan,nan,nan,nan,"(117, 248)",no pil E/W
2012-03-06 02:36:00,0,nan,nan,nan,nan,"(nan, nan)",nan,nan,nan,nan,nan,nan,nan,nan,"(117, 248)",no pil E/W
2012-03-06 02:48:00,0,nan,nan,nan,nan,"(nan, nan)",nan,nan,nan,nan,nan,nan,nan,nan,"(117, 248)",no pil E/W
2012-03-06 03:00:00,0,nan,nan,nan,nan,"(nan, nan)",nan,nan,nan,nan,nan,nan,nan,nan,"(117, 248)",no pil E/W
2012-03-06 03:12:00,0,nan,nan,nan,nan,"(nan, nan)",nan,nan,nan,nan,nan,nan,nan,nan,"(117, 248)",no pil E/W
2012-03-06 03:24:00,0,nan,nan,nan,nan,"(nan, nan)",nan,nan,nan,nan,nan,nan,nan,nan,"(117, 248)",no pil E/W
2012-03-06 03:36:00,1,15,34,1751.9,0.6643856189774727,"(4.203913946812791, 11.986562243663396)",1.8370899457402698,1.0074074074074073,0.23450161865569258,0.7000437770665,0.07097034557740048,-0.015817700915337143,-0.03426484029898119,0.0001997319135583651,"(117, 248)",detected
2012-03-06 03:48:00,1,15,36,2085.8,0.6643856189774727,"(3.5304029115835522, 10.660073278892636)",1.7428090415820634,0.882962962962963,0.19680219478737998,0.4231303797185359,0.03909260986638128,-0.004841343900721709,-0.017342392734019003,-0.0013565732921446752,"(117, 248)",detected
2012-03-06 04:00:00,1,14,37,2539.7,0.6228818690495883,"(3.0487052928625946, 11.434811190653889)",1.9091372900969896,0.9606413994169095,0.3093821451946043,0.5830170228029472,0.10943606137860436,-0.00021634534497556738,-0.010541652614195367,0.02764190675970523,"(117, 248)",detected
2012-03-06 04:12:00,0,nan,nan,nan,nan,"(nan, nan)",nan,nan,nan,nan,nan,nan,nan,nan,"(117, 248)",no pil E/W
2012-03-06 04:24:00,0,nan,nan,nan,nan,"(nan, nan)",nan,nan,nan,nan,nan,nan,nan,nan,"(117, 248)",no pil E/W
2012-03-06 04:36:00,0,nan,nan,nan,nan,"(nan, nan)",nan,nan,nan,nan,nan,nan,nan,nan,"(117, 248)",no pil E/W
2012-03-06 04:48:00,1,21,57,4212.4,0.7169925001442318,"(8.80250219133652, 11.654640665806337)",1.5190235684100795,0.9277615808228054,0.016731081961839013,0.2712568567313594,0.04267828847761777,-0.004560475171360743,-0.005408915135567013,0.0005370574279175665,"(117, 248)",detected
2012-03-06 05:00:00,1,19,59,5017.8,0.7199672344836366,"(7.076925880141195, 13.934770026291554)",1.648089920999198,1.0476745881323808,0.11692458262180278,0.5535386356697497,0.10752093739799833,-0.0048497243863453035,-0.0048377257712710646,0.02577869988776926,"(117, 248)",detected
2012-03-06 05:12:00,1,21,66,5743.6,0.7614709844115213,"(7.779288103434657, 15.111188087041532)",1.6142616636481746,1.0381168340352014,0.11056454331192153,0.45840572619605535,0.09521776103220703,-0.008736712960791643,-0.009663992810090987,0.01787188745485071,"(117, 248)",detected
2012-03-06 05:24:00,1,19,61,5239.7,0.8000000000000003,"(5.345379510994009, 15.86514680479546)",1.7225222137556768,1.0575885697623562,0.2751331195179448,0.47927814910353433,0.11453324834004563,0.00273802240583588,0.00514869146126699,0.02669430484882072,"(117, 248)",detected
2012-03-06 05:36:00,1,21,64,6067.9,0.8000000000000003,"(4.819918212945154, 20.889605596578654)",1.7900896710493706,1.1659647986178598,0.5311261307946991,0.7802009161221009,0.28380278236916895,0.10872948180148452,0.18849949926411774,0.07753846488238678,"(117, 248)",detected
2012-03-06 05:48:00,1,18,62,5904.6,0.7614709844115213,"(4.115421361362614, 17.936866220336732)",1.7856742013183862,1.1570644718792866,0.5259139772806389,0.7975590189423295,0.2725230702111841,0.09630340320516445,0.14353198811472032,0.08287474560246091,"(117, 248)",detected
2012-03-06 06:00:00,1,17,52,4340.6,0.7614709844115213,"(3.4450889759597665, 18.849028671099056)",1.8562558344767084,1.234276409525748,0.7272904740324094,1.1973896546801877,0.35531243028089604,0.16389047822078937,0.1872321701018858,0.16386378460316872,"(117, 248)",detected
2012-03-06 06:12:00,1,14,45,3969.4,0.6754887502163472,"(1.501414890275191, 20.020563131702833)",1.9978973391769388,1.4274781341107872,1.5087475509779087,0.6645074007882392,0.0947545159965507,-0.0038759788497031676,-0.014648734876902061,0.0234585504433101,"(117, 248)",detected
2012-03-06 06:24:00,0,nan,nan,nan,nan,"(nan, nan)",nan,nan,nan,nan,nan,nan,nan,nan,"(117, 248)",no pil E/W
2012-03-06 06:36:00,1,15,55,5724.2,0.7614709844115213,"(1.6578953240187726, 20.9135332474098)",1.998037516565143,1.4044444444444442,1.435512098765432,0.6895094518518471,0.09627043292180923,-0.001591964095832947,-0.0036515173252867975,0.024752160202797524,"(117, 248)",detected
2012-03-06 06:48:00,1,18,59,5630.9,0.7936637939002574,"(1.5189729704777015, 31.54638650664648)",2.080880229039762,1.7349108367626889,2.482239444265685,1.0573222491918706,0.3502024490565774,0.18326098770205881,0.3947651274618699,0.10875114774729118,"(117, 248)",detected
2012-03-06 07:00:00,1,15,53,5607.7,0.7936637939002574,"(23.800848510451125, 0.38962768002506465)",1.3794925436950078,0.7525925925925926,0.5304924005486966,0.005866033267286522,0.0024287270029975864,8.740518587032667e-06,0.0013618208542344912,2.764468560041186e-06,"(117, 248)",detected
2012-03-06 07:36:00,0,nan,nan,nan,nan,"(nan, nan)",nan,nan,nan,nan,nan,nan,nan,nan,"(117, 248)",no pil E/W
2012-03-06 07:48:00,0,nan,nan,nan,nan,"(nan, nan)",nan,nan,nan,nan,nan,nan,nan,nan,"(117, 248)",no pil E/W
2012-03-06 08:00:00,0,nan,nan,nan,nan,"(nan, nan)",nan,nan,nan,nan,nan,nan,nan,nan,"(117, 248)",no pil E/W
2012-03-06 08:12:00,0,nan,nan,nan,nan,"(nan, nan)",nan,nan,nan,nan,nan,nan,nan,nan,"(117, 248)",no pil E/W
2012-03-06 08:24:00,0,nan,nan,nan,nan,"(nan, nan)",nan,nan,nan,nan,nan,nan,nan,nan,"(117, 248)",no pil E/W
2012-03-06 08:36:00,0,nan,nan,nan,nan,"(nan, nan)",nan,nan,nan,nan,nan,nan,nan,nan,"(117, 248)",no pil E/W
2012-03-06 08:48:00,0,nan,nan,nan,nan,"(nan, nan)",nan,nan,nan,nan,nan,nan,nan,nan,"(117, 248)",no pil E/W
2012-03-06 09:00:00,0,nan,nan,nan,nan,"(nan, nan)",nan,nan,nan,nan,nan,nan,nan,nan,"(117, 248)",no pil E/W
2012-03-06 09:12:00,0,nan,nan,nan,nan,"(nan, nan)",nan,nan,nan,nan,nan,nan,nan,nan,"(117, 248)",no pil E/W
2012-03-06 09:24:00,0,nan,nan,nan,nan,"(nan, nan)",nan,nan,nan,nan,nan,nan,nan,nan,"(117, 248)",no pil E/W
2012-03-06 09:36:00,0,nan,nan,nan,nan,"(nan, nan)",nan,nan,nan,nan,nan,nan,nan,nan,"(117, 248)",no pil E/W
2012-03-06 09:48:00,0,nan,nan,nan,nan,"(nan, nan)",nan,nan,nan,nan,nan,nan,nan,nan,"(117, 248)",no pil E/W
2012-03-06 10:00:00,0,nan,nan,nan,nan,"(nan, nan)",nan,nan,nan,nan,nan,nan,nan,nan,"(117, 248)",no pil E/W
2012-03-06 10:12:00,0,nan,nan,nan,nan,"(nan, nan)",nan,nan,nan,nan,nan,nan,nan,nan,"(117, 248)",no pil E/W
2012-03-06 10:24:00,0,nan,nan,nan,nan,"(nan, nan)",nan,nan,nan,nan,nan,nan,nan,nan,"(117, 248)",no pil E/W
2012-03-06 10:36:00,0,nan,nan,nan,nan,"(nan, nan)",nan,nan,nan,nan,nan,nan,nan,nan,"(117, 248)",no pil E/W
2012-03-06 10:48:00,0,nan,nan,nan,nan,"(nan, nan)",nan,nan,nan,nan,nan,nan,nan,nan,"(117, 248)",no pil E/W
2012-03-06 11:00:00,0,nan,nan,nan,nan,"(nan, nan)",nan,nan,nan,nan,nan,nan,nan,nan,"(117, 248)",no pil E/W
2012-03-06 11:12:00,0,nan,nan,nan,nan,"(nan, nan)",nan,nan,nan,nan,nan,nan,nan,nan,"(117, 248)",no pil E/W
2012-03-06 11:24:00,0,nan,nan,nan,nan,"(nan, nan)",nan,nan,nan,nan,nan,nan,nan,nan,"(117, 248)",no pil E/W
2012-03-06 11:36:00,0,nan,nan,nan,nan,"(nan, nan)",nan,nan,nan,nan,nan,nan,nan,nan,"(117, 248)",no pil E/W
2012-03-06 11:48:00,0,nan,nan,nan,nan,"(nan, nan)",nan,nan,nan,nan,nan,nan,nan,nan,"(117, 248)",no pil E/W
2012-03-06 12:00:00,0,nan,nan,nan,nan,"(nan, nan)",nan,nan,nan,nan,nan,nan,nan,nan,"(117, 248)",no pil E/W
2012-03-06 12:12:00,0,nan,nan,nan,nan,"(nan, nan)",nan,nan,nan,nan,nan,nan,nan,nan,"(117, 248)",no pil E/W
2012-03-06 12:24:00,0,nan,nan,nan,nan,"(nan, nan)",nan,nan,nan,nan,nan,nan,nan,nan,"(117, 248)",no pil E/W
2012-03-06 12:36:00,0,nan,nan,nan,nan,"(nan, nan)",nan,nan,nan,nan,nan,nan,nan,nan,"(117, 248)",no pil E/W
2012-03-06 12:48:00,0,nan,nan,nan,nan,"(nan, nan)",nan,nan,nan,nan,nan,nan,nan,nan,"(117, 248)",no pil E/W
2012-03-06 13:00:00,0,nan,nan,nan,nan,"(nan, nan)",nan,nan,nan,nan,nan,nan,nan,nan,"(117, 248)",no pil E/W
2012-03-06 13:12:00,0,nan,nan,nan,nan,"(nan, nan)",nan,nan,nan,nan,nan,nan,nan,nan,"(117, 248)",no pil E/W
2012-03-06 13:24:00,0,nan,nan,nan,nan,"(nan, nan)",nan,nan,nan,nan,nan,nan,nan,nan,"(117, 248)",no pil E/W
2012-03-06 13:36:00,0,nan,nan,nan,nan,"(nan, nan)",nan,nan,nan,nan,nan,nan,nan,nan,"(117, 248)",no pil E/W
2012-03-06 13:48:00,0,nan,nan,nan,nan,"(nan, nan)",nan,nan,nan,nan,nan,nan,nan,nan,"(117, 248)",no pil E/W
2012-03-06 14:00:00,0,nan,nan,nan,nan,"(nan, nan)",nan,nan,nan,nan,nan,nan,nan,nan,"(117, 248)",no pil E/W
2012-03-06 14:12:00,0,nan,nan,nan,nan,"(nan, nan)",nan,nan,nan,nan,nan,nan,nan,nan,"(117, 248)",no pil E/W
2012-03-06 14:24:00,0,nan,nan,nan,nan,"(nan, nan)",nan,nan,nan,nan,nan,nan,nan,nan,"(117, 248)",no pil E/W
2012-03-06 14:36:00,0,nan,nan,nan,nan,"(nan, nan)",nan,nan,nan,nan,nan,nan,nan,nan,"(117, 248)",no pil E/W
2012-03-06 14:48:00,0,nan,nan,nan,nan,"(nan, nan)",nan,nan,nan,nan,nan,nan,nan,nan,"(117, 248)",no pil E/W
2012-03-06 15:00:00,0,nan,nan,nan,nan,"(nan, nan)",nan,nan,nan,nan,nan,nan,nan,nan,"(117, 248)",no pil E/W
2012-03-06 15:12:00,0,nan,nan,nan,nan,"(nan, nan)",nan,nan,nan,nan,nan,nan,nan,nan,"(117, 248)",no pil E/W
2012-03-06 15:24:00,0,nan,nan,nan,nan,"(nan, nan)",nan,nan,nan,nan,nan,nan,nan,nan,"(117, 248)",no pil E/W
2012-03-06 15:36:00,0,nan,nan,nan,nan,"(nan, nan)",nan,nan,nan,nan,nan,nan,nan,nan,"(117, 248)",no pil E/W
2012-03-06 15:48:00,0,nan,nan,nan,nan,"(nan, nan)",nan,nan,nan,nan,nan,nan,nan,nan,"(117, 248)",no pil E/W
2012-03-06 16:00:00,0,nan,nan,nan,nan,"(nan, nan)",nan,nan,nan,nan,nan,nan,nan,nan,"(117, 248)",no pil E/W
2012-03-06 16:12:00,0,nan,nan,nan,nan,"(nan, nan)",nan,nan,nan,nan,nan,nan,nan,nan,"(117, 248)",no pil E/W
2012-03-06 16:24:00,0,nan,nan,nan,nan,"(nan, nan)",nan,nan,nan,nan,nan,nan,nan,nan,"(117, 248)",no pil E/W
2012-03-06 16:36:00,0,nan,nan,nan,nan,"(nan, nan)",nan,nan,nan,nan,nan,nan,nan,nan,"(117, 248)",no pil E/W
2012-03-06 16:48:00,0,nan,nan,nan,nan,"(nan, nan)",nan,nan,nan,nan,nan,nan,nan,nan,"(117, 248)",no pil E/W
2012-03-06 17:00:00,0,nan,nan,nan,nan,"(nan, nan)",nan,nan,nan,nan,nan,nan,nan,nan,"(117, 248)",no pil E/W
2012-03-06 17:12:00,1,14,33,2075.7,0.3228818690495882,"(19.860721095588776, 0.23268549781781855)",1.5173314776513773,0.666362973760933,0.4237095419956821,0.00014729021388965198,4.3128986121357556e-05,3.1701434443408383e-09,7.384217730974081e-06,-1.3290952187755612e-09,"(117, 248)",detected
2012-03-06 17:24:00,0,nan,nan,nan,nan,"(nan, nan)",nan,nan,nan,nan,nan,nan,nan,nan,"(117, 248)",no pil E/W
2012-03-06 17:36:00,0,nan,nan,nan,nan,"(nan, nan)",nan,nan,nan,nan,nan,nan,nan,nan,"(117, 248)",no pil E/W
2012-03-06 17:48:00,0,nan,nan,nan,nan,"(nan, nan)",nan,nan,nan,nan,nan,nan,nan,nan,"(117, 248)",no pil E/W
2012-03-06 18:00:00,0,nan,nan,nan,nan,"(nan, nan)",nan,nan,nan,nan,nan,nan,nan,nan,"(117, 248)",no pil E/W
2012-03-06 18:12:00,0,nan,nan,nan,nan,"(nan, nan)",nan,nan,nan,nan,nan,nan,nan,nan,"(117, 248)",no pil E/W
2012-03-06 18:24:00,0,nan,nan,nan,nan,"(nan, nan)",nan,nan,nan,nan,nan,nan,nan,nan,"(117, 248)",no pil E/W
2012-03-06 18:36:00,0,nan,nan,nan,nan,"(nan, nan)",nan,nan,nan,nan,nan,nan,nan,nan,"(117, 248)",no pil E/W
2012-03-06 18:48:00,0,nan,nan,nan,nan,"(nan, nan)",nan,nan,nan,nan,nan,nan,nan,nan,"(117, 248)",no pil E/W
2012-03-06 19:00:00,0,nan,nan,nan,nan,"(nan, nan)",nan,nan,nan,nan,nan,nan,nan,nan,"(117, 248)",no pil E/W
2012-03-06 19:12:00,0,nan,nan,nan,nan,"(nan, nan)",nan,nan,nan,nan,nan,nan,nan,nan,"(117, 248)",no pil E/W
2012-03-06 19:24:00,0,nan,nan,nan,nan,"(nan, nan)",nan,nan,nan,nan,nan,nan,nan,nan,"(117, 248)",no pil E/W
2012-03-06 19:36:00,0,nan,nan,nan,nan,"(nan, nan)",nan,nan,nan,nan,nan,nan,nan,nan,"(117, 248)",no pil E/W
2012-03-06 19:48:00,0,nan,nan,nan,nan,"(nan, nan)",nan,nan,nan,nan,nan,nan,nan,nan,"(117, 248)",no pil E/W
2012-03-06 20:00:00,0,nan,nan,nan,nan,"(nan, nan)",nan,nan,nan,nan,nan,nan,nan,nan,"(117, 248)",no pil E/W
2012-03-06 20:12:00,0,nan,nan,nan,nan,"(nan, nan)",nan,nan,nan,nan,nan,nan,nan,nan,"(117, 248)",no pil E/W
2012-03-06 20:24:00,0,nan,nan,nan,nan,"(nan, nan)",nan,nan,nan,nan,nan,nan,nan,nan,"(117, 248)",no pil E/W
2012-03-06 20:36:00,0,nan,nan,nan,nan,"(nan, nan)",nan,nan,nan,nan,nan,nan,nan,nan,"(117, 248)",no pil E/W
2012-03-06 20:48:00,0,nan,nan,nan,nan,"(nan, nan)",nan,nan,nan,nan,nan,nan,nan,nan,"(117, 248)",no pil E/W
2012-03-06 21:00:00,0,nan,nan,nan,nan,"(nan, nan)",nan,nan,nan,nan,nan,nan,nan,nan,"(117, 248)",no pil E/W
2012-03-06 21:12:00,0,nan,nan,nan,nan,"(nan, nan)",nan,nan,nan,nan,nan,nan,nan,nan,"(117, 248)",no pil E/W
2012-03-06 21:24:00,0,nan,nan,nan,nan,"(nan, nan)",nan,nan,nan,nan,nan,nan,nan,nan,"(117, 248)",no pil E/W
2012-03-06 21:36:00,0,nan,nan,nan,nan,"(nan, nan)",nan,nan,nan,nan,nan,nan,nan,nan,"(117, 248)",no pil E/W
2012-03-06 21:48:00,0,nan,nan,nan,nan,"(nan, nan)",nan,nan,nan,nan,nan,nan,nan,nan,"(117, 248)",no pil E/W
2012-03-06 22:00:00,0,nan,nan,nan,nan,"(nan, nan)",nan,nan,nan,nan,nan,nan,nan,nan,"(117, 248)",no pil E/W
2012-03-06 22:12:00,0,nan,nan,nan,nan,"(nan, nan)",nan,nan,nan,nan,nan,nan,nan,nan,"(117, 248)",no pil E/W
2012-03-06 22:24:00,0,nan,nan,nan,nan,"(nan, nan)",nan,nan,nan,nan,nan,nan,nan,nan,"(117, 248)",no pil E/W
2012-03-06 22:36:00,0,nan,nan,nan,nan,"(nan, nan)",nan,nan,nan,nan,nan,nan,nan,nan,"(117, 248)",no pil E/W
2012-03-06 22:48:00,0,nan,nan,nan,nan,"(nan, nan)",nan,nan,nan,nan,nan,nan,nan,nan,"(117, 248)",no pil E/W
2012-03-06 23:00:00,0,nan,nan,nan,nan,"(nan, nan)",nan,nan,nan,nan,nan,nan,nan,nan,"(117, 248)",no pil E/W
2012-03-06 23:12:00,0,nan,nan,nan,nan,"(nan, nan)",nan,nan,nan,nan,nan,nan,nan,nan,"(117, 248)",no pil E/W
2012-03-06 23:24:00,0,nan,nan,nan,nan,"(nan, nan)",nan,nan,nan,nan,nan,nan,nan,nan,"(117, 248)",no pil E/W
2012-03-06 23:36:00,0,nan,nan,nan,nan,"(nan, nan)",nan,nan,nan,nan,nan,nan,nan,nan,"(117, 248)",no pil E/W
2012-03-06 23:48:00,0,nan,nan,nan,nan,"(nan, nan)",nan,nan,nan,nan,nan,nan,nan,nan,"(117, 248)",no pil E/W
2012-03-07 00:00:00,0,nan,nan,nan,nan,"(nan, nan)",nan,nan,nan,nan,nan,nan,nan,nan,"(117, 248)",no pil E/W
2012-03-07 00:12:00,0,nan,nan,nan,nan,"(nan, nan)",nan,nan,nan,nan,nan,nan,nan,nan,"(117, 248)",no pil E/W
2012-03-07 00:24:00,0,nan,nan,nan,nan,"(nan, nan)",nan,nan,nan,nan,nan,nan,nan,nan,"(117, 248)",no pil E/W
2012-03-07 00:36:00,0,nan,nan,nan,nan,"(nan, nan)",nan,nan,nan,nan,nan,nan,nan,nan,"(117, 248)",no pil E/W
2012-03-07 00:48:00,0,nan,nan,nan,nan,"(nan, nan)",nan,nan,nan,nan,nan,nan,nan,nan,"(117, 248)",no pil E/W
2012-03-07 01:00:00,0,nan,nan,nan,nan,"(nan, nan)",nan,nan,nan,nan,nan,nan,nan,nan,"(117, 248)",no pil E/W
2012-03-07 01:12:00,0,nan,nan,nan,nan,"(nan, nan)",nan,nan,nan,nan,nan,nan,nan,nan,"(117, 248)",no pil E/W
2012-03-07 01:24:00,0,nan,nan,nan,nan,"(nan, nan)",nan,nan,nan,nan,nan,nan,nan,nan,"(117, 248)",no pil E/W
2012-03-07 01:36:00,0,nan,nan,nan,nan,"(nan, nan)",nan,nan,nan,nan,nan,nan,nan,nan,"(117, 248)",no pil E/W
2012-03-07 01:48:00,0,nan,nan,nan,nan,"(nan, nan)",nan,nan,nan,nan,nan,nan,nan,nan,"(117, 248)",no pil E/W
2012-03-07 02:00:00,0,nan,nan,nan,nan,"(nan, nan)",nan,nan,nan,nan,nan,nan,nan,nan,"(117, 248)",no pil E/W
