,"num_PILs,sum_PIL_length,sum_RoPI_Area,sum_mag_field_strength,fra_dim,eige_vals,convexity,Hu1,Hu2,Hu3,Hu4,Hu5,Hu6,Hu7,patch_shape,detection_flag",detection_flag
2012-05-01 19:12:00,,no pil SPE
2012-05-01 19:24:00,,no pil SPE
2012-05-01 19:36:00,,no pil SPE
2012-05-01 19:48:00,,no pil SPE
2012-05-01 20:24:00,,no pil SPE
2012-05-01 20:36:00,,no pil SPE
2012-05-01 21:00:00,,no pil SPE
2012-05-01 21:12:00,,no pil SPE
2012-05-01 21:24:00,,no pil SPE
2012-05-01 21:36:00,,no pil SPE
2012-05-01 21:48:00,,no pil SPE
2012-05-01 22:00:00,,no pil SPE
2012-05-01 22:12:00,,no pil SPE
2012-05-01 22:24:00,,no pil SPE
2012-05-01 22:36:00,,no pil SPE
2012-05-01 22:48:00,,no pil SPE
2012-05-01 23:00:00,,no pil SPE
2012-05-01 23:12:00,,no pil SPE
2012-05-01 23:24:00,,no pil SPE
2012-05-01 23:36:00,,no pil SPE
2012-05-01 23:48:00,,no pil SPE
2012-05-02 00:00:00,,no pil SPE
2012-05-02 00:12:00,,no pil SPE
2012-05-02 00:24:00,,no pil SPE
2012-05-02 00:36:00,,no pil SPE
2012-05-02 00:48:00,,no pil SPE
2012-05-02 01:00:00,,no pil SPE
2012-05-02 01:12:00,,no pil SPE
2012-05-02 01:24:00,,no pil SPE
2012-05-02 01:36:00,,no pil SPE
2012-05-02 01:48:00,,no pil SPE
2012-05-02 02:00:00,,no pil SPE
2012-05-02 02:12:00,,no pil SPE
2012-05-02 02:24:00,,no pil SPE
2012-05-02 02:36:00,,no pil SPE
2012-05-02 02:48:00,,no pil SPE
2012-05-02 03:00:00,,no pil SPE
2012-05-02 03:12:00,,no pil SPE
2012-05-02 03:24:00,,no pil SPE
2012-05-02 03:36:00,,no pil SPE
2012-05-02 03:48:00,,no pil SPE
2012-05-02 04:00:00,,no pil SPE
2012-05-02 04:12:00,,no pil SPE
2012-05-02 04:24:00,,no pil SPE
2012-05-02 04:36:00,,no pil SPE
2012-05-02 04:48:00,,no pil SPE
2012-05-02 05:00:00,,no pil SPE
2012-05-02 05:12:00,,no pil SPE
2012-05-02 05:24:00,,no pil SPE
2012-05-02 05:36:00,,no pil SPE
2012-05-02 05:48:00,,no pil SPE
2012-05-02 06:00:00,,no pil SPE
2012-05-02 06:12:00,,no pil SPE
2012-05-02 06:24:00,,no pil SPE
2012-05-02 06:36:00,,no pil SPE
2012-05-02 06:48:00,,no pil SPE
2012-05-02 07:00:00,,no pil SPE
2012-05-02 07:12:00,,no pil SPE
2012-05-02 07:24:00,,no pil SPE
