,num_PILs,sum_PIL_length,sum_RoPI_Area,sum_mag_field_strength,fra_dim,eige_vals,convexity,Hu1,Hu2,Hu3,Hu4,Hu5,Hu6,Hu7,patch_shape,detection_flag
2012-08-15 05:48:00,0,nan,nan,nan,nan,"(nan, nan)",nan,nan,nan,nan,nan,nan,nan,nan,"(42, 73)",no pil E/W
2012-08-15 06:00:00,0,nan,nan,nan,nan,"(nan, nan)",nan,nan,nan,nan,nan,nan,nan,nan,"(42, 73)",no pil E/W
2012-08-15 06:12:00,0,nan,nan,nan,nan,"(nan, nan)",nan,nan,nan,nan,nan,nan,nan,nan,"(42, 73)",no pil E/W
2012-08-15 06:24:00,0,nan,nan,nan,nan,"(nan, nan)",nan,nan,nan,nan,nan,nan,nan,nan,"(42, 73)",no pil E/W
2012-08-15 06:36:00,0,nan,nan,nan,nan,"(nan, nan)",nan,nan,nan,nan,nan,nan,nan,nan,"(42, 73)",no pil E/W
2012-08-15 06:48:00,0,nan,nan,nan,nan,"(nan, nan)",nan,nan,nan,nan,nan,nan,nan,nan,"(42, 73)",no pil E/W
2012-08-15 07:00:00,0,nan,nan,nan,nan,"(nan, nan)",nan,nan,nan,nan,nan,nan,nan,nan,"(42, 73)",no pil E/W
2012-08-15 07:12:00,0,nan,nan,nan,nan,"(nan, nan)",nan,nan,nan,nan,nan,nan,nan,nan,"(42, 73)",no pil E/W
2012-08-15 07:24:00,0,nan,nan,nan,nan,"(nan, nan)",nan,nan,nan,nan,nan,nan,nan,nan,"(42, 73)",no pil E/W
2012-08-15 07:36:00,0,nan,nan,nan,nan,"(nan, nan)",nan,nan,nan,nan,nan,nan,nan,nan,"(42, 73)",no pil E/W
2012-08-15 07:48:00,0,nan,nan,nan,nan,"(nan, nan)",nan,nan,nan,nan,nan,nan,nan,nan,"(42, 73)",no pil E/W
2012-08-15 08:00:00,0,nan,nan,nan,nan,"(nan, nan)",nan,nan,nan,nan,nan,nan,nan,nan,"(42, 73)",no pil E/W
2012-08-15 08:12:00,0,nan,nan,nan,nan,"(nan, nan)",nan,nan,nan,nan,nan,nan,nan,nan,"(42, 73)",no pil E/W
2012-08-15 08:24:00,0,nan,nan,nan,nan,"(nan, nan)",nan,nan,nan,nan,nan,nan,nan,nan,"(42, 73)",no pil E/W
2012-08-15 08:36:00,0,nan,nan,nan,nan,"(nan, nan)",nan,nan,nan,nan,nan,nan,nan,nan,"(42, 73)",no pil E/W
2012-08-15 08:48:00,0,nan,nan,nan,nan,"(nan, nan)",nan,nan,nan,nan,nan,nan,nan,nan,"(42, 73)",no pil E/W
2012-08-15 09:00:00,0,nan,nan,nan,nan,"(nan, nan)",nan,nan,nan,nan,nan,nan,nan,nan,"(42, 73)",no pil E/W
2012-08-15 09:12:00,1,16,37,3544.2,0.7754887502163473,"(19.784317221067234, 1.3615161122660968)",1.77404851942814,1.239013671875,1.1652360558509827,0.44528026442276314,0.08314412395702675,0.004106335952175286,0.0065877832046083995,0.01546195628509094,"(42, 73)",detected
2012-08-15 09:24:00,0,nan,nan,nan,nan,"(nan, nan)",nan,nan,nan,nan,nan,nan,nan,nan,"(42, 73)",no pil E/W
2012-08-15 09:36:00,1,15,57,7105.2,0.6965784284662093,"(21.11506755570581, 0.5801705395322805)",1.9013876853447538,1.349925925925926,1.6325860960219476,0.20439241064634517,0.022725190259208564,-0.0013894599193344725,-0.024752250268915383,0.0006842252389187213,"(42, 73)",detected
2012-08-15 09:48:00,1,17,66,8496.0,0.8837102265451664,"(29.00427099978405, 0.5398466472747723)",1.9638103712264845,1.635660492570731,2.4834138019450096,0.32302269315842796,0.047754232028459014,-0.00128004133468211,-0.046120546218010885,-0.0057913116349947846,"(42, 73)",detected
2012-08-15 10:00:00,1,17,77,10838.8,0.816992500144232,"(21.328124272917613, 1.576287491788273)",1.8360707903292015,1.2680643191532668,1.1958019467494838,0.44773749602762447,0.11579193805993639,0.01821228054317403,0.07887881263781021,0.019063857898396708,"(42, 73)",detected
2012-08-15 10:12:00,1,17,76,8836.8,0.816992500144232,"(20.678888965418025, 2.1152286816408017)",1.8016127645864426,1.2619580704254019,1.0562616309869481,0.4082303691745823,0.0852075159492012,0.005399578431893546,0.02014941968563162,0.014946226861331149,"(42, 73)",detected
2012-08-15 10:24:00,0,nan,nan,nan,nan,"(nan, nan)",nan,nan,nan,nan,nan,nan,nan,nan,"(42, 73)",no pil E/W
2012-08-15 10:36:00,0,nan,nan,nan,nan,"(nan, nan)",nan,nan,nan,nan,nan,nan,nan,nan,"(42, 73)",no pil E/W
2012-08-15 10:48:00,0,nan,nan,nan,nan,"(nan, nan)",nan,nan,nan,nan,nan,nan,nan,nan,"(42, 73)",no pil E/W
2012-08-15 11:00:00,0,nan,nan,nan,nan,"(nan, nan)",nan,nan,nan,nan,nan,nan,nan,nan,"(42, 73)",no pil E/W
2012-08-15 11:12:00,0,nan,nan,nan,nan,"(nan, nan)",nan,nan,nan,nan,nan,nan,nan,nan,"(42, 73)",no pil E/W
2012-08-15 11:24:00,0,nan,nan,nan,nan,"(nan, nan)",nan,nan,nan,nan,nan,nan,nan,nan,"(42, 73)",no pil E/W
2012-08-15 11:36:00,0,nan,nan,nan,nan,"(nan, nan)",nan,nan,nan,nan,nan,nan,nan,nan,"(42, 73)",no pil E/W
2012-08-15 11:48:00,0,nan,nan,nan,nan,"(nan, nan)",nan,nan,nan,nan,nan,nan,nan,nan,"(42, 73)",no pil E/W
2012-08-15 12:00:00,0,nan,nan,nan,nan,"(nan, nan)",nan,nan,nan,nan,nan,nan,nan,nan,"(42, 73)",no pil E/W
2012-08-15 12:12:00,0,nan,nan,nan,nan,"(nan, nan)",nan,nan,nan,nan,nan,nan,nan,nan,"(42, 73)",no pil E/W
2012-08-15 12:24:00,0,nan,nan,nan,nan,"(nan, nan)",nan,nan,nan,nan,nan,nan,nan,nan,"(42, 73)",no pil E/W
