,num_PILs,sum_PIL_length,sum_RoPI_Area,sum_mag_field_strength,fra_dim,eige_vals,convexity,Hu1,Hu2,Hu3,Hu4,Hu5,Hu6,Hu7,patch_shape,detection_flag
2012-08-28 17:36:00,0,nan,nan,nan,nan,"(nan, nan)",nan,nan,nan,nan,nan,nan,nan,nan,"(67, 108)",no pil E/W
2012-08-28 17:48:00,0,nan,nan,nan,nan,"(nan, nan)",nan,nan,nan,nan,nan,nan,nan,nan,"(67, 108)",no pil E/W
2012-08-28 18:00:00,0,nan,nan,nan,nan,"(nan, nan)",nan,nan,nan,nan,nan,nan,nan,nan,"(67, 108)",no pil E/W
2012-08-28 18:12:00,0,nan,nan,nan,nan,"(nan, nan)",nan,nan,nan,nan,nan,nan,nan,nan,"(67, 108)",no pil E/W
2012-08-28 18:24:00,0,nan,nan,nan,nan,"(nan, nan)",nan,nan,nan,nan,nan,nan,nan,nan,"(67, 108)",no pil E/W
2012-08-28 18:36:00,0,nan,nan,nan,nan,"(nan, nan)",nan,nan,nan,nan,nan,nan,nan,nan,"(67, 108)",no pil E/W
2012-08-28 18:48:00,0,nan,nan,nan,nan,"(nan, nan)",nan,nan,nan,nan,nan,nan,nan,nan,"(67, 108)",no pil E/W
2012-08-28 19:00:00,0,nan,nan,nan,nan,"(nan, nan)",nan,nan,nan,nan,nan,nan,nan,nan,"(67, 108)",no pil E/W
2012-08-28 19:12:00,0,nan,nan,nan,nan,"(nan, nan)",nan,nan,nan,nan,nan,nan,nan,nan,"(67, 108)",no pil E/W
2012-08-28 19:24:00,0,nan,nan,nan,nan,"(nan, nan)",nan,nan,nan,nan,nan,nan,nan,nan,"(67, 108)",no pil E/W
2012-08-28 19:36:00,0,nan,nan,nan,nan,"(nan, nan)",nan,nan,nan,nan,nan,nan,nan,nan,"(67, 108)",no pil E/W
2012-08-28 19:48:00,0,nan,nan,nan,nan,"(nan, nan)",nan,nan,nan,nan,nan,nan,nan,nan,"(67, 108)",no pil E/W
2012-08-28 20:00:00,0,nan,nan,nan,nan,"(nan, nan)",nan,nan,nan,nan,nan,nan,nan,nan,"(67, 108)",no pil E/W
2012-08-28 20:12:00,0,nan,nan,nan,nan,"(nan, nan)",nan,nan,nan,nan,nan,nan,nan,nan,"(67, 108)",no pil E/W
2012-08-28 20:24:00,0,nan,nan,nan,nan,"(nan, nan)",nan,nan,nan,nan,nan,nan,nan,nan,"(67, 108)",no pil E/W
2012-08-28 20:36:00,1,19,50,3615.4,0.5000000000000002,"(33.56079860875621, 0.7140551924133822)",1.9330485295451505,0.8544977401953638,0.6705871870058082,0.03841658431456468,0.013929506132205418,0.0003007028265638344,0.009741545768184728,0.00011579524825307414,"(67, 108)",detected
2012-08-28 20:48:00,0,nan,nan,nan,nan,"(nan, nan)",nan,nan,nan,nan,nan,nan,nan,nan,"(67, 108)",no pil E/W
2012-08-28 21:00:00,1,15,61,5020.1,0.37548875021634703,"(13.430033013936164, 3.189014605111453)",1.8209138999323173,1.0340740740740741,0.40604795610425237,0.5653194635777038,0.10014814944876192,-0.009524142637264352,-0.0316413417021507,-0.02184322429911585,"(67, 108)",detected
2012-08-28 21:12:00,0,nan,nan,nan,nan,"(nan, nan)",nan,nan,nan,nan,nan,nan,nan,nan,"(67, 108)",no pil E/W
2012-08-28 21:24:00,0,nan,nan,nan,nan,"(nan, nan)",nan,nan,nan,nan,nan,nan,nan,nan,"(67, 108)",no pil E/W
2012-08-28 21:36:00,0,nan,nan,nan,nan,"(nan, nan)",nan,nan,nan,nan,nan,nan,nan,nan,"(67, 108)",no pil E/W
2012-08-28 21:48:00,0,nan,nan,nan,nan,"(nan, nan)",nan,nan,nan,nan,nan,nan,nan,nan,"(67, 108)",no pil E/W
2012-08-28 22:00:00,0,nan,nan,nan,nan,"(nan, nan)",nan,nan,nan,nan,nan,nan,nan,nan,"(67, 108)",no pil E/W
2012-08-28 22:12:00,0,nan,nan,nan,nan,"(nan, nan)",nan,nan,nan,nan,nan,nan,nan,nan,"(67, 108)",no pil E/W
2012-08-28 22:24:00,0,nan,nan,nan,nan,"(nan, nan)",nan,nan,nan,nan,nan,nan,nan,nan,"(67, 108)",no pil E/W
2012-08-28 22:36:00,0,nan,nan,nan,nan,"(nan, nan)",nan,nan,nan,nan,nan,nan,nan,nan,"(67, 108)",no pil E/W
2012-08-28 22:48:00,0,nan,nan,nan,nan,"(nan, nan)",nan,nan,nan,nan,nan,nan,nan,nan,"(67, 108)",no pil E/W
2012-08-28 23:00:00,0,nan,nan,nan,nan,"(nan, nan)",nan,nan,nan,nan,nan,nan,nan,nan,"(67, 108)",no pil E/W
2012-08-28 23:12:00,0,nan,nan,nan,nan,"(nan, nan)",nan,nan,nan,nan,nan,nan,nan,nan,"(67, 108)",no pil E/W
2012-08-28 23:24:00,0,nan,nan,nan,nan,"(nan, nan)",nan,nan,nan,nan,nan,nan,nan,nan,"(67, 108)",no pil E/W
2012-08-28 23:36:00,0,nan,nan,nan,nan,"(nan, nan)",nan,nan,nan,nan,nan,nan,nan,nan,"(67, 108)",no pil E/W
2012-08-28 23:48:00,0,nan,nan,nan,nan,"(nan, nan)",nan,nan,nan,nan,nan,nan,nan,nan,"(67, 108)",no pil E/W
2012-08-29 00:00:00,0,nan,nan,nan,nan,"(nan, nan)",nan,nan,nan,nan,nan,nan,nan,nan,"(67, 108)",no pil E/W
2012-08-29 00:12:00,0,nan,nan,nan,nan,"(nan, nan)",nan,nan,nan,nan,nan,nan,nan,nan,"(67, 108)",no pil E/W
2012-08-29 00:24:00,0,nan,nan,nan,nan,"(nan, nan)",nan,nan,nan,nan,nan,nan,nan,nan,"(67, 108)",no pil E/W
2012-08-29 00:36:00,0,nan,nan,nan,nan,"(nan, nan)",nan,nan,nan,nan,nan,nan,nan,nan,"(67, 108)",no pil E/W
2012-08-29 00:48:00,0,nan,nan,nan,nan,"(nan, nan)",nan,nan,nan,nan,nan,nan,nan,nan,"(67, 108)",no pil E/W
2012-08-29 01:00:00,0,nan,nan,nan,nan,"(nan, nan)",nan,nan,nan,nan,nan,nan,nan,nan,"(67, 108)",no pil E/W
2012-08-29 01:24:00,0,nan,nan,nan,nan,"(nan, nan)",nan,nan,nan,nan,nan,nan,nan,nan,"(67, 108)",no pil E/W
2012-08-29 01:36:00,0,nan,nan,nan,nan,"(nan, nan)",nan,nan,nan,nan,nan,nan,nan,nan,"(67, 108)",no pil E/W
2012-08-29 01:48:00,0,nan,nan,nan,nan,"(nan, nan)",nan,nan,nan,nan,nan,nan,nan,nan,"(67, 108)",no pil E/W
2012-08-29 02:12:00,0,nan,nan,nan,nan,"(nan, nan)",nan,nan,nan,nan,nan,nan,nan,nan,"(67, 108)",no pil E/W
2012-08-29 02:48:00,0,nan,nan,nan,nan,"(nan, nan)",nan,nan,nan,nan,nan,nan,nan,nan,"(67, 108)",no pil E/W
2012-08-29 15:12:00,0,nan,nan,nan,nan,"(nan, nan)",nan,nan,nan,nan,nan,nan,nan,nan,"(67, 108)",no pil E/W
2012-08-29 15:48:00,1,15,35,2253.1,0.6228818690495884,"(5.4270172551557225, 3.6777446496061827)",1.3656854249492378,0.28325925925925927,0.0029617338820301796,0.0059389216294264136,0.0017425115699842607,-5.498236182828874e-06,-8.971267396242321e-05,1.0915380921914936e-06,"(67, 108)",detected
2012-08-29 16:00:00,0,nan,nan,nan,nan,"(nan, nan)",nan,nan,nan,nan,nan,nan,nan,nan,"(67, 108)",no pil E/W
2012-08-29 16:12:00,0,nan,nan,nan,nan,"(nan, nan)",nan,nan,nan,nan,nan,nan,nan,nan,"(67, 108)",no pil E/W
2012-08-29 16:24:00,0,nan,nan,nan,nan,"(nan, nan)",nan,nan,nan,nan,nan,nan,nan,nan,"(67, 108)",no pil E/W
2012-08-29 16:36:00,0,nan,nan,nan,nan,"(nan, nan)",nan,nan,nan,nan,nan,nan,nan,nan,"(67, 108)",no pil E/W
2012-08-29 17:00:00,0,nan,nan,nan,nan,"(nan, nan)",nan,nan,nan,nan,nan,nan,nan,nan,"(67, 108)",no pil E/W
2012-08-29 17:12:00,0,nan,nan,nan,nan,"(nan, nan)",nan,nan,nan,nan,nan,nan,nan,nan,"(67, 108)",no pil E/W
2012-08-29 17:24:00,0,nan,nan,nan,nan,"(nan, nan)",nan,nan,nan,nan,nan,nan,nan,nan,"(67, 108)",no pil E/W
2012-08-29 17:36:00,0,nan,nan,nan,nan,"(nan, nan)",nan,nan,nan,nan,nan,nan,nan,nan,"(67, 108)",no pil E/W
2012-08-29 18:00:00,0,nan,nan,nan,nan,"(nan, nan)",nan,nan,nan,nan,nan,nan,nan,nan,"(67, 108)",no pil E/W
2012-08-29 18:12:00,0,nan,nan,nan,nan,"(nan, nan)",nan,nan,nan,nan,nan,nan,nan,nan,"(67, 108)",no pil E/W
