,"num_PILs,sum_PIL_length,sum_RoPI_Area,sum_mag_field_strength,fra_dim,eige_vals,convexity,Hu1,Hu2,Hu3,Hu4,Hu5,Hu6,Hu7,patch_shape,detection_flag",detection_flag
2011-11-25 10:36:00,,no pil SPE
2011-11-25 10:48:00,,no pil SPE
2011-11-25 11:00:00,,no pil SPE
2011-11-25 11:12:00,,no pil SPE
2011-11-25 11:24:00,,no pil SPE
2011-11-25 11:36:00,,no pil SPE
2011-11-25 11:48:00,,no pil SPE
2011-11-25 12:00:00,,no pil SPE
2011-11-25 12:12:00,,no pil SPE
2011-11-25 12:24:00,,no pil SPE
2011-11-25 12:36:00,,no pil SPE
2011-11-25 12:48:00,,no pil SPE
2011-11-25 13:00:00,,no pil SPE
2011-11-25 13:12:00,,no pil SPE
2011-11-25 13:24:00,,no pil SPE
2011-11-25 13:36:00,,no pil SPE
2011-11-25 13:48:00,,no pil SPE
2011-11-25 14:00:00,,no pil SPE
2011-11-25 14:12:00,,no pil SPE
2011-11-25 14:24:00,,no pil SPE
2011-11-25 14:36:00,,no pil SPE
2011-11-25 14:48:00,,no pil SPE
2011-11-25 15:00:00,,no pil SPE
2011-11-25 15:12:00,,no pil SPE
2011-11-25 15:24:00,,no pil SPE
2011-11-25 15:36:00,,no pil SPE
2011-11-25 15:48:00,,no pil SPE
2011-11-25 16:00:00,,no pil SPE
2011-11-25 16:12:00,,no pil SPE
2011-11-25 16:24:00,,no pil SPE
2011-11-25 16:36:00,,no pil SPE
2011-11-25 16:48:00,,no pil SPE
2011-11-25 17:00:00,,no pil SPE
2011-11-25 17:48:00,,no pil SPE
2011-11-25 18:24:00,,no pil SPE
2011-11-26 03:00:00,,no pil SPE
2011-11-26 03:24:00,,no pil SPE
2011-11-26 03:48:00,,no pil SPE
2011-11-26 04:00:00,,no pil SPE
2011-11-26 04:12:00,,no pil SPE
2011-11-26 04:24:00,,no pil SPE
2011-11-26 04:36:00,,no pil SPE
2011-11-26 04:48:00,,no pil SPE
2011-11-26 05:00:00,,no pil SPE
2011-11-26 05:12:00,,no pil SPE
2011-11-26 05:24:00,,no pil SPE
2011-11-26 05:36:00,,no pil SPE
2011-11-26 05:48:00,,no pil SPE
2011-11-26 06:00:00,,no pil SPE
2011-11-26 06:12:00,,no pil SPE
2011-11-26 06:24:00,,no pil SPE
2011-11-26 06:36:00,,no pil SPE
2011-11-26 06:48:00,,no pil SPE
2011-11-26 07:00:00,,no pil SPE
2011-11-26 07:12:00,,no pil SPE
2011-11-26 07:24:00,,no pil SPE
2011-11-26 07:36:00,,no pil SPE
2011-11-26 07:48:00,,no pil SPE
2011-11-26 08:00:00,,no pil SPE
2011-11-26 08:12:00,,no pil SPE
2011-11-26 08:24:00,,no pil SPE
2011-11-26 08:36:00,,no pil SPE
2011-11-26 08:48:00,,no pil SPE
2011-11-26 09:00:00,,no pil SPE
2011-11-26 09:12:00,,no pil SPE
2011-11-26 09:24:00,,no pil SPE
2011-11-26 09:36:00,,no pil SPE
2011-11-26 09:48:00,,no pil SPE
2011-11-26 10:00:00,,no pil SPE
2011-11-26 10:12:00,,no pil SPE
2011-11-26 10:24:00,,no pil SPE
2011-11-26 10:36:00,,no pil SPE
2011-11-26 10:48:00,,no pil SPE
2011-11-26 11:00:00,,no pil SPE
2011-11-26 11:12:00,,no pil SPE
2011-11-26 11:24:00,,no pil SPE
2011-11-26 11:36:00,,no pil SPE
2011-11-26 11:48:00,,no pil SPE
2011-11-26 12:00:00,,no pil SPE
2011-11-26 12:12:00,,no pil SPE
2011-11-26 12:24:00,,no pil SPE
2011-11-26 12:36:00,,no pil SPE
2011-11-26 12:48:00,,no pil SPE
2011-11-26 13:00:00,,no pil SPE
2011-11-26 13:12:00,,no pil SPE
2011-11-26 13:24:00,,no pil SPE
2011-11-26 13:36:00,,no pil SPE
2011-11-26 13:48:00,,no pil SPE
2011-11-26 14:00:00,,no pil SPE
2011-11-26 14:12:00,,no pil SPE
2011-11-26 14:24:00,,no pil SPE
2011-11-26 14:36:00,,no pil SPE
2011-11-26 14:48:00,,no pil SPE
2011-11-26 15:00:00,,no pil SPE
2011-11-26 15:12:00,,no pil SPE
2011-11-26 15:24:00,,no pil SPE
2011-11-26 15:36:00,,no pil SPE
2011-11-26 15:48:00,,no pil SPE
2011-11-26 16:00:00,,no pil SPE
2011-11-26 16:12:00,,no pil SPE
2011-11-26 16:24:00,,no pil SPE
2011-11-26 16:36:00,,no pil SPE
2011-11-26 16:48:00,,no pil SPE
2011-11-26 17:00:00,,no pil SPE
2011-11-26 17:12:00,,no pil SPE
2011-11-26 17:24:00,,no pil SPE
2011-11-26 17:36:00,,no pil SPE
2011-11-26 17:48:00,,no pil SPE
2011-11-26 18:00:00,,no pil SPE
2011-11-26 18:12:00,,no pil SPE
2011-11-26 18:24:00,,no pil SPE
2011-11-26 18:36:00,,no pil SPE
2011-11-26 18:48:00,,no pil SPE
2011-11-26 19:00:00,,no pil SPE
2011-11-26 19:12:00,,no pil SPE
2011-11-26 19:24:00,,no pil SPE
2011-11-26 19:36:00,,no pil SPE
2011-11-26 19:48:00,,no pil SPE
2011-11-26 20:00:00,,no pil SPE
2011-11-26 20:12:00,,no pil SPE
2011-11-26 20:24:00,,no pil SPE
2011-11-26 20:36:00,,no pil SPE
2011-11-26 20:48:00,,no pil SPE
2011-11-26 21:00:00,,no pil SPE
2011-11-26 21:12:00,,no pil SPE
2011-11-26 21:24:00,,no pil SPE
2011-11-26 21:36:00,,no pil SPE
2011-11-26 21:48:00,,no pil SPE
2011-11-26 22:00:00,,no pil SPE
2011-11-26 22:12:00,,no pil SPE
2011-11-26 22:24:00,,no pil SPE
2011-11-26 22:36:00,,no pil SPE
2011-11-26 22:48:00,,no pil SPE
2011-11-26 23:00:00,,no pil SPE
2011-11-26 23:12:00,,no pil SPE
2011-11-26 23:24:00,,no pil SPE
2011-11-26 23:36:00,,no pil SPE
2011-11-26 23:48:00,,no pil SPE
2011-11-27 00:00:00,,no pil SPE
2011-11-27 00:12:00,,no pil SPE
2011-11-27 00:24:00,,no pil SPE
2011-11-27 00:36:00,,no pil SPE
2011-11-27 00:48:00,,no pil SPE
2011-11-27 01:00:00,,no pil SPE
2011-11-27 01:12:00,,no pil SPE
2011-11-27 01:24:00,,no pil SPE
2011-11-27 01:36:00,,no pil SPE
2011-11-27 01:48:00,,no pil SPE
2011-11-27 02:00:00,,no pil SPE
2011-11-27 02:12:00,,no pil SPE
2011-11-27 02:24:00,,no pil SPE
2011-11-27 02:36:00,,no pil SPE
2011-11-27 02:48:00,,no pil SPE
2011-11-27 03:00:00,,no pil SPE
2011-11-27 03:12:00,,no pil SPE
2011-11-27 03:24:00,,no pil SPE
2011-11-27 03:36:00,,no pil SPE
2011-11-27 03:48:00,,no pil SPE
2011-11-27 04:00:00,,no pil SPE
2011-11-27 04:12:00,,no pil SPE
2011-11-27 04:24:00,,no pil SPE
2011-11-27 04:36:00,,no pil SPE
2011-11-27 04:48:00,,no pil SPE
2011-11-27 05:00:00,,no pil SPE
2011-11-27 05:12:00,,no pil SPE
2011-11-27 05:36:00,,no pil SPE
2011-11-27 05:48:00,,no pil SPE
