,num_PILs,sum_PIL_length,sum_RoPI_Area,sum_mag_field_strength,fra_dim,eige_vals,convexity,Hu1,Hu2,Hu3,Hu4,Hu5,Hu6,Hu7,patch_shape,detection_flag
2011-11-12 07:12:00,0,nan,nan,nan,nan,"(nan, nan)",nan,nan,nan,nan,nan,nan,nan,nan,"(93, 142)",no pil E/W
2011-11-12 07:24:00,0,nan,nan,nan,nan,"(nan, nan)",nan,nan,nan,nan,nan,nan,nan,nan,"(93, 142)",no pil E/W
2011-11-12 07:36:00,0,nan,nan,nan,nan,"(nan, nan)",nan,nan,nan,nan,nan,nan,nan,nan,"(93, 142)",no pil E/W
2011-11-12 07:48:00,0,nan,nan,nan,nan,"(nan, nan)",nan,nan,nan,nan,nan,nan,nan,nan,"(93, 142)",no pil E/W
2011-11-12 08:00:00,0,nan,nan,nan,nan,"(nan, nan)",nan,nan,nan,nan,nan,nan,nan,nan,"(93, 142)",no pil E/W
2011-11-12 08:12:00,0,nan,nan,nan,nan,"(nan, nan)",nan,nan,nan,nan,nan,nan,nan,nan,"(93, 142)",no pil E/W
2011-11-12 08:24:00,0,nan,nan,nan,nan,"(nan, nan)",nan,nan,nan,nan,nan,nan,nan,nan,"(93, 142)",no pil E/W
2011-11-12 08:36:00,0,nan,nan,nan,nan,"(nan, nan)",nan,nan,nan,nan,nan,nan,nan,nan,"(93, 142)",no pil E/W
2011-11-12 08:48:00,0,nan,nan,nan,nan,"(nan, nan)",nan,nan,nan,nan,nan,nan,nan,nan,"(93, 142)",no pil E/W
2011-11-12 09:00:00,0,nan,nan,nan,nan,"(nan, nan)",nan,nan,nan,nan,nan,nan,nan,nan,"(93, 142)",no pil E/W
2011-11-12 09:12:00,0,nan,nan,nan,nan,"(nan, nan)",nan,nan,nan,nan,nan,nan,nan,nan,"(93, 142)",no pil E/W
2011-11-12 09:24:00,0,nan,nan,nan,nan,"(nan, nan)",nan,nan,nan,nan,nan,nan,nan,nan,"(93, 142)",no pil E/W
2011-11-12 09:36:00,0,nan,nan,nan,nan,"(nan, nan)",nan,nan,nan,nan,nan,nan,nan,nan,"(93, 142)",no pil E/W
2011-11-12 09:48:00,0,nan,nan,nan,nan,"(nan, nan)",nan,nan,nan,nan,nan,nan,nan,nan,"(93, 142)",no pil E/W
2011-11-12 10:00:00,0,nan,nan,nan,nan,"(nan, nan)",nan,nan,nan,nan,nan,nan,nan,nan,"(93, 142)",no pil E/W
2011-11-12 10:12:00,0,nan,nan,nan,nan,"(nan, nan)",nan,nan,nan,nan,nan,nan,nan,nan,"(93, 142)",no pil E/W
2011-11-12 10:24:00,0,nan,nan,nan,nan,"(nan, nan)",nan,nan,nan,nan,nan,nan,nan,nan,"(93, 142)",no pil E/W
2011-11-12 10:36:00,0,nan,nan,nan,nan,"(nan, nan)",nan,nan,nan,nan,nan,nan,nan,nan,"(93, 142)",no pil E/W
2011-11-12 10:48:00,0,nan,nan,nan,nan,"(nan, nan)",nan,nan,nan,nan,nan,nan,nan,nan,"(93, 142)",no pil E/W
2011-11-12 11:00:00,0,nan,nan,nan,nan,"(nan, nan)",nan,nan,nan,nan,nan,nan,nan,nan,"(93, 142)",no pil E/W
2011-11-12 11:12:00,0,nan,nan,nan,nan,"(nan, nan)",nan,nan,nan,nan,nan,nan,nan,nan,"(93, 142)",no pil E/W
2011-11-12 11:24:00,0,nan,nan,nan,nan,"(nan, nan)",nan,nan,nan,nan,nan,nan,nan,nan,"(93, 142)",no pil E/W
2011-11-12 11:36:00,0,nan,nan,nan,nan,"(nan, nan)",nan,nan,nan,nan,nan,nan,nan,nan,"(93, 142)",no pil E/W
2011-11-12 11:48:00,0,nan,nan,nan,nan,"(nan, nan)",nan,nan,nan,nan,nan,nan,nan,nan,"(93, 142)",no pil E/W
2011-11-12 12:00:00,0,nan,nan,nan,nan,"(nan, nan)",nan,nan,nan,nan,nan,nan,nan,nan,"(93, 142)",no pil E/W
2011-11-12 12:12:00,0,nan,nan,nan,nan,"(nan, nan)",nan,nan,nan,nan,nan,nan,nan,nan,"(93, 142)",no pil E/W
2011-11-12 12:24:00,0,nan,nan,nan,nan,"(nan, nan)",nan,nan,nan,nan,nan,nan,nan,nan,"(93, 142)",no pil E/W
2011-11-12 12:36:00,0,nan,nan,nan,nan,"(nan, nan)",nan,nan,nan,nan,nan,nan,nan,nan,"(93, 142)",no pil E/W
2011-11-12 12:48:00,0,nan,nan,nan,nan,"(nan, nan)",nan,nan,nan,nan,nan,nan,nan,nan,"(93, 142)",no pil E/W
2011-11-12 13:00:00,0,nan,nan,nan,nan,"(nan, nan)",nan,nan,nan,nan,nan,nan,nan,nan,"(93, 142)",no pil E/W
2011-11-12 13:12:00,0,nan,nan,nan,nan,"(nan, nan)",nan,nan,nan,nan,nan,nan,nan,nan,"(93, 142)",no pil E/W
2011-11-12 13:24:00,0,nan,nan,nan,nan,"(nan, nan)",nan,nan,nan,nan,nan,nan,nan,nan,"(93, 142)",no pil E/W
2011-11-12 13:36:00,0,nan,nan,nan,nan,"(nan, nan)",nan,nan,nan,nan,nan,nan,nan,nan,"(93, 142)",no pil E/W
2011-11-12 13:48:00,0,nan,nan,nan,nan,"(nan, nan)",nan,nan,nan,nan,nan,nan,nan,nan,"(93, 142)",no pil E/W
2011-11-12 14:00:00,0,nan,nan,nan,nan,"(nan, nan)",nan,nan,nan,nan,nan,nan,nan,nan,"(93, 142)",no pil E/W
2011-11-12 14:12:00,0,nan,nan,nan,nan,"(nan, nan)",nan,nan,nan,nan,nan,nan,nan,nan,"(93, 142)",no pil E/W
2011-11-12 14:24:00,0,nan,nan,nan,nan,"(nan, nan)",nan,nan,nan,nan,nan,nan,nan,nan,"(93, 142)",no pil E/W
2011-11-12 14:36:00,0,nan,nan,nan,nan,"(nan, nan)",nan,nan,nan,nan,nan,nan,nan,nan,"(93, 142)",no pil E/W
2011-11-12 14:48:00,0,nan,nan,nan,nan,"(nan, nan)",nan,nan,nan,nan,nan,nan,nan,nan,"(93, 142)",no pil E/W
2011-11-12 15:00:00,0,nan,nan,nan,nan,"(nan, nan)",nan,nan,nan,nan,nan,nan,nan,nan,"(93, 142)",no pil E/W
2011-11-12 15:12:00,0,nan,nan,nan,nan,"(nan, nan)",nan,nan,nan,nan,nan,nan,nan,nan,"(93, 142)",no pil E/W
2011-11-12 15:24:00,0,nan,nan,nan,nan,"(nan, nan)",nan,nan,nan,nan,nan,nan,nan,nan,"(93, 142)",no pil E/W
2011-11-12 15:36:00,0,nan,nan,nan,nan,"(nan, nan)",nan,nan,nan,nan,nan,nan,nan,nan,"(93, 142)",no pil E/W
2011-11-12 15:48:00,0,nan,nan,nan,nan,"(nan, nan)",nan,nan,nan,nan,nan,nan,nan,nan,"(93, 142)",no pil E/W
2011-11-12 16:00:00,0,nan,nan,nan,nan,"(nan, nan)",nan,nan,nan,nan,nan,nan,nan,nan,"(93, 142)",no pil E/W
2011-11-12 16:12:00,0,nan,nan,nan,nan,"(nan, nan)",nan,nan,nan,nan,nan,nan,nan,nan,"(93, 142)",no pil E/W
2011-11-12 16:24:00,0,nan,nan,nan,nan,"(nan, nan)",nan,nan,nan,nan,nan,nan,nan,nan,"(93, 142)",no pil E/W
2011-11-12 16:36:00,0,nan,nan,nan,nan,"(nan, nan)",nan,nan,nan,nan,nan,nan,nan,nan,"(93, 142)",no pil E/W
2011-11-12 16:48:00,0,nan,nan,nan,nan,"(nan, nan)",nan,nan,nan,nan,nan,nan,nan,nan,"(93, 142)",no pil E/W
2011-11-12 17:00:00,0,nan,nan,nan,nan,"(nan, nan)",nan,nan,nan,nan,nan,nan,nan,nan,"(93, 142)",no pil E/W
2011-11-12 17:12:00,0,nan,nan,nan,nan,"(nan, nan)",nan,nan,nan,nan,nan,nan,nan,nan,"(93, 142)",no pil E/W
2011-11-12 17:24:00,0,nan,nan,nan,nan,"(nan, nan)",nan,nan,nan,nan,nan,nan,nan,nan,"(93, 142)",no pil E/W
2011-11-12 17:36:00,0,nan,nan,nan,nan,"(nan, nan)",nan,nan,nan,nan,nan,nan,nan,nan,"(93, 142)",no pil E/W
2011-11-12 17:48:00,0,nan,nan,nan,nan,"(nan, nan)",nan,nan,nan,nan,nan,nan,nan,nan,"(93, 142)",no pil E/W
2011-11-12 18:00:00,0,nan,nan,nan,nan,"(nan, nan)",nan,nan,nan,nan,nan,nan,nan,nan,"(93, 142)",no pil E/W
2011-11-12 18:12:00,0,nan,nan,nan,nan,"(nan, nan)",nan,nan,nan,nan,nan,nan,nan,nan,"(93, 142)",no pil E/W
2011-11-12 18:24:00,0,nan,nan,nan,nan,"(nan, nan)",nan,nan,nan,nan,nan,nan,nan,nan,"(93, 142)",no pil E/W
2011-11-12 18:36:00,0,nan,nan,nan,nan,"(nan, nan)",nan,nan,nan,nan,nan,nan,nan,nan,"(93, 142)",no pil E/W
2011-11-12 18:48:00,0,nan,nan,nan,nan,"(nan, nan)",nan,nan,nan,nan,nan,nan,nan,nan,"(93, 142)",no pil E/W
2011-11-12 19:00:00,0,nan,nan,nan,nan,"(nan, nan)",nan,nan,nan,nan,nan,nan,nan,nan,"(93, 142)",no pil E/W
2011-11-12 19:12:00,0,nan,nan,nan,nan,"(nan, nan)",nan,nan,nan,nan,nan,nan,nan,nan,"(93, 142)",no pil E/W
2011-11-12 19:24:00,0,nan,nan,nan,nan,"(nan, nan)",nan,nan,nan,nan,nan,nan,nan,nan,"(93, 142)",no pil E/W
2011-11-12 19:36:00,0,nan,nan,nan,nan,"(nan, nan)",nan,nan,nan,nan,nan,nan,nan,nan,"(93, 142)",no pil E/W
2011-11-12 19:48:00,0,nan,nan,nan,nan,"(nan, nan)",nan,nan,nan,nan,nan,nan,nan,nan,"(93, 142)",no pil E/W
2011-11-12 20:00:00,0,nan,nan,nan,nan,"(nan, nan)",nan,nan,nan,nan,nan,nan,nan,nan,"(93, 142)",no pil E/W
2011-11-12 20:12:00,0,nan,nan,nan,nan,"(nan, nan)",nan,nan,nan,nan,nan,nan,nan,nan,"(93, 142)",no pil E/W
2011-11-12 20:24:00,0,nan,nan,nan,nan,"(nan, nan)",nan,nan,nan,nan,nan,nan,nan,nan,"(93, 142)",no pil E/W
2011-11-12 20:36:00,0,nan,nan,nan,nan,"(nan, nan)",nan,nan,nan,nan,nan,nan,nan,nan,"(93, 142)",no pil E/W
2011-11-12 20:48:00,0,nan,nan,nan,nan,"(nan, nan)",nan,nan,nan,nan,nan,nan,nan,nan,"(93, 142)",no pil E/W
2011-11-12 21:00:00,0,nan,nan,nan,nan,"(nan, nan)",nan,nan,nan,nan,nan,nan,nan,nan,"(93, 142)",no pil E/W
2011-11-12 21:12:00,0,nan,nan,nan,nan,"(nan, nan)",nan,nan,nan,nan,nan,nan,nan,nan,"(93, 142)",no pil E/W
2011-11-12 21:24:00,0,nan,nan,nan,nan,"(nan, nan)",nan,nan,nan,nan,nan,nan,nan,nan,"(93, 142)",no pil E/W
2011-11-12 21:36:00,0,nan,nan,nan,nan,"(nan, nan)",nan,nan,nan,nan,nan,nan,nan,nan,"(93, 142)",no pil E/W
2011-11-12 21:48:00,0,nan,nan,nan,nan,"(nan, nan)",nan,nan,nan,nan,nan,nan,nan,nan,"(93, 142)",no pil E/W
2011-11-12 22:00:00,0,nan,nan,nan,nan,"(nan, nan)",nan,nan,nan,nan,nan,nan,nan,nan,"(93, 142)",no pil E/W
2011-11-12 22:12:00,0,nan,nan,nan,nan,"(nan, nan)",nan,nan,nan,nan,nan,nan,nan,nan,"(93, 142)",no pil E/W
2011-11-12 22:24:00,0,nan,nan,nan,nan,"(nan, nan)",nan,nan,nan,nan,nan,nan,nan,nan,"(93, 142)",no pil E/W
2011-11-12 22:36:00,0,nan,nan,nan,nan,"(nan, nan)",nan,nan,nan,nan,nan,nan,nan,nan,"(93, 142)",no pil E/W
2011-11-12 22:48:00,0,nan,nan,nan,nan,"(nan, nan)",nan,nan,nan,nan,nan,nan,nan,nan,"(93, 142)",no pil E/W
2011-11-12 23:00:00,0,nan,nan,nan,nan,"(nan, nan)",nan,nan,nan,nan,nan,nan,nan,nan,"(93, 142)",no pil E/W
2011-11-12 23:12:00,0,nan,nan,nan,nan,"(nan, nan)",nan,nan,nan,nan,nan,nan,nan,nan,"(93, 142)",no pil E/W
2011-11-12 23:24:00,0,nan,nan,nan,nan,"(nan, nan)",nan,nan,nan,nan,nan,nan,nan,nan,"(93, 142)",no pil E/W
2011-11-12 23:36:00,0,nan,nan,nan,nan,"(nan, nan)",nan,nan,nan,nan,nan,nan,nan,nan,"(93, 142)",no pil E/W
2011-11-12 23:48:00,0,nan,nan,nan,nan,"(nan, nan)",nan,nan,nan,nan,nan,nan,nan,nan,"(93, 142)",no pil E/W
2011-11-13 00:00:00,0,nan,nan,nan,nan,"(nan, nan)",nan,nan,nan,nan,nan,nan,nan,nan,"(93, 142)",no pil E/W
2011-11-13 00:12:00,0,nan,nan,nan,nan,"(nan, nan)",nan,nan,nan,nan,nan,nan,nan,nan,"(93, 142)",no pil E/W
2011-11-13 00:24:00,0,nan,nan,nan,nan,"(nan, nan)",nan,nan,nan,nan,nan,nan,nan,nan,"(93, 142)",no pil E/W
2011-11-13 00:36:00,0,nan,nan,nan,nan,"(nan, nan)",nan,nan,nan,nan,nan,nan,nan,nan,"(93, 142)",no pil E/W
2011-11-13 00:48:00,0,nan,nan,nan,nan,"(nan, nan)",nan,nan,nan,nan,nan,nan,nan,nan,"(93, 142)",no pil E/W
2011-11-13 01:00:00,0,nan,nan,nan,nan,"(nan, nan)",nan,nan,nan,nan,nan,nan,nan,nan,"(93, 142)",no pil E/W
2011-11-13 01:12:00,0,nan,nan,nan,nan,"(nan, nan)",nan,nan,nan,nan,nan,nan,nan,nan,"(93, 142)",no pil E/W
2011-11-13 01:24:00,0,nan,nan,nan,nan,"(nan, nan)",nan,nan,nan,nan,nan,nan,nan,nan,"(93, 142)",no pil E/W
2011-11-13 01:36:00,0,nan,nan,nan,nan,"(nan, nan)",nan,nan,nan,nan,nan,nan,nan,nan,"(93, 142)",no pil E/W
2011-11-13 01:48:00,0,nan,nan,nan,nan,"(nan, nan)",nan,nan,nan,nan,nan,nan,nan,nan,"(93, 142)",no pil E/W
2011-11-13 02:00:00,0,nan,nan,nan,nan,"(nan, nan)",nan,nan,nan,nan,nan,nan,nan,nan,"(93, 142)",no pil E/W
2011-11-13 02:12:00,0,nan,nan,nan,nan,"(nan, nan)",nan,nan,nan,nan,nan,nan,nan,nan,"(93, 142)",no pil E/W
2011-11-13 02:24:00,0,nan,nan,nan,nan,"(nan, nan)",nan,nan,nan,nan,nan,nan,nan,nan,"(93, 142)",no pil E/W
2011-11-13 02:36:00,0,nan,nan,nan,nan,"(nan, nan)",nan,nan,nan,nan,nan,nan,nan,nan,"(93, 142)",no pil E/W
2011-11-13 02:48:00,0,nan,nan,nan,nan,"(nan, nan)",nan,nan,nan,nan,nan,nan,nan,nan,"(93, 142)",no pil E/W
2011-11-13 03:00:00,0,nan,nan,nan,nan,"(nan, nan)",nan,nan,nan,nan,nan,nan,nan,nan,"(93, 142)",no pil E/W
2011-11-13 03:12:00,0,nan,nan,nan,nan,"(nan, nan)",nan,nan,nan,nan,nan,nan,nan,nan,"(93, 142)",no pil E/W
2011-11-13 03:24:00,0,nan,nan,nan,nan,"(nan, nan)",nan,nan,nan,nan,nan,nan,nan,nan,"(93, 142)",no pil E/W
2011-11-13 03:36:00,0,nan,nan,nan,nan,"(nan, nan)",nan,nan,nan,nan,nan,nan,nan,nan,"(93, 142)",no pil E/W
2011-11-13 03:48:00,0,nan,nan,nan,nan,"(nan, nan)",nan,nan,nan,nan,nan,nan,nan,nan,"(93, 142)",no pil E/W
2011-11-13 04:00:00,0,nan,nan,nan,nan,"(nan, nan)",nan,nan,nan,nan,nan,nan,nan,nan,"(93, 142)",no pil E/W
2011-11-13 04:12:00,0,nan,nan,nan,nan,"(nan, nan)",nan,nan,nan,nan,nan,nan,nan,nan,"(93, 142)",no pil E/W
2011-11-13 04:24:00,0,nan,nan,nan,nan,"(nan, nan)",nan,nan,nan,nan,nan,nan,nan,nan,"(93, 142)",no pil E/W
2011-11-13 04:36:00,0,nan,nan,nan,nan,"(nan, nan)",nan,nan,nan,nan,nan,nan,nan,nan,"(93, 142)",no pil E/W
2011-11-13 04:48:00,0,nan,nan,nan,nan,"(nan, nan)",nan,nan,nan,nan,nan,nan,nan,nan,"(93, 142)",no pil E/W
2011-11-13 05:00:00,0,nan,nan,nan,nan,"(nan, nan)",nan,nan,nan,nan,nan,nan,nan,nan,"(93, 142)",no pil E/W
2011-11-13 05:12:00,0,nan,nan,nan,nan,"(nan, nan)",nan,nan,nan,nan,nan,nan,nan,nan,"(93, 142)",no pil E/W
2011-11-13 05:24:00,0,nan,nan,nan,nan,"(nan, nan)",nan,nan,nan,nan,nan,nan,nan,nan,"(93, 142)",no pil E/W
2011-11-13 05:36:00,0,nan,nan,nan,nan,"(nan, nan)",nan,nan,nan,nan,nan,nan,nan,nan,"(93, 142)",no pil E/W
2011-11-13 05:48:00,0,nan,nan,nan,nan,"(nan, nan)",nan,nan,nan,nan,nan,nan,nan,nan,"(93, 142)",no pil E/W
2011-11-13 06:00:00,0,nan,nan,nan,nan,"(nan, nan)",nan,nan,nan,nan,nan,nan,nan,nan,"(93, 142)",no pil E/W
2011-11-13 06:12:00,0,nan,nan,nan,nan,"(nan, nan)",nan,nan,nan,nan,nan,nan,nan,nan,"(93, 142)",no pil E/W
2011-11-13 06:24:00,0,nan,nan,nan,nan,"(nan, nan)",nan,nan,nan,nan,nan,nan,nan,nan,"(93, 142)",no pil E/W
2011-11-13 06:36:00,0,nan,nan,nan,nan,"(nan, nan)",nan,nan,nan,nan,nan,nan,nan,nan,"(93, 142)",no pil E/W
2011-11-13 06:48:00,0,nan,nan,nan,nan,"(nan, nan)",nan,nan,nan,nan,nan,nan,nan,nan,"(93, 142)",no pil E/W
2011-11-13 07:00:00,0,nan,nan,nan,nan,"(nan, nan)",nan,nan,nan,nan,nan,nan,nan,nan,"(93, 142)",no pil E/W
2011-11-13 07:12:00,0,nan,nan,nan,nan,"(nan, nan)",nan,nan,nan,nan,nan,nan,nan,nan,"(93, 142)",no pil E/W
2011-11-13 07:24:00,0,nan,nan,nan,nan,"(nan, nan)",nan,nan,nan,nan,nan,nan,nan,nan,"(93, 142)",no pil E/W
2011-11-13 07:36:00,0,nan,nan,nan,nan,"(nan, nan)",nan,nan,nan,nan,nan,nan,nan,nan,"(93, 142)",no pil E/W
2011-11-13 07:48:00,0,nan,nan,nan,nan,"(nan, nan)",nan,nan,nan,nan,nan,nan,nan,nan,"(93, 142)",no pil E/W
2011-11-13 08:00:00,0,nan,nan,nan,nan,"(nan, nan)",nan,nan,nan,nan,nan,nan,nan,nan,"(93, 142)",no pil E/W
2011-11-13 08:12:00,0,nan,nan,nan,nan,"(nan, nan)",nan,nan,nan,nan,nan,nan,nan,nan,"(93, 142)",no pil E/W
2011-11-13 08:24:00,0,nan,nan,nan,nan,"(nan, nan)",nan,nan,nan,nan,nan,nan,nan,nan,"(93, 142)",no pil E/W
2011-11-13 08:36:00,0,nan,nan,nan,nan,"(nan, nan)",nan,nan,nan,nan,nan,nan,nan,nan,"(93, 142)",no pil E/W
2011-11-13 08:48:00,0,nan,nan,nan,nan,"(nan, nan)",nan,nan,nan,nan,nan,nan,nan,nan,"(93, 142)",no pil E/W
2011-11-13 09:00:00,0,nan,nan,nan,nan,"(nan, nan)",nan,nan,nan,nan,nan,nan,nan,nan,"(93, 142)",no pil E/W
2011-11-13 09:12:00,0,nan,nan,nan,nan,"(nan, nan)",nan,nan,nan,nan,nan,nan,nan,nan,"(93, 142)",no pil E/W
2011-11-13 09:24:00,0,nan,nan,nan,nan,"(nan, nan)",nan,nan,nan,nan,nan,nan,nan,nan,"(93, 142)",no pil E/W
2011-11-13 09:36:00,0,nan,nan,nan,nan,"(nan, nan)",nan,nan,nan,nan,nan,nan,nan,nan,"(93, 142)",no pil E/W
2011-11-13 09:48:00,0,nan,nan,nan,nan,"(nan, nan)",nan,nan,nan,nan,nan,nan,nan,nan,"(93, 142)",no pil E/W
2011-11-13 10:00:00,0,nan,nan,nan,nan,"(nan, nan)",nan,nan,nan,nan,nan,nan,nan,nan,"(93, 142)",no pil E/W
2011-11-13 10:12:00,0,nan,nan,nan,nan,"(nan, nan)",nan,nan,nan,nan,nan,nan,nan,nan,"(93, 142)",no pil E/W
2011-11-13 10:24:00,0,nan,nan,nan,nan,"(nan, nan)",nan,nan,nan,nan,nan,nan,nan,nan,"(93, 142)",no pil E/W
2011-11-13 10:36:00,0,nan,nan,nan,nan,"(nan, nan)",nan,nan,nan,nan,nan,nan,nan,nan,"(93, 142)",no pil E/W
2011-11-13 10:48:00,0,nan,nan,nan,nan,"(nan, nan)",nan,nan,nan,nan,nan,nan,nan,nan,"(93, 142)",no pil E/W
2011-11-13 11:00:00,0,nan,nan,nan,nan,"(nan, nan)",nan,nan,nan,nan,nan,nan,nan,nan,"(93, 142)",no pil E/W
2011-11-13 11:12:00,0,nan,nan,nan,nan,"(nan, nan)",nan,nan,nan,nan,nan,nan,nan,nan,"(93, 142)",no pil E/W
2011-11-13 11:24:00,0,nan,nan,nan,nan,"(nan, nan)",nan,nan,nan,nan,nan,nan,nan,nan,"(93, 142)",no pil E/W
2011-11-13 11:36:00,0,nan,nan,nan,nan,"(nan, nan)",nan,nan,nan,nan,nan,nan,nan,nan,"(93, 142)",no pil E/W
2011-11-13 11:48:00,0,nan,nan,nan,nan,"(nan, nan)",nan,nan,nan,nan,nan,nan,nan,nan,"(93, 142)",no pil E/W
2011-11-13 12:00:00,0,nan,nan,nan,nan,"(nan, nan)",nan,nan,nan,nan,nan,nan,nan,nan,"(93, 142)",no pil E/W
2011-11-13 12:12:00,0,nan,nan,nan,nan,"(nan, nan)",nan,nan,nan,nan,nan,nan,nan,nan,"(93, 142)",no pil E/W
2011-11-13 12:24:00,0,nan,nan,nan,nan,"(nan, nan)",nan,nan,nan,nan,nan,nan,nan,nan,"(93, 142)",no pil E/W
2011-11-13 12:36:00,0,nan,nan,nan,nan,"(nan, nan)",nan,nan,nan,nan,nan,nan,nan,nan,"(93, 142)",no pil E/W
2011-11-13 12:48:00,0,nan,nan,nan,nan,"(nan, nan)",nan,nan,nan,nan,nan,nan,nan,nan,"(93, 142)",no pil E/W
2011-11-13 13:00:00,0,nan,nan,nan,nan,"(nan, nan)",nan,nan,nan,nan,nan,nan,nan,nan,"(93, 142)",no pil E/W
2011-11-13 13:12:00,0,nan,nan,nan,nan,"(nan, nan)",nan,nan,nan,nan,nan,nan,nan,nan,"(93, 142)",no pil E/W
2011-11-13 13:24:00,0,nan,nan,nan,nan,"(nan, nan)",nan,nan,nan,nan,nan,nan,nan,nan,"(93, 142)",no pil E/W
2011-11-13 13:36:00,0,nan,nan,nan,nan,"(nan, nan)",nan,nan,nan,nan,nan,nan,nan,nan,"(93, 142)",no pil E/W
2011-11-13 13:48:00,0,nan,nan,nan,nan,"(nan, nan)",nan,nan,nan,nan,nan,nan,nan,nan,"(93, 142)",no pil E/W
2011-11-13 14:00:00,0,nan,nan,nan,nan,"(nan, nan)",nan,nan,nan,nan,nan,nan,nan,nan,"(93, 142)",no pil E/W
2011-11-13 14:12:00,0,nan,nan,nan,nan,"(nan, nan)",nan,nan,nan,nan,nan,nan,nan,nan,"(93, 142)",no pil E/W
2011-11-13 14:24:00,0,nan,nan,nan,nan,"(nan, nan)",nan,nan,nan,nan,nan,nan,nan,nan,"(93, 142)",no pil E/W
2011-11-13 14:36:00,0,nan,nan,nan,nan,"(nan, nan)",nan,nan,nan,nan,nan,nan,nan,nan,"(93, 142)",no pil E/W
2011-11-13 14:48:00,0,nan,nan,nan,nan,"(nan, nan)",nan,nan,nan,nan,nan,nan,nan,nan,"(93, 142)",no pil E/W
2011-11-13 15:00:00,0,nan,nan,nan,nan,"(nan, nan)",nan,nan,nan,nan,nan,nan,nan,nan,"(93, 142)",no pil E/W
2011-11-13 15:12:00,0,nan,nan,nan,nan,"(nan, nan)",nan,nan,nan,nan,nan,nan,nan,nan,"(93, 142)",no pil E/W
2011-11-13 15:24:00,0,nan,nan,nan,nan,"(nan, nan)",nan,nan,nan,nan,nan,nan,nan,nan,"(93, 142)",no pil E/W
2011-11-13 15:36:00,0,nan,nan,nan,nan,"(nan, nan)",nan,nan,nan,nan,nan,nan,nan,nan,"(93, 142)",no pil E/W
2011-11-13 15:48:00,0,nan,nan,nan,nan,"(nan, nan)",nan,nan,nan,nan,nan,nan,nan,nan,"(93, 142)",no pil E/W
2011-11-13 16:00:00,0,nan,nan,nan,nan,"(nan, nan)",nan,nan,nan,nan,nan,nan,nan,nan,"(93, 142)",no pil E/W
2011-11-13 16:12:00,0,nan,nan,nan,nan,"(nan, nan)",nan,nan,nan,nan,nan,nan,nan,nan,"(93, 142)",no pil E/W
2011-11-13 16:24:00,0,nan,nan,nan,nan,"(nan, nan)",nan,nan,nan,nan,nan,nan,nan,nan,"(93, 142)",no pil E/W
2011-11-13 16:36:00,0,nan,nan,nan,nan,"(nan, nan)",nan,nan,nan,nan,nan,nan,nan,nan,"(93, 142)",no pil E/W
2011-11-13 16:48:00,0,nan,nan,nan,nan,"(nan, nan)",nan,nan,nan,nan,nan,nan,nan,nan,"(93, 142)",no pil E/W
2011-11-13 17:00:00,0,nan,nan,nan,nan,"(nan, nan)",nan,nan,nan,nan,nan,nan,nan,nan,"(93, 142)",no pil E/W
2011-11-13 17:12:00,0,nan,nan,nan,nan,"(nan, nan)",nan,nan,nan,nan,nan,nan,nan,nan,"(93, 142)",no pil E/W
2011-11-13 17:24:00,0,nan,nan,nan,nan,"(nan, nan)",nan,nan,nan,nan,nan,nan,nan,nan,"(93, 142)",no pil E/W
2011-11-13 17:36:00,0,nan,nan,nan,nan,"(nan, nan)",nan,nan,nan,nan,nan,nan,nan,nan,"(93, 142)",no pil E/W
2011-11-13 17:48:00,0,nan,nan,nan,nan,"(nan, nan)",nan,nan,nan,nan,nan,nan,nan,nan,"(93, 142)",no pil E/W
2011-11-13 18:00:00,0,nan,nan,nan,nan,"(nan, nan)",nan,nan,nan,nan,nan,nan,nan,nan,"(93, 142)",no pil E/W
2011-11-13 18:12:00,0,nan,nan,nan,nan,"(nan, nan)",nan,nan,nan,nan,nan,nan,nan,nan,"(93, 142)",no pil E/W
2011-11-13 18:24:00,0,nan,nan,nan,nan,"(nan, nan)",nan,nan,nan,nan,nan,nan,nan,nan,"(93, 142)",no pil E/W
2011-11-13 18:36:00,0,nan,nan,nan,nan,"(nan, nan)",nan,nan,nan,nan,nan,nan,nan,nan,"(93, 142)",no pil E/W
2011-11-13 18:48:00,0,nan,nan,nan,nan,"(nan, nan)",nan,nan,nan,nan,nan,nan,nan,nan,"(93, 142)",no pil E/W
2011-11-13 19:00:00,0,nan,nan,nan,nan,"(nan, nan)",nan,nan,nan,nan,nan,nan,nan,nan,"(93, 142)",no pil E/W
2011-11-13 19:12:00,0,nan,nan,nan,nan,"(nan, nan)",nan,nan,nan,nan,nan,nan,nan,nan,"(93, 142)",no pil E/W
2011-11-13 19:24:00,0,nan,nan,nan,nan,"(nan, nan)",nan,nan,nan,nan,nan,nan,nan,nan,"(93, 142)",no pil E/W
2011-11-13 19:36:00,0,nan,nan,nan,nan,"(nan, nan)",nan,nan,nan,nan,nan,nan,nan,nan,"(93, 142)",no pil E/W
2011-11-13 19:48:00,0,nan,nan,nan,nan,"(nan, nan)",nan,nan,nan,nan,nan,nan,nan,nan,"(93, 142)",no pil E/W
2011-11-13 20:00:00,0,nan,nan,nan,nan,"(nan, nan)",nan,nan,nan,nan,nan,nan,nan,nan,"(93, 142)",no pil E/W
2011-11-13 20:12:00,0,nan,nan,nan,nan,"(nan, nan)",nan,nan,nan,nan,nan,nan,nan,nan,"(93, 142)",no pil E/W
2011-11-13 20:24:00,0,nan,nan,nan,nan,"(nan, nan)",nan,nan,nan,nan,nan,nan,nan,nan,"(93, 142)",no pil E/W
2011-11-13 20:36:00,0,nan,nan,nan,nan,"(nan, nan)",nan,nan,nan,nan,nan,nan,nan,nan,"(93, 142)",no pil E/W
2011-11-13 20:48:00,0,nan,nan,nan,nan,"(nan, nan)",nan,nan,nan,nan,nan,nan,nan,nan,"(93, 142)",no pil E/W
2011-11-13 21:00:00,0,nan,nan,nan,nan,"(nan, nan)",nan,nan,nan,nan,nan,nan,nan,nan,"(93, 142)",no pil E/W
2011-11-13 21:12:00,0,nan,nan,nan,nan,"(nan, nan)",nan,nan,nan,nan,nan,nan,nan,nan,"(93, 142)",no pil E/W
2011-11-13 21:24:00,0,nan,nan,nan,nan,"(nan, nan)",nan,nan,nan,nan,nan,nan,nan,nan,"(93, 142)",no pil E/W
2011-11-13 21:36:00,0,nan,nan,nan,nan,"(nan, nan)",nan,nan,nan,nan,nan,nan,nan,nan,"(93, 142)",no pil E/W
2011-11-13 21:48:00,0,nan,nan,nan,nan,"(nan, nan)",nan,nan,nan,nan,nan,nan,nan,nan,"(93, 142)",no pil E/W
2011-11-13 22:00:00,0,nan,nan,nan,nan,"(nan, nan)",nan,nan,nan,nan,nan,nan,nan,nan,"(93, 142)",no pil E/W
2011-11-13 22:12:00,0,nan,nan,nan,nan,"(nan, nan)",nan,nan,nan,nan,nan,nan,nan,nan,"(93, 142)",no pil E/W
2011-11-13 22:24:00,0,nan,nan,nan,nan,"(nan, nan)",nan,nan,nan,nan,nan,nan,nan,nan,"(93, 142)",no pil E/W
2011-11-13 22:36:00,0,nan,nan,nan,nan,"(nan, nan)",nan,nan,nan,nan,nan,nan,nan,nan,"(93, 142)",no pil E/W
2011-11-13 22:48:00,0,nan,nan,nan,nan,"(nan, nan)",nan,nan,nan,nan,nan,nan,nan,nan,"(93, 142)",no pil E/W
2011-11-13 23:00:00,0,nan,nan,nan,nan,"(nan, nan)",nan,nan,nan,nan,nan,nan,nan,nan,"(93, 142)",no pil E/W
2011-11-13 23:12:00,0,nan,nan,nan,nan,"(nan, nan)",nan,nan,nan,nan,nan,nan,nan,nan,"(93, 142)",no pil E/W
2011-11-13 23:24:00,0,nan,nan,nan,nan,"(nan, nan)",nan,nan,nan,nan,nan,nan,nan,nan,"(93, 142)",no pil E/W
2011-11-13 23:36:00,0,nan,nan,nan,nan,"(nan, nan)",nan,nan,nan,nan,nan,nan,nan,nan,"(93, 142)",no pil E/W
2011-11-13 23:48:00,0,nan,nan,nan,nan,"(nan, nan)",nan,nan,nan,nan,nan,nan,nan,nan,"(93, 142)",no pil E/W
2011-11-14 00:00:00,0,nan,nan,nan,nan,"(nan, nan)",nan,nan,nan,nan,nan,nan,nan,nan,"(93, 142)",no pil E/W
2011-11-14 00:12:00,0,nan,nan,nan,nan,"(nan, nan)",nan,nan,nan,nan,nan,nan,nan,nan,"(93, 142)",no pil E/W
2011-11-14 00:24:00,0,nan,nan,nan,nan,"(nan, nan)",nan,nan,nan,nan,nan,nan,nan,nan,"(93, 142)",no pil E/W
2011-11-14 00:36:00,0,nan,nan,nan,nan,"(nan, nan)",nan,nan,nan,nan,nan,nan,nan,nan,"(93, 142)",no pil E/W
2011-11-14 00:48:00,0,nan,nan,nan,nan,"(nan, nan)",nan,nan,nan,nan,nan,nan,nan,nan,"(93, 142)",no pil E/W
2011-11-14 01:00:00,0,nan,nan,nan,nan,"(nan, nan)",nan,nan,nan,nan,nan,nan,nan,nan,"(93, 142)",no pil E/W
2011-11-14 01:12:00,0,nan,nan,nan,nan,"(nan, nan)",nan,nan,nan,nan,nan,nan,nan,nan,"(93, 142)",no pil E/W
2011-11-14 01:24:00,0,nan,nan,nan,nan,"(nan, nan)",nan,nan,nan,nan,nan,nan,nan,nan,"(93, 142)",no pil E/W
2011-11-14 01:36:00,0,nan,nan,nan,nan,"(nan, nan)",nan,nan,nan,nan,nan,nan,nan,nan,"(93, 142)",no pil E/W
2011-11-14 01:48:00,0,nan,nan,nan,nan,"(nan, nan)",nan,nan,nan,nan,nan,nan,nan,nan,"(93, 142)",no pil E/W
2011-11-14 02:00:00,0,nan,nan,nan,nan,"(nan, nan)",nan,nan,nan,nan,nan,nan,nan,nan,"(93, 142)",no pil E/W
2011-11-14 02:12:00,0,nan,nan,nan,nan,"(nan, nan)",nan,nan,nan,nan,nan,nan,nan,nan,"(93, 142)",no pil E/W
2011-11-14 02:24:00,0,nan,nan,nan,nan,"(nan, nan)",nan,nan,nan,nan,nan,nan,nan,nan,"(93, 142)",no pil E/W
2011-11-14 02:36:00,0,nan,nan,nan,nan,"(nan, nan)",nan,nan,nan,nan,nan,nan,nan,nan,"(93, 142)",no pil E/W
2011-11-14 02:48:00,0,nan,nan,nan,nan,"(nan, nan)",nan,nan,nan,nan,nan,nan,nan,nan,"(93, 142)",no pil E/W
2011-11-14 03:00:00,0,nan,nan,nan,nan,"(nan, nan)",nan,nan,nan,nan,nan,nan,nan,nan,"(93, 142)",no pil E/W
2011-11-14 03:12:00,0,nan,nan,nan,nan,"(nan, nan)",nan,nan,nan,nan,nan,nan,nan,nan,"(93, 142)",no pil E/W
2011-11-14 03:24:00,0,nan,nan,nan,nan,"(nan, nan)",nan,nan,nan,nan,nan,nan,nan,nan,"(93, 142)",no pil E/W
2011-11-14 03:36:00,0,nan,nan,nan,nan,"(nan, nan)",nan,nan,nan,nan,nan,nan,nan,nan,"(93, 142)",no pil E/W
2011-11-14 03:48:00,0,nan,nan,nan,nan,"(nan, nan)",nan,nan,nan,nan,nan,nan,nan,nan,"(93, 142)",no pil E/W
2011-11-14 04:00:00,0,nan,nan,nan,nan,"(nan, nan)",nan,nan,nan,nan,nan,nan,nan,nan,"(93, 142)",no pil E/W
2011-11-14 04:12:00,0,nan,nan,nan,nan,"(nan, nan)",nan,nan,nan,nan,nan,nan,nan,nan,"(93, 142)",no pil E/W
2011-11-14 04:24:00,0,nan,nan,nan,nan,"(nan, nan)",nan,nan,nan,nan,nan,nan,nan,nan,"(93, 142)",no pil E/W
2011-11-14 04:36:00,0,nan,nan,nan,nan,"(nan, nan)",nan,nan,nan,nan,nan,nan,nan,nan,"(93, 142)",no pil E/W
2011-11-14 04:48:00,0,nan,nan,nan,nan,"(nan, nan)",nan,nan,nan,nan,nan,nan,nan,nan,"(93, 142)",no pil E/W
2011-11-14 05:00:00,0,nan,nan,nan,nan,"(nan, nan)",nan,nan,nan,nan,nan,nan,nan,nan,"(93, 142)",no pil E/W
2011-11-14 05:12:00,0,nan,nan,nan,nan,"(nan, nan)",nan,nan,nan,nan,nan,nan,nan,nan,"(93, 142)",no pil E/W
2011-11-14 05:24:00,0,nan,nan,nan,nan,"(nan, nan)",nan,nan,nan,nan,nan,nan,nan,nan,"(93, 142)",no pil E/W
2011-11-14 05:36:00,0,nan,nan,nan,nan,"(nan, nan)",nan,nan,nan,nan,nan,nan,nan,nan,"(93, 142)",no pil E/W
2011-11-14 05:48:00,0,nan,nan,nan,nan,"(nan, nan)",nan,nan,nan,nan,nan,nan,nan,nan,"(93, 142)",no pil E/W
2011-11-14 06:00:00,0,nan,nan,nan,nan,"(nan, nan)",nan,nan,nan,nan,nan,nan,nan,nan,"(93, 142)",no pil E/W
2011-11-14 06:12:00,0,nan,nan,nan,nan,"(nan, nan)",nan,nan,nan,nan,nan,nan,nan,nan,"(93, 142)",no pil E/W
2011-11-14 06:24:00,0,nan,nan,nan,nan,"(nan, nan)",nan,nan,nan,nan,nan,nan,nan,nan,"(93, 142)",no pil E/W
2011-11-14 06:36:00,0,nan,nan,nan,nan,"(nan, nan)",nan,nan,nan,nan,nan,nan,nan,nan,"(93, 142)",no pil E/W
2011-11-14 06:48:00,0,nan,nan,nan,nan,"(nan, nan)",nan,nan,nan,nan,nan,nan,nan,nan,"(93, 142)",no pil E/W
2011-11-14 07:00:00,0,nan,nan,nan,nan,"(nan, nan)",nan,nan,nan,nan,nan,nan,nan,nan,"(93, 142)",no pil E/W
2011-11-14 07:12:00,0,nan,nan,nan,nan,"(nan, nan)",nan,nan,nan,nan,nan,nan,nan,nan,"(93, 142)",no pil E/W
2011-11-14 07:24:00,0,nan,nan,nan,nan,"(nan, nan)",nan,nan,nan,nan,nan,nan,nan,nan,"(93, 142)",no pil E/W
2011-11-14 07:36:00,0,nan,nan,nan,nan,"(nan, nan)",nan,nan,nan,nan,nan,nan,nan,nan,"(93, 142)",no pil E/W
2011-11-14 07:48:00,0,nan,nan,nan,nan,"(nan, nan)",nan,nan,nan,nan,nan,nan,nan,nan,"(93, 142)",no pil E/W
2011-11-14 08:00:00,0,nan,nan,nan,nan,"(nan, nan)",nan,nan,nan,nan,nan,nan,nan,nan,"(93, 142)",no pil E/W
2011-11-14 08:12:00,0,nan,nan,nan,nan,"(nan, nan)",nan,nan,nan,nan,nan,nan,nan,nan,"(93, 142)",no pil E/W
2011-11-14 08:24:00,0,nan,nan,nan,nan,"(nan, nan)",nan,nan,nan,nan,nan,nan,nan,nan,"(93, 142)",no pil E/W
2011-11-14 08:36:00,0,nan,nan,nan,nan,"(nan, nan)",nan,nan,nan,nan,nan,nan,nan,nan,"(93, 142)",no pil E/W
2011-11-14 08:48:00,0,nan,nan,nan,nan,"(nan, nan)",nan,nan,nan,nan,nan,nan,nan,nan,"(93, 142)",no pil E/W
2011-11-14 09:00:00,0,nan,nan,nan,nan,"(nan, nan)",nan,nan,nan,nan,nan,nan,nan,nan,"(93, 142)",no pil E/W
2011-11-14 09:12:00,0,nan,nan,nan,nan,"(nan, nan)",nan,nan,nan,nan,nan,nan,nan,nan,"(93, 142)",no pil E/W
2011-11-14 09:24:00,0,nan,nan,nan,nan,"(nan, nan)",nan,nan,nan,nan,nan,nan,nan,nan,"(93, 142)",no pil E/W
2011-11-14 09:36:00,0,nan,nan,nan,nan,"(nan, nan)",nan,nan,nan,nan,nan,nan,nan,nan,"(93, 142)",no pil E/W
2011-11-14 09:48:00,0,nan,nan,nan,nan,"(nan, nan)",nan,nan,nan,nan,nan,nan,nan,nan,"(93, 142)",no pil E/W
2011-11-14 10:00:00,0,nan,nan,nan,nan,"(nan, nan)",nan,nan,nan,nan,nan,nan,nan,nan,"(93, 142)",no pil E/W
2011-11-14 10:12:00,0,nan,nan,nan,nan,"(nan, nan)",nan,nan,nan,nan,nan,nan,nan,nan,"(93, 142)",no pil E/W
2011-11-14 10:24:00,0,nan,nan,nan,nan,"(nan, nan)",nan,nan,nan,nan,nan,nan,nan,nan,"(93, 142)",no pil E/W
2011-11-14 10:36:00,0,nan,nan,nan,nan,"(nan, nan)",nan,nan,nan,nan,nan,nan,nan,nan,"(93, 142)",no pil E/W
2011-11-14 10:48:00,0,nan,nan,nan,nan,"(nan, nan)",nan,nan,nan,nan,nan,nan,nan,nan,"(93, 142)",no pil E/W
2011-11-14 11:00:00,0,nan,nan,nan,nan,"(nan, nan)",nan,nan,nan,nan,nan,nan,nan,nan,"(93, 142)",no pil E/W
2011-11-14 11:12:00,0,nan,nan,nan,nan,"(nan, nan)",nan,nan,nan,nan,nan,nan,nan,nan,"(93, 142)",no pil E/W
2011-11-14 11:24:00,0,nan,nan,nan,nan,"(nan, nan)",nan,nan,nan,nan,nan,nan,nan,nan,"(93, 142)",no pil E/W
2011-11-14 11:36:00,0,nan,nan,nan,nan,"(nan, nan)",nan,nan,nan,nan,nan,nan,nan,nan,"(93, 142)",no pil E/W
2011-11-14 11:48:00,0,nan,nan,nan,nan,"(nan, nan)",nan,nan,nan,nan,nan,nan,nan,nan,"(93, 142)",no pil E/W
2011-11-14 12:00:00,0,nan,nan,nan,nan,"(nan, nan)",nan,nan,nan,nan,nan,nan,nan,nan,"(93, 142)",no pil E/W
2011-11-14 12:12:00,0,nan,nan,nan,nan,"(nan, nan)",nan,nan,nan,nan,nan,nan,nan,nan,"(93, 142)",no pil E/W
2011-11-14 12:24:00,0,nan,nan,nan,nan,"(nan, nan)",nan,nan,nan,nan,nan,nan,nan,nan,"(93, 142)",no pil E/W
2011-11-14 12:36:00,0,nan,nan,nan,nan,"(nan, nan)",nan,nan,nan,nan,nan,nan,nan,nan,"(93, 142)",no pil E/W
2011-11-14 12:48:00,0,nan,nan,nan,nan,"(nan, nan)",nan,nan,nan,nan,nan,nan,nan,nan,"(93, 142)",no pil E/W
2011-11-14 13:00:00,0,nan,nan,nan,nan,"(nan, nan)",nan,nan,nan,nan,nan,nan,nan,nan,"(93, 142)",no pil E/W
2011-11-14 13:12:00,0,nan,nan,nan,nan,"(nan, nan)",nan,nan,nan,nan,nan,nan,nan,nan,"(93, 142)",no pil E/W
2011-11-14 13:24:00,0,nan,nan,nan,nan,"(nan, nan)",nan,nan,nan,nan,nan,nan,nan,nan,"(93, 142)",no pil E/W
2011-11-14 13:36:00,0,nan,nan,nan,nan,"(nan, nan)",nan,nan,nan,nan,nan,nan,nan,nan,"(93, 142)",no pil E/W
2011-11-14 13:48:00,0,nan,nan,nan,nan,"(nan, nan)",nan,nan,nan,nan,nan,nan,nan,nan,"(93, 142)",no pil E/W
2011-11-14 14:00:00,0,nan,nan,nan,nan,"(nan, nan)",nan,nan,nan,nan,nan,nan,nan,nan,"(93, 142)",no pil E/W
2011-11-14 14:12:00,0,nan,nan,nan,nan,"(nan, nan)",nan,nan,nan,nan,nan,nan,nan,nan,"(93, 142)",no pil E/W
2011-11-14 14:24:00,0,nan,nan,nan,nan,"(nan, nan)",nan,nan,nan,nan,nan,nan,nan,nan,"(93, 142)",no pil E/W
2011-11-14 14:36:00,0,nan,nan,nan,nan,"(nan, nan)",nan,nan,nan,nan,nan,nan,nan,nan,"(93, 142)",no pil E/W
2011-11-14 14:48:00,0,nan,nan,nan,nan,"(nan, nan)",nan,nan,nan,nan,nan,nan,nan,nan,"(93, 142)",no pil E/W
2011-11-14 15:00:00,0,nan,nan,nan,nan,"(nan, nan)",nan,nan,nan,nan,nan,nan,nan,nan,"(93, 142)",no pil E/W
2011-11-14 15:12:00,0,nan,nan,nan,nan,"(nan, nan)",nan,nan,nan,nan,nan,nan,nan,nan,"(93, 142)",no pil E/W
2011-11-14 15:24:00,0,nan,nan,nan,nan,"(nan, nan)",nan,nan,nan,nan,nan,nan,nan,nan,"(93, 142)",no pil E/W
2011-11-14 15:36:00,0,nan,nan,nan,nan,"(nan, nan)",nan,nan,nan,nan,nan,nan,nan,nan,"(93, 142)",no pil E/W
2011-11-14 15:48:00,0,nan,nan,nan,nan,"(nan, nan)",nan,nan,nan,nan,nan,nan,nan,nan,"(93, 142)",no pil E/W
2011-11-14 16:00:00,0,nan,nan,nan,nan,"(nan, nan)",nan,nan,nan,nan,nan,nan,nan,nan,"(93, 142)",no pil E/W
2011-11-14 16:12:00,0,nan,nan,nan,nan,"(nan, nan)",nan,nan,nan,nan,nan,nan,nan,nan,"(93, 142)",no pil E/W
2011-11-14 16:24:00,0,nan,nan,nan,nan,"(nan, nan)",nan,nan,nan,nan,nan,nan,nan,nan,"(93, 142)",no pil E/W
2011-11-14 16:36:00,0,nan,nan,nan,nan,"(nan, nan)",nan,nan,nan,nan,nan,nan,nan,nan,"(93, 142)",no pil E/W
2011-11-14 16:48:00,0,nan,nan,nan,nan,"(nan, nan)",nan,nan,nan,nan,nan,nan,nan,nan,"(93, 142)",no pil E/W
2011-11-14 17:00:00,0,nan,nan,nan,nan,"(nan, nan)",nan,nan,nan,nan,nan,nan,nan,nan,"(93, 142)",no pil E/W
2011-11-14 17:12:00,0,nan,nan,nan,nan,"(nan, nan)",nan,nan,nan,nan,nan,nan,nan,nan,"(93, 142)",no pil E/W
2011-11-14 17:24:00,0,nan,nan,nan,nan,"(nan, nan)",nan,nan,nan,nan,nan,nan,nan,nan,"(93, 142)",no pil E/W
2011-11-14 17:36:00,0,nan,nan,nan,nan,"(nan, nan)",nan,nan,nan,nan,nan,nan,nan,nan,"(93, 142)",no pil E/W
2011-11-14 17:48:00,0,nan,nan,nan,nan,"(nan, nan)",nan,nan,nan,nan,nan,nan,nan,nan,"(93, 142)",no pil E/W
2011-11-14 18:00:00,0,nan,nan,nan,nan,"(nan, nan)",nan,nan,nan,nan,nan,nan,nan,nan,"(93, 142)",no pil E/W
2011-11-14 18:12:00,0,nan,nan,nan,nan,"(nan, nan)",nan,nan,nan,nan,nan,nan,nan,nan,"(93, 142)",no pil E/W
2011-11-14 18:24:00,0,nan,nan,nan,nan,"(nan, nan)",nan,nan,nan,nan,nan,nan,nan,nan,"(93, 142)",no pil E/W
2011-11-14 18:36:00,0,nan,nan,nan,nan,"(nan, nan)",nan,nan,nan,nan,nan,nan,nan,nan,"(93, 142)",no pil E/W
2011-11-14 18:48:00,0,nan,nan,nan,nan,"(nan, nan)",nan,nan,nan,nan,nan,nan,nan,nan,"(93, 142)",no pil E/W
2011-11-14 19:00:00,0,nan,nan,nan,nan,"(nan, nan)",nan,nan,nan,nan,nan,nan,nan,nan,"(93, 142)",no pil E/W
2011-11-14 19:12:00,0,nan,nan,nan,nan,"(nan, nan)",nan,nan,nan,nan,nan,nan,nan,nan,"(93, 142)",no pil E/W
2011-11-14 19:24:00,0,nan,nan,nan,nan,"(nan, nan)",nan,nan,nan,nan,nan,nan,nan,nan,"(93, 142)",no pil E/W
2011-11-14 19:36:00,0,nan,nan,nan,nan,"(nan, nan)",nan,nan,nan,nan,nan,nan,nan,nan,"(93, 142)",no pil E/W
2011-11-14 19:48:00,0,nan,nan,nan,nan,"(nan, nan)",nan,nan,nan,nan,nan,nan,nan,nan,"(93, 142)",no pil E/W
2011-11-14 20:00:00,0,nan,nan,nan,nan,"(nan, nan)",nan,nan,nan,nan,nan,nan,nan,nan,"(93, 142)",no pil E/W
2011-11-14 20:12:00,0,nan,nan,nan,nan,"(nan, nan)",nan,nan,nan,nan,nan,nan,nan,nan,"(93, 142)",no pil E/W
2011-11-14 20:24:00,0,nan,nan,nan,nan,"(nan, nan)",nan,nan,nan,nan,nan,nan,nan,nan,"(93, 142)",no pil E/W
2011-11-14 20:36:00,0,nan,nan,nan,nan,"(nan, nan)",nan,nan,nan,nan,nan,nan,nan,nan,"(93, 142)",no pil E/W
2011-11-14 20:48:00,0,nan,nan,nan,nan,"(nan, nan)",nan,nan,nan,nan,nan,nan,nan,nan,"(93, 142)",no pil E/W
2011-11-14 21:00:00,0,nan,nan,nan,nan,"(nan, nan)",nan,nan,nan,nan,nan,nan,nan,nan,"(93, 142)",no pil E/W
2011-11-14 21:12:00,0,nan,nan,nan,nan,"(nan, nan)",nan,nan,nan,nan,nan,nan,nan,nan,"(93, 142)",no pil E/W
2011-11-14 21:24:00,0,nan,nan,nan,nan,"(nan, nan)",nan,nan,nan,nan,nan,nan,nan,nan,"(93, 142)",no pil E/W
2011-11-14 21:36:00,0,nan,nan,nan,nan,"(nan, nan)",nan,nan,nan,nan,nan,nan,nan,nan,"(93, 142)",no pil E/W
2011-11-14 21:48:00,0,nan,nan,nan,nan,"(nan, nan)",nan,nan,nan,nan,nan,nan,nan,nan,"(93, 142)",no pil E/W
2011-11-14 22:00:00,0,nan,nan,nan,nan,"(nan, nan)",nan,nan,nan,nan,nan,nan,nan,nan,"(93, 142)",no pil E/W
2011-11-14 22:12:00,0,nan,nan,nan,nan,"(nan, nan)",nan,nan,nan,nan,nan,nan,nan,nan,"(93, 142)",no pil E/W
2011-11-14 22:24:00,0,nan,nan,nan,nan,"(nan, nan)",nan,nan,nan,nan,nan,nan,nan,nan,"(93, 142)",no pil E/W
2011-11-14 22:36:00,0,nan,nan,nan,nan,"(nan, nan)",nan,nan,nan,nan,nan,nan,nan,nan,"(93, 142)",no pil E/W
2011-11-14 22:48:00,0,nan,nan,nan,nan,"(nan, nan)",nan,nan,nan,nan,nan,nan,nan,nan,"(93, 142)",no pil E/W
2011-11-14 23:00:00,0,nan,nan,nan,nan,"(nan, nan)",nan,nan,nan,nan,nan,nan,nan,nan,"(93, 142)",no pil E/W
2011-11-14 23:12:00,0,nan,nan,nan,nan,"(nan, nan)",nan,nan,nan,nan,nan,nan,nan,nan,"(93, 142)",no pil E/W
2011-11-14 23:24:00,0,nan,nan,nan,nan,"(nan, nan)",nan,nan,nan,nan,nan,nan,nan,nan,"(93, 142)",no pil E/W
2011-11-14 23:36:00,0,nan,nan,nan,nan,"(nan, nan)",nan,nan,nan,nan,nan,nan,nan,nan,"(93, 142)",no pil E/W
2011-11-14 23:48:00,0,nan,nan,nan,nan,"(nan, nan)",nan,nan,nan,nan,nan,nan,nan,nan,"(93, 142)",no pil E/W
2011-11-15 00:00:00,0,nan,nan,nan,nan,"(nan, nan)",nan,nan,nan,nan,nan,nan,nan,nan,"(93, 142)",no pil E/W
2011-11-15 00:12:00,0,nan,nan,nan,nan,"(nan, nan)",nan,nan,nan,nan,nan,nan,nan,nan,"(93, 142)",no pil E/W
2011-11-15 00:24:00,0,nan,nan,nan,nan,"(nan, nan)",nan,nan,nan,nan,nan,nan,nan,nan,"(93, 142)",no pil E/W
2011-11-15 00:36:00,0,nan,nan,nan,nan,"(nan, nan)",nan,nan,nan,nan,nan,nan,nan,nan,"(93, 142)",no pil E/W
2011-11-15 00:48:00,0,nan,nan,nan,nan,"(nan, nan)",nan,nan,nan,nan,nan,nan,nan,nan,"(93, 142)",no pil E/W
2011-11-15 01:00:00,0,nan,nan,nan,nan,"(nan, nan)",nan,nan,nan,nan,nan,nan,nan,nan,"(93, 142)",no pil E/W
2011-11-15 01:12:00,0,nan,nan,nan,nan,"(nan, nan)",nan,nan,nan,nan,nan,nan,nan,nan,"(93, 142)",no pil E/W
2011-11-15 01:24:00,0,nan,nan,nan,nan,"(nan, nan)",nan,nan,nan,nan,nan,nan,nan,nan,"(93, 142)",no pil E/W
2011-11-15 01:36:00,0,nan,nan,nan,nan,"(nan, nan)",nan,nan,nan,nan,nan,nan,nan,nan,"(93, 142)",no pil E/W
2011-11-15 01:48:00,0,nan,nan,nan,nan,"(nan, nan)",nan,nan,nan,nan,nan,nan,nan,nan,"(93, 142)",no pil E/W
2011-11-15 02:00:00,0,nan,nan,nan,nan,"(nan, nan)",nan,nan,nan,nan,nan,nan,nan,nan,"(93, 142)",no pil E/W
2011-11-15 02:12:00,0,nan,nan,nan,nan,"(nan, nan)",nan,nan,nan,nan,nan,nan,nan,nan,"(93, 142)",no pil E/W
2011-11-15 02:24:00,0,nan,nan,nan,nan,"(nan, nan)",nan,nan,nan,nan,nan,nan,nan,nan,"(93, 142)",no pil E/W
2011-11-15 02:48:00,0,nan,nan,nan,nan,"(nan, nan)",nan,nan,nan,nan,nan,nan,nan,nan,"(93, 142)",no pil E/W
2011-11-15 03:00:00,0,nan,nan,nan,nan,"(nan, nan)",nan,nan,nan,nan,nan,nan,nan,nan,"(93, 142)",no pil E/W
2011-11-15 03:12:00,0,nan,nan,nan,nan,"(nan, nan)",nan,nan,nan,nan,nan,nan,nan,nan,"(93, 142)",no pil E/W
2011-11-15 03:24:00,0,nan,nan,nan,nan,"(nan, nan)",nan,nan,nan,nan,nan,nan,nan,nan,"(93, 142)",no pil E/W
2011-11-15 03:36:00,0,nan,nan,nan,nan,"(nan, nan)",nan,nan,nan,nan,nan,nan,nan,nan,"(93, 142)",no pil E/W
2011-11-15 03:48:00,0,nan,nan,nan,nan,"(nan, nan)",nan,nan,nan,nan,nan,nan,nan,nan,"(93, 142)",no pil E/W
2011-11-15 04:00:00,0,nan,nan,nan,nan,"(nan, nan)",nan,nan,nan,nan,nan,nan,nan,nan,"(93, 142)",no pil E/W
2011-11-15 05:00:00,0,nan,nan,nan,nan,"(nan, nan)",nan,nan,nan,nan,nan,nan,nan,nan,"(93, 142)",no pil E/W
2011-11-15 05:12:00,0,nan,nan,nan,nan,"(nan, nan)",nan,nan,nan,nan,nan,nan,nan,nan,"(93, 142)",no pil E/W
2011-11-15 05:24:00,0,nan,nan,nan,nan,"(nan, nan)",nan,nan,nan,nan,nan,nan,nan,nan,"(93, 142)",no pil E/W
2011-11-15 05:36:00,0,nan,nan,nan,nan,"(nan, nan)",nan,nan,nan,nan,nan,nan,nan,nan,"(93, 142)",no pil E/W
2011-11-15 05:48:00,0,nan,nan,nan,nan,"(nan, nan)",nan,nan,nan,nan,nan,nan,nan,nan,"(93, 142)",no pil E/W
2011-11-15 06:00:00,0,nan,nan,nan,nan,"(nan, nan)",nan,nan,nan,nan,nan,nan,nan,nan,"(93, 142)",no pil E/W
2011-11-15 06:12:00,0,nan,nan,nan,nan,"(nan, nan)",nan,nan,nan,nan,nan,nan,nan,nan,"(93, 142)",no pil E/W
2011-11-15 06:24:00,0,nan,nan,nan,nan,"(nan, nan)",nan,nan,nan,nan,nan,nan,nan,nan,"(93, 142)",no pil E/W
2011-11-15 06:36:00,0,nan,nan,nan,nan,"(nan, nan)",nan,nan,nan,nan,nan,nan,nan,nan,"(93, 142)",no pil E/W
2011-11-15 06:48:00,0,nan,nan,nan,nan,"(nan, nan)",nan,nan,nan,nan,nan,nan,nan,nan,"(93, 142)",no pil E/W
2011-11-15 07:00:00,0,nan,nan,nan,nan,"(nan, nan)",nan,nan,nan,nan,nan,nan,nan,nan,"(93, 142)",no pil E/W
2011-11-15 07:12:00,0,nan,nan,nan,nan,"(nan, nan)",nan,nan,nan,nan,nan,nan,nan,nan,"(93, 142)",no pil E/W
2011-11-15 07:36:00,0,nan,nan,nan,nan,"(nan, nan)",nan,nan,nan,nan,nan,nan,nan,nan,"(93, 142)",no pil E/W
