,"num_PILs,sum_PIL_length,sum_RoPI_Area,sum_mag_field_strength,fra_dim,eige_vals,convexity,Hu1,Hu2,Hu3,Hu4,Hu5,Hu6,Hu7,patch_shape,detection_flag",detection_flag
2012-04-28 05:48:00,,no pil SPE
2012-04-28 06:12:00,,no pil SPE
2012-04-28 06:24:00,,no pil SPE
2012-04-28 06:36:00,,no pil SPE
2012-04-28 06:48:00,,no pil SPE
2012-04-28 07:00:00,,no pil SPE
2012-04-28 07:12:00,,no pil SPE
2012-04-28 07:24:00,,no pil SPE
2012-04-28 07:36:00,,no pil SPE
2012-04-28 07:48:00,,no pil SPE
2012-04-28 08:00:00,,no pil SPE
2012-04-28 08:36:00,,no pil SPE
2012-04-28 08:48:00,,no pil SPE
2012-04-28 09:00:00,,no pil SPE
2012-04-28 09:12:00,,no pil SPE
2012-04-28 09:24:00,,no pil SPE
2012-04-28 09:36:00,,no pil SPE
2012-04-28 09:48:00,,no pil SPE
2012-04-28 10:00:00,,no pil SPE
2012-04-28 10:12:00,,no pil SPE
2012-04-28 10:24:00,,no pil SPE
2012-04-28 10:36:00,,no pil SPE
2012-04-28 10:48:00,,no pil SPE
2012-04-28 11:00:00,,no pil SPE
2012-04-28 11:12:00,,no pil SPE
2012-04-28 11:24:00,,no pil SPE
2012-04-28 11:36:00,,no pil SPE
2012-04-28 11:48:00,,no pil SPE
2012-04-28 12:00:00,,no pil SPE
