,num_PILs,sum_PIL_length,sum_RoPI_Area,sum_mag_field_strength,fra_dim,eige_vals,convexity,Hu1,Hu2,Hu3,Hu4,Hu5,Hu6,Hu7,patch_shape,detection_flag
2011-10-04 20:00:00,0,nan,nan,nan,nan,"(nan, nan)",nan,nan,nan,nan,nan,nan,nan,nan,"(47, 101)",no pil E/W
2011-10-04 20:12:00,0,nan,nan,nan,nan,"(nan, nan)",nan,nan,nan,nan,nan,nan,nan,nan,"(47, 101)",no pil E/W
2011-10-04 20:24:00,0,nan,nan,nan,nan,"(nan, nan)",nan,nan,nan,nan,nan,nan,nan,nan,"(47, 101)",no pil E/W
2011-10-04 20:36:00,0,nan,nan,nan,nan,"(nan, nan)",nan,nan,nan,nan,nan,nan,nan,nan,"(47, 101)",no pil E/W
2011-10-04 20:48:00,0,nan,nan,nan,nan,"(nan, nan)",nan,nan,nan,nan,nan,nan,nan,nan,"(47, 101)",no pil E/W
2011-10-04 21:00:00,0,nan,nan,nan,nan,"(nan, nan)",nan,nan,nan,nan,nan,nan,nan,nan,"(47, 101)",no pil E/W
2011-10-04 21:12:00,0,nan,nan,nan,nan,"(nan, nan)",nan,nan,nan,nan,nan,nan,nan,nan,"(47, 101)",no pil E/W
2011-10-04 21:24:00,0,nan,nan,nan,nan,"(nan, nan)",nan,nan,nan,nan,nan,nan,nan,nan,"(47, 101)",no pil E/W
2011-10-04 21:36:00,0,nan,nan,nan,nan,"(nan, nan)",nan,nan,nan,nan,nan,nan,nan,nan,"(47, 101)",no pil E/W
2011-10-04 21:48:00,0,nan,nan,nan,nan,"(nan, nan)",nan,nan,nan,nan,nan,nan,nan,nan,"(47, 101)",no pil E/W
2011-10-04 22:00:00,0,nan,nan,nan,nan,"(nan, nan)",nan,nan,nan,nan,nan,nan,nan,nan,"(47, 101)",no pil E/W
2011-10-04 22:12:00,0,nan,nan,nan,nan,"(nan, nan)",nan,nan,nan,nan,nan,nan,nan,nan,"(47, 101)",no pil E/W
2011-10-04 22:24:00,0,nan,nan,nan,nan,"(nan, nan)",nan,nan,nan,nan,nan,nan,nan,nan,"(47, 101)",no pil E/W
2011-10-04 22:36:00,0,nan,nan,nan,nan,"(nan, nan)",nan,nan,nan,nan,nan,nan,nan,nan,"(47, 101)",no pil E/W
2011-10-04 22:48:00,0,nan,nan,nan,nan,"(nan, nan)",nan,nan,nan,nan,nan,nan,nan,nan,"(47, 101)",no pil E/W
2011-10-04 23:00:00,0,nan,nan,nan,nan,"(nan, nan)",nan,nan,nan,nan,nan,nan,nan,nan,"(47, 101)",no pil E/W
2011-10-04 23:12:00,0,nan,nan,nan,nan,"(nan, nan)",nan,nan,nan,nan,nan,nan,nan,nan,"(47, 101)",no pil E/W
2011-10-04 23:24:00,0,nan,nan,nan,nan,"(nan, nan)",nan,nan,nan,nan,nan,nan,nan,nan,"(47, 101)",no pil E/W
2011-10-04 23:36:00,0,nan,nan,nan,nan,"(nan, nan)",nan,nan,nan,nan,nan,nan,nan,nan,"(47, 101)",no pil E/W
2011-10-04 23:48:00,0,nan,nan,nan,nan,"(nan, nan)",nan,nan,nan,nan,nan,nan,nan,nan,"(47, 101)",no pil E/W
2011-10-05 00:00:00,0,nan,nan,nan,nan,"(nan, nan)",nan,nan,nan,nan,nan,nan,nan,nan,"(47, 101)",no pil E/W
2011-10-05 00:12:00,0,nan,nan,nan,nan,"(nan, nan)",nan,nan,nan,nan,nan,nan,nan,nan,"(47, 101)",no pil E/W
2011-10-05 00:24:00,0,nan,nan,nan,nan,"(nan, nan)",nan,nan,nan,nan,nan,nan,nan,nan,"(47, 101)",no pil E/W
2011-10-05 00:36:00,0,nan,nan,nan,nan,"(nan, nan)",nan,nan,nan,nan,nan,nan,nan,nan,"(47, 101)",no pil E/W
2011-10-05 00:48:00,0,nan,nan,nan,nan,"(nan, nan)",nan,nan,nan,nan,nan,nan,nan,nan,"(47, 101)",no pil E/W
2011-10-05 01:00:00,0,nan,nan,nan,nan,"(nan, nan)",nan,nan,nan,nan,nan,nan,nan,nan,"(47, 101)",no pil E/W
2011-10-05 01:12:00,0,nan,nan,nan,nan,"(nan, nan)",nan,nan,nan,nan,nan,nan,nan,nan,"(47, 101)",no pil E/W
2011-10-05 01:24:00,0,nan,nan,nan,nan,"(nan, nan)",nan,nan,nan,nan,nan,nan,nan,nan,"(47, 101)",no pil E/W
2011-10-05 01:48:00,0,nan,nan,nan,nan,"(nan, nan)",nan,nan,nan,nan,nan,nan,nan,nan,"(47, 101)",no pil E/W
2011-10-05 02:00:00,0,nan,nan,nan,nan,"(nan, nan)",nan,nan,nan,nan,nan,nan,nan,nan,"(47, 101)",no pil E/W
2011-10-05 03:12:00,0,nan,nan,nan,nan,"(nan, nan)",nan,nan,nan,nan,nan,nan,nan,nan,"(47, 101)",no pil E/W
2011-10-05 03:24:00,0,nan,nan,nan,nan,"(nan, nan)",nan,nan,nan,nan,nan,nan,nan,nan,"(47, 101)",no pil E/W
2011-10-05 03:36:00,0,nan,nan,nan,nan,"(nan, nan)",nan,nan,nan,nan,nan,nan,nan,nan,"(47, 101)",no pil E/W
2011-10-05 03:48:00,0,nan,nan,nan,nan,"(nan, nan)",nan,nan,nan,nan,nan,nan,nan,nan,"(47, 101)",no pil E/W
2011-10-05 04:00:00,0,nan,nan,nan,nan,"(nan, nan)",nan,nan,nan,nan,nan,nan,nan,nan,"(47, 101)",no pil E/W
2011-10-05 04:12:00,0,nan,nan,nan,nan,"(nan, nan)",nan,nan,nan,nan,nan,nan,nan,nan,"(47, 101)",no pil E/W
2011-10-05 04:24:00,0,nan,nan,nan,nan,"(nan, nan)",nan,nan,nan,nan,nan,nan,nan,nan,"(47, 101)",no pil E/W
2011-10-05 04:36:00,0,nan,nan,nan,nan,"(nan, nan)",nan,nan,nan,nan,nan,nan,nan,nan,"(47, 101)",no pil E/W
2011-10-05 04:48:00,0,nan,nan,nan,nan,"(nan, nan)",nan,nan,nan,nan,nan,nan,nan,nan,"(47, 101)",no pil E/W
2011-10-05 05:00:00,0,nan,nan,nan,nan,"(nan, nan)",nan,nan,nan,nan,nan,nan,nan,nan,"(47, 101)",no pil E/W
2011-10-05 05:24:00,0,nan,nan,nan,nan,"(nan, nan)",nan,nan,nan,nan,nan,nan,nan,nan,"(47, 101)",no pil E/W
2011-10-05 05:36:00,0,nan,nan,nan,nan,"(nan, nan)",nan,nan,nan,nan,nan,nan,nan,nan,"(47, 101)",no pil E/W
2011-10-05 06:00:00,0,nan,nan,nan,nan,"(nan, nan)",nan,nan,nan,nan,nan,nan,nan,nan,"(47, 101)",no pil E/W
2011-10-05 06:12:00,0,nan,nan,nan,nan,"(nan, nan)",nan,nan,nan,nan,nan,nan,nan,nan,"(47, 101)",no pil E/W
2011-10-05 06:24:00,0,nan,nan,nan,nan,"(nan, nan)",nan,nan,nan,nan,nan,nan,nan,nan,"(47, 101)",no pil E/W
2011-10-05 06:36:00,0,nan,nan,nan,nan,"(nan, nan)",nan,nan,nan,nan,nan,nan,nan,nan,"(47, 101)",no pil E/W
2011-10-05 06:48:00,0,nan,nan,nan,nan,"(nan, nan)",nan,nan,nan,nan,nan,nan,nan,nan,"(47, 101)",no pil E/W
2011-10-05 07:00:00,0,nan,nan,nan,nan,"(nan, nan)",nan,nan,nan,nan,nan,nan,nan,nan,"(47, 101)",no pil E/W
2011-10-05 07:12:00,0,nan,nan,nan,nan,"(nan, nan)",nan,nan,nan,nan,nan,nan,nan,nan,"(47, 101)",no pil E/W
2011-10-05 07:24:00,0,nan,nan,nan,nan,"(nan, nan)",nan,nan,nan,nan,nan,nan,nan,nan,"(47, 101)",no pil E/W
2011-10-05 07:36:00,0,nan,nan,nan,nan,"(nan, nan)",nan,nan,nan,nan,nan,nan,nan,nan,"(47, 101)",no pil E/W
2011-10-05 07:48:00,0,nan,nan,nan,nan,"(nan, nan)",nan,nan,nan,nan,nan,nan,nan,nan,"(47, 101)",no pil E/W
2011-10-05 08:00:00,0,nan,nan,nan,nan,"(nan, nan)",nan,nan,nan,nan,nan,nan,nan,nan,"(47, 101)",no pil E/W
2011-10-05 08:12:00,0,nan,nan,nan,nan,"(nan, nan)",nan,nan,nan,nan,nan,nan,nan,nan,"(47, 101)",no pil E/W
2011-10-05 08:24:00,0,nan,nan,nan,nan,"(nan, nan)",nan,nan,nan,nan,nan,nan,nan,nan,"(47, 101)",no pil E/W
2011-10-05 08:36:00,0,nan,nan,nan,nan,"(nan, nan)",nan,nan,nan,nan,nan,nan,nan,nan,"(47, 101)",no pil E/W
2011-10-05 08:48:00,0,nan,nan,nan,nan,"(nan, nan)",nan,nan,nan,nan,nan,nan,nan,nan,"(47, 101)",no pil E/W
2011-10-05 09:00:00,0,nan,nan,nan,nan,"(nan, nan)",nan,nan,nan,nan,nan,nan,nan,nan,"(47, 101)",no pil E/W
2011-10-05 09:12:00,0,nan,nan,nan,nan,"(nan, nan)",nan,nan,nan,nan,nan,nan,nan,nan,"(47, 101)",no pil E/W
2011-10-05 09:24:00,0,nan,nan,nan,nan,"(nan, nan)",nan,nan,nan,nan,nan,nan,nan,nan,"(47, 101)",no pil E/W
2011-10-05 09:36:00,0,nan,nan,nan,nan,"(nan, nan)",nan,nan,nan,nan,nan,nan,nan,nan,"(47, 101)",no pil E/W
2011-10-05 09:48:00,0,nan,nan,nan,nan,"(nan, nan)",nan,nan,nan,nan,nan,nan,nan,nan,"(47, 101)",no pil E/W
2011-10-05 10:00:00,0,nan,nan,nan,nan,"(nan, nan)",nan,nan,nan,nan,nan,nan,nan,nan,"(47, 101)",no pil E/W
2011-10-05 10:12:00,0,nan,nan,nan,nan,"(nan, nan)",nan,nan,nan,nan,nan,nan,nan,nan,"(47, 101)",no pil E/W
2011-10-05 10:24:00,0,nan,nan,nan,nan,"(nan, nan)",nan,nan,nan,nan,nan,nan,nan,nan,"(47, 101)",no pil E/W
2011-10-05 10:36:00,0,nan,nan,nan,nan,"(nan, nan)",nan,nan,nan,nan,nan,nan,nan,nan,"(47, 101)",no pil E/W
2011-10-05 10:48:00,0,nan,nan,nan,nan,"(nan, nan)",nan,nan,nan,nan,nan,nan,nan,nan,"(47, 101)",no pil E/W
2011-10-05 11:12:00,0,nan,nan,nan,nan,"(nan, nan)",nan,nan,nan,nan,nan,nan,nan,nan,"(47, 101)",no pil E/W
2011-10-05 11:36:00,0,nan,nan,nan,nan,"(nan, nan)",nan,nan,nan,nan,nan,nan,nan,nan,"(47, 101)",no pil E/W
2011-10-05 11:48:00,0,nan,nan,nan,nan,"(nan, nan)",nan,nan,nan,nan,nan,nan,nan,nan,"(47, 101)",no pil E/W
2011-10-05 12:00:00,0,nan,nan,nan,nan,"(nan, nan)",nan,nan,nan,nan,nan,nan,nan,nan,"(47, 101)",no pil E/W
2011-10-05 12:12:00,0,nan,nan,nan,nan,"(nan, nan)",nan,nan,nan,nan,nan,nan,nan,nan,"(47, 101)",no pil E/W
2011-10-05 12:24:00,0,nan,nan,nan,nan,"(nan, nan)",nan,nan,nan,nan,nan,nan,nan,nan,"(47, 101)",no pil E/W
2011-10-05 12:36:00,0,nan,nan,nan,nan,"(nan, nan)",nan,nan,nan,nan,nan,nan,nan,nan,"(47, 101)",no pil E/W
2011-10-05 12:48:00,0,nan,nan,nan,nan,"(nan, nan)",nan,nan,nan,nan,nan,nan,nan,nan,"(47, 101)",no pil E/W
2011-10-05 13:00:00,0,nan,nan,nan,nan,"(nan, nan)",nan,nan,nan,nan,nan,nan,nan,nan,"(47, 101)",no pil E/W
2011-10-05 13:12:00,0,nan,nan,nan,nan,"(nan, nan)",nan,nan,nan,nan,nan,nan,nan,nan,"(47, 101)",no pil E/W
2011-10-05 13:24:00,0,nan,nan,nan,nan,"(nan, nan)",nan,nan,nan,nan,nan,nan,nan,nan,"(47, 101)",no pil E/W
2011-10-05 13:48:00,0,nan,nan,nan,nan,"(nan, nan)",nan,nan,nan,nan,nan,nan,nan,nan,"(47, 101)",no pil E/W
2011-10-05 14:00:00,0,nan,nan,nan,nan,"(nan, nan)",nan,nan,nan,nan,nan,nan,nan,nan,"(47, 101)",no pil E/W
2011-10-05 14:12:00,0,nan,nan,nan,nan,"(nan, nan)",nan,nan,nan,nan,nan,nan,nan,nan,"(47, 101)",no pil E/W
2011-10-05 14:24:00,0,nan,nan,nan,nan,"(nan, nan)",nan,nan,nan,nan,nan,nan,nan,nan,"(47, 101)",no pil E/W
2011-10-05 15:00:00,0,nan,nan,nan,nan,"(nan, nan)",nan,nan,nan,nan,nan,nan,nan,nan,"(47, 101)",no pil E/W
2011-10-05 15:12:00,0,nan,nan,nan,nan,"(nan, nan)",nan,nan,nan,nan,nan,nan,nan,nan,"(47, 101)",no pil E/W
