,num_PILs,sum_PIL_length,sum_RoPI_Area,sum_mag_field_strength,fra_dim,eige_vals,convexity,Hu1,Hu2,Hu3,Hu4,Hu5,Hu6,Hu7,patch_shape,detection_flag
2012-05-31 02:00:00,0,nan,nan,nan,nan,"(nan, nan)",nan,nan,nan,nan,nan,nan,nan,nan,"(87, 199)",no pil E/W
2012-05-31 02:12:00,0,nan,nan,nan,nan,"(nan, nan)",nan,nan,nan,nan,nan,nan,nan,nan,"(87, 199)",no pil E/W
2012-05-31 02:24:00,0,nan,nan,nan,nan,"(nan, nan)",nan,nan,nan,nan,nan,nan,nan,nan,"(87, 199)",no pil E/W
2012-05-31 02:36:00,0,nan,nan,nan,nan,"(nan, nan)",nan,nan,nan,nan,nan,nan,nan,nan,"(87, 199)",no pil E/W
2012-05-31 02:48:00,0,nan,nan,nan,nan,"(nan, nan)",nan,nan,nan,nan,nan,nan,nan,nan,"(87, 199)",no pil E/W
2012-05-31 03:00:00,0,nan,nan,nan,nan,"(nan, nan)",nan,nan,nan,nan,nan,nan,nan,nan,"(87, 199)",no pil E/W
2012-05-31 03:12:00,0,nan,nan,nan,nan,"(nan, nan)",nan,nan,nan,nan,nan,nan,nan,nan,"(87, 199)",no pil E/W
2012-05-31 03:24:00,0,nan,nan,nan,nan,"(nan, nan)",nan,nan,nan,nan,nan,nan,nan,nan,"(87, 199)",no pil E/W
2012-05-31 03:36:00,0,nan,nan,nan,nan,"(nan, nan)",nan,nan,nan,nan,nan,nan,nan,nan,"(87, 199)",no pil E/W
2012-05-31 03:48:00,0,nan,nan,nan,nan,"(nan, nan)",nan,nan,nan,nan,nan,nan,nan,nan,"(87, 199)",no pil E/W
2012-05-31 04:00:00,0,nan,nan,nan,nan,"(nan, nan)",nan,nan,nan,nan,nan,nan,nan,nan,"(87, 199)",no pil E/W
2012-05-31 04:12:00,0,nan,nan,nan,nan,"(nan, nan)",nan,nan,nan,nan,nan,nan,nan,nan,"(87, 199)",no pil E/W
2012-05-31 04:24:00,0,nan,nan,nan,nan,"(nan, nan)",nan,nan,nan,nan,nan,nan,nan,nan,"(87, 199)",no pil E/W
2012-05-31 04:36:00,0,nan,nan,nan,nan,"(nan, nan)",nan,nan,nan,nan,nan,nan,nan,nan,"(87, 199)",no pil E/W
2012-05-31 04:48:00,0,nan,nan,nan,nan,"(nan, nan)",nan,nan,nan,nan,nan,nan,nan,nan,"(87, 199)",no pil E/W
2012-05-31 05:00:00,0,nan,nan,nan,nan,"(nan, nan)",nan,nan,nan,nan,nan,nan,nan,nan,"(87, 199)",no pil E/W
2012-05-31 05:12:00,0,nan,nan,nan,nan,"(nan, nan)",nan,nan,nan,nan,nan,nan,nan,nan,"(87, 199)",no pil E/W
2012-05-31 05:24:00,0,nan,nan,nan,nan,"(nan, nan)",nan,nan,nan,nan,nan,nan,nan,nan,"(87, 199)",no pil E/W
2012-05-31 05:36:00,0,nan,nan,nan,nan,"(nan, nan)",nan,nan,nan,nan,nan,nan,nan,nan,"(87, 199)",no pil E/W
2012-05-31 05:48:00,0,nan,nan,nan,nan,"(nan, nan)",nan,nan,nan,nan,nan,nan,nan,nan,"(87, 199)",no pil E/W
2012-05-31 06:00:00,0,nan,nan,nan,nan,"(nan, nan)",nan,nan,nan,nan,nan,nan,nan,nan,"(87, 199)",no pil E/W
2012-05-31 06:12:00,0,nan,nan,nan,nan,"(nan, nan)",nan,nan,nan,nan,nan,nan,nan,nan,"(87, 199)",no pil E/W
2012-05-31 06:24:00,0,nan,nan,nan,nan,"(nan, nan)",nan,nan,nan,nan,nan,nan,nan,nan,"(87, 199)",no pil E/W
2012-05-31 06:36:00,0,nan,nan,nan,nan,"(nan, nan)",nan,nan,nan,nan,nan,nan,nan,nan,"(87, 199)",no pil E/W
2012-05-31 06:48:00,0,nan,nan,nan,nan,"(nan, nan)",nan,nan,nan,nan,nan,nan,nan,nan,"(87, 199)",no pil E/W
2012-05-31 07:00:00,0,nan,nan,nan,nan,"(nan, nan)",nan,nan,nan,nan,nan,nan,nan,nan,"(87, 199)",no pil E/W
2012-05-31 07:12:00,0,nan,nan,nan,nan,"(nan, nan)",nan,nan,nan,nan,nan,nan,nan,nan,"(87, 199)",no pil E/W
2012-05-31 07:24:00,0,nan,nan,nan,nan,"(nan, nan)",nan,nan,nan,nan,nan,nan,nan,nan,"(87, 199)",no pil E/W
2012-05-31 07:36:00,0,nan,nan,nan,nan,"(nan, nan)",nan,nan,nan,nan,nan,nan,nan,nan,"(87, 199)",no pil E/W
2012-05-31 07:48:00,0,nan,nan,nan,nan,"(nan, nan)",nan,nan,nan,nan,nan,nan,nan,nan,"(87, 199)",no pil E/W
2012-05-31 08:00:00,0,nan,nan,nan,nan,"(nan, nan)",nan,nan,nan,nan,nan,nan,nan,nan,"(87, 199)",no pil E/W
2012-05-31 08:12:00,0,nan,nan,nan,nan,"(nan, nan)",nan,nan,nan,nan,nan,nan,nan,nan,"(87, 199)",no pil E/W
2012-05-31 08:24:00,0,nan,nan,nan,nan,"(nan, nan)",nan,nan,nan,nan,nan,nan,nan,nan,"(87, 199)",no pil E/W
2012-05-31 08:36:00,0,nan,nan,nan,nan,"(nan, nan)",nan,nan,nan,nan,nan,nan,nan,nan,"(87, 199)",no pil E/W
2012-05-31 08:48:00,0,nan,nan,nan,nan,"(nan, nan)",nan,nan,nan,nan,nan,nan,nan,nan,"(87, 199)",no pil E/W
2012-05-31 09:00:00,0,nan,nan,nan,nan,"(nan, nan)",nan,nan,nan,nan,nan,nan,nan,nan,"(87, 199)",no pil E/W
2012-05-31 09:12:00,0,nan,nan,nan,nan,"(nan, nan)",nan,nan,nan,nan,nan,nan,nan,nan,"(87, 199)",no pil E/W
2012-05-31 09:24:00,0,nan,nan,nan,nan,"(nan, nan)",nan,nan,nan,nan,nan,nan,nan,nan,"(87, 199)",no pil E/W
2012-05-31 09:36:00,0,nan,nan,nan,nan,"(nan, nan)",nan,nan,nan,nan,nan,nan,nan,nan,"(87, 199)",no pil E/W
2012-05-31 09:48:00,0,nan,nan,nan,nan,"(nan, nan)",nan,nan,nan,nan,nan,nan,nan,nan,"(87, 199)",no pil E/W
2012-05-31 10:00:00,0,nan,nan,nan,nan,"(nan, nan)",nan,nan,nan,nan,nan,nan,nan,nan,"(87, 199)",no pil E/W
2012-05-31 10:12:00,0,nan,nan,nan,nan,"(nan, nan)",nan,nan,nan,nan,nan,nan,nan,nan,"(87, 199)",no pil E/W
2012-05-31 10:24:00,0,nan,nan,nan,nan,"(nan, nan)",nan,nan,nan,nan,nan,nan,nan,nan,"(87, 199)",no pil E/W
2012-05-31 10:36:00,0,nan,nan,nan,nan,"(nan, nan)",nan,nan,nan,nan,nan,nan,nan,nan,"(87, 199)",no pil E/W
2012-05-31 10:48:00,0,nan,nan,nan,nan,"(nan, nan)",nan,nan,nan,nan,nan,nan,nan,nan,"(87, 199)",no pil E/W
2012-05-31 11:00:00,0,nan,nan,nan,nan,"(nan, nan)",nan,nan,nan,nan,nan,nan,nan,nan,"(87, 199)",no pil E/W
2012-05-31 11:12:00,0,nan,nan,nan,nan,"(nan, nan)",nan,nan,nan,nan,nan,nan,nan,nan,"(87, 199)",no pil E/W
2012-05-31 11:24:00,0,nan,nan,nan,nan,"(nan, nan)",nan,nan,nan,nan,nan,nan,nan,nan,"(87, 199)",no pil E/W
2012-05-31 11:36:00,0,nan,nan,nan,nan,"(nan, nan)",nan,nan,nan,nan,nan,nan,nan,nan,"(87, 199)",no pil E/W
2012-05-31 11:48:00,0,nan,nan,nan,nan,"(nan, nan)",nan,nan,nan,nan,nan,nan,nan,nan,"(87, 199)",no pil E/W
2012-05-31 12:00:00,0,nan,nan,nan,nan,"(nan, nan)",nan,nan,nan,nan,nan,nan,nan,nan,"(87, 199)",no pil E/W
2012-05-31 12:12:00,0,nan,nan,nan,nan,"(nan, nan)",nan,nan,nan,nan,nan,nan,nan,nan,"(87, 199)",no pil E/W
2012-05-31 12:24:00,0,nan,nan,nan,nan,"(nan, nan)",nan,nan,nan,nan,nan,nan,nan,nan,"(87, 199)",no pil E/W
2012-05-31 12:36:00,0,nan,nan,nan,nan,"(nan, nan)",nan,nan,nan,nan,nan,nan,nan,nan,"(87, 199)",no pil E/W
2012-05-31 12:48:00,0,nan,nan,nan,nan,"(nan, nan)",nan,nan,nan,nan,nan,nan,nan,nan,"(87, 199)",no pil E/W
2012-05-31 13:00:00,0,nan,nan,nan,nan,"(nan, nan)",nan,nan,nan,nan,nan,nan,nan,nan,"(87, 199)",no pil E/W
2012-05-31 13:12:00,0,nan,nan,nan,nan,"(nan, nan)",nan,nan,nan,nan,nan,nan,nan,nan,"(87, 199)",no pil E/W
2012-05-31 13:24:00,0,nan,nan,nan,nan,"(nan, nan)",nan,nan,nan,nan,nan,nan,nan,nan,"(87, 199)",no pil E/W
2012-05-31 13:36:00,0,nan,nan,nan,nan,"(nan, nan)",nan,nan,nan,nan,nan,nan,nan,nan,"(87, 199)",no pil E/W
2012-05-31 13:48:00,0,nan,nan,nan,nan,"(nan, nan)",nan,nan,nan,nan,nan,nan,nan,nan,"(87, 199)",no pil E/W
2012-05-31 14:00:00,0,nan,nan,nan,nan,"(nan, nan)",nan,nan,nan,nan,nan,nan,nan,nan,"(87, 199)",no pil E/W
2012-05-31 14:12:00,0,nan,nan,nan,nan,"(nan, nan)",nan,nan,nan,nan,nan,nan,nan,nan,"(87, 199)",no pil E/W
2012-05-31 14:24:00,0,nan,nan,nan,nan,"(nan, nan)",nan,nan,nan,nan,nan,nan,nan,nan,"(87, 199)",no pil E/W
2012-05-31 14:36:00,0,nan,nan,nan,nan,"(nan, nan)",nan,nan,nan,nan,nan,nan,nan,nan,"(87, 199)",no pil E/W
2012-05-31 14:48:00,0,nan,nan,nan,nan,"(nan, nan)",nan,nan,nan,nan,nan,nan,nan,nan,"(87, 199)",no pil E/W
2012-05-31 15:36:00,0,nan,nan,nan,nan,"(nan, nan)",nan,nan,nan,nan,nan,nan,nan,nan,"(87, 199)",no pil E/W
2012-05-31 15:48:00,0,nan,nan,nan,nan,"(nan, nan)",nan,nan,nan,nan,nan,nan,nan,nan,"(87, 199)",no pil E/W
2012-05-31 16:00:00,0,nan,nan,nan,nan,"(nan, nan)",nan,nan,nan,nan,nan,nan,nan,nan,"(87, 199)",no pil E/W
2012-05-31 16:12:00,0,nan,nan,nan,nan,"(nan, nan)",nan,nan,nan,nan,nan,nan,nan,nan,"(87, 199)",no pil E/W
2012-05-31 16:24:00,0,nan,nan,nan,nan,"(nan, nan)",nan,nan,nan,nan,nan,nan,nan,nan,"(87, 199)",no pil E/W
2012-05-31 16:36:00,0,nan,nan,nan,nan,"(nan, nan)",nan,nan,nan,nan,nan,nan,nan,nan,"(87, 199)",no pil E/W
2012-05-31 16:48:00,0,nan,nan,nan,nan,"(nan, nan)",nan,nan,nan,nan,nan,nan,nan,nan,"(87, 199)",no pil E/W
2012-05-31 17:00:00,0,nan,nan,nan,nan,"(nan, nan)",nan,nan,nan,nan,nan,nan,nan,nan,"(87, 199)",no pil E/W
2012-05-31 17:12:00,0,nan,nan,nan,nan,"(nan, nan)",nan,nan,nan,nan,nan,nan,nan,nan,"(87, 199)",no pil E/W
2012-05-31 17:24:00,0,nan,nan,nan,nan,"(nan, nan)",nan,nan,nan,nan,nan,nan,nan,nan,"(87, 199)",no pil E/W
2012-05-31 17:36:00,0,nan,nan,nan,nan,"(nan, nan)",nan,nan,nan,nan,nan,nan,nan,nan,"(87, 199)",no pil E/W
2012-05-31 17:48:00,0,nan,nan,nan,nan,"(nan, nan)",nan,nan,nan,nan,nan,nan,nan,nan,"(87, 199)",no pil E/W
2012-05-31 18:00:00,0,nan,nan,nan,nan,"(nan, nan)",nan,nan,nan,nan,nan,nan,nan,nan,"(87, 199)",no pil E/W
2012-05-31 18:12:00,0,nan,nan,nan,nan,"(nan, nan)",nan,nan,nan,nan,nan,nan,nan,nan,"(87, 199)",no pil E/W
2012-05-31 18:24:00,0,nan,nan,nan,nan,"(nan, nan)",nan,nan,nan,nan,nan,nan,nan,nan,"(87, 199)",no pil E/W
2012-05-31 18:36:00,0,nan,nan,nan,nan,"(nan, nan)",nan,nan,nan,nan,nan,nan,nan,nan,"(87, 199)",no pil E/W
2012-05-31 18:48:00,0,nan,nan,nan,nan,"(nan, nan)",nan,nan,nan,nan,nan,nan,nan,nan,"(87, 199)",no pil E/W
2012-05-31 19:00:00,0,nan,nan,nan,nan,"(nan, nan)",nan,nan,nan,nan,nan,nan,nan,nan,"(87, 199)",no pil E/W
2012-05-31 19:12:00,0,nan,nan,nan,nan,"(nan, nan)",nan,nan,nan,nan,nan,nan,nan,nan,"(87, 199)",no pil E/W
2012-05-31 19:24:00,0,nan,nan,nan,nan,"(nan, nan)",nan,nan,nan,nan,nan,nan,nan,nan,"(87, 199)",no pil E/W
2012-05-31 19:36:00,0,nan,nan,nan,nan,"(nan, nan)",nan,nan,nan,nan,nan,nan,nan,nan,"(87, 199)",no pil E/W
2012-05-31 19:48:00,0,nan,nan,nan,nan,"(nan, nan)",nan,nan,nan,nan,nan,nan,nan,nan,"(87, 199)",no pil E/W
2012-05-31 20:00:00,0,nan,nan,nan,nan,"(nan, nan)",nan,nan,nan,nan,nan,nan,nan,nan,"(87, 199)",no pil E/W
2012-05-31 20:12:00,0,nan,nan,nan,nan,"(nan, nan)",nan,nan,nan,nan,nan,nan,nan,nan,"(87, 199)",no pil E/W
2012-05-31 20:24:00,0,nan,nan,nan,nan,"(nan, nan)",nan,nan,nan,nan,nan,nan,nan,nan,"(87, 199)",no pil E/W
2012-05-31 20:36:00,0,nan,nan,nan,nan,"(nan, nan)",nan,nan,nan,nan,nan,nan,nan,nan,"(87, 199)",no pil E/W
2012-05-31 20:48:00,0,nan,nan,nan,nan,"(nan, nan)",nan,nan,nan,nan,nan,nan,nan,nan,"(87, 199)",no pil E/W
2012-05-31 21:00:00,0,nan,nan,nan,nan,"(nan, nan)",nan,nan,nan,nan,nan,nan,nan,nan,"(87, 199)",no pil E/W
2012-05-31 21:12:00,0,nan,nan,nan,nan,"(nan, nan)",nan,nan,nan,nan,nan,nan,nan,nan,"(87, 199)",no pil E/W
2012-05-31 21:24:00,0,nan,nan,nan,nan,"(nan, nan)",nan,nan,nan,nan,nan,nan,nan,nan,"(87, 199)",no pil E/W
2012-05-31 21:36:00,0,nan,nan,nan,nan,"(nan, nan)",nan,nan,nan,nan,nan,nan,nan,nan,"(87, 199)",no pil E/W
2012-05-31 21:48:00,0,nan,nan,nan,nan,"(nan, nan)",nan,nan,nan,nan,nan,nan,nan,nan,"(87, 199)",no pil E/W
2012-05-31 22:00:00,0,nan,nan,nan,nan,"(nan, nan)",nan,nan,nan,nan,nan,nan,nan,nan,"(87, 199)",no pil E/W
2012-05-31 22:12:00,0,nan,nan,nan,nan,"(nan, nan)",nan,nan,nan,nan,nan,nan,nan,nan,"(87, 199)",no pil E/W
2012-05-31 22:24:00,0,nan,nan,nan,nan,"(nan, nan)",nan,nan,nan,nan,nan,nan,nan,nan,"(87, 199)",no pil E/W
2012-05-31 22:36:00,0,nan,nan,nan,nan,"(nan, nan)",nan,nan,nan,nan,nan,nan,nan,nan,"(87, 199)",no pil E/W
2012-05-31 22:48:00,0,nan,nan,nan,nan,"(nan, nan)",nan,nan,nan,nan,nan,nan,nan,nan,"(87, 199)",no pil E/W
2012-05-31 23:00:00,0,nan,nan,nan,nan,"(nan, nan)",nan,nan,nan,nan,nan,nan,nan,nan,"(87, 199)",no pil E/W
2012-05-31 23:12:00,0,nan,nan,nan,nan,"(nan, nan)",nan,nan,nan,nan,nan,nan,nan,nan,"(87, 199)",no pil E/W
2012-05-31 23:24:00,0,nan,nan,nan,nan,"(nan, nan)",nan,nan,nan,nan,nan,nan,nan,nan,"(87, 199)",no pil E/W
2012-05-31 23:36:00,0,nan,nan,nan,nan,"(nan, nan)",nan,nan,nan,nan,nan,nan,nan,nan,"(87, 199)",no pil E/W
2012-05-31 23:48:00,0,nan,nan,nan,nan,"(nan, nan)",nan,nan,nan,nan,nan,nan,nan,nan,"(87, 199)",no pil E/W
2012-06-01 00:00:00,0,nan,nan,nan,nan,"(nan, nan)",nan,nan,nan,nan,nan,nan,nan,nan,"(87, 199)",no pil E/W
2012-06-01 00:12:00,0,nan,nan,nan,nan,"(nan, nan)",nan,nan,nan,nan,nan,nan,nan,nan,"(87, 199)",no pil E/W
2012-06-01 00:24:00,0,nan,nan,nan,nan,"(nan, nan)",nan,nan,nan,nan,nan,nan,nan,nan,"(87, 199)",no pil E/W
2012-06-01 00:36:00,0,nan,nan,nan,nan,"(nan, nan)",nan,nan,nan,nan,nan,nan,nan,nan,"(87, 199)",no pil E/W
2012-06-01 00:48:00,0,nan,nan,nan,nan,"(nan, nan)",nan,nan,nan,nan,nan,nan,nan,nan,"(87, 199)",no pil E/W
2012-06-01 01:00:00,0,nan,nan,nan,nan,"(nan, nan)",nan,nan,nan,nan,nan,nan,nan,nan,"(87, 199)",no pil E/W
2012-06-01 01:12:00,0,nan,nan,nan,nan,"(nan, nan)",nan,nan,nan,nan,nan,nan,nan,nan,"(87, 199)",no pil E/W
2012-06-01 01:24:00,0,nan,nan,nan,nan,"(nan, nan)",nan,nan,nan,nan,nan,nan,nan,nan,"(87, 199)",no pil E/W
2012-06-01 01:36:00,0,nan,nan,nan,nan,"(nan, nan)",nan,nan,nan,nan,nan,nan,nan,nan,"(87, 199)",no pil E/W
2012-06-01 01:48:00,0,nan,nan,nan,nan,"(nan, nan)",nan,nan,nan,nan,nan,nan,nan,nan,"(87, 199)",no pil E/W
2012-06-01 02:00:00,0,nan,nan,nan,nan,"(nan, nan)",nan,nan,nan,nan,nan,nan,nan,nan,"(87, 199)",no pil E/W
2012-06-01 02:12:00,0,nan,nan,nan,nan,"(nan, nan)",nan,nan,nan,nan,nan,nan,nan,nan,"(87, 199)",no pil E/W
2012-06-01 02:24:00,0,nan,nan,nan,nan,"(nan, nan)",nan,nan,nan,nan,nan,nan,nan,nan,"(87, 199)",no pil E/W
2012-06-01 02:36:00,0,nan,nan,nan,nan,"(nan, nan)",nan,nan,nan,nan,nan,nan,nan,nan,"(87, 199)",no pil E/W
2012-06-01 02:48:00,0,nan,nan,nan,nan,"(nan, nan)",nan,nan,nan,nan,nan,nan,nan,nan,"(87, 199)",no pil E/W
2012-06-01 03:00:00,0,nan,nan,nan,nan,"(nan, nan)",nan,nan,nan,nan,nan,nan,nan,nan,"(87, 199)",no pil E/W
2012-06-01 03:12:00,0,nan,nan,nan,nan,"(nan, nan)",nan,nan,nan,nan,nan,nan,nan,nan,"(87, 199)",no pil E/W
2012-06-01 03:24:00,0,nan,nan,nan,nan,"(nan, nan)",nan,nan,nan,nan,nan,nan,nan,nan,"(87, 199)",no pil E/W
2012-06-01 03:36:00,0,nan,nan,nan,nan,"(nan, nan)",nan,nan,nan,nan,nan,nan,nan,nan,"(87, 199)",no pil E/W
2012-06-01 03:48:00,0,nan,nan,nan,nan,"(nan, nan)",nan,nan,nan,nan,nan,nan,nan,nan,"(87, 199)",no pil E/W
2012-06-01 04:00:00,0,nan,nan,nan,nan,"(nan, nan)",nan,nan,nan,nan,nan,nan,nan,nan,"(87, 199)",no pil E/W
2012-06-01 04:12:00,0,nan,nan,nan,nan,"(nan, nan)",nan,nan,nan,nan,nan,nan,nan,nan,"(87, 199)",no pil E/W
2012-06-01 04:24:00,0,nan,nan,nan,nan,"(nan, nan)",nan,nan,nan,nan,nan,nan,nan,nan,"(87, 199)",no pil E/W
2012-06-01 04:36:00,0,nan,nan,nan,nan,"(nan, nan)",nan,nan,nan,nan,nan,nan,nan,nan,"(87, 199)",no pil E/W
2012-06-01 04:48:00,0,nan,nan,nan,nan,"(nan, nan)",nan,nan,nan,nan,nan,nan,nan,nan,"(87, 199)",no pil E/W
2012-06-01 05:00:00,0,nan,nan,nan,nan,"(nan, nan)",nan,nan,nan,nan,nan,nan,nan,nan,"(87, 199)",no pil E/W
2012-06-01 05:12:00,0,nan,nan,nan,nan,"(nan, nan)",nan,nan,nan,nan,nan,nan,nan,nan,"(87, 199)",no pil E/W
2012-06-01 05:24:00,0,nan,nan,nan,nan,"(nan, nan)",nan,nan,nan,nan,nan,nan,nan,nan,"(87, 199)",no pil E/W
2012-06-01 05:36:00,0,nan,nan,nan,nan,"(nan, nan)",nan,nan,nan,nan,nan,nan,nan,nan,"(87, 199)",no pil E/W
2012-06-01 05:48:00,0,nan,nan,nan,nan,"(nan, nan)",nan,nan,nan,nan,nan,nan,nan,nan,"(87, 199)",no pil E/W
2012-06-01 06:00:00,0,nan,nan,nan,nan,"(nan, nan)",nan,nan,nan,nan,nan,nan,nan,nan,"(87, 199)",no pil E/W
2012-06-01 06:12:00,0,nan,nan,nan,nan,"(nan, nan)",nan,nan,nan,nan,nan,nan,nan,nan,"(87, 199)",no pil E/W
2012-06-01 06:24:00,0,nan,nan,nan,nan,"(nan, nan)",nan,nan,nan,nan,nan,nan,nan,nan,"(87, 199)",no pil E/W
2012-06-01 06:36:00,0,nan,nan,nan,nan,"(nan, nan)",nan,nan,nan,nan,nan,nan,nan,nan,"(87, 199)",no pil E/W
2012-06-01 06:48:00,0,nan,nan,nan,nan,"(nan, nan)",nan,nan,nan,nan,nan,nan,nan,nan,"(87, 199)",no pil E/W
2012-06-01 07:00:00,0,nan,nan,nan,nan,"(nan, nan)",nan,nan,nan,nan,nan,nan,nan,nan,"(87, 199)",no pil E/W
2012-06-01 07:12:00,0,nan,nan,nan,nan,"(nan, nan)",nan,nan,nan,nan,nan,nan,nan,nan,"(87, 199)",no pil E/W
2012-06-01 07:24:00,0,nan,nan,nan,nan,"(nan, nan)",nan,nan,nan,nan,nan,nan,nan,nan,"(87, 199)",no pil E/W
2012-06-01 07:36:00,0,nan,nan,nan,nan,"(nan, nan)",nan,nan,nan,nan,nan,nan,nan,nan,"(87, 199)",no pil E/W
2012-06-01 07:48:00,0,nan,nan,nan,nan,"(nan, nan)",nan,nan,nan,nan,nan,nan,nan,nan,"(87, 199)",no pil E/W
2012-06-01 08:00:00,0,nan,nan,nan,nan,"(nan, nan)",nan,nan,nan,nan,nan,nan,nan,nan,"(87, 199)",no pil E/W
2012-06-01 08:12:00,0,nan,nan,nan,nan,"(nan, nan)",nan,nan,nan,nan,nan,nan,nan,nan,"(87, 199)",no pil E/W
2012-06-01 08:24:00,0,nan,nan,nan,nan,"(nan, nan)",nan,nan,nan,nan,nan,nan,nan,nan,"(87, 199)",no pil E/W
2012-06-01 08:36:00,0,nan,nan,nan,nan,"(nan, nan)",nan,nan,nan,nan,nan,nan,nan,nan,"(87, 199)",no pil E/W
2012-06-01 08:48:00,0,nan,nan,nan,nan,"(nan, nan)",nan,nan,nan,nan,nan,nan,nan,nan,"(87, 199)",no pil E/W
2012-06-01 09:00:00,0,nan,nan,nan,nan,"(nan, nan)",nan,nan,nan,nan,nan,nan,nan,nan,"(87, 199)",no pil E/W
2012-06-01 09:12:00,0,nan,nan,nan,nan,"(nan, nan)",nan,nan,nan,nan,nan,nan,nan,nan,"(87, 199)",no pil E/W
2012-06-01 09:24:00,0,nan,nan,nan,nan,"(nan, nan)",nan,nan,nan,nan,nan,nan,nan,nan,"(87, 199)",no pil E/W
2012-06-01 09:36:00,0,nan,nan,nan,nan,"(nan, nan)",nan,nan,nan,nan,nan,nan,nan,nan,"(87, 199)",no pil E/W
2012-06-01 09:48:00,0,nan,nan,nan,nan,"(nan, nan)",nan,nan,nan,nan,nan,nan,nan,nan,"(87, 199)",no pil E/W
2012-06-01 10:00:00,0,nan,nan,nan,nan,"(nan, nan)",nan,nan,nan,nan,nan,nan,nan,nan,"(87, 199)",no pil E/W
2012-06-01 10:12:00,0,nan,nan,nan,nan,"(nan, nan)",nan,nan,nan,nan,nan,nan,nan,nan,"(87, 199)",no pil E/W
2012-06-01 10:24:00,0,nan,nan,nan,nan,"(nan, nan)",nan,nan,nan,nan,nan,nan,nan,nan,"(87, 199)",no pil E/W
2012-06-01 10:36:00,0,nan,nan,nan,nan,"(nan, nan)",nan,nan,nan,nan,nan,nan,nan,nan,"(87, 199)",no pil E/W
2012-06-01 10:48:00,0,nan,nan,nan,nan,"(nan, nan)",nan,nan,nan,nan,nan,nan,nan,nan,"(87, 199)",no pil E/W
2012-06-01 11:00:00,0,nan,nan,nan,nan,"(nan, nan)",nan,nan,nan,nan,nan,nan,nan,nan,"(87, 199)",no pil E/W
2012-06-01 11:12:00,0,nan,nan,nan,nan,"(nan, nan)",nan,nan,nan,nan,nan,nan,nan,nan,"(87, 199)",no pil E/W
2012-06-01 11:24:00,0,nan,nan,nan,nan,"(nan, nan)",nan,nan,nan,nan,nan,nan,nan,nan,"(87, 199)",no pil E/W
2012-06-01 11:36:00,0,nan,nan,nan,nan,"(nan, nan)",nan,nan,nan,nan,nan,nan,nan,nan,"(87, 199)",no pil E/W
2012-06-01 11:48:00,0,nan,nan,nan,nan,"(nan, nan)",nan,nan,nan,nan,nan,nan,nan,nan,"(87, 199)",no pil E/W
2012-06-01 12:00:00,0,nan,nan,nan,nan,"(nan, nan)",nan,nan,nan,nan,nan,nan,nan,nan,"(87, 199)",no pil E/W
2012-06-01 12:12:00,0,nan,nan,nan,nan,"(nan, nan)",nan,nan,nan,nan,nan,nan,nan,nan,"(87, 199)",no pil E/W
2012-06-01 12:24:00,0,nan,nan,nan,nan,"(nan, nan)",nan,nan,nan,nan,nan,nan,nan,nan,"(87, 199)",no pil E/W
2012-06-01 12:36:00,0,nan,nan,nan,nan,"(nan, nan)",nan,nan,nan,nan,nan,nan,nan,nan,"(87, 199)",no pil E/W
2012-06-01 12:48:00,0,nan,nan,nan,nan,"(nan, nan)",nan,nan,nan,nan,nan,nan,nan,nan,"(87, 199)",no pil E/W
2012-06-01 13:00:00,0,nan,nan,nan,nan,"(nan, nan)",nan,nan,nan,nan,nan,nan,nan,nan,"(87, 199)",no pil E/W
2012-06-01 13:12:00,0,nan,nan,nan,nan,"(nan, nan)",nan,nan,nan,nan,nan,nan,nan,nan,"(87, 199)",no pil E/W
2012-06-01 13:24:00,0,nan,nan,nan,nan,"(nan, nan)",nan,nan,nan,nan,nan,nan,nan,nan,"(87, 199)",no pil E/W
2012-06-01 13:36:00,0,nan,nan,nan,nan,"(nan, nan)",nan,nan,nan,nan,nan,nan,nan,nan,"(87, 199)",no pil E/W
2012-06-01 13:48:00,0,nan,nan,nan,nan,"(nan, nan)",nan,nan,nan,nan,nan,nan,nan,nan,"(87, 199)",no pil E/W
2012-06-01 14:00:00,0,nan,nan,nan,nan,"(nan, nan)",nan,nan,nan,nan,nan,nan,nan,nan,"(87, 199)",no pil E/W
2012-06-01 14:12:00,0,nan,nan,nan,nan,"(nan, nan)",nan,nan,nan,nan,nan,nan,nan,nan,"(87, 199)",no pil E/W
2012-06-01 14:24:00,0,nan,nan,nan,nan,"(nan, nan)",nan,nan,nan,nan,nan,nan,nan,nan,"(87, 199)",no pil E/W
2012-06-01 14:36:00,0,nan,nan,nan,nan,"(nan, nan)",nan,nan,nan,nan,nan,nan,nan,nan,"(87, 199)",no pil E/W
2012-06-01 14:48:00,0,nan,nan,nan,nan,"(nan, nan)",nan,nan,nan,nan,nan,nan,nan,nan,"(87, 199)",no pil E/W
2012-06-01 15:00:00,0,nan,nan,nan,nan,"(nan, nan)",nan,nan,nan,nan,nan,nan,nan,nan,"(87, 199)",no pil E/W
2012-06-01 15:12:00,0,nan,nan,nan,nan,"(nan, nan)",nan,nan,nan,nan,nan,nan,nan,nan,"(87, 199)",no pil E/W
2012-06-01 15:24:00,0,nan,nan,nan,nan,"(nan, nan)",nan,nan,nan,nan,nan,nan,nan,nan,"(87, 199)",no pil E/W
2012-06-01 15:36:00,0,nan,nan,nan,nan,"(nan, nan)",nan,nan,nan,nan,nan,nan,nan,nan,"(87, 199)",no pil E/W
2012-06-01 15:48:00,0,nan,nan,nan,nan,"(nan, nan)",nan,nan,nan,nan,nan,nan,nan,nan,"(87, 199)",no pil E/W
2012-06-01 16:00:00,0,nan,nan,nan,nan,"(nan, nan)",nan,nan,nan,nan,nan,nan,nan,nan,"(87, 199)",no pil E/W
2012-06-01 16:12:00,0,nan,nan,nan,nan,"(nan, nan)",nan,nan,nan,nan,nan,nan,nan,nan,"(87, 199)",no pil E/W
2012-06-01 16:24:00,0,nan,nan,nan,nan,"(nan, nan)",nan,nan,nan,nan,nan,nan,nan,nan,"(87, 199)",no pil E/W
2012-06-01 16:36:00,0,nan,nan,nan,nan,"(nan, nan)",nan,nan,nan,nan,nan,nan,nan,nan,"(87, 199)",no pil E/W
2012-06-01 16:48:00,0,nan,nan,nan,nan,"(nan, nan)",nan,nan,nan,nan,nan,nan,nan,nan,"(87, 199)",no pil E/W
2012-06-01 17:00:00,0,nan,nan,nan,nan,"(nan, nan)",nan,nan,nan,nan,nan,nan,nan,nan,"(87, 199)",no pil E/W
2012-06-01 17:12:00,0,nan,nan,nan,nan,"(nan, nan)",nan,nan,nan,nan,nan,nan,nan,nan,"(87, 199)",no pil E/W
2012-06-01 17:24:00,0,nan,nan,nan,nan,"(nan, nan)",nan,nan,nan,nan,nan,nan,nan,nan,"(87, 199)",no pil E/W
2012-06-01 17:36:00,0,nan,nan,nan,nan,"(nan, nan)",nan,nan,nan,nan,nan,nan,nan,nan,"(87, 199)",no pil E/W
2012-06-01 17:48:00,0,nan,nan,nan,nan,"(nan, nan)",nan,nan,nan,nan,nan,nan,nan,nan,"(87, 199)",no pil E/W
2012-06-01 18:00:00,0,nan,nan,nan,nan,"(nan, nan)",nan,nan,nan,nan,nan,nan,nan,nan,"(87, 199)",no pil E/W
2012-06-01 18:12:00,0,nan,nan,nan,nan,"(nan, nan)",nan,nan,nan,nan,nan,nan,nan,nan,"(87, 199)",no pil E/W
2012-06-01 18:24:00,0,nan,nan,nan,nan,"(nan, nan)",nan,nan,nan,nan,nan,nan,nan,nan,"(87, 199)",no pil E/W
2012-06-01 18:36:00,0,nan,nan,nan,nan,"(nan, nan)",nan,nan,nan,nan,nan,nan,nan,nan,"(87, 199)",no pil E/W
2012-06-01 18:48:00,0,nan,nan,nan,nan,"(nan, nan)",nan,nan,nan,nan,nan,nan,nan,nan,"(87, 199)",no pil E/W
2012-06-01 19:00:00,0,nan,nan,nan,nan,"(nan, nan)",nan,nan,nan,nan,nan,nan,nan,nan,"(87, 199)",no pil E/W
2012-06-01 19:12:00,0,nan,nan,nan,nan,"(nan, nan)",nan,nan,nan,nan,nan,nan,nan,nan,"(87, 199)",no pil E/W
2012-06-01 19:24:00,0,nan,nan,nan,nan,"(nan, nan)",nan,nan,nan,nan,nan,nan,nan,nan,"(87, 199)",no pil E/W
2012-06-01 19:36:00,0,nan,nan,nan,nan,"(nan, nan)",nan,nan,nan,nan,nan,nan,nan,nan,"(87, 199)",no pil E/W
2012-06-01 19:48:00,0,nan,nan,nan,nan,"(nan, nan)",nan,nan,nan,nan,nan,nan,nan,nan,"(87, 199)",no pil E/W
2012-06-01 20:00:00,0,nan,nan,nan,nan,"(nan, nan)",nan,nan,nan,nan,nan,nan,nan,nan,"(87, 199)",no pil E/W
2012-06-01 20:12:00,0,nan,nan,nan,nan,"(nan, nan)",nan,nan,nan,nan,nan,nan,nan,nan,"(87, 199)",no pil E/W
2012-06-01 20:24:00,0,nan,nan,nan,nan,"(nan, nan)",nan,nan,nan,nan,nan,nan,nan,nan,"(87, 199)",no pil E/W
2012-06-01 20:36:00,0,nan,nan,nan,nan,"(nan, nan)",nan,nan,nan,nan,nan,nan,nan,nan,"(87, 199)",no pil E/W
2012-06-01 20:48:00,0,nan,nan,nan,nan,"(nan, nan)",nan,nan,nan,nan,nan,nan,nan,nan,"(87, 199)",no pil E/W
2012-06-01 21:00:00,0,nan,nan,nan,nan,"(nan, nan)",nan,nan,nan,nan,nan,nan,nan,nan,"(87, 199)",no pil E/W
2012-06-01 21:12:00,0,nan,nan,nan,nan,"(nan, nan)",nan,nan,nan,nan,nan,nan,nan,nan,"(87, 199)",no pil E/W
2012-06-01 21:24:00,0,nan,nan,nan,nan,"(nan, nan)",nan,nan,nan,nan,nan,nan,nan,nan,"(87, 199)",no pil E/W
2012-06-01 21:36:00,0,nan,nan,nan,nan,"(nan, nan)",nan,nan,nan,nan,nan,nan,nan,nan,"(87, 199)",no pil E/W
2012-06-01 21:48:00,0,nan,nan,nan,nan,"(nan, nan)",nan,nan,nan,nan,nan,nan,nan,nan,"(87, 199)",no pil E/W
2012-06-01 22:00:00,0,nan,nan,nan,nan,"(nan, nan)",nan,nan,nan,nan,nan,nan,nan,nan,"(87, 199)",no pil E/W
2012-06-01 22:12:00,0,nan,nan,nan,nan,"(nan, nan)",nan,nan,nan,nan,nan,nan,nan,nan,"(87, 199)",no pil E/W
2012-06-01 22:24:00,0,nan,nan,nan,nan,"(nan, nan)",nan,nan,nan,nan,nan,nan,nan,nan,"(87, 199)",no pil E/W
2012-06-01 22:36:00,0,nan,nan,nan,nan,"(nan, nan)",nan,nan,nan,nan,nan,nan,nan,nan,"(87, 199)",no pil E/W
2012-06-01 22:48:00,0,nan,nan,nan,nan,"(nan, nan)",nan,nan,nan,nan,nan,nan,nan,nan,"(87, 199)",no pil E/W
2012-06-01 23:00:00,0,nan,nan,nan,nan,"(nan, nan)",nan,nan,nan,nan,nan,nan,nan,nan,"(87, 199)",no pil E/W
2012-06-01 23:12:00,0,nan,nan,nan,nan,"(nan, nan)",nan,nan,nan,nan,nan,nan,nan,nan,"(87, 199)",no pil E/W
2012-06-01 23:24:00,0,nan,nan,nan,nan,"(nan, nan)",nan,nan,nan,nan,nan,nan,nan,nan,"(87, 199)",no pil E/W
2012-06-01 23:36:00,0,nan,nan,nan,nan,"(nan, nan)",nan,nan,nan,nan,nan,nan,nan,nan,"(87, 199)",no pil E/W
2012-06-01 23:48:00,0,nan,nan,nan,nan,"(nan, nan)",nan,nan,nan,nan,nan,nan,nan,nan,"(87, 199)",no pil E/W
2012-06-02 00:00:00,0,nan,nan,nan,nan,"(nan, nan)",nan,nan,nan,nan,nan,nan,nan,nan,"(87, 199)",no pil E/W
2012-06-02 00:12:00,0,nan,nan,nan,nan,"(nan, nan)",nan,nan,nan,nan,nan,nan,nan,nan,"(87, 199)",no pil E/W
2012-06-02 00:24:00,0,nan,nan,nan,nan,"(nan, nan)",nan,nan,nan,nan,nan,nan,nan,nan,"(87, 199)",no pil E/W
2012-06-02 00:36:00,0,nan,nan,nan,nan,"(nan, nan)",nan,nan,nan,nan,nan,nan,nan,nan,"(87, 199)",no pil E/W
2012-06-02 00:48:00,0,nan,nan,nan,nan,"(nan, nan)",nan,nan,nan,nan,nan,nan,nan,nan,"(87, 199)",no pil E/W
2012-06-02 01:00:00,0,nan,nan,nan,nan,"(nan, nan)",nan,nan,nan,nan,nan,nan,nan,nan,"(87, 199)",no pil E/W
2012-06-02 01:12:00,0,nan,nan,nan,nan,"(nan, nan)",nan,nan,nan,nan,nan,nan,nan,nan,"(87, 199)",no pil E/W
2012-06-02 01:24:00,0,nan,nan,nan,nan,"(nan, nan)",nan,nan,nan,nan,nan,nan,nan,nan,"(87, 199)",no pil E/W
2012-06-02 01:36:00,0,nan,nan,nan,nan,"(nan, nan)",nan,nan,nan,nan,nan,nan,nan,nan,"(87, 199)",no pil E/W
2012-06-02 01:48:00,0,nan,nan,nan,nan,"(nan, nan)",nan,nan,nan,nan,nan,nan,nan,nan,"(87, 199)",no pil E/W
2012-06-02 02:00:00,0,nan,nan,nan,nan,"(nan, nan)",nan,nan,nan,nan,nan,nan,nan,nan,"(87, 199)",no pil E/W
2012-06-02 02:12:00,0,nan,nan,nan,nan,"(nan, nan)",nan,nan,nan,nan,nan,nan,nan,nan,"(87, 199)",no pil E/W
2012-06-02 02:24:00,0,nan,nan,nan,nan,"(nan, nan)",nan,nan,nan,nan,nan,nan,nan,nan,"(87, 199)",no pil E/W
2012-06-02 02:36:00,0,nan,nan,nan,nan,"(nan, nan)",nan,nan,nan,nan,nan,nan,nan,nan,"(87, 199)",no pil E/W
2012-06-02 02:48:00,0,nan,nan,nan,nan,"(nan, nan)",nan,nan,nan,nan,nan,nan,nan,nan,"(87, 199)",no pil E/W
2012-06-02 03:00:00,0,nan,nan,nan,nan,"(nan, nan)",nan,nan,nan,nan,nan,nan,nan,nan,"(87, 199)",no pil E/W
2012-06-02 03:12:00,0,nan,nan,nan,nan,"(nan, nan)",nan,nan,nan,nan,nan,nan,nan,nan,"(87, 199)",no pil E/W
2012-06-02 03:24:00,0,nan,nan,nan,nan,"(nan, nan)",nan,nan,nan,nan,nan,nan,nan,nan,"(87, 199)",no pil E/W
2012-06-02 03:36:00,0,nan,nan,nan,nan,"(nan, nan)",nan,nan,nan,nan,nan,nan,nan,nan,"(87, 199)",no pil E/W
2012-06-02 03:48:00,0,nan,nan,nan,nan,"(nan, nan)",nan,nan,nan,nan,nan,nan,nan,nan,"(87, 199)",no pil E/W
2012-06-02 04:00:00,0,nan,nan,nan,nan,"(nan, nan)",nan,nan,nan,nan,nan,nan,nan,nan,"(87, 199)",no pil E/W
2012-06-02 04:12:00,0,nan,nan,nan,nan,"(nan, nan)",nan,nan,nan,nan,nan,nan,nan,nan,"(87, 199)",no pil E/W
2012-06-02 04:24:00,0,nan,nan,nan,nan,"(nan, nan)",nan,nan,nan,nan,nan,nan,nan,nan,"(87, 199)",no pil E/W
2012-06-02 04:36:00,0,nan,nan,nan,nan,"(nan, nan)",nan,nan,nan,nan,nan,nan,nan,nan,"(87, 199)",no pil E/W
2012-06-02 04:48:00,0,nan,nan,nan,nan,"(nan, nan)",nan,nan,nan,nan,nan,nan,nan,nan,"(87, 199)",no pil E/W
2012-06-02 05:00:00,0,nan,nan,nan,nan,"(nan, nan)",nan,nan,nan,nan,nan,nan,nan,nan,"(87, 199)",no pil E/W
2012-06-02 05:12:00,0,nan,nan,nan,nan,"(nan, nan)",nan,nan,nan,nan,nan,nan,nan,nan,"(87, 199)",no pil E/W
2012-06-02 05:24:00,0,nan,nan,nan,nan,"(nan, nan)",nan,nan,nan,nan,nan,nan,nan,nan,"(87, 199)",no pil E/W
2012-06-02 05:36:00,0,nan,nan,nan,nan,"(nan, nan)",nan,nan,nan,nan,nan,nan,nan,nan,"(87, 199)",no pil E/W
2012-06-02 05:48:00,0,nan,nan,nan,nan,"(nan, nan)",nan,nan,nan,nan,nan,nan,nan,nan,"(87, 199)",no pil E/W
2012-06-02 06:00:00,0,nan,nan,nan,nan,"(nan, nan)",nan,nan,nan,nan,nan,nan,nan,nan,"(87, 199)",no pil E/W
2012-06-02 06:12:00,0,nan,nan,nan,nan,"(nan, nan)",nan,nan,nan,nan,nan,nan,nan,nan,"(87, 199)",no pil E/W
2012-06-02 06:24:00,0,nan,nan,nan,nan,"(nan, nan)",nan,nan,nan,nan,nan,nan,nan,nan,"(87, 199)",no pil E/W
2012-06-02 06:36:00,0,nan,nan,nan,nan,"(nan, nan)",nan,nan,nan,nan,nan,nan,nan,nan,"(87, 199)",no pil E/W
2012-06-02 06:48:00,0,nan,nan,nan,nan,"(nan, nan)",nan,nan,nan,nan,nan,nan,nan,nan,"(87, 199)",no pil E/W
2012-06-02 07:00:00,0,nan,nan,nan,nan,"(nan, nan)",nan,nan,nan,nan,nan,nan,nan,nan,"(87, 199)",no pil E/W
2012-06-02 07:12:00,0,nan,nan,nan,nan,"(nan, nan)",nan,nan,nan,nan,nan,nan,nan,nan,"(87, 199)",no pil E/W
2012-06-02 07:24:00,0,nan,nan,nan,nan,"(nan, nan)",nan,nan,nan,nan,nan,nan,nan,nan,"(87, 199)",no pil E/W
2012-06-02 07:36:00,0,nan,nan,nan,nan,"(nan, nan)",nan,nan,nan,nan,nan,nan,nan,nan,"(87, 199)",no pil E/W
2012-06-02 07:48:00,0,nan,nan,nan,nan,"(nan, nan)",nan,nan,nan,nan,nan,nan,nan,nan,"(87, 199)",no pil E/W
2012-06-02 08:00:00,0,nan,nan,nan,nan,"(nan, nan)",nan,nan,nan,nan,nan,nan,nan,nan,"(87, 199)",no pil E/W
2012-06-02 08:12:00,0,nan,nan,nan,nan,"(nan, nan)",nan,nan,nan,nan,nan,nan,nan,nan,"(87, 199)",no pil E/W
2012-06-02 08:24:00,0,nan,nan,nan,nan,"(nan, nan)",nan,nan,nan,nan,nan,nan,nan,nan,"(87, 199)",no pil E/W
2012-06-02 08:36:00,0,nan,nan,nan,nan,"(nan, nan)",nan,nan,nan,nan,nan,nan,nan,nan,"(87, 199)",no pil E/W
2012-06-02 08:48:00,0,nan,nan,nan,nan,"(nan, nan)",nan,nan,nan,nan,nan,nan,nan,nan,"(87, 199)",no pil E/W
2012-06-02 09:00:00,0,nan,nan,nan,nan,"(nan, nan)",nan,nan,nan,nan,nan,nan,nan,nan,"(87, 199)",no pil E/W
2012-06-02 09:12:00,0,nan,nan,nan,nan,"(nan, nan)",nan,nan,nan,nan,nan,nan,nan,nan,"(87, 199)",no pil E/W
2012-06-02 09:24:00,0,nan,nan,nan,nan,"(nan, nan)",nan,nan,nan,nan,nan,nan,nan,nan,"(87, 199)",no pil E/W
2012-06-02 09:36:00,0,nan,nan,nan,nan,"(nan, nan)",nan,nan,nan,nan,nan,nan,nan,nan,"(87, 199)",no pil E/W
2012-06-02 09:48:00,0,nan,nan,nan,nan,"(nan, nan)",nan,nan,nan,nan,nan,nan,nan,nan,"(87, 199)",no pil E/W
2012-06-02 10:00:00,0,nan,nan,nan,nan,"(nan, nan)",nan,nan,nan,nan,nan,nan,nan,nan,"(87, 199)",no pil E/W
2012-06-02 10:12:00,0,nan,nan,nan,nan,"(nan, nan)",nan,nan,nan,nan,nan,nan,nan,nan,"(87, 199)",no pil E/W
2012-06-02 10:24:00,0,nan,nan,nan,nan,"(nan, nan)",nan,nan,nan,nan,nan,nan,nan,nan,"(87, 199)",no pil E/W
2012-06-02 10:36:00,0,nan,nan,nan,nan,"(nan, nan)",nan,nan,nan,nan,nan,nan,nan,nan,"(87, 199)",no pil E/W
2012-06-02 10:48:00,0,nan,nan,nan,nan,"(nan, nan)",nan,nan,nan,nan,nan,nan,nan,nan,"(87, 199)",no pil E/W
2012-06-02 11:00:00,0,nan,nan,nan,nan,"(nan, nan)",nan,nan,nan,nan,nan,nan,nan,nan,"(87, 199)",no pil E/W
2012-06-02 11:12:00,0,nan,nan,nan,nan,"(nan, nan)",nan,nan,nan,nan,nan,nan,nan,nan,"(87, 199)",no pil E/W
2012-06-02 11:24:00,0,nan,nan,nan,nan,"(nan, nan)",nan,nan,nan,nan,nan,nan,nan,nan,"(87, 199)",no pil E/W
2012-06-02 11:36:00,0,nan,nan,nan,nan,"(nan, nan)",nan,nan,nan,nan,nan,nan,nan,nan,"(87, 199)",no pil E/W
2012-06-02 11:48:00,0,nan,nan,nan,nan,"(nan, nan)",nan,nan,nan,nan,nan,nan,nan,nan,"(87, 199)",no pil E/W
2012-06-02 12:00:00,0,nan,nan,nan,nan,"(nan, nan)",nan,nan,nan,nan,nan,nan,nan,nan,"(87, 199)",no pil E/W
2012-06-02 12:12:00,0,nan,nan,nan,nan,"(nan, nan)",nan,nan,nan,nan,nan,nan,nan,nan,"(87, 199)",no pil E/W
2012-06-02 12:24:00,0,nan,nan,nan,nan,"(nan, nan)",nan,nan,nan,nan,nan,nan,nan,nan,"(87, 199)",no pil E/W
2012-06-02 12:36:00,0,nan,nan,nan,nan,"(nan, nan)",nan,nan,nan,nan,nan,nan,nan,nan,"(87, 199)",no pil E/W
2012-06-02 12:48:00,0,nan,nan,nan,nan,"(nan, nan)",nan,nan,nan,nan,nan,nan,nan,nan,"(87, 199)",no pil E/W
2012-06-02 13:00:00,0,nan,nan,nan,nan,"(nan, nan)",nan,nan,nan,nan,nan,nan,nan,nan,"(87, 199)",no pil E/W
2012-06-02 13:12:00,0,nan,nan,nan,nan,"(nan, nan)",nan,nan,nan,nan,nan,nan,nan,nan,"(87, 199)",no pil E/W
2012-06-02 13:24:00,0,nan,nan,nan,nan,"(nan, nan)",nan,nan,nan,nan,nan,nan,nan,nan,"(87, 199)",no pil E/W
2012-06-02 19:36:00,0,nan,nan,nan,nan,"(nan, nan)",nan,nan,nan,nan,nan,nan,nan,nan,"(87, 199)",no pil E/W
