,"num_PILs,sum_PIL_length,sum_RoPI_Area,sum_mag_field_strength,fra_dim,eige_vals,convexity,Hu1,Hu2,Hu3,Hu4,Hu5,Hu6,Hu7,patch_shape,detection_flag",detection_flag
2010-09-28 17:24:00,,no pil SPE
2010-09-28 17:36:00,,no pil SPE
2010-09-28 17:48:00,,no pil SPE
2010-09-28 19:00:00,,no pil SPE
2010-09-28 19:48:00,,no pil SPE
2010-09-28 21:00:00,,no pil SPE
2010-09-28 21:12:00,,no pil SPE
2010-09-28 21:24:00,,no pil SPE
2010-09-28 22:36:00,,no pil SPE
2010-09-28 22:48:00,,no pil SPE
2010-09-28 23:00:00,,no pil SPE
2010-09-28 23:12:00,,no pil SPE
2010-09-28 23:24:00,,no pil SPE
2010-09-28 23:36:00,,no pil SPE
2010-09-28 23:48:00,,no pil SPE
2010-09-29 00:00:00,,no pil SPE
2010-09-29 00:12:00,,no pil SPE
2010-09-29 00:24:00,,no pil SPE
2010-09-29 00:36:00,,no pil SPE
2010-09-29 00:48:00,,no pil SPE
2010-09-29 01:00:00,,no pil SPE
2010-09-29 01:12:00,,no pil SPE
2010-09-29 01:24:00,,no pil SPE
2010-09-29 01:36:00,,no pil SPE
2010-09-29 01:48:00,,no pil SPE
2010-09-29 02:00:00,,no pil SPE
2010-09-29 02:12:00,,no pil SPE
2010-09-29 02:24:00,,no pil SPE
2010-09-29 02:36:00,,no pil SPE
2010-09-29 02:48:00,,no pil SPE
2010-09-29 03:00:00,,no pil SPE
2010-09-29 03:12:00,,no pil SPE
2010-09-29 03:24:00,,no pil SPE
2010-09-29 03:36:00,,no pil SPE
2010-09-29 03:48:00,,no pil SPE
2010-09-29 04:00:00,,no pil SPE
2010-09-29 04:12:00,,no pil SPE
2010-09-29 04:24:00,,no pil SPE
2010-09-29 04:36:00,,no pil SPE
2010-09-29 04:48:00,,no pil SPE
2010-09-29 05:00:00,,no pil SPE
2010-09-29 05:12:00,,no pil SPE
2010-09-29 05:24:00,,no pil SPE
2010-09-29 05:36:00,,no pil SPE
2010-09-29 05:48:00,,no pil SPE
2010-09-29 07:36:00,,no pil SPE
2010-09-29 07:48:00,,no pil SPE
2010-09-29 08:00:00,,no pil SPE
2010-09-29 08:12:00,,no pil SPE
2010-09-29 08:24:00,,no pil SPE
2010-09-29 08:36:00,,no pil SPE
2010-09-29 08:48:00,,no pil SPE
2010-09-29 09:00:00,,no pil SPE
2010-09-29 09:12:00,,no pil SPE
2010-09-29 09:24:00,,no pil SPE
2010-09-29 09:48:00,,no pil SPE
2010-09-29 10:00:00,,no pil SPE
2010-09-29 10:12:00,,no pil SPE
2010-09-29 10:24:00,,no pil SPE
2010-09-29 10:36:00,,no pil SPE
2010-09-29 10:48:00,,no pil SPE
